商品コード,商品名,メインコメント,メインコメント詳細,検索ワード,ドレープ
TBC302AEO,アッシュ,遮光2級形状記憶付1.5倍ヒダカーテンです。,"しっとりとした生地厚とシャンタン調の表面感が、どんなお部屋にもマッチする無地調の1.5倍ヒダカーテンです。
遮光機能もついて安心してお使い頂けます。","無地,アイボリー,遮光,既製,形状記憶,1.5倍ヒダ,厚地カーテン",1
TBC302CEO,アッシュ,遮光2級形状記憶付1.5倍ヒダカーテンです。,"しっとりとした生地厚とシャンタン調の表面感が、どんなお部屋にもマッチする無地調の1.5倍ヒダカーテンです。
遮光機能もついて安心してお使い頂けます。","無地,グリーン,遮光,既製,形状記憶,1.5倍ヒダ,厚地カーテン",1
TBC302DEO,アッシュ,遮光2級形状記憶付1.5倍ヒダカーテンです。,"しっとりとした生地厚とシャンタン調の表面感が、どんなお部屋にもマッチする無地調の1.5倍ヒダカーテンです。
遮光機能もついて安心してお使い頂けます。","無地,ネイビー,遮光,既製,形状記憶,1.5倍ヒダ,厚地カーテン",1
TBC302BEO,アッシュ,遮光2級形状記憶付1.5倍ヒダカーテンです。,"しっとりとした生地厚とシャンタン調の表面感が、どんなお部屋にもマッチする無地調の1.5倍ヒダカーテンです。
遮光機能もついて安心してお使い頂けます。","無地,ベージュ,遮光,既製,形状記憶,1.5倍ヒダ,厚地カーテン",1
YUD318AEO,ウィッティー,遮光2級形状記憶付1.5倍ヒダカーテンです。,"白い雲とカモメの爽快な遮光2級1.5倍ヒダカーテンです。
子供部屋に安心してお使い頂けます。","カジュアル,ブルー,遮光,既製,形状記憶,1.5倍ヒダ,厚地カーテン",1
SFD304AEO,ウルク,遮光3級形状記憶付1.5倍ヒダカーテンです。,"表面に素材感のある無地調の遮光1.5倍ヒダカーテンです。
ナチュラル感のある商品です。 ","無地,アイボリー,遮光,既製,形状記憶,1.5倍ヒダ,厚地カーテン",1
SFD304DEO,ウルク,遮光3級形状記憶付1.5倍ヒダカーテンです。,"表面に素材感のある無地調の遮光1.5倍ヒダカーテンです。
ナチュラル感のある商品です。 ","無地,グリーン,遮光,既製,形状記憶,1.5倍ヒダ,厚地カーテン",1
SFD304CEO,ウルク,遮光3級形状記憶付1.5倍ヒダカーテンです。,"表面に素材感のある無地調の遮光1.5倍ヒダカーテンです。
ナチュラル感のある商品です。 ","無地,ブラウン,遮光,既製,形状記憶,1.5倍ヒダ,厚地カーテン",1
SFD304FEO,ウルク,遮光2級形状記憶付1.5倍ヒダカーテンです。,"表面に素材感のある無地調の遮光1.5倍ヒダカーテンです。
ナチュラル感のある商品です。 ","無地,ブラック,遮光,既製,形状記憶,1.5倍ヒダ,厚地カーテン",1
SFD304EEO,ウルク,遮光3級形状記憶付1.5倍ヒダカーテンです。,"表面に素材感のある無地調の遮光1.5倍ヒダカーテンです。
ナチュラル感のある商品です。 ","無地,ブルー,遮光,既製,形状記憶,1.5倍ヒダ,厚地カーテン",1
SFD304BEO,ウルク,遮光3級形状記憶付1.5倍ヒダカーテンです。,"表面に素材感のある無地調の遮光1.5倍ヒダカーテンです。
ナチュラル感のある商品です。 ","無地,ベージュ,遮光,既製,形状記憶,1.5倍ヒダ,厚地カーテン",1
MAD401AEO,エオンⅡ,遮光1級形状記憶付1.5倍ヒダカーテンです。,女性が好みのガーリーなモチーフを箔プリントで仕上げた1級遮光の1.5倍ヒダカーテンです。ペアレースのエオンレースと合わせてお使い下さい。,"カジュアル,アイボリー,遮光,既製,形状記憶,1.5倍ヒダ,厚地カーテン",1
MAD401BEO,エオンⅡ,遮光1級形状記憶付1.5倍ヒダカーテンです。,女性が好みのガーリーなモチーフを箔プリントで仕上げた1級遮光の1.5倍ヒダカーテンです。ペアレースのエオンレースと合わせてお使い下さい。,"カジュアル,ブルー,遮光,既製,形状記憶,1.5倍ヒダ,厚地カーテン",1
YUD321AEO,ガート,形状記憶付1.5倍ヒダカーテンです。,"表情が可愛く、お茶目なネコをモチーフにした子供部屋にお薦めのカジュアルな1.5倍ヒダカーテンです。
朝、お子様が自然の光で目覚められるように遮光機能をあえて外し、地厚な温かみのあるしっかりとした生地にプリントしました。
お部屋が明るく軽快なイメージに変わります。","カジュアル,ピンク,既製,形状記憶,1.5倍ヒダ",1
KMD402AEO,クリーパーⅡ,遮光1級形状記憶付1.5倍ヒダカーテンです。,モダンで大胆なエンボスをほどこした遮光1級の1.5倍ヒダカーテンです。,"モダン,ブラウン,遮光,既製,形状記憶,1.5倍ヒダ,厚地カーテン",1
KMD402BEO,クリーパーⅡ,遮光1級形状記憶付1.5倍ヒダカーテンです。,モダンで大胆なエンボスをほどこした遮光1級の1.5倍ヒダカーテンです。,"モダン,ブラック,遮光,既製,形状記憶,1.5倍ヒダ,厚地カーテン",1
YUD322BEO,クルサール,遮光3級形状記憶付1.5倍ヒダカーテンです。,"シンプルでスッキリとしたチェック柄の遮光1.5倍ヒダカーテンです。
カジュアルなお部屋にも、子供部屋にもお薦めです。 ","ナチュラル,ネイビー,遮光,既製,形状記憶,1.5倍ヒダ,厚地カーテン",1
YUD322AEO,クルサール,遮光3級形状記憶付1.5倍ヒダカーテンです。,"シンプルでスッキリとしたチェック柄の遮光1.5倍ヒダカーテンです。
カジュアルなお部屋にも、子供部屋にもお薦めです。 ","ナチュラル,ベージュ,遮光,既製,形状記憶,1.5倍ヒダ,厚地カーテン",1
SFD303BEO,スリジェⅡ,形状記憶付1.5倍ヒダカーテンです。,"フリーハンドタッチで可愛くお花をプリントしました。
生地に手持ち感があるので、安心してお使い頂けます。
箔プリントのキラキラ感も女子に人気の1.5倍ヒダカーテンです。","エレガント,アイボリー,既製,形状記憶,1.5倍ヒダ",1
SFD303AEO,スリジェⅡ,形状記憶付1.5倍ヒダカーテンです。,"フリーハンドタッチで可愛くお花をプリントしました。
生地に手持ち感があるので、安心してお使い頂けます。
箔プリントのキラキラ感も女子に人気の1.5倍ヒダカーテンです。","エレガント,ピンク,既製,形状記憶,1.5倍ヒダ",1
YUD323BEO,トルッコ,遮光3級形状記憶付1.5倍ヒダカーテンです。,"鏡や香水瓶、ロゴをポップなイラストで表現しました。
遮光機能付なので、女性のお部屋にも安心してお使い頂ける1.5倍ヒダカーテンです。 ","エレガント,グリーン,遮光,既製,形状記憶,1.5倍ヒダ,厚地カーテン",1
YUD323AEO,トルッコ,遮光3級形状記憶付1.5倍ヒダカーテンです。,"鏡や香水瓶、ロゴをポップなイラストで表現しました。
遮光機能付なので、女性のお部屋にも安心してお使い頂ける1.5倍ヒダカーテンです。 ","エレガント,ピンク,遮光,既製,形状記憶,1.5倍ヒダ,厚地カーテン",1
YUD320AEO,フォマージュ,遮光2級形状記憶付1.5倍ヒダカーテンです。,"スッキリと爽快で可愛らしく、ドットでサークルを構成しています。
幾何にもお花にも見えるカジュアルな雰囲気です。
イエローとブルーのシンプルなカラーリングは今流行の新しい雰囲気の北欧インテリアのイメージを作ってくれる1.5倍ヒダカーテンです。","カジュアル,イエロー,遮光,既製,形状記憶,1.5倍ヒダ,厚地カーテン",1
YUD315AEO,フリオ,遮光2級形状記憶付1.5倍ヒダカーテンです。,"自然の中にある草花をイラストタッチで描いたナチュラルな柄域の1.5倍ヒダカーテンです。
部分的に水彩風のアクセントを効かせ、瑞々しい印象に仕上げました。 ","エレガント,ピンク,遮光,既製,形状記憶,1.5倍ヒダ,厚地カーテン",1
YUD315BEO,フリオ,遮光2級形状記憶付1.5倍ヒダカーテンです。,"自然の中にある草花をイラストタッチで描いたナチュラルな柄域の1.5倍ヒダカーテンです。
部分的に水彩風のアクセントを効かせ、瑞々しい印象に仕上げました。 ","エレガント,ブルー,遮光,既製,形状記憶,1.5倍ヒダ,厚地カーテン",1
TBC303AEO,プレッソⅡ,遮光1級形状記憶付1.5倍ヒダカーテンです。,"箔プリントできらめく星柄のカーテンです。
子供部屋だけではなく、プライベートルームにもお使い頂ける遮光1級1.5倍ヒダカーテンです。 
ペアレースのプレッソレース2と合わせてお使いください。","カジュアル,ネイビー,遮光,既製,形状記憶,1.5倍ヒダ,厚地カーテン",1
TBC303BEO,プレッソⅡ,遮光1級形状記憶付1.5倍ヒダカーテンです。,"箔プリントできらめく星柄のカーテンです。
子供部屋だけではなく、プライベートルームにもお使い頂ける遮光1級1.5倍ヒダカーテンです。 ","カジュアル,ブラック,遮光,既製,形状記憶,1.5倍ヒダ,厚地カーテン",1
SCD307BEO,ポプシクル,遮光2級形状記憶付1.5倍ヒダカーテンです。,カジュアルな感覚で子供部屋に使って頂きたい遮光2級1.5倍ヒダカーテンです。,"無地,グリーン,遮光,既製,形状記憶,1.5倍ヒダ,厚地カーテン",1
SCD307CEO,ポプシクル,遮光2級形状記憶付1.5倍ヒダカーテンです。,カジュアルな感覚で子供部屋に使って頂きたい遮光2級1.5倍ヒダカーテンです。,"無地,ネイビー,遮光,既製,形状記憶,1.5倍ヒダ,厚地カーテン",1
SCD307AEO,ポプシクル,遮光2級形状記憶付1.5倍ヒダカーテンです。,カジュアルな感覚で子供部屋に使って頂きたい遮光2級1.5倍ヒダカーテンです。,"無地,ピンク,遮光,既製,形状記憶,1.5倍ヒダ,厚地カーテン",1
YUD419AEO,ポムⅡ,遮光2級形状記憶付1.5倍ヒダカーテンです。,"大胆に木のシルエットをプリントしました。
カラフルな葉っぱがとても楽しい雰囲気です。
北欧調のオシャレな遮光2級1.5倍ヒダカーテンです。 ","ナチュラル,オレンジ,遮光,既製,形状記憶,1.5倍ヒダ,厚地カーテン",1
YUD419BEO,ポムⅡ,遮光2級形状記憶付1.5倍ヒダカーテンです。,"大胆に木のシルエットをプリントしました。
カラフルな葉っぱがとても楽しい雰囲気です。
北欧調のオシャレな遮光2級1.5倍ヒダカーテンです。 ","ナチュラル,グリーン,遮光,既製,形状記憶,1.5倍ヒダ,厚地カーテン",1
YUD317AEO,マリーノ,遮光2級形状記憶付1.5倍ヒダカーテンです。,"シンプルでスッキリとしたモダンなイメージの遮光2級1.5倍ヒダカーテンです。
","モダン,イエローグリーン,遮光,既製,形状記憶,1.5倍ヒダ,厚地カーテン",1
YUD317BEO,マリーノ,遮光2級形状記憶付1.5倍ヒダカーテンです。,"シンプルでスッキリとしたモダンなイメージの遮光2級1.5倍ヒダカーテンです。
","モダン,ブラウン,遮光,既製,形状記憶,1.5倍ヒダ,厚地カーテン",1
YUD319BEO,リザード,遮光2級形状記憶付1.5倍ヒダカーテンです。,"大胆なサークル柄とモノトーンのカラーリングの遮光2級1.5倍ヒダカーテンです。
スッキリとした白さがよりモダンなお部屋にマッチします。 ","モダン,ブラック,遮光,既製,形状記憶,1.5倍ヒダ,厚地カーテン",1
YUD319AEO,リザード,遮光2級形状記憶付1.5倍ヒダカーテンです。,"大胆なサークル柄とモノトーンのカラーリングの遮光2級1.5倍ヒダカーテンです。
スッキリとした白さがよりモダンなお部屋にマッチします。 ","モダン,ワイン,遮光,既製,形状記憶,1.5倍ヒダ,厚地カーテン",1
TBC301BEO,リヨン,遮光2級形状記憶付1.5倍ヒダカーテンです。,"パネル柄の爽やかな遮光2級1.5倍ヒダカーテンです。
新緑をイメージしたグリーン配色とお部屋を優しい印象にしてくれるピンク配色の2色で展開しています。
絵を飾る感覚でお楽しみ下さい。 ","ナチュラル,グリーン,遮光,既製,形状記憶,1.5倍ヒダ,厚地カーテン",1
TBC301AEO,リヨン,遮光2級形状記憶付1.5倍ヒダカーテンです。,"パネル柄の爽やかな遮光2級1.5倍ヒダカーテンです。
新緑をイメージしたグリーン配色とお部屋を優しい印象にしてくれるピンク配色の2色で展開しています。
絵を飾る感覚でお楽しみ下さい。 ","ナチュラル,ピンク,遮光,既製,形状記憶,1.5倍ヒダ,厚地カーテン",1
KMD401CEO,ロートレックⅡ,遮光1級形状記憶付1.5倍ヒダカーテンです。,ドットがウェーブを描いて並ぶシンプルなパターンをエンボスで表現したモダンテイストの遮光1級1.5倍ヒダカーテンです。,"モダン,アイボリー,遮光,既製,形状記憶,1.5倍ヒダ,厚地カーテン",1
KMD401DEO,ロートレックⅡ,遮光1級形状記憶付1.5倍ヒダカーテンです。,ドットがウェーブを描いて並ぶシンプルなパターンをエンボスで表現したモダンテイストの遮光1級1.5倍ヒダカーテンです。,"モダン,グリーン,遮光,既製,形状記憶,1.5倍ヒダ,厚地カーテン",1
KMD401AEO,ロートレックⅡ,遮光1級形状記憶付1.5倍ヒダカーテンです。,ドットがウェーブを描いて並ぶシンプルなパターンをエンボスで表現したモダンテイストの遮光1級1.5倍ヒダカーテンです。,"モダン,ブラウン,遮光,既製,形状記憶,1.5倍ヒダ,厚地カーテン",1
TBC305AEO,ワルフィス,遮光2級形状記憶付1.5倍ヒダカーテンです。,"爽やかな海中のイメージです。
「クジラと海藻」のゆったりとした世界観を白とブルーのコントラストで描きました。
夢のある楽しい子供部屋になりそうな商品です。
遮光２級1.5倍ヒダカーテンです。","カジュアル,ブルー,遮光,既製,形状記憶,1.5倍ヒダ,厚地カーテン",1
TBC502AEO,カルボス,"遮熱・断熱,遮光2級形状記憶付1.5倍ヒダカーテンです。",ナチュラルな素材感のある生地に葉のシルエットをプリントし、実のカラーにアクセントを効かせている1.5倍ヒダカーテンです。 ,"ナチュラル,アイボリー,遮熱,断熱,遮光,既製,形状記憶,1.5倍ヒダ,厚地カーテン",1
TBC502BEO,カルボス,"遮熱・断熱,遮光2級形状記憶付1.5倍ヒダカーテンです。",ナチュラルな素材感のある生地に葉のシルエットをプリントし、実のカラーにアクセントを効かせている1.5倍ヒダカーテンです。 ,"ナチュラル,グリーン,遮熱,断熱,遮光,既製,形状記憶,1.5倍ヒダ,厚地カーテン",1
SFD404AEO,クレスト,遮光3級形状記憶付1.5倍ヒダカーテンです。,シャンタン調の遮光生地に葉っぱ柄をくっきりとフロッキープリントした遮光3級1.5倍ヒダカーテンです。,"モダン,ブラウン,遮光,既製,形状記憶,1.5倍ヒダ,厚地カーテン",1
SFD404BEO,クレスト,遮光3級形状記憶付1.5倍ヒダカーテンです。,シャンタン調の遮光生地に葉っぱ柄をくっきりとフロッキープリントした遮光3級1.5倍ヒダカーテンです。,"モダン,ブラック,遮光,既製,形状記憶,1.5倍ヒダ,厚地カーテン",1
MAD402BEO,コルサⅡ,遮光2級形状記憶付1.5倍ヒダカーテンです。,"トロピカルなモチーフをモダンに表現した大胆でスッキリとした1.5倍ヒダパネルカーテンです。
モチーフと色を合わせた無地のタッセルもアクセントになっています。","ナチュラル,ブラック,遮光,既製,形状記憶,1.5倍ヒダ,厚地カーテン",1
KZD437AEO,サマク,形状記憶付1.5倍ヒダカーテンです。,"ざっくりとした素材感のある生地に「サボテン」のモチーフを刺繍しました。
トロピカルなモチーフが流行っている中で、形が可愛い「サボテン」は遊び心もあり、気軽にお使い頂ける1.5倍ヒダカーテンです。","カジュアル,ブルー,既製,形状記憶,1.5倍ヒダ",1
TBC501BEO,サラーナ,"遮熱・断熱,遮光2級形状記憶付1.5倍ヒダカーテンです。",大胆な花のシルエットでモダンな雰囲気の遮光2級1.5倍ヒダカーテンです。 ,"ネイビー,遮熱,断熱,遮光,既製,形状記憶,1.5倍ヒダ,厚地カーテン",1
TBC501AEO,サラーナ,"遮熱・断熱,遮光2級形状記憶付1.5倍ヒダカーテンです。",大胆な花のシルエットでモダンな雰囲気の遮光2級1.5倍ヒダカーテンです。 ,"ブラウン,遮熱,断熱,遮光,既製,形状記憶,1.5倍ヒダ,厚地カーテン",1
KZD535BEO,スキアー,"遮熱・断熱,遮光2級形状記憶付1.5倍ヒダカーテンです。",エレガントで使い易い更紗柄をシルエットで表現した遮熱、遮光２級の機能を持った1.5倍ヒダカーテンです。,"グリーン,遮熱,断熱,遮光,既製,形状記憶,1.5倍ヒダ,厚地カーテン",1
KZD535AEO,スキアー,"遮熱・断熱,遮光2級形状記憶付1.5倍ヒダカーテンです。",エレガントで使い易い更紗柄をシルエットで表現した遮熱、遮光２級の機能を持った1.5倍ヒダカーテンです。,"ローズ,遮熱,断熱,遮光,既製,形状記憶,1.5倍ヒダ,厚地カーテン",1
YUD425FEO,ソンブル,遮光2級形状記憶付1.5倍ヒダカーテンです。,"シンプルに今どきのインテリアに合わせて頂きたい遮光2級1.5倍ヒダカーテンです。
ヴィンテージ感覚にも、カフェスタイル風にもアレンジして頂けます。","無地,イエロー,遮光,既製,形状記憶,1.5倍ヒダ,厚地カーテン",1
YUD425EEO,ソンブル,遮光2級形状記憶付1.5倍ヒダカーテンです。,"シンプルに今どきのインテリアに合わせて頂きたい遮光2級1.5倍ヒダカーテンです。
ヴィンテージ感覚にも、カフェスタイル風にもアレンジして頂けます。","無地,オレンジ,遮光,既製,形状記憶,1.5倍ヒダ,厚地カーテン",1
YUD425DEO,ソンブル,遮光2級形状記憶付1.5倍ヒダカーテンです。,"シンプルに今どきのインテリアに合わせて頂きたい遮光2級1.5倍ヒダカーテンです。
ヴィンテージ感覚にも、カフェスタイル風にもアレンジして頂けます。","無地,グリーン,遮光,既製,形状記憶,1.5倍ヒダ,厚地カーテン",1
YUD425BEO,ソンブル,遮光2級形状記憶付1.5倍ヒダカーテンです。,"シンプルに今どきのインテリアに合わせて頂きたい遮光2級1.5倍ヒダカーテンです。
ヴィンテージ感覚にも、カフェスタイル風にもアレンジして頂けます。","無地,グレー,遮光,既製,形状記憶,1.5倍ヒダ,厚地カーテン",1
YUD425AEO,ソンブル,遮光2級形状記憶付1.5倍ヒダカーテンです。,"シンプルに今どきのインテリアに合わせて頂きたい遮光2級1.5倍ヒダカーテンです。
ヴィンテージ感覚にも、カフェスタイル風にもアレンジして頂けます。","無地,ネイビー,遮光,既製,形状記憶,1.5倍ヒダ,厚地カーテン",1
YUD425CEO,ソンブル,遮光2級形状記憶付1.5倍ヒダカーテンです。,"シンプルに今どきのインテリアに合わせて頂きたい遮光2級1.5倍ヒダカーテンです。
ヴィンテージ感覚にも、カフェスタイル風にもアレンジして頂けます。","無地,ブラウン,遮光,既製,形状記憶,1.5倍ヒダ,厚地カーテン",1
KZD529CEO,ダリアⅡ,"遮熱・断熱,遮光2級形状記憶付1.5倍ヒダカーテンです。",遮熱と遮光2級機能を兼ね備えたベーシックな1.5倍ヒダカーテンです。,"無地,アイボリー,遮熱,断熱,遮光,既製,形状記憶,1.5倍ヒダ,厚地カーテン",1
KZD529BEO,ダリアⅡ,"遮熱・断熱,遮光1級形状記憶付1.5倍ヒダカーテンです。",遮熱と遮光1級機能を兼ね備えたベーシックな1.5倍ヒダカーテンです。,"無地,ブラウン,遮熱,断熱,遮光,既製,形状記憶,1.5倍ヒダ,厚地カーテン",1
KZD438CEO,ダリアⅡ,,,,1
KZD421AEO,パテックⅡ,形状記憶付1.5倍ヒダカーテンです。,パステルカラーのボンボンがついた意匠糸と少し光沢のあるリング糸を入れ込んださりげなくかわいい印象の1.5倍ヒダカーテンです。,"ナチュラル,アイボリー,既製,形状記憶,1.5倍ヒダ",1
YUD422AEO,フィーユ,遮光3級形状記憶付1.5倍ヒダカーテンです。,ゆったりとしたオーナメントの柄域をブライト感のある色で織り上げたエレガントなジャガードの遮光3級1.5倍ヒダカーテンです。,"クラシック,アイボリー,遮光,既製,形状記憶,1.5倍ヒダ,厚地カーテン",1
YUD422BEO,フィーユ,遮光3級形状記憶付1.5倍ヒダカーテンです。,ゆったりとしたオーナメントの柄域をブライト感のある色で織り上げたエレガントなジャガードの遮光3級1.5倍ヒダカーテンです。,"クラシック,グリーン,遮光,既製,形状記憶,1.5倍ヒダ,厚地カーテン",1
SCD417AEO,フロン,遮光2級形状記憶付1.5倍ヒダカーテンです。,"シンプルに幾何柄をプリントした遮光2級1.5倍ヒダカーテンです。
白ラッカーでラインを浮き立たせたアクセントを付けています。
モダンな感覚のお部屋にお薦めです。 ","モダン,アイボリー,遮光,既製,形状記憶,1.5倍ヒダ,厚地カーテン",1
SCD417BEO,フロン,遮光2級形状記憶付1.5倍ヒダカーテンです。,"シンプルに幾何柄をプリントした遮光2級1.5倍ヒダカーテンです。
白ラッカーでラインを浮き立たせたアクセントを付けています。
モダンな感覚のお部屋にお薦めです。 ","モダン,グレー,遮光,既製,形状記憶,1.5倍ヒダ,厚地カーテン",1
TBC405AEO,リオナ,遮光2級形状記憶付1.5倍ヒダカーテンです。,"アニマルシルエットとカジュアルなモチーフを切り紙タッチでプリントした1.5倍ヒダカーテンです。
窓辺にちょっとした可愛いカーテンとしてお薦めです。 ","エレガント,ブラウン,遮光,既製,形状記憶,1.5倍ヒダ,厚地カーテン",1
TBC405BEO,リオナ,遮光2級形状記憶付1.5倍ヒダカーテンです。,"アニマルシルエットとカジュアルなモチーフを切り紙タッチでプリントした1.5倍ヒダカーテンです。
窓辺にちょっとした可愛いカーテンとしてお薦めです。 ","エレガント,ブルー,遮光,既製,形状記憶,1.5倍ヒダ,厚地カーテン",1
KZD435BEO,ルシーンⅡ,遮光2級形状記憶付1.5倍ヒダカーテンです。,"月と星をデニム調の生地に刺繍した子供部屋にもお薦め頂ける1.5倍ヒダカーテンです。
シルバーとゴールドの光りもアクセントになり、楽しい雰囲気をかもしだしています。
ペアレースのルシーンレースと合わせてお使いください。","カジュアル,ネイビー,遮光,既製,形状記憶,1.5倍ヒダ,厚地カーテン",1
YUD426BEO,レーテ,遮光2級形状記憶付1.5倍ヒダカーテンです。,"女性らしい優しい曲線のジャガード1.5倍ヒダカーテンです。
オーロラに光る糸でキラキラ感を全体的に出しています。 ","エレガント,グレー,遮光,既製,形状記憶,1.5倍ヒダ,厚地カーテン",1
YUD426AEO,レーテ,遮光2級形状記憶付1.5倍ヒダカーテンです。,"女性らしい優しい曲線のジャガード1.5倍ヒダカーテンです。
オーロラに光る糸でキラキラ感を全体的に出しています。 ","エレガント,ピンク,遮光,既製,形状記憶,1.5倍ヒダ,厚地カーテン",1
TBC404AEO,レパード,遮光2級形状記憶付1.5倍ヒダカーテンです。,"大小の三角形をプリントしたカジュアルな遮光2級1.5倍ヒダカーテンです。
イエローとグレー、ネイビーとターコイズブルーの色の組み合わせは、今のトレンドです。
少しレトロな印象のお部屋にもナチュラルなインテリアにもマッチします。 ","カジュアル,イエロー,遮光,既製,形状記憶,1.5倍ヒダ,厚地カーテン",1
TBC404BEO,レパード,遮光2級形状記憶付1.5倍ヒダカーテンです。,"大小の三角形をプリントしたカジュアルな遮光2級1.5倍ヒダカーテンです。
イエローとグレー、ネイビーとターコイズブルーの色の組み合わせは、今のトレンドです。
少しレトロな印象のお部屋にもナチュラルなインテリアにもマッチします。 ","カジュアル,ブルー,遮光,既製,形状記憶,1.5倍ヒダ,厚地カーテン",1
YUD421AEO,ロント,遮光3級形状記憶付1.5倍ヒダカーテンです。,"使い易い無地調のサークル柄です。
サークルのラインを光沢のある糸で浮き立たせ、モダンな印象の遮光3級1.5倍ヒダカーテンです。","モダン,アイボリー,遮光,既製,形状記憶,1.5倍ヒダ,厚地カーテン",1
YUD421BEO,ロント,遮光2級形状記憶付1.5倍ヒダカーテンです。,"使い易い無地調のサークル柄です。
サークルのラインを光沢のある糸で浮き立たせ、モダンな印象の遮光3級1.5倍ヒダカーテンです。","モダン,ブラック,遮光,既製,形状記憶,1.5倍ヒダ,厚地カーテン",1
KZD513BEO,プレステージⅡ,防炎、遮熱・断熱、遮光2級形状記憶付1.5倍ヒダカーテンです。,"透けにくいポリエステル糸を2重に織り上げ、素材感のある風合いに仕上げました。
あらゆる機能が付いた人気の1.5倍ヒダカーテンです。","無地,アイボリー,遮熱,断熱,防炎,遮光,既製,形状記憶,1.5倍ヒダ,厚地カーテン",1
KZD513DEO,プレステージⅡ,防炎、遮熱・断熱、遮光2級形状記憶付1.5倍ヒダカーテンです。,"透けにくいポリエステル糸を2重に織り上げ、素材感のある風合いに仕上げました。
あらゆる機能が付いた人気の1.5倍ヒダカーテンです。","無地,イエロー,遮熱,断熱,防炎,遮光,既製,形状記憶,1.5倍ヒダ,厚地カーテン",1
KZD513HEO,プレステージⅡ,防炎、遮熱・断熱、遮光1級形状記憶付1.5倍ヒダカーテンです。,"透けにくいポリエステル糸を2重に織り上げ、素材感のある風合いに仕上げました。
あらゆる機能が付いた人気の1.5倍ヒダカーテンです。","無地,オレンジ,遮熱,断熱,防炎,遮光,既製,形状記憶,1.5倍ヒダ,厚地カーテン",1
KZD513FEO,プレステージⅡ,防炎、遮熱・断熱、遮光1級形状記憶付1.5倍ヒダカーテンです。,"透けにくいポリエステル糸を2重に織り上げ、素材感のある風合いに仕上げました。
あらゆる機能が付いた人気の1.5倍ヒダカーテンです。","無地,グリーン,遮熱,断熱,防炎,遮光,既製,形状記憶,1.5倍ヒダ,厚地カーテン",1
KZD513JEO,プレステージⅡ,防炎、遮熱・断熱、遮光1級形状記憶付1.5倍ヒダカーテンです。,"透けにくいポリエステル糸を2重に織り上げ、素材感のある風合いに仕上げました。
あらゆる機能が付いた人気の1.5倍ヒダカーテンです。","無地,ネイビー,遮熱,断熱,防炎,遮光,既製,形状記憶,1.5倍ヒダ,厚地カーテン",1
KZD513KEO,プレステージⅡ,防炎、遮熱・断熱、遮光1級形状記憶付1.5倍ヒダカーテンです。,"透けにくいポリエステル糸を2重に織り上げ、素材感のある風合いに仕上げました。
あらゆる機能が付いた人気の1.5倍ヒダカーテンです。","無地,ブラウン,遮熱,断熱,防炎,遮光,既製,形状記憶,1.5倍ヒダ,厚地カーテン",1
KZD513GEO,プレステージⅡ,防炎、遮熱・断熱、遮光1級形状記憶付1.5倍ヒダカーテンです。,"透けにくいポリエステル糸を2重に織り上げ、素材感のある風合いに仕上げました。
あらゆる機能が付いた人気の1.5倍ヒダカーテンです。","無地,ブルー,遮熱,断熱,防炎,遮光,既製,形状記憶,1.5倍ヒダ,厚地カーテン",1
KZD513CEO,プレステージⅡ,防炎、遮熱・断熱、遮光1級形状記憶付1.5倍ヒダカーテンです。,"透けにくいポリエステル糸を2重に織り上げ、素材感のある風合いに仕上げました。
あらゆる機能が付いた人気の1.5倍ヒダカーテンです。","無地,ベージュ,遮熱,断熱,防炎,遮光,既製,形状記憶,1.5倍ヒダ,厚地カーテン",1
KZD513EEO,プレステージⅡ,防炎、遮熱・断熱、遮光2級形状記憶付1.5倍ヒダカーテンです。,"透けにくいポリエステル糸を2重に織り上げ、素材感のある風合いに仕上げました。
あらゆる機能が付いた人気の1.5倍ヒダカーテンです。","無地,ライトグリーン,遮熱,断熱,防炎,遮光,既製,形状記憶,1.5倍ヒダ,厚地カーテン",1
KZD513MEO,プレステージⅡ,防炎、遮熱・断熱、遮光1級形状記憶付1.5倍ヒダカーテンです。,"透けにくいポリエステル糸を2重に織り上げ、素材感のある風合いに仕上げました。
あらゆる機能が付いた人気の1.5倍ヒダカーテンです。","無地,ライトブラウン,遮熱,断熱,防炎,遮光,既製,形状記憶,1.5倍ヒダ,厚地カーテン",1
KZD513AEO,プレステージⅡ,防炎、遮熱・断熱、遮光1級形状記憶付1.5倍ヒダカーテンです。,"透けにくいポリエステル糸を2重に織り上げ、素材感のある風合いに仕上げました。
あらゆる機能が付いた人気の1.5倍ヒダカーテンです。","無地,ローズ,遮熱,断熱,防炎,遮光,既製,形状記憶,1.5倍ヒダ,厚地カーテン",1
KZL106AEO,ターシュ,ミラー1.5倍ヒダレースカーテンです。,カジュアルなストライプの1.5倍ヒダミラーカーテンです。 ,"アイボリー,ミラー,既製,1.5倍ヒダ,レースカーテン",0
KZL105BEO,ホープ,ミラー1.5倍ヒダレースカーテンです。,カジュアルなストライプ調の1.5倍ヒダミラーカーテンです。 ,"アイボリー,ミラー,既製,1.5倍ヒダ,レースカーテン",0
AOL204AEO,イッシュ,遮熱・断熱、ミラー1.5倍ヒダレースカーテンです。,"ヨコボーダーが爽やかで軽快な1.5倍ヒダレースカーテンです。
遮熱・断熱、ミラー効果のある商品です。
無地調のドレープカーテンに良く合います。 ","ネイビー,ミラー,遮熱,断熱,既製,1.5倍ヒダ,レースカーテン",0
MAL202AEO,エオンレース,透けにくい1.5倍ヒダレースカーテンです。,"エオンカーテンと同じ柄をボイル地に箔プリントした1.5倍ヒダレースカーテンです。
透けにくいので安心してお使い頂けます。","アイボリー,透けにくい,既製,1.5倍ヒダ,レースカーテン",0
AOL201AEO,エポス,遮熱・断熱、ミラー1.5倍ヒダレースカーテンです。,"エンブロイダリーのような1.5倍ヒダレースカーテンです。
ゆったりとした曲線の流れがとても綺麗なエレガントな雰囲気の遮熱、ミラーの商品です。 ","アイボリー,ミラー,遮熱,断熱,既製,1.5倍ヒダ,レースカーテン",0
SCL204AEO,エレオン,防炎、遮熱・断熱、ミラー1.5倍ヒダレースカーテンです。,防炎、遮熱、断熱、ミラーの機能をもった葉柄の1.5ヒダレースカーテンです。,"アイボリー,ミラー,遮熱,断熱,防炎,既製,1.5倍ヒダ,レースカーテン",0
SAL211AEO,オブロン,防炎、遮熱・断熱、透けにくい1.5倍ヒダレースカーテンです。,"横糸に麻ライクな糸を使い、素材感を表現した1.5倍ヒダレースカーテンです。
無地調なので使い易く、遮熱断熱、防炎機能も付いたお買い得な商品です。 ","アイボリー,透けにくい,遮熱,断熱,防炎,既製,1.5倍ヒダ,レースカーテン",0
KZL217AEO,オリゾン,防炎、遮熱・断熱、ミラー、ＵＶカット1.5倍ヒダレースカーテンです。,"防炎、遮熱、断熱機能をもった使い易い無地調の1.5倍ヒダレースカーテンです。
ボリューム感もあり、安心してお使い頂けます。","アイボリー,ミラー,UVカット,遮熱,断熱,防炎,既製,1.5倍ヒダ,レースカーテン",0
SAL210AEO,カステート,花粉キャッチ、透けにくい1.5倍ヒダレースカーテンです。,花粉キャッチ機能が付いた透けにくい1.5倍ヒダレースカーテンです。,"アイボリー,透けにくい,既製,1.5倍ヒダ,レースカーテン",0
KZL212AEO,キュール,遮熱・断熱、ミラー、ＵＶカット1.5倍ヒダレースカーテンです。,"遮熱、黒ずみ防止機能をもたせました。
ラメ糸を縦に挿入してストライプにしています。
機能もデザイン性も兼ね備えた1.5倍ヒダレースカーテンです。 ","アイボリー,UVカット,ミラー,遮熱,断熱,既製,1.5倍ヒダ,レースカーテン",0
KZL221AEO,クアトロ,透けにくい、ＵＶカット1.5倍ヒダレースカーテンです。,"遮像機能を持ちながらお部屋に光を採り入れ、ＵＶ効果もある機能満載な1.5倍ヒダレースカーテンです。
タテのストライプにオーナメントの柄がついて、より高級感を出しています。 ","アイボリー,UVカット,透けにくい,既製,1.5倍ヒダ,レースカーテン",0
KZL220AEO,クープ,防炎、遮熱・断熱、透けにくい1.5倍ヒダレースカーテンです。,遮熱、防炎、制菌機能をもった使い易いストライプの1.5倍ヒダレースカーテンです。 ,"アイボリー,透けにくい,遮熱,断熱,防炎,既製,1.5倍ヒダ,レースカーテン",0
KZL224AEO,クッカ,1.5倍ヒダレースカーテンです。,"さりげない優しい小花柄をツタの流れと一緒にボイル生地に刺繍しました。
フローリングのナチュラルな雰囲気のお部屋にも、少し白っぽい女性好みのお部屋にも合わせて頂ける1.5倍ヒダレースカーテンです。 ","イエロー,既製,1.5倍ヒダ,レースカーテン",0
KZL219AEO,グロー,透けにくい、ＵＶカット1.5倍ヒダレースカーテンです。,気になる紫外線をカットするUVカット機能、外部からの視線をカットする遮像機能、室内に明るい光を取り入れる採光機能を備えた1.5倍ヒダレースカーテンです。 ,"アイボリー,UVカット,透けにくい,既製,1.5倍ヒダ,レースカーテン",0
SCL208AEO,シーン,花粉キャッチ、ミラー1.5倍ヒダレースカーテンです。,使いやすいボーダー柄の1.5倍ヒダレースカーテンです。,"アイボリー,ミラー,既製,1.5倍ヒダ,レースカーテン",0
AOL301AEO,ビアンコ,1.5倍ヒダレースカーテンです。,"シルバーを巻き付けた糸をドット＆ラインで使いやすい1.5倍ヒダレースカーテンです。
ベーシックに合わせやすいアイボリー色と薄いブルー色で、カジュアルなカーテンとコーディネートしてお使い頂けます。","アイボリー,既製,1.5倍ヒダ,レースカーテン",0
AOL203AEO,プチドロップ,遮熱・断熱、ミラー1.5倍ヒダレースカーテンです。,"レインボーのカラーで染めた小さな数珠モールを入れ込んだ1.5倍ヒダレースカーテンです。
無地調のドレープと合わせてお使い頂くと、よりレースカーテンが引き立ちます。 ","アイボリー,ミラー,遮熱,断熱,既製,1.5倍ヒダ,レースカーテン",0
MAL203AEO,プレッソレースⅡ,1.5倍ヒダレースカーテンです。,"プレッソカーテンのペアになる1.5倍ヒダレースカーテンです。
透けにくい素材に箔プリントしました。 ","シルバー,既製,1.5倍ヒダ,レースカーテン",0
SCL203AEO,マリスタ,遮熱・断熱、ミラー、ＵＶカット1.5倍ヒダレースカーテンです。,"遮熱・防虫加工をもった1.5倍ヒダレースカーテンです。
ストライプ調の合わせやすい柄行きです。 ","アイボリー,UVカット,ミラー,遮熱,断熱,既製,1.5倍ヒダ,レースカーテン",0
AOL202AEO,ミストラル,遮熱・断熱、ミラー1.5倍ヒダレースカーテンです。,"オーナメントの柄に落下版という手法でボリュームを持たせた、上品で落ち着きのある1.5倍ヒダレースカーテンです。
使い易いストライプ調なので、お部屋をスッキリと見せてくれます。 ","アイボリー,ミラー,遮熱,断熱,既製,1.5倍ヒダ,レースカーテン",0
AOL302AEO,メルチェ,遮熱・断熱、ミラー1.5倍ヒダレースカーテンです。,"小さな葉の流れを3色の糸で編んだ1.5倍ヒダレースカーテンです。
シルバーの光と爽やかなグリーンの印象が新鮮です。","グリーン,ミラー,遮熱,断熱,既製,1.5倍ヒダ,レースカーテン",0
KZL225AEO,メルレット,1.5倍ヒダレースカーテンです。,"ガーランドと鳥をボイル生地に刺繍したカジュアルな1.5倍ヒダレースカーテンです。
オレンジ、黄緑、イエローの３色で刺繍をしているので、より楽しい印象です。
生地にスパンボイルを使用して、より優しい雰囲気をかもし出しています。 ","オレンジ,既製,1.5倍ヒダ,レースカーテン",0
SCL205AEO,ラーギル,1.5倍ヒダレースカーテンです。,"素材感があり、自然素材の様な1.5倍ヒダボイルカーテンです。
先染め糸を使って織り上げていますので、微妙な深みが出ています。","アイボリー,既製,1.5倍ヒダ,レースカーテン",0
SCL205CEO,ラーギル,1.5倍ヒダレースカーテンです。,"素材感があり、自然素材の様な1.5倍ヒダボイルカーテンです。
先染め糸を使って織り上げていますので、微妙な深みが出ています。","グレー,既製,1.5倍ヒダ,レースカーテン",0
SCL205BEO,ラーギル,1.5倍ヒダレースカーテンです。,"素材感があり、自然素材の様な1.5倍ヒダボイルカーテンです。
先染め糸を使って織り上げていますので、微妙な深みが出ています。","ブルー,既製,1.5倍ヒダ,レースカーテン",0
SAL322AEO,ラスター,遮熱・断熱、ミラー1.5倍ヒダレースカーテンです。,"細かいヨコ畝(ぼう)のベーシックな多機能な1.5倍ヒダレースカーテンです。
遮熱、断熱、ミラーの3つの機能を合わせ持っています。","ホワイト,ミラー,遮熱,断熱,既製,1.5倍ヒダ,レースカーテン",0
SCL207AEO,ラント,遮熱・断熱、透けにくい1.5倍ヒダレースカーテンです。,"モノトーンに絣染めした糸をアクセントに入れたモダンな感覚の遮熱1.5倍ヒダレースカーテンです。
無地調のドレープカーテンと合わせてお使い頂くと、洗練されたインテリアを演出出来ます。 ","グレー,透けにくい,遮熱,断熱,既製,1.5倍ヒダ,レースカーテン",0
YUL202AEO,ルプール,遮熱・断熱、ミラー1.5倍ヒダレースカーテンです。,"柔らかい曲線の遮熱付きの1.5倍ヒダレースカーテンです。
「トルッコ」「レーテ」のドレープカーテンと合わせてお使い頂くと、エレガントなお部屋を演出出来ます。
無地調のドレープカーテンと合わせてお使い頂くと曲線がアクセントとなります。","アイボリー,ミラー,遮熱,断熱,既製,1.5倍ヒダ,レースカーテン",0
YUL303AEO,コンフィ,防炎、遮熱・断熱、ＵＶカット1.5倍ヒダレースカーテンです。,"遮熱、防炎、アレルゲン抑制、ＵＶカット、遮像機能を持った多機能1.5倍ヒダレースカーテンです。
無地調なので、どんなドレープカーテンにも合わせやすい商品です。 ","ホワイト,UVカット,遮熱,断熱,防炎,既製,1.5倍ヒダ,レースカーテン",0
SCL307AEO,バレリー,遮熱・断熱、ミラー1.5倍ヒダレースカーテンです。,"ボリューム感あるレースカーテンです。
無地調のドレープにも柄物のみ合わせやすい商品です。
遮熱、ミラー、防汚機能が付いた1.5倍ヒダレースカーテンです。 ","アイボリー,ミラー,遮熱,断熱,既製,1.5倍ヒダ,レースカーテン",0
KZL355AEO,ルシーンレース,1.5倍ヒダレースカーテンです。,"月と星のモチーフを刺繍した1.5倍ヒダレースカーテンです。
同柄のマッチドレープ「ルシーンⅡ」とも合わせてお使いください。","アイボリー,既製,1.5倍ヒダ,レースカーテン",0
