商品コード,品名,カラー,税別価格,形状記憶あり価格,形状記憶なし価格表
KZL106AEO,ターシュ,アイボリー,1980,レE1980形,レE1980
KZL105BEO,ホープ,アイボリー,1980,レE1980形,レE1980
AOL204AEO,イッシュ,ネイビー,2980,レE2980形,レE2980
MAL202AEO,エオンレース,アイボリー,2980,レE2980形,レE2980
AOL201AEO,エポス,アイボリー,2980,レE2980形,レE2980
SCL204AEO,エレオン,アイボリー,2980,レE2980形,レE2980
SAL211AEO,オブロン,アイボリー,2980,レE2980形,レE2980
KZL217AEO,オリゾン,アイボリー,2980,レE2980形,レE2980
SAL210AEO,カステート,アイボリー,2980,レE2980形,レE2980
KZL212AEO,キュール,アイボリー,2980,レE2980形,レE2980
KZL221AEO,クアトロ,アイボリー,2980,レE2980形,レE2980
KZL220AEO,クープ,アイボリー,2980,レE2980形,レE2980
KZL224AEO,クッカ,イエロー,2980,レE2980形,レE2980
KZL219AEO,グロー,アイボリー,2980,レE2980形,レE2980
SCL208AEO,シーン,アイボリー,2980,レE2980形,レE2980
AOL301AEO,ビアンコ,アイボリー,2980,レE2980形,レE2980
AOL203AEO,プチドロップ,アイボリー,2980,レE2980形,レE2980
MAL203AEO,プレッソレースⅡ,シルバー,2980,レE2980形,レE2980
SCL203AEO,マリスタ,アイボリー,2980,レE2980形,レE2980
AOL202AEO,ミストラル,アイボリー,2980,レE2980形,レE2980
AOL302AEO,メルチェ,グリーン,2980,レE2980形,レE2980
KZL225AEO,メルレット,オレンジ,2980,レE2980形,レE2980
SCL205AEO,ラーギル,アイボリー,2980,レE2980形,レE2980
SCL205CEO,ラーギル,グレー,2980,レE2980形,レE2980
SCL205BEO,ラーギル,ブルー,2980,レE2980形,レE2980
SAL322AEO,ラスター,ホワイト,2980,レE2980形,レE2980
SCL207AEO,ラント,グレー,2980,レE2980形,レE2980
YUL202AEO,ルプール,アイボリー,2980,レE2980形,レE2980
YUL303AEO,コンフィ,ホワイト,3980,レE3980形,レE3980
SCL307AEO,バレリー,アイボリー,2980,レE2980形,レE2980
KZL355AEO,ルシーンレース,アイボリー,3980,レE3980形,レE3980
