商品コード,マトリックス,通常価格
BU31251,3D20形3裏-24-142228B,24800
BU31252,3D20形3裏-24-142228B,24800
BU31253,3D20形3裏-24-142228B,24800
BU31254,3D20形3裏-24-142228B,24800
BU31255,3D20形3裏-24-142228B,24800
BU31256,3D20形3裏-24-142228B,24800
BU31257,3D20形3裏-24-142228B,24800
BU31327,3D20形3裏-29-142228,29800
BU31328,3D20形3裏-29-142228,29800
BU31329,3D20形3裏-29-142228,29800
BU31330,3D20形3裏-29-142228,29800
BU31353,3D20形3裏-29-142228,29800
BU31369,3D20形3裏-29-142228,29800
BU31370,3D20形3裏-29-142228,29800
BU31373,3D20形3裏-29-142228,29800
BU31374,3D20形3裏-29-142228,29800
BU31385,3D20形3裏-29-142228,29800
BU31394,3D20形3裏-29-142228,29800
BW31304,3D20形3裏-29-142228,29800
BW31305,3D20形3裏-29-142228,29800
BW31306,3D20形3裏-29-142228,29800
BW31307,3D20形3裏-29-142228,29800
IH33307,3D20形3裏-29-142228,29800
IH33308,3D20形3裏-29-142228,29800
IH33309,3D20形3裏-29-142228,29800
IH33310,3D20形3裏-29-142228,29800
SC37301,3D20形3裏-29-142228,29800
SC37302,3D20形3裏-29-142228,29800
SC37303,3D20形3裏-29-142228,29800
SC37304,3D20形3裏-29-142228,29800
SC37305,3D20形3裏-29-142228,29800
SC37306,3D20形3裏-29-142228,29800
SC37307,3D20形3裏-29-142228,29800
BW31308,3D20形3裏-29-142228,29800
BW31309,3D20形3裏-29-142228,29800
BW31311,3D20形3裏-29-142228,29800
BW31312,3D20形3裏-29-142228,29800
BW31313,3D20形3裏-29-142228,29800
CO51403,3D20形1裏-34-142228,34800
CO51405,3D20形1裏-34-142228,34800
CO51406,3D20形1裏-34-142228,34800
CO51410,3D20形1裏-34-142228,34800
CO51411,3D20形1裏-34-142228,34800
CO51412,3D20形1裏-34-142228,34800
CO56401,3D20形1裏柄-34-142128,34800
CO56402,3D20形1裏柄-34-142128,34800
CO58404,3D20形1裏-34-142228,34800
CO58408,3D20形1裏-34-142228,34800
CO58409,3D20形1裏-34-142228,34800
CO58410,3D20形1裏-34-142228,34800
CO58411,3D20形1裏-34-142228,34800
CO59401,3D20形1裏-34-142228,34800
CO59403,3D20形1裏-34-142228,34800
CO59404,3D20形1裏柄-34-142128,34800
CO59405,3D20形1裏柄-34-142128,34800
IH33401,3D20形3裏柄-34-142128,34800
IH33407,3D20形3裏柄-34-142128,34800
IH33408,3D20形3裏柄-34-142128,34800
IH33414,3D20形3裏-34-142228,34800
IH33415,3D20形3裏-34-142228,34800
IH33423,3D20形3裏柄-34-142128,34800
IH33432,3D20形3裏柄-34-142128,34800
IH33433,3D20形3裏柄-34-142128,34800
IH33457,3D20形3裏柄-34-142128,34800
IH33460,3D20形3裏-34-142228,34800
IH33473,3D20形3裏柄-34-142128,34800
IH33474,3D20形3裏柄-34-142128,34800
IH33475,3D20形3裏-34-142228,34800
IH33476,3D20形3裏-34-142228,34800
IH33481,3D20形3裏柄-34-142128,34800
IH33482,3D20形3裏柄-34-142128,34800
IH33483,3D20形3裏柄-34-142128,34800
IH33484,3D20形3裏柄-34-142128,34800
IH33495,3D20形3裏-34-142228,34800
IH33496,3D20形3裏-34-142228,34800
IH33497,3D20形3裏-34-142228,34800
IH33498,3D20形3裏-34-142228,34800
IH33499,3D20形3裏柄-34-142128,34800
IH34401,3D20形3裏柄-34-142128,34800
IH34402,3D20形3裏柄-34-142128,34800
IH34403,3D20形3裏柄-34-142128,34800
IH34404,3D20形3裏柄-34-142128,34800
IH34405,3D20形3裏柄-34-142128,34800
IH34406,3D20形3裏-34-142228,34800
IH34407,3D20形3裏-34-142228,34800
IH34408,3D20形3裏-34-142228,34800
IH34409,3D20形3裏-34-142228,34800
IH34410,3D20形3裏-34-142228,34800
IH34411,3D20形3裏-34-142228,34800
IH34412,3D20形3裏柄-34-142128,34800
IH34413,3D20形3裏柄-34-142128,34800
IH34414,3D20形3裏柄-34-142128,34800
IH34415,3D20形3裏柄-34-142128,34800
IH34416,3D20形3裏柄-34-142128,34800
IH34417,3D20形3裏柄-34-142128,34800
IH34418,3D20形3裏-34-142228,34800
IH34420,3D20形3裏-34-142228,34800
IH34421,3D20形3裏-34-142228,34800
IH34422,3D20形3裏-34-142228,34800
IH34423,3D20形3裏柄-34-142128,34800
IH34424,3D20形3裏柄-34-142128,34800
IH34426,3D20形3裏柄-34-142128,34800
IH34427,3D20形3裏-34-142228,34800
IH34428,3D20形3裏-34-142228,34800
IH34429,3D20形3裏柄-34-142128,34800
IH34430,3D20形3裏柄-34-142128,34800
IH34431,3D20形3裏柄-34-142128,34800
IH34432,3D20形3裏柄-34-142128,34800
CO52503,3D20形1裏柄-39-142128,39800
CO52504,3D20形1裏柄-39-142128,39800
CO53501,3D20形1裏柄-39-142128,39800
CO53502,3D20形1裏柄-39-142128,39800
CO58501,3D20形1裏柄-39-142128,39800
CO58502,3D20形1裏柄-39-142128,39800
CO58507,3D20形1裏-39-142228,39800
CO58508,3D20形1裏-39-142228,39800
CO58513,3D20形1裏-39-132028,39800
CO58514,3D20形1裏-39-132028,39800
CO59505,3D20形1裏-39-132028,39800
CO59506,3D20形1裏-39-132028,39800
IH33525,3D20形3裏-39-132028,39800
IH33526,3D20形3裏-39-132028,39800
IH33533,3D20形3裏柄-39-142128,39800
IH33534,3D20形3裏柄-39-142128,39800
CO58601,3D20形1裏-49-142228,49800
CO58602,3D20形1裏-49-142228,49800
CO59603,3D20形1裏柄-49-142128,49800
CO59604,3D20形1裏柄-49-142128,49800
BW31316,3D20形3裏-29-142228,29800
PL2309,PL_D15形12000,12000
PL2310,PL_D15形12000,12000
PL2311,PL_D15形12000,12000
PL2315,PL_D15形12000,12000
PL2318,PL_D15形12000,12000
PL2319,PL_D15形12000,12000
PL2320,PL_D15形12000,12000
PL2321,PL_D15形12000,12000
PL2328,PL_D15形12000,12000
PL2329,PL_D15形12000,12000
PL2330,PL_D15形12000,12000
PL2331,PL_D15形12000,12000
PL2332,PL_D15形12000,12000
PL2333,PL_D15形12000,12000
PL2335,PL_D15形12000,12000
PL2336,PL_D15形12000,12000
PL2338,PL_D15形12000,12000
PL2339,PL_D15形12000,12000
PSD4001,PO_D8800形,8800
PSD4002,PO_D8800形,8800
PSD4003,PO_D8800形,8800
PYD2001,PO_D8800形,8800
PYD2002,PO_D8800形,8800
PYD2003,PO_D8800形,8800
PYD2004,PO_D8800形,8800
PYD2005,PO_D8800形,8800
PYD2006,PO_D8800形,8800
PYD2007,PO_D8800形,8800
PYD2009,PO_D8800形,8800
PYD2010,PO_D8800形,8800
PYD2012,PO_D8800形,8800
PYD2013,PO_D8800形,8800
PYD2014,PO_D8800形,8800
PYD2016,PO_D8800形,8800
PYD2017,PO_D8800形,8800
PYD2018,PO_D8800形,8800
PYD2019,PO_D8800形,8800
PYD2020,PO_D8800形,8800
PYD2021,PO_D8800形,8800
PYD2022,PO_D8800形,8800
PYD2023,PO_D8800形,8800
PYD2025,PO_D8800形,8800
PYD2031,PO_D8800形,8800
PYD2032,PO_D8800形,8800
PYD2027,PO_D8800形,8800
PYD2028,PO_D8800形,8800
PYD2029,PO_D8800形,8800
PYD2030,PO_D8800形,8800
PYD2033,PO_D8800形,8800
PSD4004,PO_D8800形,8800
PSD4005,PO_D8800形,8800
PSD4006,PO_D8800形,8800
PSD4008,PO_D8800形,8800
PSD4009,PO_D8800形,8800
FA21071,3D20形-14-142228,14800
FA21072,3D20形-14-142228,14800
FA21094,3D20形-14-142228,14800
FA21095,3D20形-14-142228,14800
FB21023,3D20形-14-142228,14800
FB21030,3D20形-14-142228,14800
FB21031,3D20形-14-142228,14800
FB21053,3D20形-14-142228,14800
FB21054,3D20形-14-142228,14800
FB21059,3D20形-14-142228,14800
FB21060,3D20形-14-142228,14800
FB21061,3D20形-14-142228,14800
FB21066,3D20形-14-142228,14800
FB21071,3D20形-14-142228,14800
FB21072,3D20形-14-142228,14800
FB21073,3D20形-14-142228,14800
FB21074,3D20形-14-142228,14800
FB21078,3D20形-14-142228,14800
FB21079,3D20形-14-142228,14800
IH28046,3D20形-14-142228,14800
IH28047,3D20形-14-142228,14800
IH28048,3D20形-14-142228,14800
IH28049,3D20形-14-142228,14800
IH28050,3D20形-14-142228,14800
SC27099,3D20形-14-142228,14800
SD27001,3D20形-14-142228,14800
SD27004,3D20形-14-142228,14800
SD27015,3D20形-14-142228,14800
SD27016,3D20形-14-142228,14800
SD27017,3D20形-14-142228,14800
SD27018,3D20形-14-142228,14800
SD27019,3D20形-14-142228,14800
SD27020,3D20形-14-142228,14800
SD27021,3D20形-14-142228,14800
SD27022,3D20形-14-142228,14800
SD27023,3D20形-14-142228,14800
SD27024,3D20形-14-142228,14800
SD27025,3D20形-14-142228,14800
SD27026,3D20形-14-142228,14800
SD27027,3D20形-14-142228,14800
SD27028,3D20形-14-142228,14800
SD27029,3D20形-14-142228,14800
SD27030,3D20形-14-142228,14800
SD27031,3D20形-14-142228,14800
SD27032,3D20形-14-142228,14800
SD27033,3D20形-14-142228,14800
SD27038,3D20形-14-142228,14800
SD27039,3D20形-14-142228,14800
SD27048,3D20形-14-142228,14800
SD27049,3D20形-14-142228,14800
SD27055,3D20形-14-142228,14800
SD27056,3D20形-14-142228,14800
SD27059,3D20形-14-142228,14800
SD27060,3D20形-14-142228,14800
SD27061,3D20形-14-142228,14800
SD27062,3D20形-14-142228,14800
SD27066,3D20形-14-142228,14800
SD27067,3D20形-14-142228,14800
SD27068,3D20形-14-142228,14800
SD27069,3D20形-14-142228,14800
SD27070,3D20形-14-142228,14800
SD27071,3D20形-14-142228,14800
SD27077,3D20形-14-142228,14800
SD27078,3D20形-14-142228,14800
SD27079,3D20形-14-142228,14800
SD27080,3D20形-14-142228,14800
SD27081,3D20形-14-142228,14800
SD27082,3D20形-14-142228,14800
SD27083,3D20形-14-142228,14800
SD27084,3D20形-14-142228,14800
SD27087,3D20形-14-142228,14800
SD27088,3D20形-14-142228,14800
SD27089,3D20形-14-142228,14800
SD27090,3D20形-14-142228,14800
SD27091,3D20形-14-142228,14800
SD27092,3D20形-14-142228,14800
SD27093,3D20形-14-142228,14800
YB22016,3D20形-14-142228,14800
YB22017,3D20形-14-142228,14800
SD27127,3D20形-19-142228,19800
CO74103,3D20形-19-142228,19800
CO74104,3D20形-19-142228,19800
CO74118,3D20形-19-142228,19800
CO74119,3D20形-19-142228,19800
CO74120,3D20形-19-142228,19800
CO74121,3D20形-19-142228,19800
CO74122,3D20形-19-142228,19800
CO74123,3D20形-19-142228,19800
CO74124,3D20形-19-142228,19800
CO74125,3D20形-19-142228,19800
CO74126,3D20形-19-142228,19800
CO74129,3D20形-19-142228,19800
CO74130,3D20形-19-142228,19800
CO74131,3D20形-19-142228,19800
CO74132,3D20形-19-142228,19800
CO74133,3D20形-19-142228,19800
CO74134,3D20形-19-142228,19800
CO74135,3D20形-19-142228,19800
CO74136,3D20形-19-142228,19800
CO74137,3D20形-19-142228,19800
CO74138,3D20形-19-142228,19800
CO74139,3D20形-19-142228,19800
CO74140,3D20形-19-142228,19800
FA21101,3D20形-19-142228,19800
FA21102,3D20形-19-142228,19800
FA21162,3D20形-19-142228,19800
FA21163,3D20形-19-142228,19800
FA21174,3D20形-19-142228,19800
FA21175,3D20形-19-142228,19800
IH28126,3D20形-19-142228,19800
IH28127,3D20形-19-142228,19800
SD27126,3D20形-19-142228,19800
SD27128,3D20形-19-142228,19800
SD27129,3D20形-19-142228,19800
SD27130,3D20形-19-142228,19800
SD27131,3D20形-19-142228,19800
SD27132,3D20形-19-142228,19800
SD27133,3D20形-19-142228,19800
SD27134,3D20形-19-142228,19800
SD27135,3D20形-19-142228,19800
SD27136,3D20形-19-142228,19800
SD27137,3D20形-19-142228,19800
SD27138,3D20形-19-142228,19800
SD27139,3D20形-19-142228,19800
SD27140,3D20形-19-142228,19800
SD27141,3D20形-19-142228,19800
SD27142,3D20形-19-142228,19800
SD27143,3D20形-19-142228,19800
SD27144,3D20形-19-142228,19800
SD27145,3D20形-19-142228,19800
SD27146,3D20形-19-142228,19800
SD27147,3D20形-19-142228,19800
SD27151,3D20形-19-142228,19800
SD27154,3D20形-19-142228,19800
SD27155,3D20形-19-142228,19800
SD27156,3D20形-19-142228,19800
SD27157,3D20形-19-142228,19800
SD27158,3D20形-19-142228,19800
SD27162,3D20形-19-142228,19800
SD27163,3D20形-19-142228,19800
SD27166,3D20形-19-142128,19800
SD27167,3D20形-19-142128,19800
SD27168,3D20形-19-142128,19800
SD27169,3D20形-19-142228,19800
SD27170,3D20形-19-142228,19800
SD27171,3D20形-19-142128,19800
SD27172,3D20形-19-142128,19800
SD27173,3D20形-19-142228,19800
SD27174,3D20形-19-142228,19800
SU25103,3D20形-19-142228,19800
SU25104,3D20形-19-142228,19800
SU25107,3D20形-19-142228,19800
SU25108,3D20形-19-142228,19800
SU25113,3D20形-19-142228,19800
SU25114,3D20形-19-142228,19800
SU25141,3D20形-19-142228,19800
SU25154,3D20形-19-142228,19800
SU25155,3D20形-19-142228,19800
SU25156,3D20形-19-142228,19800
SU25157,3D20形-19-142228,19800
SU25158,3D20形-19-142228,19800
SU25159,3D20形-19-142228,19800
YB22111,3D20形-19-142228,19800
YB22112,3D20形-19-142228,19800
YB22116,3D20形-19-142228,19800
YB22117,3D20形-19-142228,19800
YB22123,3D20形-19-142228,19800
YB22125,3D20形-19-142228,19800
YB22126,3D20形-19-142228,19800
YB22127,3D20形-19-142228,19800
YB22128,3D20形-19-142228,19800
YB22131,3D20形-19-142228,19800
YB22132,3D20形-19-142228,19800
YB22133,3D20形-19-142228,19800
YB22134,3D20形-19-142228,19800
IH26101,3D20形-19-142224,19800
IH26102,3D20形-19-142224,19800
IH26103,3D20形-19-142224,19800
IH26104,3D20形-19-142224,19800
IH26105,3D20形-19-142224,19800
IH26106,3D20形-19-142224,19800
IH26107,3D20形-19-142224,19800
IH26108,3D20形-19-142224,19800
IH26109,3D20形-19-142224,19800
IH26110,3D20形-19-142224,19800
IH26111,3D20形-19-142224,19800
IH26112,3D20形-19-142224,19800
CO78307,3D20形-24-142228,24800
CO78308,3D20形-24-142228,24800
CO78309,3D20形-24-142228,24800
CO78312,3D20形-24-142228,24800
CO78313,3D20形-24-142228,24800
CO79301,3D20形-24-142228,24800
CO79302,3D20形-24-142228,24800
FA21325,3D20形-24-142228,24800
FA21326,3D20形-24-142228,24800
FA21330,3D20形-24-142228,24800
FA21331,3D20形-24-142228,24800
FA21343,3D20形-24-142228,24800
FA21344,3D20形-24-142228,24800
FA21360,3D20形-24-142228,24800
FA21361,3D20形-24-142228,24800
IH28315,3D20形-24-142228,24800
IH28316,3D20形-24-142228,24800
IH28319,3D20形-24-142128,24800
IH28320,3D20形-24-142128,24800
IH28321,3D20形-24-142128,24800
IH28322,3D20形-24-142128,24800
IH28323,3D20形-24-142128,24800
IH28324,3D20形-24-142128,24800
IH28325,3D20形-24-142228,24800
IH28326,3D20形-24-142228,24800
YB22311,3D20形-24-142228,24800
YB22312,3D20形-24-142228,24800
YB22313,3D20形-24-142228,24800
YB22314,3D20形-24-142228,24800
YB22315,3D20形-24-142228,24800
YB22316,3D20形-24-142228,24800
YB22317,3D20形-24-142228,24800
YB22318,3D20形-24-142228,24800
YB22319,3D20形-24-142228,24800
YB22320,3D20形-24-142228,24800
YB22321,3D20形-24-142228,24800
YB22322,3D20形-24-142228,24800
YB22323,3D20形-24-142228,24800
YB22324,3D20形-24-142228,24800
SD27175,3D20形-19-142228,19800
SD27176,3D20形-19-142228,19800
IH28130,3D20形-19-142228,19800
IH28131,3D20形-19-142228,19800
YB22327,3D20形-24-142228,24800
YB22328,3D20形-24-142228,24800
CO84203,3L20形-14-102028,14800
KZ13254,3L20形-14-102026,14800
TA15230,3L20形-14-102026,14800
TA15244,3L20形-14-102027,14800
TA15251,3L20形-14-102026,14800
TA15253,3L20形-14-102028,14800
TA15258,3L20形-14-102028,14800
KZ13308,3L20-19-102026,17800
KZ13309,3L20-19-102026,17800
KZ13310,3L20-19-102026,17800
CO89301,3L20形-19-102026,19800
IH18304,3L20形-19-102026,19800
IH18314,3L20形-19-102026,19800
IH18317,3L20形-19-102027,19800
IH18318,3L20形-19-102027,19800
IH18321,3L20形-19-102025,19800
SC17334,3L20形-19-102028,19800
SC17335,3L20形-19-102028,19800
TA15309,3L20形-19-102028,19800
TA15310,3L20形-19-102026,19800
YB19301,3L20形-19-142228,19800
IH18502,3L20-24-102026,22800
IH18503,3L20-24-102027,22800
TA15515,3L20-24-102027,22800
CO85503,3L20形-24-102028,24800
CO85507,3L20形-24-102028,24800
CO85508,3L20形-24-102028,24800
IH18505,3L20形-24-102026,24800
IH18507,3L20形-24-102028,24800
IH18508,3L20形-24-102028,24800
IH18516,3L20形-24-102026,24800
IH18517,3L20形-24-102026,24800
IH18518,3L20形-24-102026,24800
IH18519,3L20形-24-102026,24800
IH18520,3L20形-24-102026,24800
IH18521,3L20形-24-102026,24800
IH18522,3L20形-24-102026,24800
IH18523,3L20形-24-102026,24800
TA15505,3L20形-24-102027,24800
TA15511,3L20形-24-102026,24800
TA15512,3L20形-24-102026,24800
TA15513,3L20形-24-102027,24800
TA15514,3L20形-24-102027,24800
IH18601,3L20形-29-102027,29800
IH18602,3L20形-29-102027,29800
KZ13601,3L20形-29-102027,29800
KZ13602,3L20形-29-102027,29800
TA15702,3L20形-34-102026,34800
TA15704,3L20形-34-102026,34800
TA15705,3L20形-34-102026,34800
PL1301,PL_L15形10000,10000
PL1302,PL_L15形10000,10000
PL1303,PL_L15形10000,10000
PL1304,PL_L15形10000,10000
PL1305,PL_L15形10000,10000
PL1306,PL_L15形10000,10000
PAL5001,PO_L7800形-270,7800
PAL5002,PO_L7800形-270,7800
PSL3001,PO_L7800形-270,7800
PSL3002,PO_L7800形-270,7800
PSL3003,PO_L7800形-270,7800
PSL3004,PO_L7800形-270,7800
PSL3005,PO_L7800形-270,7800
PYL1001,PO_L7800形-260,7800
PYL1002,PO_L7800形-270,7800
PYL1003,PO_L7800形-270,7800
PYL1004,PO_L7800形-270,7800
PYL1005,PO_L7800形-270,7800
PYL1006,PO_L7800形-270,7800
PYL1007,PO_L7800形-260,7800
PYL1009,PO_L7800形-270,7800
PYL1010,PO_L7800形-270,7800
PYL1011,PO_L7800形-270,7800
PYL1012,PO_L7800形-260,7800
PYL1013,PO_L7800形-260,7800
PYL1014,PO_L7800形-270,7800
PYL1015,PO_L7800形-260,7800
PSL3006,PO_L7800形-270,7800
PSL3007,PO_L7800形-270,7800
CO84102,3L20形-09-102028,9800
KZ13017,3L20形-09-102028,9800
KZ13023,3L20形-09-102028,9800
KZ13024,3L20形-09-102028,9800
KZ13141,3L20形-09-102028,9800
KZ13144,3L20形-09-102028,9800
KZ13145,3L20形-09-102028,9800
SA16017,3L20形-09-102028,9800
SA16022,3L20形-09-102028,9800
SA16024,3L20形-09-102028,9800
SA16110,3L20形-09-102028,9800
SA16111,3L20形-09-102028,9800
SC17003,3L20形-09-102028,9800
SC17004,3L20形-09-102028,9800
SC17005,3L20形-09-102028,9800
SC17105,3L20形-09-102028,9800
SC17109,3L20形-09-102028,9800
SC17114,3L20形-09-102028,9800
SC17115,3L20形-09-102028,9800
SC17116,3L20形-09-102028,9800
SC17117,3L20形-09-102028,9800
SC17118,3L20形-09-102028,9800
SC17119,3L20形-09-102028,9800
SC17120,3L20形-09-102028,9800
SC17121,3L20形-09-102028,9800
TA15008,3L20形-09-102028,9800
TA15009,3L20形-09-102028,9800
TA15012,3L20形-09-102028,9800
TA15014,3L20形-09-102028,9800
TA15015,3L20形-09-102028,9800
TA15016,3L20形-09-102028,9800
TA15109,3L20形-09-102028,9800
TA15117,3L20形-09-102028,9800
TA15122,3L20形-09-102028,9800
TA15123,3L20形-09-102028,9800
TA15125,3L20形-09-102028,9800
TA15127,3L20形-09-102028,9800
TA15129,3L20形-09-102028,9800
TA15130,3L20形-09-102028,9800
TA15131,3L20形-09-102028,9800
IH18320,3L20形-19-102028,19800
KZ13315,3L20形-19-102026,19800
KZ13317,3L20形-19-102027,19800
SC17306,3L20形-19-102026,19800
SC17318,3L20形-19-102026,19800
SC17328,3L20形-19-102028,19800
SC17329,3L20形-19-102026,19800
SC17330,3L20形-19-102028,19800
SC17331,3L20形-19-102028,19800
SC17332,3L20形-19-102028,19800
SC17333,3L20形-19-102028,19800
TA15313,3L20形-19-102026,19800
TA15314,3L20形-19-102027,19800
TA15315,3L20形-19-102027,19800
TA15316,3L20形-19-102028,19800
TA15317,3L20形-19-102028,19800
TA15318,3L20形-19-102028,19800
YB19306,3L20形-19-102027,19800
YB19307,3L20形-19-102027,19800
YB19308,3L20形-19-102027,19800
YB19309,3L20形-19-102026,19800
CO85505,3L20形-24-102028,24800
CO85506,3L20形-24-102028,24800
TA15504,3L20形-24-102027,24800
CO84202,3L20形-14-102028,14800
IH14201,3L20形-14-102024,14800
IH14202,3L20形-14-102024,14800
IH14203,3L20形-14-102024,14800
IH14204,3L20形-14-102024,14800
IH14205,3L20形-14-102024,14800
IH18212,3L20形-14-102028,14800
IH18216,3L20形-14-102028,14800
IH18222,3L20形-14-102026,14800
KZ13249,3L20形-14-102028,14800
KZ13253,3L20形-14-102026,14800
KZ13256,3L20形-14-102028,14800
KZ13257,3L20-14-102027,12800
SA16201,3L20形-14-102028,14800
SA16202,3L20形-14-102028,14800
SA16203,3L20-14-102026,12800
SA16204,3L20-14-102026,12800
SC17209,3L20形-14-102026,14800
SC17211,3L20形-14-102026,14800
SC17212,3L20形-14-102026,14800
SC17213,3L20形-14-102026,14800
SC17217,3L20形-14-102028,14800
SC17218,3L20形-14-102028,14800
SC17227,3L20形-14-102026,14800
SC17231,3L20形-14-102028,14800
SC17233,3L20形-14-102028,14800
SC17244,3L20形-14-102026,14800
SC17245,3L20形-14-102028,14800
SC17246,3L20形-14-102028,14800
SC17247,3L20形-14-102028,14800
SC17248,3L20形-14-102028,14800
SC17249,3L20形-14-102028,14800
SC17250,3L20形-14-102028,14800
SC17251,3L20形-14-102026,14800
SC17252,3L20形-14-102026,14800
SC17253,3L20形-14-102028,14800
SC17254,3L20形-14-142228,14800
SC17255,3L20形-14-142228,14800
TA15225,3L20形-14-102026,14800
TA15232,3L20形-14-102026,14800
TA15240,3L20形-14-102028,14800
TA15245,3L20形-14-102028,14800
TA15252,3L20形-14-102027,14800
TA15254,3L20形-14-102027,14800
TA15255,3L20形-14-102027,14800
TA15256,3L20形-14-102027,14800
TA15257,3L20形-14-102027,14800
YB19201,3L20形-14-102024,14800
YB19202,3L20形-14-102024,14800
YB19310,3L20形-19-102026,19800
TBC302A,厚K3980B,3980
TBC302B,厚K3980B,3980
TBC302C,厚K3980A,3980
TBC302D,厚K3980A,3980
YUD318A,厚K3980A2,3980
SFD304A,厚K3980A,3980
SFD304B,厚K3980B,3980
SFD304C,厚K3980A,3980
SFD304D,厚K3980B,3980
SFD304E,厚K3980A,3980
SFD304F,厚K3980A,3980
MAD401A,厚K3980A,3980
MAD401B,厚K3980A,3980
YUD321A,厚K100_3980A3,3980
KMD402A,厚K3980A,3980
KMD402B,厚K3980A,3980
YUD322A,厚K3980A2,3980
YUD322B,厚K3980A2,3980
SFD303A,厚K3980A,3980
SFD303B,厚K3980A,3980
YUD323A,厚K3980A2,3980
YUD323B,厚K3980A2,3980
YUD320A,厚K3980A2,3980
YUD315A,厚K3980A2,3980
YUD315B,厚K3980A2,3980
TBC303A,厚K3980A,3980
TBC303B,厚K3980A,3980
SCD307A,厚K3980A2,3980
SCD307B,厚K3980A2,3980
SCD307C,厚K3980A2,3980
YUD419A,厚K3980A2,3980
YUD419B,厚K3980A2,3980
YUD317A,厚K3980A2,3980
YUD317B,厚K3980A2,3980
YUD319A,厚K3980A3,3980
YUD319B,厚K3980A3,3980
TBC301A,厚K100_3980A,3980
TBC301B,厚K100_3980A,3980
KMD401A,厚K3980A,3980
KMD401C,厚K3980A2,3980
KMD401D,厚K3980A2,3980
TBC305A,厚K100_3980A3,3980
TBC502A,厚K4980B,4980
TBC502B,厚K4980A,4980
SFD404A,厚K4980A,4980
SFD404B,厚K4980A,4980
MAD402B,厚K100_4980A,4980
KZD437A,厚K4980A2,4980
TBC501A,厚K4980A,4980
TBC501B,厚K4980A,4980
KZD535A,厚K4980A2,4980
KZD535B,厚K4980A2,4980
YUD425A,厚K4980A2,4980
YUD425B,厚K4980A2,4980
YUD425C,厚K4980A2,4980
YUD425D,厚K4980A2,4980
YUD425E,厚K4980A2,4980
YUD425F,厚K4980A2,4980
KZD421A,厚K4980A2,4980
YUD422A,厚K4980A2,4980
YUD422B,厚K4980A2,4980
SCD417A,厚K4980A2,4980
SCD417B,厚K4980A2,4980
TBC405A,厚K4980A2,4980
TBC405B,厚K4980A2,4980
KZD435B,厚K4980A2,4980
YUD426A,厚K4980A2,4980
YUD426B,厚K4980A2,4980
TBC404A,厚K4980A2,4980
TBC404B,厚K4980A2,4980
YUD421A,厚K4980A2,4980
YUD421B,厚K4980A2,4980
KZD513A,厚K5980A2,5980
KZD513B,厚K5980B,5980
KZD513C,厚K5980A2,5980
KZD513D,厚K5980B,5980
KZD513E,厚K5980B,5980
KZD513F,厚K5980無,5980
KZD513G,厚K5980A2,5980
KZD513H,厚K5980無,5980
KZD513J,厚K5980A2,5980
KZD513K,厚K5980A2,5980
KZD513M,厚K5980無,5980
KZD438A,厚K4980A2,4980
KZD438B,厚K4980A2,4980
KZD438C,厚K4980A2,4980
KZL106A,レK1980B,1980
KZL105B,レK1980B,1980
AOL204A,レK2980A2,2980
MAL202A,レK2980A,2980
AOL201A,レK2980A2,2980
SCL204A,レK2980A2,2980
SAL211A,レK2980A2,2980
KZL217A,レK2980A2,2980
KZL212A,レK2980B,2980
KZL221A,レK2980A2,2980
KZL220A,レK2980A2,2980
KZL224A,レK2980A2,2980
KZL219A,レK2980A2,2980
SCL208A,レK2980A2,2980
SCL307A,レK2980A2,2980
AOL301A,レK2980A2,2980
AOL203A,レK2980A2,2980
MAL203A,レK2980A,2980
SCL203A,レK2980A2,2980
AOL202A,レK2980A2,2980
AOL302A,レK2980A2,2980
KZL225A,レK2980A3,2980
SCL205A,レK2980A2,2980
SCL205B,レK2980A3,2980
SCL205C,レK2980A3,2980
SAL322A,レK2980A2,2980
SCL207A,レK2980A2,2980
YUL202A,レK2980A2,2980
YUL303A,レK3980A2,3980
KZL355A,レK3980A2,3980
SAL210A,レK2980A2,2980
SL2401,3D2形-22-shibira,22223
SL2402,3D2形-22-shibira,22223
SL2405,3D2形-22-shibira,22223
SL2406,3D2形-22-shibira,22223
SL2407,3D2形-22-shibira,22223
SL2408,3D2形-22-shibira,22223
SL2411,3D2形-22-shibira,22223
SL2412,3D2形-22-shibira,22223
SL2413,3D2形-22-shibira,22223
SL2414,3D2形-22-shibira,22223
SL2421,3D2形-22-shibira,22223
SL2422,3D2形-22-shibira,22223
SL2423,3D2形-22-shibira,22223
SL2424,3D2形-22-shibira,22223
SL2425,3D2形-22-shibira,22223
SL2426,3D2形-22-shibira,22223
SL2427,3D2形-22-shibira,22223
SL2428,3D2形-22-shibira,22223
SL2429,3D2形-22-shibira,22223
SL2430,3D2形-22-shibira,22223
SL2431,3D2形-22-shibira,22223
SL2436,3D2形-22-shibira,22223
SL2437,3D2形-22-shibira,22223
SL2438,3D2形-22-shibira,22223
SL2439,3D2形-22-shibira,22223
SL2440,3D2形-22-shibira,22223
SL2441,3D2形-22-shibira,22223
SL2442,3D2形-22-shibira,22223
SL2443,3D2形-22-shibira,22223
SL2444,3D2形-22-shibira,22223
SL2445,3D2形-22-shibira,22223
SL2446,3D2形-22-shibira,22223
SL2447,3D2形-22-shibira,22223
SL1401,3L2形-17-shibiraA,17500
SL1402,3L2形-17-shibiraA,17500
SL1407,3L2形-17-shibiraB,13889
SL1408,3L2形-17-shibiraB,13889
SL1409,3L2形-17-shibiraB,13889
