商品コード,検索_テイスト_モダン,検索_テイスト_ナチュラル,検索_テイスト_クラシック,検索_テイスト_エレガンス,検索_テイスト_カジュアル,検索_テイスト_無地,
TBC302A,0,0,0,0,0,1,
TBC302C,0,0,0,0,0,1,
TBC302D,0,0,0,0,0,1,
TBC302B,0,0,0,0,0,1,
YUD318A,0,0,0,0,1,0,
SFD304A,0,0,0,0,0,1,
SFD304D,0,0,0,0,0,1,
SFD304C,0,0,0,0,0,1,
SFD304F,0,0,0,0,0,1,
SFD304E,0,0,0,0,0,1,
SFD304B,0,0,0,0,0,1,
MAD401A,0,0,0,0,1,0,
MAD401B,0,0,0,0,1,0,
YUD321A,0,0,0,0,1,0,
KMD402A,1,0,0,0,0,0,
KMD402B,1,0,0,0,0,0,
YUD322B,0,1,0,0,0,0,
YUD322A,0,1,0,0,0,0,
SFD303B,0,0,0,1,0,0,
SFD303A,0,0,0,1,0,0,
YUD323B,0,0,0,1,0,0,
YUD323A,0,0,0,1,0,0,
YUD320A,0,0,0,0,1,0,
YUD315A,0,0,0,1,0,0,
YUD315B,0,0,0,1,0,0,
TBC303A,0,0,0,0,1,0,
TBC303B,0,0,0,0,1,0,
SCD307B,1,0,0,0,0,0,
SCD307C,1,0,0,0,0,0,
SCD307A,1,0,0,0,0,0,
YUD419A,0,0,0,0,1,0,
YUD419B,0,0,0,0,1,0,
YUD317A,1,0,0,0,0,0,
YUD317B,1,0,0,0,0,0,
YUD319B,1,0,0,0,0,0,
YUD319A,1,0,0,0,0,0,
TBC301B,0,1,0,0,0,0,
TBC301A,0,1,0,0,0,0,
KMD401C,1,0,0,0,0,0,
KMD401D,1,0,0,0,0,0,
KMD401A,1,0,0,0,0,0,
TBC305A,0,0,0,0,1,0,
TBC502A,0,1,0,0,0,0,
TBC502B,0,1,0,0,0,0,
SFD404A,1,0,0,0,0,0,
SFD404B,1,0,0,0,0,0,
MAD402B,0,1,0,0,0,0,
KZD437A,0,0,0,0,1,0,
TBC501B,1,0,0,0,0,0,
TBC501A,1,0,0,0,0,0,
KZD535B,0,0,0,1,0,0,
KZD535A,0,0,0,1,0,0,
YUD425F,0,0,0,0,0,1,
YUD425E,0,0,0,0,0,1,
YUD425D,0,0,0,0,0,1,
YUD425B,0,0,0,0,0,1,
YUD425A,0,0,0,0,0,1,
YUD425C,0,0,0,0,0,1,
KZD529C,1,0,0,0,0,0,
KZD529B,1,0,0,0,0,0,
KZD438C,1,0,0,0,0,0,
KZD421A,0,1,0,0,0,0,
YUD422A,0,0,1,0,0,0,
YUD422B,0,0,1,0,0,0,
SCD417A,1,0,0,0,0,0,
SCD417B,1,0,0,0,0,0,
TBC405A,0,0,0,0,1,0,
TBC405B,0,0,0,0,1,0,
KZD435B,0,0,0,0,1,0,
YUD426B,0,0,0,1,0,0,
YUD426A,0,0,0,1,0,0,
TBC404A,0,0,0,0,1,0,
TBC404B,0,0,0,0,1,0,
YUD421A,1,0,0,0,0,0,
YUD421B,1,0,0,0,0,0,
KZD513B,0,0,0,0,0,1,
KZD513D,0,0,0,0,0,1,
KZD513H,0,0,0,0,0,1,
KZD513F,0,0,0,0,0,1,
KZD513J,0,0,0,0,0,1,
KZD513K,0,0,0,0,0,1,
KZD513G,0,0,0,0,0,1,
KZD513C,0,0,0,0,0,1,
KZD513E,0,0,0,0,0,1,
KZD513M,0,0,0,0,0,1,
KZD513A,0,0,0,0,0,1,
YUD707B,0,0,1,0,0,0,
YUD707A,0,0,1,0,0,0,
SCD703A,0,0,0,1,0,0,
YUD316A,0,0,0,0,1,0,
TBC406A,0,0,0,0,1,0,
SCD510A,0,0,0,1,0,0,
SCD510B,0,0,0,1,0,0,
KZL106A,0,0,0,0,0,1,
KZL105B,0,0,0,0,1,0,
AOL204A,1,0,0,0,1,0,
SCL206A,1,0,0,0,0,0,
MAL202A,0,0,0,0,1,0,
AOL201A,1,0,0,0,0,0,
SCL204A,0,1,0,0,0,0,
SAL211A,0,0,0,0,0,1,
KZL217A,0,0,0,0,0,1,
SAL210A,1,0,0,0,0,0,
KZL212A,1,0,0,0,0,0,
KZL221A,0,0,1,1,0,0,
KZL220A,0,0,0,0,0,1,
KZL224A,0,1,1,0,0,0,
KZL219A,0,0,0,0,0,1,
SCL208A,1,0,0,0,0,0,
AOL301A,1,0,0,0,0,0,
AOL203A,0,0,0,0,1,0,
MAL203A,0,0,0,0,1,0,
SCL203A,1,0,0,0,0,0,
AOL202A,0,0,1,1,0,0,
AOL302A,0,1,0,0,0,0,
KZL225A,0,0,0,0,1,0,
SCL205A,0,0,0,0,0,1,
SCL205C,0,0,0,0,0,1,
SCL205B,0,0,0,0,0,1,
SAL322A,0,0,0,0,0,1,
SCL207A,1,0,0,0,0,0,
YUL202A,1,0,0,0,0,0,
YUL303A,0,0,0,0,0,1,
KZL359A,0,0,0,0,1,0,
SCL307A,0,0,0,1,0,0,
KZL355A,0,0,0,0,1,0,
YUL201A,0,0,0,0,0,0,
CO74103,0,1,0,0,0,0,
CO74104,0,1,0,0,0,0,
CO74118,1,0,0,0,0,0,
CO74119,1,0,0,0,0,0,
CO74120,1,0,0,0,0,0,
CO74121,1,0,0,0,0,0,
CO74122,1,0,0,0,0,0,
CO74123,0,0,0,1,0,0,
CO74124,0,0,0,1,0,0,
CO74125,0,1,0,0,0,0,
CO74126,0,1,0,0,0,0,
CO74129,0,1,0,0,0,0,
CO74130,0,1,0,0,0,0,
CO74131,0,1,0,0,0,0,
CO74132,0,1,0,0,0,0,
CO74133,0,1,0,0,0,0,
CO74134,0,1,0,0,0,0,
CO74135,0,1,0,0,0,0,
CO74136,0,1,0,0,0,0,
CO74137,1,0,0,0,0,0,
CO74138,1,0,0,0,0,0,
CO74139,1,0,0,0,0,0,
CO74140,1,0,0,0,0,0,
CO78307,1,0,0,0,0,0,
CO78308,1,0,0,0,0,0,
CO78309,1,0,0,0,0,0,
CO78312,1,0,0,0,0,0,
CO78313,1,0,0,0,0,0,
CO79301,1,0,0,0,0,0,
FA21071,0,0,1,0,0,0,
FA21072,0,0,1,0,0,0,
FA21094,0,0,0,1,0,0,
FA21095,0,0,0,1,0,0,
FA21101,0,0,0,1,0,0,
FA21102,0,0,0,1,0,0,
FA21162,0,1,0,0,0,0,
FA21163,0,1,0,0,0,0,
FA21174,1,0,0,0,0,0,
FA21175,1,0,0,0,0,0,
FA21325,1,0,0,0,0,0,
FA21326,1,0,0,0,0,0,
FA21330,1,0,0,0,0,0,
FA21331,1,0,0,0,0,0,
FA21343,0,1,0,0,0,0,
FA21344,0,1,0,0,0,0,
FA21360,0,0,0,1,0,0,
FA21361,0,0,0,1,0,0,
FB21023,0,0,0,0,1,0,
FB21030,0,0,1,0,0,0,
FB21031,0,0,1,0,0,0,
FB21053,0,0,0,1,0,0,
FB21054,0,0,0,1,0,0,
FB21059,1,0,0,0,0,0,
FB21060,1,0,0,0,0,0,
FB21061,1,0,0,0,0,0,
FB21071,0,0,0,0,1,0,
FB21072,0,0,0,0,1,0,
FB21073,0,1,0,0,0,0,
FB21074,0,1,0,0,0,0,
FB21078,0,1,0,0,0,0,
FB21079,0,1,0,0,0,0,
IH26101,0,0,0,0,0,1,
IH26102,0,0,0,0,0,1,
IH26103,0,0,0,0,0,1,
IH26104,0,0,0,0,0,1,
IH26105,0,0,0,0,0,1,
IH26106,0,0,0,0,0,1,
IH26107,0,0,0,0,0,1,
IH26108,0,0,0,0,0,1,
IH26109,0,0,0,0,0,1,
IH26110,0,0,0,0,0,1,
IH26111,0,0,0,0,0,1,
IH26112,0,0,0,0,0,1,
IH28046,0,0,0,0,0,1,
IH28047,0,0,0,0,0,1,
IH28048,0,0,0,0,0,1,
IH28049,1,0,0,0,0,0,
IH28050,1,0,0,0,0,0,
IH28126,0,1,0,0,0,0,
IH28127,0,1,0,0,0,0,
IH28315,0,1,0,0,0,0,
IH28316,0,1,0,0,0,0,
IH28319,1,0,0,0,0,0,
IH28320,1,0,0,0,0,0,
IH28321,1,0,0,0,0,0,
IH28322,0,0,0,0,0,1,
IH28323,0,0,0,0,0,1,
IH28324,0,0,0,0,0,1,
IH28325,0,1,0,0,0,0,
IH28326,0,1,0,0,0,0,
SC27099,1,0,0,0,0,0,
SD27001,1,0,0,0,0,0,
SD27004,1,0,0,0,0,0,
SD27015,0,1,0,0,0,0,
SD27016,0,1,0,0,0,0,
SD27017,0,0,0,0,0,1,
SD27018,0,0,0,0,0,1,
SD27019,0,0,0,0,0,1,
SD27020,0,0,0,0,0,1,
SD27021,0,0,0,0,0,1,
SD27022,0,0,0,0,0,1,
SD27023,0,0,0,0,0,1,
SD27024,0,0,0,0,0,1,
SD27025,0,0,0,0,0,1,
SD27026,0,0,0,0,0,1,
SD27027,0,0,0,0,0,1,
SD27028,0,0,0,0,0,1,
SD27029,0,0,0,0,0,1,
SD27030,0,0,0,0,0,1,
SD27031,0,0,0,0,0,1,
SD27032,0,0,0,0,0,1,
SD27033,0,0,0,0,0,1,
SD27038,0,0,0,1,0,0,
SD27039,0,0,0,1,0,0,
SD27048,1,0,0,0,0,0,
SD27049,1,0,0,0,0,0,
SD27055,1,0,0,0,0,0,
SD27056,1,0,0,0,0,0,
SD27059,0,1,0,0,0,0,
SD27060,0,1,0,0,0,0,
SD27061,0,0,0,0,1,0,
SD27062,0,0,0,0,1,0,
SD27066,0,0,0,0,0,1,
SD27067,0,0,0,0,0,1,
SD27068,0,0,0,0,0,1,
SD27069,0,0,0,0,0,1,
SD27070,0,0,0,0,0,1,
SD27071,0,0,0,0,0,1,
SD27077,1,0,0,0,0,0,
SD27078,1,0,0,0,0,0,
SD27079,1,0,0,0,0,0,
SD27080,0,0,1,0,0,0,
SD27081,0,0,1,0,0,0,
SD27082,0,0,1,0,0,0,
SD27083,0,0,1,0,0,0,
SD27084,0,0,0,0,1,0,
SD27087,0,0,0,0,1,0,
SD27088,0,1,0,0,0,0,
SD27089,0,1,0,0,0,0,
SD27090,0,0,0,1,0,0,
SD27091,0,0,0,1,0,0,
SD27092,0,0,0,1,0,0,
SD27093,0,0,0,1,0,0,
SD27126,1,0,0,0,0,0,
SD27127,1,0,0,0,0,0,
SD27128,1,0,0,0,0,0,
SD27129,1,0,0,0,0,0,
SD27130,1,0,0,0,0,0,
SD27131,1,0,0,0,0,0,
SD27132,0,0,0,1,0,0,
SD27133,0,0,0,1,0,0,
SD27134,0,0,0,1,0,0,
SD27135,1,0,0,0,0,0,
SD27136,1,0,0,0,0,0,
SD27137,1,0,0,0,0,0,
SD27138,1,0,0,0,0,0,
SD27139,0,1,0,0,0,0,
SD27140,0,1,0,0,0,0,
SD27141,0,0,0,1,0,0,
SD27142,0,0,0,1,0,0,
SD27143,0,0,0,1,0,0,
SD27144,0,0,0,1,0,0,
SD27145,0,0,0,1,0,0,
SD27146,0,1,0,0,0,0,
SD27147,0,1,0,0,0,0,
SD27154,1,1,0,0,0,0,
SD27155,1,0,0,0,0,0,
SD27156,1,0,0,0,0,0,
SD27157,0,0,0,1,0,0,
SD27158,0,0,0,1,0,0,
SD27166,0,1,0,0,0,0,
SD27167,0,1,0,0,0,0,
SD27168,0,1,0,0,0,0,
SD27169,0,1,0,0,0,0,
SD27170,0,1,0,0,0,0,
SD27171,0,0,0,1,0,0,
SD27172,0,0,0,1,0,0,
SD27173,0,0,0,1,0,0,
SD27174,0,0,0,1,0,0,
SU25103,0,0,0,1,0,0,
SU25104,0,0,0,1,0,0,
SU25107,0,0,0,1,0,0,
SU25108,0,0,0,1,0,0,
SU25113,1,0,0,0,0,0,
SU25114,1,0,0,0,0,0,
SU25141,0,1,0,0,0,0,
SU25154,0,0,0,1,0,0,
SU25155,0,0,0,1,0,0,
SU25156,0,0,0,1,0,0,
SU25157,0,0,0,1,0,0,
SU25158,0,0,0,1,0,0,
SU25159,0,0,0,1,0,0,
YB22016,0,1,0,0,0,0,
YB22017,0,1,0,0,0,0,
YB22111,0,1,0,0,0,0,
YB22112,0,1,0,0,0,0,
YB22116,0,1,0,0,0,0,
YB22117,0,1,0,0,0,0,
YB22123,1,0,0,0,0,0,
YB22125,0,1,0,0,0,0,
YB22126,0,1,0,0,0,0,
YB22127,0,1,0,0,0,0,
YB22128,0,1,0,0,0,0,
YB22131,1,0,0,0,0,0,
YB22132,1,0,0,0,0,0,
YB22133,1,0,0,0,0,0,
YB22134,1,0,0,0,0,0,
YB22311,1,0,0,0,0,0,
YB22312,1,0,0,0,0,0,
YB22313,0,1,0,0,0,0,
YB22314,0,1,0,0,0,0,
YB22315,0,1,0,0,0,0,
YB22316,0,1,0,0,0,0,
YB22317,0,0,0,0,0,1,
YB22318,0,0,0,0,0,1,
YB22319,0,0,0,0,0,1,
YB22320,0,0,0,0,0,1,
YB22321,0,0,0,0,0,1,
CO79302,1,0,0,0,0,0,
IH28130,0,1,0,0,0,0,
IH28131,0,1,0,0,0,0,
SD27151,1,0,0,0,0,0,
SD27162,1,0,0,0,0,0,
SD27163,1,0,0,0,0,0,
SD27175,0,1,0,0,0,0,
SD27176,0,1,0,0,0,0,
YB22322,1,0,0,0,0,1,
YB22323,1,0,0,0,0,1,
YB22324,1,0,0,0,0,1,
YB22327,0,1,0,0,0,0,
YB22328,0,1,0,0,0,0,
BU31251,0,0,0,1,0,0,
BU31252,0,0,0,1,0,0,
BU31253,1,0,0,0,0,0,
BU31254,1,0,0,0,0,0,
BU31255,1,0,0,0,0,0,
BU31256,1,0,0,0,0,0,
BU31257,1,0,0,0,0,0,
BU31327,0,0,0,1,0,0,
BU31328,0,0,0,1,0,0,
BU31329,0,0,0,1,0,0,
BU31330,0,0,0,1,0,0,
BU31353,0,0,0,1,0,0,
BU31369,0,0,0,1,0,0,
BU31370,0,0,0,1,0,0,
BU31373,0,0,0,1,0,0,
BU31374,0,0,0,1,0,0,
BU31385,1,0,0,0,0,0,
BU31394,1,0,0,0,0,0,
BW31304,0,0,0,1,0,0,
BW31305,0,0,0,1,0,0,
BW31306,1,0,0,0,0,0,
BW31307,0,1,0,0,0,0,
BW31308,0,1,0,0,0,0,
BW31309,0,1,0,0,0,0,
BW31311,0,1,0,0,0,0,
BW31312,0,1,0,0,0,0,
BW31313,0,1,0,0,0,0,
CO51403,0,0,0,1,0,0,
CO51405,0,0,0,1,0,0,
CO51406,0,0,0,1,0,0,
CO51410,1,0,0,0,0,0,
CO51411,1,0,0,0,0,0,
CO51412,0,0,0,1,0,0,
CO52503,0,0,1,0,0,0,
CO52504,0,0,1,0,0,0,
CO53501,0,0,1,0,0,0,
CO53502,0,0,1,0,0,0,
CO56401,0,0,0,1,0,0,
CO56402,0,0,0,1,0,0,
CO58404,0,0,0,1,0,0,
CO58408,0,0,0,1,0,0,
CO58409,0,0,0,1,0,0,
CO58410,0,0,0,1,0,0,
CO58411,0,0,0,1,0,0,
CO58501,0,0,1,0,0,0,
CO58502,0,0,1,0,0,0,
CO58507,0,0,0,1,0,0,
CO58508,0,0,0,1,0,0,
CO58513,0,0,1,0,0,0,
CO58514,0,0,1,0,0,0,
CO58601,0,0,1,0,0,0,
CO58602,0,0,1,0,0,0,
CO59401,0,0,1,0,0,0,
CO59403,0,0,1,0,0,0,
CO59404,0,0,1,0,0,0,
CO59405,0,0,1,0,0,0,
CO59505,1,0,0,0,0,0,
CO59506,1,0,0,0,0,0,
CO59603,0,0,1,0,0,0,
CO59604,0,0,1,0,0,0,
IH33307,1,0,0,0,0,0,
IH33308,1,0,0,0,0,0,
IH33309,1,0,0,0,0,0,
IH33310,1,0,0,0,0,0,
IH33401,0,0,1,0,0,0,
IH33407,0,0,0,1,0,0,
IH33408,0,0,0,1,0,0,
IH33414,1,0,0,0,0,0,
IH33415,1,0,0,0,0,0,
IH33423,0,0,0,1,0,0,
IH33432,0,0,1,0,0,0,
IH33433,0,0,1,0,0,0,
IH33460,1,0,0,0,0,0,
IH33473,1,0,0,0,0,0,
IH33474,1,0,0,0,0,0,
IH33475,1,0,0,0,0,0,
IH33476,1,0,0,0,0,0,
IH33481,0,0,1,0,0,0,
IH33482,0,0,1,0,0,0,
IH33484,0,0,1,0,0,0,
IH33495,0,0,0,1,0,0,
IH33496,0,0,0,1,0,0,
IH33497,1,0,0,0,0,0,
IH33498,1,0,0,0,0,0,
IH33499,0,0,0,1,0,0,
IH33525,1,0,0,0,0,0,
IH33526,1,0,0,0,0,0,
IH33533,1,0,0,0,0,0,
IH33534,1,0,0,0,0,0,
IH34401,0,0,0,1,0,0,
IH34402,1,0,0,0,0,0,
IH34403,1,0,0,0,0,0,
IH34404,0,0,1,0,0,0,
IH34405,0,0,1,0,0,0,
IH34406,0,0,1,0,0,0,
IH34407,0,0,1,0,0,0,
IH34408,0,1,0,1,0,0,
IH34409,0,1,0,1,0,0,
IH34410,0,0,0,1,0,0,
IH34411,0,0,0,1,0,0,
IH34412,0,0,0,1,0,0,
IH34413,0,0,0,1,0,0,
IH34414,0,0,0,1,0,0,
IH34415,0,0,0,1,0,0,
IH34416,0,0,0,1,0,0,
IH34417,1,0,0,0,0,0,
IH34420,1,0,0,0,0,0,
IH34421,1,0,0,0,0,0,
IH34422,1,0,0,0,0,0,
IH34423,0,0,0,1,0,0,
IH34424,0,0,0,1,0,0,
IH34426,0,0,0,1,0,0,
IH34427,0,1,0,0,0,0,
IH34428,0,1,0,0,0,0,
IH34429,1,0,0,0,0,0,
IH34430,1,0,0,0,0,0,
IH34431,1,0,0,0,0,0,
IH34432,1,0,0,0,0,0,
SC37301,1,0,0,0,0,0,
SC37302,1,0,0,0,0,0,
SC37303,1,0,0,0,0,0,
SC37304,0,0,0,1,0,0,
SC37305,0,0,0,1,0,0,
SC37306,0,0,0,1,0,0,
SC37307,0,0,0,1,0,0,
BW31316,0,0,0,1,0,0,
IH33457,0,0,0,1,0,0,
IH33483,0,0,1,0,0,0,
IH34418,1,,,,,,
CO84203,1,0,0,0,0,0,
CO85503,1,0,0,0,0,0,
CO85507,1,0,0,0,0,0,
CO85508,1,0,0,0,0,0,
CO89301,0,0,1,0,0,0,
IH18304,0,0,0,1,0,0,
IH18314,0,0,0,1,0,0,
IH18317,1,0,0,0,0,0,
IH18318,1,0,0,0,0,0,
IH18321,1,0,0,0,0,0,
IH18502,0,0,1,0,0,0,
IH18503,0,0,1,0,0,0,
IH18505,0,0,0,1,0,0,
IH18507,0,0,0,1,0,0,
IH18508,0,0,0,1,0,0,
IH18516,0,0,1,0,0,0,
IH18517,0,1,0,1,0,0,
IH18518,0,1,0,1,0,0,
IH18519,0,1,0,1,0,0,
IH18520,0,1,0,1,0,0,
IH18521,0,1,0,1,0,0,
IH18522,0,1,0,0,0,0,
IH18523,0,1,0,0,0,0,
IH18601,0,0,1,0,0,0,
IH18602,0,0,1,0,0,0,
KZ13254,0,0,0,1,0,0,
KZ13308,0,0,0,1,0,0,
KZ13309,0,1,0,0,0,0,
KZ13310,0,1,0,1,0,0,
KZ13601,0,1,0,1,0,0,
KZ13602,0,1,0,1,0,0,
SC17334,1,0,0,0,0,0,
SC17335,1,0,0,0,0,0,
TA15230,1,0,0,0,0,0,
TA15244,0,1,0,1,0,0,
TA15251,0,1,0,1,0,0,
TA15253,0,1,0,1,0,0,
TA15258,1,0,0,0,0,0,
TA15309,0,0,0,1,0,0,
TA15310,0,1,0,0,0,0,
TA15505,0,1,0,1,0,0,
TA15511,0,1,0,1,0,0,
TA15512,0,1,0,0,0,0,
TA15513,1,0,0,0,0,0,
TA15514,1,0,0,0,0,0,
TA15515,0,0,0,1,0,0,
TA15702,0,0,1,0,0,0,
TA15704,0,0,1,0,0,0,
TA15705,0,0,1,0,0,0,
YB19301,0,0,1,0,0,0,
CO84102,1,0,0,0,1,0,
CO84202,1,0,0,0,1,0,
CO85505,1,1,0,1,0,0,
CO85506,1,0,0,0,0,0,
IH14201,1,0,0,0,0,0,
IH14202,1,0,0,0,0,0,
IH14203,1,0,0,0,0,0,
IH14204,1,0,0,0,0,0,
IH14205,1,1,0,0,0,1,
IH18212,1,1,0,0,0,1,
IH18216,0,0,0,0,1,0,
IH18222,0,0,0,0,1,0,
IH18320,0,0,0,0,1,0,
KZ13017,0,1,0,0,1,0,
KZ13023,0,1,0,0,1,0,
KZ13024,0,1,0,0,1,0,
KZ13141,0,0,0,1,0,0,
KZ13144,0,1,0,0,0,1,
KZ13145,1,1,0,0,0,0,
KZ13249,1,1,0,0,0,0,
KZ13253,0,0,0,1,0,0,
KZ13256,0,1,0,0,0,0,
KZ13257,0,0,0,1,1,0,
KZ13315,0,1,0,0,0,0,
KZ13317,0,0,0,1,0,0,
KZ13603,0,1,0,0,1,0,
SA16015,0,0,0,0,0,0,
SA16017,0,1,0,0,0,0,
SA16020,0,0,0,0,0,0,
SA16022,1,0,0,0,0,0,
SA16024,0,0,0,0,0,0,
SA16110,0,1,0,0,0,1,
SA16111,0,1,0,0,0,1,
SA16201,0,1,0,0,0,1,
SA16202,0,1,0,0,0,1,
SA16203,0,1,0,0,0,1,
SA16204,0,1,0,0,0,1,
SC17003,0,1,0,0,0,0,
SC17004,0,0,0,0,1,0,
SC17005,1,1,0,0,0,0,
SC17105,0,0,0,1,0,0,
SC17109,1,1,0,0,1,0,
SC17114,0,1,0,0,0,1,
SC17115,1,0,0,0,1,0,
SC17116,1,0,0,0,1,0,
SC17117,1,0,0,0,1,0,
SC17118,1,0,0,0,1,0,
SC17119,1,0,0,0,1,0,
SC17120,0,1,0,0,0,1,
SC17121,0,1,0,0,0,0,
SC17209,1,1,0,0,0,0,
SC17211,1,1,0,0,0,1,
SC17212,1,1,0,0,0,1,
SC17213,0,1,0,0,1,0,
SC17217,1,0,0,0,0,0,
SC17218,1,0,0,0,0,0,
SC17227,1,0,0,0,0,0,
SC17231,0,0,0,1,0,0,
SC17233,1,0,0,0,0,0,
SC17244,1,0,0,0,0,0,
SC17245,0,0,0,0,0,1,
SC17246,0,0,0,0,0,1,
SC17247,1,0,0,0,0,0,
SC17248,0,1,0,0,0,0,
SC17249,0,1,0,0,0,0,
SC17250,1,0,0,0,0,0,
SC17251,0,1,0,1,0,1,
SC17252,0,1,0,1,0,1,
SC17253,0,0,0,0,0,1,
SC17254,0,0,0,0,0,1,
SC17255,0,0,0,0,0,1,
SC17306,1,0,0,0,0,0,
SC17318,1,1,0,0,0,0,
SC17328,1,1,0,0,1,0,
SC17329,1,1,0,0,1,0,
SC17330,0,1,0,0,0,0,
SC17331,0,1,0,0,0,0,
SC17332,1,0,0,0,0,0,
SC17333,1,0,0,0,0,0,
TA15225,1,1,0,0,0,0,
TA15008,0,1,0,0,0,0,
TA15009,0,1,0,0,0,0,
TA15012,0,1,0,0,0,0,
TA15014,0,0,0,0,1,0,
TA15015,0,0,0,0,1,0,
TA15016,0,0,0,0,1,0,
TA15109,0,0,1,1,0,0,
TA15117,1,1,0,0,0,0,
TA15122,1,1,0,0,0,0,
TA15123,0,0,0,1,0,0,
TA15125,0,1,0,0,0,1,
TA15127,0,0,0,1,0,0,
TA15129,0,0,0,1,0,0,
TA15130,0,0,0,1,0,0,
TA15131,0,0,0,1,0,0,
TA15232,0,1,0,0,0,1,
TA15240,1,0,0,0,0,0,
TA15245,0,1,0,0,0,0,
TA15252,0,0,0,1,0,0,
TA15254,1,0,0,0,0,0,
TA15255,1,0,0,0,0,0,
TA15256,0,1,0,0,0,1,
TA15257,0,1,0,0,0,1,
TA15313,0,1,0,0,1,0,
TA15314,0,0,0,1,0,0,
TA15315,0,0,0,1,0,0,
TA15316,0,1,0,0,0,1,
TA15317,0,1,0,0,0,1,
TA15318,1,0,0,0,0,1,
TA15504,0,0,0,1,0,0,
YB19201,0,0,0,0,1,0,
YB19202,1,0,0,0,0,0,
YB19306,0,1,0,0,0,0,
YB19307,0,1,0,0,0,0,
YB19308,0,1,0,0,0,0,
YB19309,1,1,0,0,0,0,
YB19310,0,1,0,0,0,0,
PL2309,0,0,0,0,1,0,
PL2310,0,0,0,0,1,0,
PL2311,0,0,0,0,1,0,
PL2315,0,0,0,0,1,0,
PL2318,0,0,0,0,1,0,
PL2319,0,0,0,0,1,0,
PL2320,0,0,0,0,1,0,
PL2321,0,0,0,0,1,0,
PL2328,0,0,0,0,1,0,
PL2329,0,0,0,0,1,0,
PL2330,0,0,0,0,1,0,
PL2331,0,0,0,0,1,0,
PL2332,0,0,0,0,1,0,
PL2333,0,0,0,0,1,0,
PL2335,0,0,0,0,1,0,
PL2336,0,0,0,0,1,0,
PL2338,0,0,0,0,1,0,
PL2339,0,0,0,0,1,0,
PL1301,0,0,0,0,1,0,
PL1302,0,0,0,0,1,0,
PL1303,0,0,0,0,1,0,
PL1304,0,0,0,0,1,0,
PL1305,0,0,0,0,1,0,
PL1306,0,0,0,0,1,0,
PYD2001,1,0,0,0,1,0,
PYD2002,1,0,0,0,0,0,
PYD2003,1,0,0,0,0,0,
PYD2004,1,0,0,0,0,0,
PYD2005,1,0,0,0,0,1,
PYD2006,0,0,0,0,0,1,
PYD2007,0,0,0,0,0,1,
PYD2009,0,1,0,0,0,1,
PYD2010,0,0,0,0,0,1,
PYD2012,1,0,0,0,0,1,
PYD2013,1,0,0,0,0,1,
PYD2014,1,0,0,0,0,1,
PYD2016,1,0,0,0,0,1,
PYD2017,0,0,0,0,1,0,
PYD2018,0,0,0,0,1,0,
PYD2019,0,0,0,0,1,0,
PYD2020,0,0,0,0,1,0,
PYD2021,1,0,0,0,0,0,
PYD2022,1,0,0,0,0,0,
PYD2023,0,1,0,0,0,0,
PYD2025,0,1,0,0,0,1,
PYD2027,1,0,0,0,0,0,
PYD2028,1,0,0,0,0,0,
PYD2029,1,0,0,0,1,0,
PYD2030,1,1,0,0,0,0,
PYD2031,0,1,0,0,0,1,
PYD2032,0,0,0,0,0,1,
PYD2033,0,1,0,0,0,0,
PSD4001,1,0,0,0,0,0,
PSD4002,1,0,0,0,0,0,
PSD4003,1,0,0,0,0,0,
PSD4004,0,0,0,0,0,1,
PSD4005,0,0,0,0,0,1,
PSD4006,0,0,0,0,0,1,
PSD4008,0,0,0,0,0,1,
PSD4009,0,0,0,0,0,1,
PYL1001,0,1,0,0,0,1,
PYL1002,0,1,0,0,0,1,
PYL1003,0,1,0,0,0,1,
PYL1004,1,0,0,0,0,1,
PYL1005,1,0,0,0,0,1,
PYL1006,1,0,0,0,0,0,
PYL1007,1,0,0,0,0,0,
PYL1009,0,0,0,0,1,0,
PYL1010,0,0,0,0,1,0,
PYL1011,1,0,0,0,0,0,
PYL1012,0,0,0,0,1,0,
PYL1013,1,0,0,0,0,0,
PYL1014,0,1,0,0,0,0,
PYL1015,0,0,0,0,1,0,
PSL3001,0,0,0,0,1,0,
PSL3002,0,0,0,0,1,0,
PSL3003,0,0,0,0,1,0,
PSL3004,1,0,0,0,0,0,
PSL3005,1,0,0,0,0,0,
PSL3006,0,0,0,0,1,0,
PSL3007,1,0,0,0,0,1,
PAL5001,0,0,0,0,0,1,
PAL5002,0,0,0,0,0,1,
SL2401,0,0,0,0,1,0,
SL2402,0,0,0,0,1,0,
SL2405,0,0,0,0,1,0,
SL2406,0,0,0,0,1,0,
SL2407,0,0,0,0,1,0,
SL2408,0,0,0,0,1,0,
SL2411,1,0,0,0,1,0,
SL2412,1,0,0,0,1,0,
SL2413,0,0,0,0,1,0,
SL2414,0,0,0,0,1,0,
SL2421,0,0,0,0,1,1,
SL2422,0,0,0,0,1,1,
SL2423,0,0,0,0,1,1,
SL2424,0,0,0,0,1,1,
SL2425,0,0,0,0,1,1,
SL2426,0,0,0,0,1,1,
SL2427,0,0,0,0,1,1,
SL2428,0,0,0,0,1,1,
SL2429,0,0,0,0,1,1,
SL2430,0,0,0,0,1,1,
SL2431,0,0,0,0,1,1,
SL2436,0,0,0,0,1,0,
SL2437,0,0,0,0,1,0,
SL2438,0,0,0,0,1,0,
SL2439,0,0,0,0,1,0,
SL2440,0,0,0,0,1,0,
SL2441,0,0,0,0,1,0,
SL2442,0,0,0,0,1,0,
SL2443,0,0,0,0,1,0,
SL2444,0,0,0,0,1,0,
SL2445,1,0,0,0,1,0,
SL2446,1,0,0,0,1,0,
SL2447,1,0,0,0,1,0,
SL1401,0,0,0,0,1,0,
SL1402,0,0,0,0,1,0,
SL1407,0,0,0,0,1,0,
SL1408,0,0,0,0,1,0,
SL1409,1,0,0,0,0,0,
