2020/05/21 09:37:39 [/shop/shopping/load_payment_module.php] SendRequest:https://p01.mul-pay.jp/payment/EntryTran.idPass from 180.145.136.196
2020/05/21 09:37:39 [/shop/shopping/load_payment_module.php] Array
(
    [ShopID] => 9102288779655
    [ShopPass] => ******
    [OrderID] => 1554-21093739
    [JobCd] => AUTH
    [Amount] => 8030
    [TdFlag] => 0
    [TdTenantName] => 
)
 from 180.145.136.196
2020/05/21 09:37:40 [/shop/shopping/load_payment_module.php] AccessID=24bf173f130ad9dcc37693bf93a33a67&AccessPass=fc9cf5467a1e41d5dfb437d63f9d5ab5 from 180.145.136.196
2020/05/21 09:37:40 [/shop/shopping/load_payment_module.php] Array
(
    [0] => Array
        (
            [AccessID] => 24bf173f130ad9dcc37693bf93a33a67
            [AccessPass] => fc9cf5467a1e41d5dfb437d63f9d5ab5
        )

)
 from 180.145.136.196
2020/05/21 09:37:40 [/shop/shopping/load_payment_module.php] load_payment_module.php set payment data:Array
(
    [AccessID] => 24bf173f130ad9dcc37693bf93a33a67
    [AccessPass] => fc9cf5467a1e41d5dfb437d63f9d5ab5
    [OrderID] => 1554-21093739
    [Amount] => 8030
    [JobCd] => AUTH
    [action_status] => 1
    [pay_status] => 0
)
 from 180.145.136.196
2020/05/21 09:37:40 [/shop/shopping/load_payment_module.php] SendRequest:https://p01.mul-pay.jp/payment/ExecTran.idPass from 180.145.136.196
2020/05/21 09:37:40 [/shop/shopping/load_payment_module.php] Array
(
    [AccessID] => 24bf173f130ad9dcc37693bf93a33a67
    [AccessPass] => fc9cf5467a1e41d5dfb437d63f9d5ab5
    [OrderID] => 1554-21093739
    [Method] => 1
    [Token] => 7f51dabf32a96aec76272e8c540711ae355f428ca10f07919c0b0ed01f88a91c
    [ClientField1] => 
    [ClientField2] => 
    [ClientField3] => EC-CUBE4.3.24
)
 from 180.145.136.196
2020/05/21 09:37:42 [/shop/shopping/load_payment_module.php] ACS=0&OrderID=1554-21093739&Forward=2S49631&Method=1&PayTimes=&Approve=0002692&TranID=2005210937602257217875130284&TranDate=20200521093742&CheckString=384cb6e1209462aa6bf0976ffcdb0dc5 from 180.145.136.196
2020/05/21 09:37:42 [/shop/shopping/load_payment_module.php] Array
(
    [0] => Array
        (
            [ACS] => 0
            [OrderID] => 1554-21093739
            [Forward] => 2S49631
            [Method] => 1
            [PayTimes] => 
            [Approve] => 0002692
            [TranID] => 2005210937602257217875130284
            [TranDate] => 20200521093742
            [CheckString] => 384cb6e1209462aa6bf0976ffcdb0dc5
        )

)
 from 180.145.136.196
2020/05/21 09:37:42 [/shop/shopping/load_payment_module.php] load_payment_module.php set payment data:Array
(
    [ACS] => 0
    [Forward] => 2S49631
    [Method] => 1
    [PayTimes] => 
    [Approve] => 0002692
    [TranID] => 2005210937602257217875130284
    [TranDate] => 20200521093742
    [CheckString] => 384cb6e1209462aa6bf0976ffcdb0dc5
    [Amount] => 8030
    [JobCd] => AUTH
    [action_status] => 3
    [pay_status] => 11
)
 from 180.145.136.196
2020/05/21 09:37:42 [/shop/user_data/pg_mulpay_recv.php] ******* receiveer data start ******* from 210.175.7.20
2020/05/21 09:37:42 [/shop/user_data/pg_mulpay_recv.php] Array
(
    [ShopID] => 9102288779655
    [ShopPass] => **********
    [AccessID] => 24bf173f130ad9dcc37693bf93a33a67
    [AccessPass] => ********************************
    [OrderID] => 1554-21093739
    [Status] => AUTH
    [JobCd] => AUTH
    [Amount] => 8030
    [Tax] => 0
    [Currency] => JPN
    [Forward] => 2S49631
    [Method] => 1
    [PayTimes] => 
    [TranID] => 2005210937602257217875130284
    [Approve] => 0002692
    [TranDate] => 20200521093742
    [ErrCode] => 
    [ErrInfo] => 
    [PayType] => 0
)
 from 210.175.7.20
2020/05/21 09:37:42 [/shop/user_data/pg_mulpay_recv.php] ******* receiveer data end ******* from 210.175.7.20
2020/05/21 09:37:47 [/shop/user_data/pg_mulpay_recv.php] update order status:1 order_id=1554 from 210.175.7.20
2020/05/21 09:37:47 [/shop/user_data/pg_mulpay_recv.php] pg_mulpay_recv.php set payment data:Array
(
    [ShopID] => 9102288779655
    [AccessID] => 24bf173f130ad9dcc37693bf93a33a67
    [OrderID] => 1554-21093739
    [Status] => AUTH
    [JobCd] => AUTH
    [Amount] => 8030
    [Tax] => 0
    [Currency] => JPN
    [Forward] => 2S49631
    [Method] => 1
    [PayTimes] => 
    [TranID] => 2005210937602257217875130284
    [Approve] => 0002692
    [TranDate] => 20200521093742
    [ErrCode] => 
    [ErrInfo] => 
    [PayType] => 0
    [CvsCode] => 
    [CvsConfNo] => 
    [CvsReceiptNo] => 
    [EdyReceiptNo] => 
    [EdyOrderNo] => 
    [SuicaReceiptNo] => 
    [SuicaOrderNo] => 
    [CustID] => 
    [BkCode] => 
    [ConfNo] => 
    [PaymentTerm] => 
    [EncryptReceiptNo] => 
    [FinishDate] => 
    [ReceiptDate] => 
    [WebMoneyManagementNo] => 
    [WebMoneySettleCode] => 
    [AuPayInfoNo] => 
    [AuPayMethod] => 
    [AuCancelAmount] => 
    [AuCancelTax] => 
    [DocomoSettlementCode] => 
    [DocomoCancelAmount] => 
    [DocomoCancelTax] => 
    [pay_status] => 11
)
 from 210.175.7.20
2020/05/21 09:37:47 [/shop/user_data/pg_mulpay_recv.php] response:true from 210.175.7.20
2020/05/21 10:09:08 [/shop/shopping/load_payment_module.php] SendRequest:https://p01.mul-pay.jp/payment/EntryTran.idPass from 27.133.56.73
2020/05/21 10:09:08 [/shop/shopping/load_payment_module.php] Array
(
    [ShopID] => 9102288779655
    [ShopPass] => ******
    [OrderID] => 1555-21100908
    [JobCd] => AUTH
    [Amount] => 13640
    [TdFlag] => 0
    [TdTenantName] => 
)
 from 27.133.56.73
2020/05/21 10:09:08 [/shop/shopping/load_payment_module.php] AccessID=5c1857150be01f0452689271f043ac00&AccessPass=c5e0331ad883013eb6daa5fe0c69d110 from 27.133.56.73
2020/05/21 10:09:08 [/shop/shopping/load_payment_module.php] Array
(
    [0] => Array
        (
            [AccessID] => 5c1857150be01f0452689271f043ac00
            [AccessPass] => c5e0331ad883013eb6daa5fe0c69d110
        )

)
 from 27.133.56.73
2020/05/21 10:09:08 [/shop/shopping/load_payment_module.php] load_payment_module.php set payment data:Array
(
    [AccessID] => 5c1857150be01f0452689271f043ac00
    [AccessPass] => c5e0331ad883013eb6daa5fe0c69d110
    [OrderID] => 1555-21100908
    [Amount] => 13640
    [JobCd] => AUTH
    [action_status] => 1
    [pay_status] => 0
)
 from 27.133.56.73
2020/05/21 10:09:09 [/shop/shopping/load_payment_module.php] SendRequest:https://p01.mul-pay.jp/payment/ExecTran.idPass from 27.133.56.73
2020/05/21 10:09:09 [/shop/shopping/load_payment_module.php] Array
(
    [AccessID] => 5c1857150be01f0452689271f043ac00
    [AccessPass] => c5e0331ad883013eb6daa5fe0c69d110
    [OrderID] => 1555-21100908
    [Method] => 1
    [Token] => ceead83e37595b72d53f7d8e6ffb0dc9a74dcb36d419381d360b744e9fd77fef
    [ClientField1] => 
    [ClientField2] => 
    [ClientField3] => EC-CUBE4.3.24
)
 from 27.133.56.73
2020/05/21 10:09:10 [/shop/shopping/load_payment_module.php] ACS=0&OrderID=1555-21100908&Forward=2a99661&Method=1&PayTimes=&Approve=0730285&TranID=2005211009602257217875130285&TranDate=20200521100910&CheckString=f46a7cec43f2a084cf2acd804f346e0f from 27.133.56.73
2020/05/21 10:09:10 [/shop/shopping/load_payment_module.php] Array
(
    [0] => Array
        (
            [ACS] => 0
            [OrderID] => 1555-21100908
            [Forward] => 2a99661
            [Method] => 1
            [PayTimes] => 
            [Approve] => 0730285
            [TranID] => 2005211009602257217875130285
            [TranDate] => 20200521100910
            [CheckString] => f46a7cec43f2a084cf2acd804f346e0f
        )

)
 from 27.133.56.73
2020/05/21 10:09:10 [/shop/shopping/load_payment_module.php] load_payment_module.php set payment data:Array
(
    [ACS] => 0
    [Forward] => 2a99661
    [Method] => 1
    [PayTimes] => 
    [Approve] => 0730285
    [TranID] => 2005211009602257217875130285
    [TranDate] => 20200521100910
    [CheckString] => f46a7cec43f2a084cf2acd804f346e0f
    [Amount] => 13640
    [JobCd] => AUTH
    [action_status] => 3
    [pay_status] => 11
)
 from 27.133.56.73
2020/05/21 10:09:10 [/shop/user_data/pg_mulpay_recv.php] ******* receiveer data start ******* from 210.175.7.20
2020/05/21 10:09:10 [/shop/user_data/pg_mulpay_recv.php] Array
(
    [ShopID] => 9102288779655
    [ShopPass] => **********
    [AccessID] => 5c1857150be01f0452689271f043ac00
    [AccessPass] => ********************************
    [OrderID] => 1555-21100908
    [Status] => AUTH
    [JobCd] => AUTH
    [Amount] => 13640
    [Tax] => 0
    [Currency] => JPN
    [Forward] => 2a99661
    [Method] => 1
    [PayTimes] => 
    [TranID] => 2005211009602257217875130285
    [Approve] => 0730285
    [TranDate] => 20200521100910
    [ErrCode] => 
    [ErrInfo] => 
    [PayType] => 0
)
 from 210.175.7.20
2020/05/21 10:09:10 [/shop/user_data/pg_mulpay_recv.php] ******* receiveer data end ******* from 210.175.7.20
2020/05/21 10:09:15 [/shop/user_data/pg_mulpay_recv.php] update order status:1 order_id=1555 from 210.175.7.20
2020/05/21 10:09:15 [/shop/user_data/pg_mulpay_recv.php] pg_mulpay_recv.php set payment data:Array
(
    [ShopID] => 9102288779655
    [AccessID] => 5c1857150be01f0452689271f043ac00
    [OrderID] => 1555-21100908
    [Status] => AUTH
    [JobCd] => AUTH
    [Amount] => 13640
    [Tax] => 0
    [Currency] => JPN
    [Forward] => 2a99661
    [Method] => 1
    [PayTimes] => 
    [TranID] => 2005211009602257217875130285
    [Approve] => 0730285
    [TranDate] => 20200521100910
    [ErrCode] => 
    [ErrInfo] => 
    [PayType] => 0
    [CvsCode] => 
    [CvsConfNo] => 
    [CvsReceiptNo] => 
    [EdyReceiptNo] => 
    [EdyOrderNo] => 
    [SuicaReceiptNo] => 
    [SuicaOrderNo] => 
    [CustID] => 
    [BkCode] => 
    [ConfNo] => 
    [PaymentTerm] => 
    [EncryptReceiptNo] => 
    [FinishDate] => 
    [ReceiptDate] => 
    [WebMoneyManagementNo] => 
    [WebMoneySettleCode] => 
    [AuPayInfoNo] => 
    [AuPayMethod] => 
    [AuCancelAmount] => 
    [AuCancelTax] => 
    [DocomoSettlementCode] => 
    [DocomoCancelAmount] => 
    [DocomoCancelTax] => 
    [pay_status] => 11
)
 from 210.175.7.20
2020/05/21 10:09:15 [/shop/user_data/pg_mulpay_recv.php] response:true from 210.175.7.20
2020/05/21 14:35:36 [/shop/shopping/load_payment_module.php] SendRequest:https://p01.mul-pay.jp/payment/SearchMember.idPass from 222.227.175.151
2020/05/21 14:35:36 [/shop/shopping/load_payment_module.php] Array
(
    [SiteID] => mst2000016748
    [SitePass] => ******
    [MemberID] => 687
)
 from 222.227.175.151
2020/05/21 14:35:36 [/shop/shopping/load_payment_module.php] ErrCode=E01&ErrInfo=E01390002 from 222.227.175.151
2020/05/21 14:35:36 [/shop/shopping/load_payment_module.php] Array
(
    [0] => Array
        (
            [ErrCode] => E01
            [ErrInfo] => E01390002
        )

)
 from 222.227.175.151
2020/05/21 14:35:36 [/shop/shopping/load_payment_module.php] SendRequest:https://p01.mul-pay.jp/payment/SearchCard.idPass from 222.227.175.151
2020/05/21 14:35:36 [/shop/shopping/load_payment_module.php] Array
(
    [SiteID] => mst2000016748
    [SitePass] => ******
    [MemberID] => 687
)
 from 222.227.175.151
2020/05/21 14:35:37 [/shop/shopping/load_payment_module.php] ErrCode=E01|E01&ErrInfo=E01390002|E01240002 from 222.227.175.151
2020/05/21 14:35:37 [/shop/shopping/load_payment_module.php] Array
(
    [0] => Array
        (
            [ErrCode] => E01
            [ErrInfo] => E01390002
        )

    [1] => Array
        (
            [ErrCode] => E01
            [ErrInfo] => E01240002
        )

)
 from 222.227.175.151
2020/05/21 14:38:36 [/shop/shopping/load_payment_module.php] SendRequest:https://p01.mul-pay.jp/payment/SearchMember.idPass from 222.227.175.151
2020/05/21 14:38:36 [/shop/shopping/load_payment_module.php] Array
(
    [SiteID] => mst2000016748
    [SitePass] => ******
    [MemberID] => 687
)
 from 222.227.175.151
2020/05/21 14:38:36 [/shop/shopping/load_payment_module.php] ErrCode=E01&ErrInfo=E01390002 from 222.227.175.151
2020/05/21 14:38:36 [/shop/shopping/load_payment_module.php] Array
(
    [0] => Array
        (
            [ErrCode] => E01
            [ErrInfo] => E01390002
        )

)
 from 222.227.175.151
2020/05/21 14:38:36 [/shop/shopping/load_payment_module.php] SendRequest:https://p01.mul-pay.jp/payment/SearchCard.idPass from 222.227.175.151
2020/05/21 14:38:36 [/shop/shopping/load_payment_module.php] Array
(
    [SiteID] => mst2000016748
    [SitePass] => ******
    [MemberID] => 687
)
 from 222.227.175.151
2020/05/21 14:38:36 [/shop/shopping/load_payment_module.php] ErrCode=E01|E01&ErrInfo=E01390002|E01240002 from 222.227.175.151
2020/05/21 14:38:36 [/shop/shopping/load_payment_module.php] Array
(
    [0] => Array
        (
            [ErrCode] => E01
            [ErrInfo] => E01390002
        )

    [1] => Array
        (
            [ErrCode] => E01
            [ErrInfo] => E01240002
        )

)
 from 222.227.175.151
2020/05/21 14:40:41 [/shop/shopping/load_payment_module.php] SendRequest:https://p01.mul-pay.jp/payment/SearchMember.idPass from 222.227.175.151
2020/05/21 14:40:41 [/shop/shopping/load_payment_module.php] Array
(
    [SiteID] => mst2000016748
    [SitePass] => ******
    [MemberID] => 687
)
 from 222.227.175.151
2020/05/21 14:40:41 [/shop/shopping/load_payment_module.php] ErrCode=E01&ErrInfo=E01390002 from 222.227.175.151
2020/05/21 14:40:41 [/shop/shopping/load_payment_module.php] Array
(
    [0] => Array
        (
            [ErrCode] => E01
            [ErrInfo] => E01390002
        )

)
 from 222.227.175.151
2020/05/21 14:40:41 [/shop/shopping/load_payment_module.php] SendRequest:https://p01.mul-pay.jp/payment/SearchCard.idPass from 222.227.175.151
2020/05/21 14:40:41 [/shop/shopping/load_payment_module.php] Array
(
    [SiteID] => mst2000016748
    [SitePass] => ******
    [MemberID] => 687
)
 from 222.227.175.151
2020/05/21 14:40:41 [/shop/shopping/load_payment_module.php] ErrCode=E01|E01&ErrInfo=E01390002|E01240002 from 222.227.175.151
2020/05/21 14:40:41 [/shop/shopping/load_payment_module.php] Array
(
    [0] => Array
        (
            [ErrCode] => E01
            [ErrInfo] => E01390002
        )

    [1] => Array
        (
            [ErrCode] => E01
            [ErrInfo] => E01240002
        )

)
 from 222.227.175.151
2020/05/21 14:40:41 [/shop/shopping/load_payment_module.php] SendRequest:https://p01.mul-pay.jp/payment/EntryTran.idPass from 222.227.175.151
2020/05/21 14:40:41 [/shop/shopping/load_payment_module.php] Array
(
    [ShopID] => 9102288779655
    [ShopPass] => ******
    [OrderID] => 1557-21144041
    [JobCd] => AUTH
    [Amount] => 18040
    [TdFlag] => 0
    [TdTenantName] => 
)
 from 222.227.175.151
2020/05/21 14:40:42 [/shop/shopping/load_payment_module.php] AccessID=1ab5e28ac6a6070b701ed4a72559e9e2&AccessPass=8b6c91036ba9fb7ae203be846d8d325d from 222.227.175.151
2020/05/21 14:40:42 [/shop/shopping/load_payment_module.php] Array
(
    [0] => Array
        (
            [AccessID] => 1ab5e28ac6a6070b701ed4a72559e9e2
            [AccessPass] => 8b6c91036ba9fb7ae203be846d8d325d
        )

)
 from 222.227.175.151
2020/05/21 14:40:42 [/shop/shopping/load_payment_module.php] load_payment_module.php set payment data:Array
(
    [AccessID] => 1ab5e28ac6a6070b701ed4a72559e9e2
    [AccessPass] => 8b6c91036ba9fb7ae203be846d8d325d
    [OrderID] => 1557-21144041
    [Amount] => 18040
    [JobCd] => AUTH
    [action_status] => 1
    [pay_status] => 0
)
 from 222.227.175.151
2020/05/21 14:40:42 [/shop/shopping/load_payment_module.php] SendRequest:https://p01.mul-pay.jp/payment/ExecTran.idPass from 222.227.175.151
2020/05/21 14:40:42 [/shop/shopping/load_payment_module.php] Array
(
    [AccessID] => 1ab5e28ac6a6070b701ed4a72559e9e2
    [AccessPass] => 8b6c91036ba9fb7ae203be846d8d325d
    [OrderID] => 1557-21144041
    [Method] => 1
    [Token] => 11ff012dc406b46466a7f5c46accec3e8b280ef29d187bb417b7db02e5e7d02c
    [ClientField1] => 
    [ClientField2] => 
    [ClientField3] => EC-CUBE4.3.24
)
 from 222.227.175.151
2020/05/21 14:40:42 [/shop/shopping/load_payment_module.php] ACS=0&OrderID=1557-21144041&Forward=15250&Method=1&PayTimes=&Approve=0008706&TranID=2005211440602257217875120309&TranDate=20200521144042&CheckString=b63ad0a8a19241b7047db93318eb745e from 222.227.175.151
2020/05/21 14:40:42 [/shop/shopping/load_payment_module.php] Array
(
    [0] => Array
        (
            [ACS] => 0
            [OrderID] => 1557-21144041
            [Forward] => 15250
            [Method] => 1
            [PayTimes] => 
            [Approve] => 0008706
            [TranID] => 2005211440602257217875120309
            [TranDate] => 20200521144042
            [CheckString] => b63ad0a8a19241b7047db93318eb745e
        )

)
 from 222.227.175.151
2020/05/21 14:40:42 [/shop/shopping/load_payment_module.php] load_payment_module.php set payment data:Array
(
    [ACS] => 0
    [Forward] => 15250
    [Method] => 1
    [PayTimes] => 
    [Approve] => 0008706
    [TranID] => 2005211440602257217875120309
    [TranDate] => 20200521144042
    [CheckString] => b63ad0a8a19241b7047db93318eb745e
    [Amount] => 18040
    [JobCd] => AUTH
    [action_status] => 3
    [pay_status] => 11
)
 from 222.227.175.151
2020/05/21 14:40:42 [/shop/shopping/load_payment_module.php] load_payment_module.php set payment data:Array
(
    [register_card] => 1
    [HolderName] => OOWADA RUMI
)
 from 222.227.175.151
2020/05/21 14:40:43 [/shop/user_data/pg_mulpay_recv.php] ******* receiveer data start ******* from 210.175.7.20
2020/05/21 14:40:43 [/shop/user_data/pg_mulpay_recv.php] Array
(
    [ShopID] => 9102288779655
    [ShopPass] => **********
    [AccessID] => 1ab5e28ac6a6070b701ed4a72559e9e2
    [AccessPass] => ********************************
    [OrderID] => 1557-21144041
    [Status] => AUTH
    [JobCd] => AUTH
    [Amount] => 18040
    [Tax] => 0
    [Currency] => JPN
    [Forward] => 15250
    [Method] => 1
    [PayTimes] => 
    [TranID] => 2005211440602257217875120309
    [Approve] => 0008706
    [TranDate] => 20200521144042
    [ErrCode] => 
    [ErrInfo] => 
    [PayType] => 0
)
 from 210.175.7.20
2020/05/21 14:40:43 [/shop/user_data/pg_mulpay_recv.php] ******* receiveer data end ******* from 210.175.7.20
2020/05/21 14:40:43 [/shop/shopping/load_payment_module.php] SendRequest:https://p01.mul-pay.jp/payment/SearchMember.idPass from 222.227.175.151
2020/05/21 14:40:43 [/shop/shopping/load_payment_module.php] Array
(
    [SiteID] => mst2000016748
    [SitePass] => ******
    [MemberID] => 687
)
 from 222.227.175.151
2020/05/21 14:40:44 [/shop/shopping/load_payment_module.php] ErrCode=E01&ErrInfo=E01390002 from 222.227.175.151
2020/05/21 14:40:44 [/shop/shopping/load_payment_module.php] Array
(
    [0] => Array
        (
            [ErrCode] => E01
            [ErrInfo] => E01390002
        )

)
 from 222.227.175.151
2020/05/21 14:40:44 [/shop/shopping/load_payment_module.php] SendRequest:https://p01.mul-pay.jp/payment/SaveMember.idPass from 222.227.175.151
2020/05/21 14:40:44 [/shop/shopping/load_payment_module.php] Array
(
    [SiteID] => mst2000016748
    [SitePass] => ******
    [MemberID] => 687
    [MemberName] => ******
)
 from 222.227.175.151
2020/05/21 14:40:44 [/shop/shopping/load_payment_module.php] MemberID=687 from 222.227.175.151
2020/05/21 14:40:44 [/shop/shopping/load_payment_module.php] Array
(
    [0] => Array
        (
            [MemberID] => 687
        )

)
 from 222.227.175.151
2020/05/21 14:40:44 [/shop/shopping/load_payment_module.php] SendRequest:https://p01.mul-pay.jp/payment/TradedCard.idPass from 222.227.175.151
2020/05/21 14:40:44 [/shop/shopping/load_payment_module.php] Array
(
    [ShopID] => 9102288779655
    [ShopPass] => ******
    [OrderID] => 1557-21144041
    [SiteID] => mst2000016748
    [SitePass] => ******
    [MemberID] => 687
    [DefaultFlag] => 1
    [HolderName] => OOWADA RUMI
)
 from 222.227.175.151
2020/05/21 14:40:44 [/shop/shopping/load_payment_module.php] CardSeq=0&CardNo=************5108&Forward=15250 from 222.227.175.151
2020/05/21 14:40:44 [/shop/shopping/load_payment_module.php] Array
(
    [0] => Array
        (
            [CardSeq] => 0
            [CardNo] => ************5108
            [Forward] => 15250
        )

)
 from 222.227.175.151
2020/05/21 14:40:48 [/shop/user_data/pg_mulpay_recv.php] update order status:1 order_id=1557 from 210.175.7.20
2020/05/21 14:40:48 [/shop/user_data/pg_mulpay_recv.php] pg_mulpay_recv.php set payment data:Array
(
    [ShopID] => 9102288779655
    [AccessID] => 1ab5e28ac6a6070b701ed4a72559e9e2
    [OrderID] => 1557-21144041
    [Status] => AUTH
    [JobCd] => AUTH
    [Amount] => 18040
    [Tax] => 0
    [Currency] => JPN
    [Forward] => 15250
    [Method] => 1
    [PayTimes] => 
    [TranID] => 2005211440602257217875120309
    [Approve] => 0008706
    [TranDate] => 20200521144042
    [ErrCode] => 
    [ErrInfo] => 
    [PayType] => 0
    [CvsCode] => 
    [CvsConfNo] => 
    [CvsReceiptNo] => 
    [EdyReceiptNo] => 
    [EdyOrderNo] => 
    [SuicaReceiptNo] => 
    [SuicaOrderNo] => 
    [CustID] => 
    [BkCode] => 
    [ConfNo] => 
    [PaymentTerm] => 
    [EncryptReceiptNo] => 
    [FinishDate] => 
    [ReceiptDate] => 
    [WebMoneyManagementNo] => 
    [WebMoneySettleCode] => 
    [AuPayInfoNo] => 
    [AuPayMethod] => 
    [AuCancelAmount] => 
    [AuCancelTax] => 
    [DocomoSettlementCode] => 
    [DocomoCancelAmount] => 
    [DocomoCancelTax] => 
    [pay_status] => 11
)
 from 210.175.7.20
2020/05/21 14:40:48 [/shop/user_data/pg_mulpay_recv.php] response:true from 210.175.7.20
2020/05/21 17:53:05 [/shop/user_data/pg_mulpay_recv.php] ******* receiveer data start ******* from 210.175.7.20
2020/05/21 17:53:05 [/shop/user_data/pg_mulpay_recv.php] Array
(
    [ShopID] => 9102288779655
    [ShopPass] => **********
    [AccessID] => d5d7c6d80020ac7f3d4c1d9def4ecc05
    [AccessPass] => ********************************
    [OrderID] => 1551-20113409
    [Status] => PAYSUCCESS
    [Amount] => 16390
    [Tax] => 0
    [Currency] => JPN
    [TranID] => 20052000000228684120
    [TranDate] => 20200521175212
    [ErrCode] => 
    [ErrInfo] => 
    [PayType] => 3
    [CvsCode] => 10002
    [CvsConfNo] => 20020
    [CvsReceiptNo] => 810052282527
    [PaymentTerm] => 20200524235959
    [FinishDate] => 20200521174700
    [ReceiptDate] => 20200520113410
)
 from 210.175.7.20
2020/05/21 17:53:05 [/shop/user_data/pg_mulpay_recv.php] ******* receiveer data end ******* from 210.175.7.20
2020/05/21 17:53:05 [/shop/user_data/pg_mulpay_recv.php] update order status:6 from 210.175.7.20
2020/05/21 17:53:05 [/shop/user_data/pg_mulpay_recv.php] pg_mulpay_recv.php set payment data:Array
(
    [ShopID] => 9102288779655
    [AccessID] => d5d7c6d80020ac7f3d4c1d9def4ecc05
    [OrderID] => 1551-20113409
    [Status] => PAYSUCCESS
    [JobCd] => 
    [Amount] => 16390
    [Tax] => 0
    [Currency] => JPN
    [Forward] => 
    [Method] => 
    [PayTimes] => 
    [TranID] => 20052000000228684120
    [Approve] => 
    [TranDate] => 20200521175212
    [ErrCode] => 
    [ErrInfo] => 
    [PayType] => 3
    [CvsCode] => 10002
    [CvsConfNo] => 20020
    [CvsReceiptNo] => 810052282527
    [EdyReceiptNo] => 
    [EdyOrderNo] => 
    [SuicaReceiptNo] => 
    [SuicaOrderNo] => 
    [CustID] => 
    [BkCode] => 
    [PaymentTerm] => 20200524235959
    [EncryptReceiptNo] => 
    [FinishDate] => 20200521174700
    [ReceiptDate] => 20200520113410
    [WebMoneyManagementNo] => 
    [WebMoneySettleCode] => 
    [AuPayInfoNo] => 
    [AuPayMethod] => 
    [AuCancelAmount] => 
    [AuCancelTax] => 
    [DocomoSettlementCode] => 
    [DocomoCancelAmount] => 
    [DocomoCancelTax] => 
    [pay_status] => 2
)
 from 210.175.7.20
2020/05/21 17:53:05 [/shop/user_data/pg_mulpay_recv.php] response:true from 210.175.7.20
2020/05/21 20:42:35 [/shop/shopping/load_payment_module.php] SendRequest:https://p01.mul-pay.jp/payment/SearchMember.idPass from 42.125.184.241
2020/05/21 20:42:35 [/shop/shopping/load_payment_module.php] Array
(
    [SiteID] => mst2000016748
    [SitePass] => ******
    [MemberID] => 626
)
 from 42.125.184.241
2020/05/21 20:42:36 [/shop/shopping/load_payment_module.php] MemberID=626&MemberName=r5ead45800d35cMQGqLkrU&DeleteFlag=0 from 42.125.184.241
2020/05/21 20:42:36 [/shop/shopping/load_payment_module.php] Array
(
    [0] => Array
        (
            [MemberID] => 626
            [MemberName] => r5ead45800d35cMQGqLkrU
            [DeleteFlag] => 0
        )

)
 from 42.125.184.241
2020/05/21 20:42:36 [/shop/shopping/load_payment_module.php] SendRequest:https://p01.mul-pay.jp/payment/SearchCard.idPass from 42.125.184.241
2020/05/21 20:42:36 [/shop/shopping/load_payment_module.php] Array
(
    [SiteID] => mst2000016748
    [SitePass] => ******
    [MemberID] => 626
)
 from 42.125.184.241
2020/05/21 20:42:36 [/shop/shopping/load_payment_module.php] CardSeq=0&DefaultFlag=1&CardName=&CardNo=*************210&Expire=2405&HolderName=KAZUO ETOU&DeleteFlag=0 from 42.125.184.241
2020/05/21 20:42:36 [/shop/shopping/load_payment_module.php] Array
(
    [0] => Array
        (
            [CardSeq] => 0
            [DefaultFlag] => 1
            [CardName] => 
            [CardNo] => *************210
            [Expire] => 2405
            [HolderName] => KAZUO ETOU
            [DeleteFlag] => 0
        )

)
 from 42.125.184.241
2020/05/21 20:45:13 [/shop/shopping/load_payment_module.php] SendRequest:https://p01.mul-pay.jp/payment/SearchMember.idPass from 42.125.184.241
2020/05/21 20:45:13 [/shop/shopping/load_payment_module.php] Array
(
    [SiteID] => mst2000016748
    [SitePass] => ******
    [MemberID] => 626
)
 from 42.125.184.241
2020/05/21 20:45:13 [/shop/shopping/load_payment_module.php] MemberID=626&MemberName=r5ead45800d35cMQGqLkrU&DeleteFlag=0 from 42.125.184.241
2020/05/21 20:45:13 [/shop/shopping/load_payment_module.php] Array
(
    [0] => Array
        (
            [MemberID] => 626
            [MemberName] => r5ead45800d35cMQGqLkrU
            [DeleteFlag] => 0
        )

)
 from 42.125.184.241
2020/05/21 20:45:13 [/shop/shopping/load_payment_module.php] SendRequest:https://p01.mul-pay.jp/payment/SearchCard.idPass from 42.125.184.241
2020/05/21 20:45:13 [/shop/shopping/load_payment_module.php] Array
(
    [SiteID] => mst2000016748
    [SitePass] => ******
    [MemberID] => 626
)
 from 42.125.184.241
2020/05/21 20:45:14 [/shop/shopping/load_payment_module.php] CardSeq=0&DefaultFlag=1&CardName=&CardNo=*************210&Expire=2405&HolderName=KAZUO ETOU&DeleteFlag=0 from 42.125.184.241
2020/05/21 20:45:14 [/shop/shopping/load_payment_module.php] Array
(
    [0] => Array
        (
            [CardSeq] => 0
            [DefaultFlag] => 1
            [CardName] => 
            [CardNo] => *************210
            [Expire] => 2405
            [HolderName] => KAZUO ETOU
            [DeleteFlag] => 0
        )

)
 from 42.125.184.241
2020/05/21 20:45:14 [/shop/shopping/load_payment_module.php] SendRequest:https://p01.mul-pay.jp/payment/EntryTran.idPass from 42.125.184.241
2020/05/21 20:45:14 [/shop/shopping/load_payment_module.php] Array
(
    [ShopID] => 9102288779655
    [ShopPass] => ******
    [OrderID] => 1558-21204514
    [JobCd] => AUTH
    [Amount] => 21560
    [TdFlag] => 0
    [TdTenantName] => 
)
 from 42.125.184.241
2020/05/21 20:45:14 [/shop/shopping/load_payment_module.php] AccessID=e1ab064266e076206cb61db8d766a9b5&AccessPass=11eb4d4862923bb97f5a34bc7fec46de from 42.125.184.241
2020/05/21 20:45:14 [/shop/shopping/load_payment_module.php] Array
(
    [0] => Array
        (
            [AccessID] => e1ab064266e076206cb61db8d766a9b5
            [AccessPass] => 11eb4d4862923bb97f5a34bc7fec46de
        )

)
 from 42.125.184.241
2020/05/21 20:45:14 [/shop/shopping/load_payment_module.php] load_payment_module.php set payment data:Array
(
    [AccessID] => e1ab064266e076206cb61db8d766a9b5
    [AccessPass] => 11eb4d4862923bb97f5a34bc7fec46de
    [OrderID] => 1558-21204514
    [Amount] => 21560
    [JobCd] => AUTH
    [action_status] => 1
    [pay_status] => 0
)
 from 42.125.184.241
2020/05/21 20:45:14 [/shop/shopping/load_payment_module.php] SendRequest:https://p01.mul-pay.jp/payment/ExecTran.idPass from 42.125.184.241
2020/05/21 20:45:14 [/shop/shopping/load_payment_module.php] Array
(
    [AccessID] => e1ab064266e076206cb61db8d766a9b5
    [AccessPass] => 11eb4d4862923bb97f5a34bc7fec46de
    [OrderID] => 1558-21204514
    [Method] => 1
    [Token] => dfec7ffbf9aa13a1cb1acffc131cacbd4b033e229b1d7e13caa3d844297fba32
    [ClientField1] => 
    [ClientField2] => 
    [ClientField3] => EC-CUBE4.3.24
)
 from 42.125.184.241
2020/05/21 20:45:15 [/shop/shopping/load_payment_module.php] ACS=0&OrderID=1558-21204514&Forward=2S49631&Method=1&PayTimes=&Approve=0720310&TranID=2005212045602257217875120310&TranDate=20200521204515&CheckString=987f389b8fa3004a3c3d5108882c2c8d from 42.125.184.241
2020/05/21 20:45:15 [/shop/shopping/load_payment_module.php] Array
(
    [0] => Array
        (
            [ACS] => 0
            [OrderID] => 1558-21204514
            [Forward] => 2S49631
            [Method] => 1
            [PayTimes] => 
            [Approve] => 0720310
            [TranID] => 2005212045602257217875120310
            [TranDate] => 20200521204515
            [CheckString] => 987f389b8fa3004a3c3d5108882c2c8d
        )

)
 from 42.125.184.241
2020/05/21 20:45:15 [/shop/shopping/load_payment_module.php] load_payment_module.php set payment data:Array
(
    [ACS] => 0
    [Forward] => 2S49631
    [Method] => 1
    [PayTimes] => 
    [Approve] => 0720310
    [TranID] => 2005212045602257217875120310
    [TranDate] => 20200521204515
    [CheckString] => 987f389b8fa3004a3c3d5108882c2c8d
    [Amount] => 21560
    [JobCd] => AUTH
    [action_status] => 3
    [pay_status] => 11
)
 from 42.125.184.241
2020/05/21 20:45:15 [/shop/shopping/load_payment_module.php] load_payment_module.php set payment data:Array
(
    [register_card] => 1
    [HolderName] => KAZUO ETOU
)
 from 42.125.184.241
2020/05/21 20:45:16 [/shop/user_data/pg_mulpay_recv.php] ******* receiveer data start ******* from 210.175.7.20
2020/05/21 20:45:16 [/shop/user_data/pg_mulpay_recv.php] Array
(
    [ShopID] => 9102288779655
    [ShopPass] => **********
    [AccessID] => e1ab064266e076206cb61db8d766a9b5
    [AccessPass] => ********************************
    [OrderID] => 1558-21204514
    [Status] => AUTH
    [JobCd] => AUTH
    [Amount] => 21560
    [Tax] => 0
    [Currency] => JPN
    [Forward] => 2S49631
    [Method] => 1
    [PayTimes] => 
    [TranID] => 2005212045602257217875120310
    [Approve] => 0720310
    [TranDate] => 20200521204515
    [ErrCode] => 
    [ErrInfo] => 
    [PayType] => 0
)
 from 210.175.7.20
2020/05/21 20:45:16 [/shop/user_data/pg_mulpay_recv.php] ******* receiveer data end ******* from 210.175.7.20
2020/05/21 20:45:16 [/shop/shopping/load_payment_module.php] SendRequest:https://p01.mul-pay.jp/payment/SearchMember.idPass from 42.125.184.241
2020/05/21 20:45:16 [/shop/shopping/load_payment_module.php] Array
(
    [SiteID] => mst2000016748
    [SitePass] => ******
    [MemberID] => 626
)
 from 42.125.184.241
2020/05/21 20:45:16 [/shop/shopping/load_payment_module.php] MemberID=626&MemberName=r5ead45800d35cMQGqLkrU&DeleteFlag=0 from 42.125.184.241
2020/05/21 20:45:16 [/shop/shopping/load_payment_module.php] Array
(
    [0] => Array
        (
            [MemberID] => 626
            [MemberName] => r5ead45800d35cMQGqLkrU
            [DeleteFlag] => 0
        )

)
 from 42.125.184.241
2020/05/21 20:45:16 [/shop/shopping/load_payment_module.php] SendRequest:https://p01.mul-pay.jp/payment/TradedCard.idPass from 42.125.184.241
2020/05/21 20:45:16 [/shop/shopping/load_payment_module.php] Array
(
    [ShopID] => 9102288779655
    [ShopPass] => ******
    [OrderID] => 1558-21204514
    [SiteID] => mst2000016748
    [SitePass] => ******
    [MemberID] => 626
    [DefaultFlag] => 1
    [HolderName] => KAZUO ETOU
)
 from 42.125.184.241
2020/05/21 20:45:16 [/shop/shopping/load_payment_module.php] CardSeq=1&CardNo=************9314&Forward=2S49631 from 42.125.184.241
2020/05/21 20:45:16 [/shop/shopping/load_payment_module.php] Array
(
    [0] => Array
        (
            [CardSeq] => 1
            [CardNo] => ************9314
            [Forward] => 2S49631
        )

)
 from 42.125.184.241
2020/05/21 20:45:21 [/shop/user_data/pg_mulpay_recv.php] update order status:1 order_id=1558 from 210.175.7.20
2020/05/21 20:45:21 [/shop/user_data/pg_mulpay_recv.php] pg_mulpay_recv.php set payment data:Array
(
    [ShopID] => 9102288779655
    [AccessID] => e1ab064266e076206cb61db8d766a9b5
    [OrderID] => 1558-21204514
    [Status] => AUTH
    [JobCd] => AUTH
    [Amount] => 21560
    [Tax] => 0
    [Currency] => JPN
    [Forward] => 2S49631
    [Method] => 1
    [PayTimes] => 
    [TranID] => 2005212045602257217875120310
    [Approve] => 0720310
    [TranDate] => 20200521204515
    [ErrCode] => 
    [ErrInfo] => 
    [PayType] => 0
    [CvsCode] => 
    [CvsConfNo] => 
    [CvsReceiptNo] => 
    [EdyReceiptNo] => 
    [EdyOrderNo] => 
    [SuicaReceiptNo] => 
    [SuicaOrderNo] => 
    [CustID] => 
    [BkCode] => 
    [ConfNo] => 
    [PaymentTerm] => 
    [EncryptReceiptNo] => 
    [FinishDate] => 
    [ReceiptDate] => 
    [WebMoneyManagementNo] => 
    [WebMoneySettleCode] => 
    [AuPayInfoNo] => 
    [AuPayMethod] => 
    [AuCancelAmount] => 
    [AuCancelTax] => 
    [DocomoSettlementCode] => 
    [DocomoCancelAmount] => 
    [DocomoCancelTax] => 
    [pay_status] => 11
)
 from 210.175.7.20
2020/05/21 20:45:21 [/shop/user_data/pg_mulpay_recv.php] response:true from 210.175.7.20
2020/05/21 21:49:13 [/shop/shopping/load_payment_module.php] SendRequest:https://p01.mul-pay.jp/payment/SearchMember.idPass from 114.150.248.137
2020/05/21 21:49:13 [/shop/shopping/load_payment_module.php] Array
(
    [SiteID] => mst2000016748
    [SitePass] => ******
    [MemberID] => 689
)
 from 114.150.248.137
2020/05/21 21:49:13 [/shop/shopping/load_payment_module.php] ErrCode=E01&ErrInfo=E01390002 from 114.150.248.137
2020/05/21 21:49:13 [/shop/shopping/load_payment_module.php] Array
(
    [0] => Array
        (
            [ErrCode] => E01
            [ErrInfo] => E01390002
        )

)
 from 114.150.248.137
2020/05/21 21:49:13 [/shop/shopping/load_payment_module.php] SendRequest:https://p01.mul-pay.jp/payment/SearchCard.idPass from 114.150.248.137
2020/05/21 21:49:13 [/shop/shopping/load_payment_module.php] Array
(
    [SiteID] => mst2000016748
    [SitePass] => ******
    [MemberID] => 689
)
 from 114.150.248.137
2020/05/21 21:49:13 [/shop/shopping/load_payment_module.php] ErrCode=E01|E01&ErrInfo=E01390002|E01240002 from 114.150.248.137
2020/05/21 21:49:13 [/shop/shopping/load_payment_module.php] Array
(
    [0] => Array
        (
            [ErrCode] => E01
            [ErrInfo] => E01390002
        )

    [1] => Array
        (
            [ErrCode] => E01
            [ErrInfo] => E01240002
        )

)
 from 114.150.248.137
2020/05/21 21:50:38 [/shop/shopping/load_payment_module.php] SendRequest:https://p01.mul-pay.jp/payment/SearchMember.idPass from 114.150.248.137
2020/05/21 21:50:38 [/shop/shopping/load_payment_module.php] Array
(
    [SiteID] => mst2000016748
    [SitePass] => ******
    [MemberID] => 689
)
 from 114.150.248.137
2020/05/21 21:50:38 [/shop/shopping/load_payment_module.php] ErrCode=E01&ErrInfo=E01390002 from 114.150.248.137
2020/05/21 21:50:38 [/shop/shopping/load_payment_module.php] Array
(
    [0] => Array
        (
            [ErrCode] => E01
            [ErrInfo] => E01390002
        )

)
 from 114.150.248.137
2020/05/21 21:50:38 [/shop/shopping/load_payment_module.php] SendRequest:https://p01.mul-pay.jp/payment/SearchCard.idPass from 114.150.248.137
2020/05/21 21:50:38 [/shop/shopping/load_payment_module.php] Array
(
    [SiteID] => mst2000016748
    [SitePass] => ******
    [MemberID] => 689
)
 from 114.150.248.137
2020/05/21 21:50:38 [/shop/shopping/load_payment_module.php] ErrCode=E01|E01&ErrInfo=E01390002|E01240002 from 114.150.248.137
2020/05/21 21:50:38 [/shop/shopping/load_payment_module.php] Array
(
    [0] => Array
        (
            [ErrCode] => E01
            [ErrInfo] => E01390002
        )

    [1] => Array
        (
            [ErrCode] => E01
            [ErrInfo] => E01240002
        )

)
 from 114.150.248.137
2020/05/21 21:50:38 [/shop/shopping/load_payment_module.php] SendRequest:https://p01.mul-pay.jp/payment/EntryTran.idPass from 114.150.248.137
2020/05/21 21:50:38 [/shop/shopping/load_payment_module.php] Array
(
    [ShopID] => 9102288779655
    [ShopPass] => ******
    [OrderID] => 1559-21215038
    [JobCd] => AUTH
    [Amount] => 48620
    [TdFlag] => 0
    [TdTenantName] => 
)
 from 114.150.248.137
2020/05/21 21:50:38 [/shop/shopping/load_payment_module.php] AccessID=fb42a5dddd8d44ce19549c8e59bccf00&AccessPass=6db89d348495549ffddb0ed0353bed88 from 114.150.248.137
2020/05/21 21:50:38 [/shop/shopping/load_payment_module.php] Array
(
    [0] => Array
        (
            [AccessID] => fb42a5dddd8d44ce19549c8e59bccf00
            [AccessPass] => 6db89d348495549ffddb0ed0353bed88
        )

)
 from 114.150.248.137
2020/05/21 21:50:38 [/shop/shopping/load_payment_module.php] load_payment_module.php set payment data:Array
(
    [AccessID] => fb42a5dddd8d44ce19549c8e59bccf00
    [AccessPass] => 6db89d348495549ffddb0ed0353bed88
    [OrderID] => 1559-21215038
    [Amount] => 48620
    [JobCd] => AUTH
    [action_status] => 1
    [pay_status] => 0
)
 from 114.150.248.137
2020/05/21 21:50:38 [/shop/shopping/load_payment_module.php] SendRequest:https://p01.mul-pay.jp/payment/ExecTran.idPass from 114.150.248.137
2020/05/21 21:50:38 [/shop/shopping/load_payment_module.php] Array
(
    [AccessID] => fb42a5dddd8d44ce19549c8e59bccf00
    [AccessPass] => 6db89d348495549ffddb0ed0353bed88
    [OrderID] => 1559-21215038
    [Method] => 1
    [Token] => c03f8574d53ab358cefb0597d863baea6f20fc65124313ac80016425243cd48d
    [ClientField1] => 
    [ClientField2] => 
    [ClientField3] => EC-CUBE4.3.24
)
 from 114.150.248.137
2020/05/21 21:50:39 [/shop/shopping/load_payment_module.php] ACS=0&OrderID=1559-21215038&Forward=2a99660&Method=1&PayTimes=&Approve=0395458&TranID=2005212150602257217875120311&TranDate=20200521215039&CheckString=7456201150228f7f5c9db8216bacb987 from 114.150.248.137
2020/05/21 21:50:39 [/shop/shopping/load_payment_module.php] Array
(
    [0] => Array
        (
            [ACS] => 0
            [OrderID] => 1559-21215038
            [Forward] => 2a99660
            [Method] => 1
            [PayTimes] => 
            [Approve] => 0395458
            [TranID] => 2005212150602257217875120311
            [TranDate] => 20200521215039
            [CheckString] => 7456201150228f7f5c9db8216bacb987
        )

)
 from 114.150.248.137
2020/05/21 21:50:39 [/shop/shopping/load_payment_module.php] load_payment_module.php set payment data:Array
(
    [ACS] => 0
    [Forward] => 2a99660
    [Method] => 1
    [PayTimes] => 
    [Approve] => 0395458
    [TranID] => 2005212150602257217875120311
    [TranDate] => 20200521215039
    [CheckString] => 7456201150228f7f5c9db8216bacb987
    [Amount] => 48620
    [JobCd] => AUTH
    [action_status] => 3
    [pay_status] => 11
)
 from 114.150.248.137
2020/05/21 21:50:40 [/shop/user_data/pg_mulpay_recv.php] ******* receiveer data start ******* from 210.175.7.20
2020/05/21 21:50:40 [/shop/user_data/pg_mulpay_recv.php] Array
(
    [ShopID] => 9102288779655
    [ShopPass] => **********
    [AccessID] => fb42a5dddd8d44ce19549c8e59bccf00
    [AccessPass] => ********************************
    [OrderID] => 1559-21215038
    [Status] => AUTH
    [JobCd] => AUTH
    [Amount] => 48620
    [Tax] => 0
    [Currency] => JPN
    [Forward] => 2a99660
    [Method] => 1
    [PayTimes] => 
    [TranID] => 2005212150602257217875120311
    [Approve] => 0395458
    [TranDate] => 20200521215039
    [ErrCode] => 
    [ErrInfo] => 
    [PayType] => 0
)
 from 210.175.7.20
2020/05/21 21:50:40 [/shop/user_data/pg_mulpay_recv.php] ******* receiveer data end ******* from 210.175.7.20
2020/05/21 21:50:45 [/shop/user_data/pg_mulpay_recv.php] update order status:1 order_id=1559 from 210.175.7.20
2020/05/21 21:50:45 [/shop/user_data/pg_mulpay_recv.php] pg_mulpay_recv.php set payment data:Array
(
    [ShopID] => 9102288779655
    [AccessID] => fb42a5dddd8d44ce19549c8e59bccf00
    [OrderID] => 1559-21215038
    [Status] => AUTH
    [JobCd] => AUTH
    [Amount] => 48620
    [Tax] => 0
    [Currency] => JPN
    [Forward] => 2a99660
    [Method] => 1
    [PayTimes] => 
    [TranID] => 2005212150602257217875120311
    [Approve] => 0395458
    [TranDate] => 20200521215039
    [ErrCode] => 
    [ErrInfo] => 
    [PayType] => 0
    [CvsCode] => 
    [CvsConfNo] => 
    [CvsReceiptNo] => 
    [EdyReceiptNo] => 
    [EdyOrderNo] => 
    [SuicaReceiptNo] => 
    [SuicaOrderNo] => 
    [CustID] => 
    [BkCode] => 
    [ConfNo] => 
    [PaymentTerm] => 
    [EncryptReceiptNo] => 
    [FinishDate] => 
    [ReceiptDate] => 
    [WebMoneyManagementNo] => 
    [WebMoneySettleCode] => 
    [AuPayInfoNo] => 
    [AuPayMethod] => 
    [AuCancelAmount] => 
    [AuCancelTax] => 
    [DocomoSettlementCode] => 
    [DocomoCancelAmount] => 
    [DocomoCancelTax] => 
    [pay_status] => 11
)
 from 210.175.7.20
2020/05/21 21:50:45 [/shop/user_data/pg_mulpay_recv.php] response:true from 210.175.7.20
2020/05/21 22:56:47 [/shop/shopping/load_payment_module.php] SendRequest:https://p01.mul-pay.jp/payment/SearchMember.idPass from 114.150.248.137
2020/05/21 22:56:47 [/shop/shopping/load_payment_module.php] Array
(
    [SiteID] => mst2000016748
    [SitePass] => ******
    [MemberID] => 689
)
 from 114.150.248.137
2020/05/21 22:56:48 [/shop/shopping/load_payment_module.php] ErrCode=E01&ErrInfo=E01390002 from 114.150.248.137
2020/05/21 22:56:48 [/shop/shopping/load_payment_module.php] Array
(
    [0] => Array
        (
            [ErrCode] => E01
            [ErrInfo] => E01390002
        )

)
 from 114.150.248.137
2020/05/21 22:56:48 [/shop/shopping/load_payment_module.php] SendRequest:https://p01.mul-pay.jp/payment/SearchCard.idPass from 114.150.248.137
2020/05/21 22:56:48 [/shop/shopping/load_payment_module.php] Array
(
    [SiteID] => mst2000016748
    [SitePass] => ******
    [MemberID] => 689
)
 from 114.150.248.137
2020/05/21 22:56:48 [/shop/shopping/load_payment_module.php] ErrCode=E01|E01&ErrInfo=E01390002|E01240002 from 114.150.248.137
2020/05/21 22:56:48 [/shop/shopping/load_payment_module.php] Array
(
    [0] => Array
        (
            [ErrCode] => E01
            [ErrInfo] => E01390002
        )

    [1] => Array
        (
            [ErrCode] => E01
            [ErrInfo] => E01240002
        )

)
 from 114.150.248.137
2020/05/21 22:57:52 [/shop/shopping/load_payment_module.php] SendRequest:https://p01.mul-pay.jp/payment/SearchMember.idPass from 114.150.248.137
2020/05/21 22:57:52 [/shop/shopping/load_payment_module.php] Array
(
    [SiteID] => mst2000016748
    [SitePass] => ******
    [MemberID] => 689
)
 from 114.150.248.137
2020/05/21 22:57:53 [/shop/shopping/load_payment_module.php] ErrCode=E01&ErrInfo=E01390002 from 114.150.248.137
2020/05/21 22:57:53 [/shop/shopping/load_payment_module.php] Array
(
    [0] => Array
        (
            [ErrCode] => E01
            [ErrInfo] => E01390002
        )

)
 from 114.150.248.137
2020/05/21 22:57:53 [/shop/shopping/load_payment_module.php] SendRequest:https://p01.mul-pay.jp/payment/SearchCard.idPass from 114.150.248.137
2020/05/21 22:57:53 [/shop/shopping/load_payment_module.php] Array
(
    [SiteID] => mst2000016748
    [SitePass] => ******
    [MemberID] => 689
)
 from 114.150.248.137
2020/05/21 22:57:53 [/shop/shopping/load_payment_module.php] ErrCode=E01|E01&ErrInfo=E01390002|E01240002 from 114.150.248.137
2020/05/21 22:57:53 [/shop/shopping/load_payment_module.php] Array
(
    [0] => Array
        (
            [ErrCode] => E01
            [ErrInfo] => E01390002
        )

    [1] => Array
        (
            [ErrCode] => E01
            [ErrInfo] => E01240002
        )

)
 from 114.150.248.137
2020/05/21 22:57:53 [/shop/shopping/load_payment_module.php] SendRequest:https://p01.mul-pay.jp/payment/EntryTran.idPass from 114.150.248.137
2020/05/21 22:57:53 [/shop/shopping/load_payment_module.php] Array
(
    [ShopID] => 9102288779655
    [ShopPass] => ******
    [OrderID] => 1560-21225753
    [JobCd] => AUTH
    [Amount] => 109780
    [TdFlag] => 0
    [TdTenantName] => 
)
 from 114.150.248.137
2020/05/21 22:57:53 [/shop/shopping/load_payment_module.php] AccessID=5a3da74edc946da752706f4ac97b17cf&AccessPass=69e88e495ff1d906964fcef11fbb8812 from 114.150.248.137
2020/05/21 22:57:53 [/shop/shopping/load_payment_module.php] Array
(
    [0] => Array
        (
            [AccessID] => 5a3da74edc946da752706f4ac97b17cf
            [AccessPass] => 69e88e495ff1d906964fcef11fbb8812
        )

)
 from 114.150.248.137
2020/05/21 22:57:53 [/shop/shopping/load_payment_module.php] load_payment_module.php set payment data:Array
(
    [AccessID] => 5a3da74edc946da752706f4ac97b17cf
    [AccessPass] => 69e88e495ff1d906964fcef11fbb8812
    [OrderID] => 1560-21225753
    [Amount] => 109780
    [JobCd] => AUTH
    [action_status] => 1
    [pay_status] => 0
)
 from 114.150.248.137
2020/05/21 22:57:53 [/shop/shopping/load_payment_module.php] SendRequest:https://p01.mul-pay.jp/payment/ExecTran.idPass from 114.150.248.137
2020/05/21 22:57:53 [/shop/shopping/load_payment_module.php] Array
(
    [AccessID] => 5a3da74edc946da752706f4ac97b17cf
    [AccessPass] => 69e88e495ff1d906964fcef11fbb8812
    [OrderID] => 1560-21225753
    [Method] => 1
    [Token] => 7956c1cd5aad86f54147e74e20146986bd6f9bebaabe639b5f0cfa6ec703e114
    [ClientField1] => 
    [ClientField2] => 
    [ClientField3] => EC-CUBE4.3.24
)
 from 114.150.248.137
2020/05/21 22:57:54 [/shop/shopping/load_payment_module.php] ErrCode=G83&ErrInfo=42G830000 from 114.150.248.137
2020/05/21 22:57:54 [/shop/shopping/load_payment_module.php] Array
(
    [0] => Array
        (
            [ErrCode] => G83
            [ErrInfo] => 42G830000
        )

)
 from 114.150.248.137
2020/05/21 22:57:54 [/shop/shopping/load_payment_module.php] load_payment_module.php set payment data:Array
(
    [request_error] => Array
        (
            [0] => 有効期限に誤りがあるために、決済を完了する事が出来ませんでした。 (G83-42G830000)
        )

    [Amount] => 109780
    [JobCd] => AUTH
    [action_status] => 3
)
 from 114.150.248.137
2020/05/21 22:57:54 [/shop/user_data/pg_mulpay_recv.php] ******* receiveer data start ******* from 210.175.7.20
2020/05/21 22:57:54 [/shop/user_data/pg_mulpay_recv.php] Array
(
    [ShopID] => 9102288779655
    [ShopPass] => **********
    [AccessID] => 5a3da74edc946da752706f4ac97b17cf
    [AccessPass] => ********************************
    [OrderID] => 1560-21225753
    [Status] => UNPROCESSED
    [JobCd] => AUTH
    [Amount] => 109780
    [Tax] => 0
    [Currency] => JPN
    [Forward] => 2a99660
    [Method] => 1
    [PayTimes] => 
    [TranID] => 2005212257602257217875110280
    [Approve] =>        
    [TranDate] => 20200521225754
    [ErrCode] => G83
    [ErrInfo] => 42G830000
    [PayType] => 0
)
 from 210.175.7.20
2020/05/21 22:57:54 [/shop/user_data/pg_mulpay_recv.php] ******* receiveer data end ******* from 210.175.7.20
2020/05/21 22:57:54 [/shop/user_data/pg_mulpay_recv.php] pg_mulpay_recv.php set payment data:Array
(
    [ShopID] => 9102288779655
    [AccessID] => 5a3da74edc946da752706f4ac97b17cf
    [OrderID] => 1560-21225753
    [Status] => UNPROCESSED
    [JobCd] => AUTH
    [Amount] => 109780
    [Tax] => 0
    [Currency] => JPN
    [Forward] => 2a99660
    [Method] => 1
    [PayTimes] => 
    [TranID] => 2005212257602257217875110280
    [Approve] => 
    [TranDate] => 20200521225754
    [ErrCode] => G83
    [ErrInfo] => 42G830000
    [PayType] => 0
    [CvsCode] => 
    [CvsConfNo] => 
    [CvsReceiptNo] => 
    [EdyReceiptNo] => 
    [EdyOrderNo] => 
    [SuicaReceiptNo] => 
    [SuicaOrderNo] => 
    [CustID] => 
    [BkCode] => 
    [ConfNo] => 
    [PaymentTerm] => 
    [EncryptReceiptNo] => 
    [FinishDate] => 
    [ReceiptDate] => 
    [WebMoneyManagementNo] => 
    [WebMoneySettleCode] => 
    [AuPayInfoNo] => 
    [AuPayMethod] => 
    [AuCancelAmount] => 
    [AuCancelTax] => 
    [DocomoSettlementCode] => 
    [DocomoCancelAmount] => 
    [DocomoCancelTax] => 
    [pay_status] => 0
)
 from 210.175.7.20
2020/05/21 22:57:54 [/shop/user_data/pg_mulpay_recv.php] response:true from 210.175.7.20
2020/05/21 22:58:39 [/shop/shopping/load_payment_module.php] SendRequest:https://p01.mul-pay.jp/payment/SearchMember.idPass from 114.150.248.137
2020/05/21 22:58:39 [/shop/shopping/load_payment_module.php] Array
(
    [SiteID] => mst2000016748
    [SitePass] => ******
    [MemberID] => 689
)
 from 114.150.248.137
2020/05/21 22:58:40 [/shop/shopping/load_payment_module.php] ErrCode=E01&ErrInfo=E01390002 from 114.150.248.137
2020/05/21 22:58:40 [/shop/shopping/load_payment_module.php] Array
(
    [0] => Array
        (
            [ErrCode] => E01
            [ErrInfo] => E01390002
        )

)
 from 114.150.248.137
2020/05/21 22:58:40 [/shop/shopping/load_payment_module.php] SendRequest:https://p01.mul-pay.jp/payment/SearchCard.idPass from 114.150.248.137
2020/05/21 22:58:40 [/shop/shopping/load_payment_module.php] Array
(
    [SiteID] => mst2000016748
    [SitePass] => ******
    [MemberID] => 689
)
 from 114.150.248.137
2020/05/21 22:58:40 [/shop/shopping/load_payment_module.php] ErrCode=E01|E01&ErrInfo=E01390002|E01240002 from 114.150.248.137
2020/05/21 22:58:40 [/shop/shopping/load_payment_module.php] Array
(
    [0] => Array
        (
            [ErrCode] => E01
            [ErrInfo] => E01390002
        )

    [1] => Array
        (
            [ErrCode] => E01
            [ErrInfo] => E01240002
        )

)
 from 114.150.248.137
2020/05/21 22:58:40 [/shop/shopping/load_payment_module.php] SendRequest:https://p01.mul-pay.jp/payment/ExecTran.idPass from 114.150.248.137
2020/05/21 22:58:40 [/shop/shopping/load_payment_module.php] Array
(
    [AccessID] => 5a3da74edc946da752706f4ac97b17cf
    [AccessPass] => 69e88e495ff1d906964fcef11fbb8812
    [OrderID] => 1560-21225753
    [Method] => 1
    [PayTimes] => 
    [Token] => 08f854b38649e45c5bff989b77cebbd3936229e94a3ddc2ef109ec61e4814691
    [ClientField1] => 
    [ClientField2] => 
    [ClientField3] => EC-CUBE4.3.24
)
 from 114.150.248.137
2020/05/21 22:58:41 [/shop/shopping/load_payment_module.php] ACS=0&OrderID=1560-21225753&Forward=2a99660&Method=1&PayTimes=&Approve=0481878&TranID=2005212258602257217875110281&TranDate=20200521225840&CheckString=0b65d3431c91e722ed3340ff9e216a61 from 114.150.248.137
2020/05/21 22:58:41 [/shop/shopping/load_payment_module.php] Array
(
    [0] => Array
        (
            [ACS] => 0
            [OrderID] => 1560-21225753
            [Forward] => 2a99660
            [Method] => 1
            [PayTimes] => 
            [Approve] => 0481878
            [TranID] => 2005212258602257217875110281
            [TranDate] => 20200521225840
            [CheckString] => 0b65d3431c91e722ed3340ff9e216a61
        )

)
 from 114.150.248.137
2020/05/21 22:58:41 [/shop/shopping/load_payment_module.php] load_payment_module.php set payment data:Array
(
    [ACS] => 0
    [Forward] => 2a99660
    [Method] => 1
    [PayTimes] => 
    [Approve] => 0481878
    [TranID] => 2005212258602257217875110281
    [TranDate] => 20200521225840
    [CheckString] => 0b65d3431c91e722ed3340ff9e216a61
    [Amount] => 109780
    [JobCd] => AUTH
    [action_status] => 3
    [pay_status] => 11
)
 from 114.150.248.137
2020/05/21 22:58:41 [/shop/user_data/pg_mulpay_recv.php] ******* receiveer data start ******* from 210.175.7.20
2020/05/21 22:58:41 [/shop/user_data/pg_mulpay_recv.php] Array
(
    [ShopID] => 9102288779655
    [ShopPass] => **********
    [AccessID] => 5a3da74edc946da752706f4ac97b17cf
    [AccessPass] => ********************************
    [OrderID] => 1560-21225753
    [Status] => AUTH
    [JobCd] => AUTH
    [Amount] => 109780
    [Tax] => 0
    [Currency] => JPN
    [Forward] => 2a99660
    [Method] => 1
    [PayTimes] => 
    [TranID] => 2005212258602257217875110281
    [Approve] => 0481878
    [TranDate] => 20200521225840
    [ErrCode] => 
    [ErrInfo] => 
    [PayType] => 0
)
 from 210.175.7.20
2020/05/21 22:58:41 [/shop/user_data/pg_mulpay_recv.php] ******* receiveer data end ******* from 210.175.7.20
2020/05/21 22:58:46 [/shop/user_data/pg_mulpay_recv.php] update order status:1 order_id=1560 from 210.175.7.20
2020/05/21 22:58:46 [/shop/user_data/pg_mulpay_recv.php] pg_mulpay_recv.php set payment data:Array
(
    [ShopID] => 9102288779655
    [AccessID] => 5a3da74edc946da752706f4ac97b17cf
    [OrderID] => 1560-21225753
    [Status] => AUTH
    [JobCd] => AUTH
    [Amount] => 109780
    [Tax] => 0
    [Currency] => JPN
    [Forward] => 2a99660
    [Method] => 1
    [PayTimes] => 
    [TranID] => 2005212258602257217875110281
    [Approve] => 0481878
    [TranDate] => 20200521225840
    [PayType] => 0
    [CvsCode] => 
    [CvsConfNo] => 
    [CvsReceiptNo] => 
    [EdyReceiptNo] => 
    [EdyOrderNo] => 
    [SuicaReceiptNo] => 
    [SuicaOrderNo] => 
    [CustID] => 
    [BkCode] => 
    [ConfNo] => 
    [PaymentTerm] => 
    [EncryptReceiptNo] => 
    [FinishDate] => 
    [ReceiptDate] => 
    [WebMoneyManagementNo] => 
    [WebMoneySettleCode] => 
    [AuPayInfoNo] => 
    [AuPayMethod] => 
    [AuCancelAmount] => 
    [AuCancelTax] => 
    [DocomoSettlementCode] => 
    [DocomoCancelAmount] => 
    [DocomoCancelTax] => 
    [pay_status] => 11
)
 from 210.175.7.20
2020/05/21 22:58:46 [/shop/user_data/pg_mulpay_recv.php] response:true from 210.175.7.20
2020/05/21 23:32:50 [/shop/shopping/load_payment_module.php] SendRequest:https://p01.mul-pay.jp/payment/SearchMember.idPass from 114.150.248.137
2020/05/21 23:32:50 [/shop/shopping/load_payment_module.php] Array
(
    [SiteID] => mst2000016748
    [SitePass] => ******
    [MemberID] => 689
)
 from 114.150.248.137
2020/05/21 23:32:50 [/shop/shopping/load_payment_module.php] ErrCode=E01&ErrInfo=E01390002 from 114.150.248.137
2020/05/21 23:32:50 [/shop/shopping/load_payment_module.php] Array
(
    [0] => Array
        (
            [ErrCode] => E01
            [ErrInfo] => E01390002
        )

)
 from 114.150.248.137
2020/05/21 23:32:50 [/shop/shopping/load_payment_module.php] SendRequest:https://p01.mul-pay.jp/payment/SearchCard.idPass from 114.150.248.137
2020/05/21 23:32:50 [/shop/shopping/load_payment_module.php] Array
(
    [SiteID] => mst2000016748
    [SitePass] => ******
    [MemberID] => 689
)
 from 114.150.248.137
2020/05/21 23:32:51 [/shop/shopping/load_payment_module.php] ErrCode=E01|E01&ErrInfo=E01390002|E01240002 from 114.150.248.137
2020/05/21 23:32:51 [/shop/shopping/load_payment_module.php] Array
(
    [0] => Array
        (
            [ErrCode] => E01
            [ErrInfo] => E01390002
        )

    [1] => Array
        (
            [ErrCode] => E01
            [ErrInfo] => E01240002
        )

)
 from 114.150.248.137
2020/05/21 23:33:16 [/shop/shopping/load_payment_module.php] SendRequest:https://p01.mul-pay.jp/payment/SearchMember.idPass from 114.150.248.137
2020/05/21 23:33:16 [/shop/shopping/load_payment_module.php] Array
(
    [SiteID] => mst2000016748
    [SitePass] => ******
    [MemberID] => 689
)
 from 114.150.248.137
2020/05/21 23:33:17 [/shop/shopping/load_payment_module.php] ErrCode=E01&ErrInfo=E01390002 from 114.150.248.137
2020/05/21 23:33:17 [/shop/shopping/load_payment_module.php] Array
(
    [0] => Array
        (
            [ErrCode] => E01
            [ErrInfo] => E01390002
        )

)
 from 114.150.248.137
2020/05/21 23:33:17 [/shop/shopping/load_payment_module.php] SendRequest:https://p01.mul-pay.jp/payment/SearchCard.idPass from 114.150.248.137
2020/05/21 23:33:17 [/shop/shopping/load_payment_module.php] Array
(
    [SiteID] => mst2000016748
    [SitePass] => ******
    [MemberID] => 689
)
 from 114.150.248.137
2020/05/21 23:33:17 [/shop/shopping/load_payment_module.php] ErrCode=E01|E01&ErrInfo=E01390002|E01240002 from 114.150.248.137
2020/05/21 23:33:17 [/shop/shopping/load_payment_module.php] Array
(
    [0] => Array
        (
            [ErrCode] => E01
            [ErrInfo] => E01390002
        )

    [1] => Array
        (
            [ErrCode] => E01
            [ErrInfo] => E01240002
        )

)
 from 114.150.248.137
2020/05/21 23:43:29 [/shop/shopping/load_payment_module.php] SendRequest:https://p01.mul-pay.jp/payment/SearchMember.idPass from 114.150.248.137
2020/05/21 23:43:29 [/shop/shopping/load_payment_module.php] Array
(
    [SiteID] => mst2000016748
    [SitePass] => ******
    [MemberID] => 689
)
 from 114.150.248.137
2020/05/21 23:43:30 [/shop/shopping/load_payment_module.php] ErrCode=E01&ErrInfo=E01390002 from 114.150.248.137
2020/05/21 23:43:30 [/shop/shopping/load_payment_module.php] Array
(
    [0] => Array
        (
            [ErrCode] => E01
            [ErrInfo] => E01390002
        )

)
 from 114.150.248.137
2020/05/21 23:43:30 [/shop/shopping/load_payment_module.php] SendRequest:https://p01.mul-pay.jp/payment/SearchCard.idPass from 114.150.248.137
2020/05/21 23:43:30 [/shop/shopping/load_payment_module.php] Array
(
    [SiteID] => mst2000016748
    [SitePass] => ******
    [MemberID] => 689
)
 from 114.150.248.137
2020/05/21 23:43:30 [/shop/shopping/load_payment_module.php] ErrCode=E01|E01&ErrInfo=E01390002|E01240002 from 114.150.248.137
2020/05/21 23:43:30 [/shop/shopping/load_payment_module.php] Array
(
    [0] => Array
        (
            [ErrCode] => E01
            [ErrInfo] => E01390002
        )

    [1] => Array
        (
            [ErrCode] => E01
            [ErrInfo] => E01240002
        )

)
 from 114.150.248.137
2020/05/21 23:44:13 [/shop/shopping/load_payment_module.php] SendRequest:https://p01.mul-pay.jp/payment/SearchMember.idPass from 114.150.248.137
2020/05/21 23:44:13 [/shop/shopping/load_payment_module.php] Array
(
    [SiteID] => mst2000016748
    [SitePass] => ******
    [MemberID] => 689
)
 from 114.150.248.137
2020/05/21 23:44:14 [/shop/shopping/load_payment_module.php] ErrCode=E01&ErrInfo=E01390002 from 114.150.248.137
2020/05/21 23:44:14 [/shop/shopping/load_payment_module.php] Array
(
    [0] => Array
        (
            [ErrCode] => E01
            [ErrInfo] => E01390002
        )

)
 from 114.150.248.137
2020/05/21 23:44:14 [/shop/shopping/load_payment_module.php] SendRequest:https://p01.mul-pay.jp/payment/SearchCard.idPass from 114.150.248.137
2020/05/21 23:44:14 [/shop/shopping/load_payment_module.php] Array
(
    [SiteID] => mst2000016748
    [SitePass] => ******
    [MemberID] => 689
)
 from 114.150.248.137
2020/05/21 23:44:14 [/shop/shopping/load_payment_module.php] ErrCode=E01|E01&ErrInfo=E01390002|E01240002 from 114.150.248.137
2020/05/21 23:44:14 [/shop/shopping/load_payment_module.php] Array
(
    [0] => Array
        (
            [ErrCode] => E01
            [ErrInfo] => E01390002
        )

    [1] => Array
        (
            [ErrCode] => E01
            [ErrInfo] => E01240002
        )

)
 from 114.150.248.137
2020/05/21 23:44:14 [/shop/shopping/load_payment_module.php] SendRequest:https://p01.mul-pay.jp/payment/EntryTran.idPass from 114.150.248.137
2020/05/21 23:44:14 [/shop/shopping/load_payment_module.php] Array
(
    [ShopID] => 9102288779655
    [ShopPass] => ******
    [OrderID] => 1562-21234414
    [JobCd] => AUTH
    [Amount] => 46640
    [TdFlag] => 0
    [TdTenantName] => 
)
 from 114.150.248.137
2020/05/21 23:44:14 [/shop/shopping/load_payment_module.php] AccessID=3ac7125aeb5387805a44284154f7711b&AccessPass=37c19203c941312385160bc928903bf3 from 114.150.248.137
2020/05/21 23:44:14 [/shop/shopping/load_payment_module.php] Array
(
    [0] => Array
        (
            [AccessID] => 3ac7125aeb5387805a44284154f7711b
            [AccessPass] => 37c19203c941312385160bc928903bf3
        )

)
 from 114.150.248.137
2020/05/21 23:44:14 [/shop/shopping/load_payment_module.php] load_payment_module.php set payment data:Array
(
    [AccessID] => 3ac7125aeb5387805a44284154f7711b
    [AccessPass] => 37c19203c941312385160bc928903bf3
    [OrderID] => 1562-21234414
    [Amount] => 46640
    [JobCd] => AUTH
    [action_status] => 1
    [pay_status] => 0
)
 from 114.150.248.137
2020/05/21 23:44:14 [/shop/shopping/load_payment_module.php] SendRequest:https://p01.mul-pay.jp/payment/ExecTran.idPass from 114.150.248.137
2020/05/21 23:44:14 [/shop/shopping/load_payment_module.php] Array
(
    [AccessID] => 3ac7125aeb5387805a44284154f7711b
    [AccessPass] => 37c19203c941312385160bc928903bf3
    [OrderID] => 1562-21234414
    [Method] => 1
    [Token] => 370076ede9f90ecfbf98313ac236df9c3cc705a72d898e6c34b0706476457265
    [ClientField1] => 
    [ClientField2] => 
    [ClientField3] => EC-CUBE4.3.24
)
 from 114.150.248.137
2020/05/21 23:44:15 [/shop/shopping/load_payment_module.php] ACS=0&OrderID=1562-21234414&Forward=2a99660&Method=1&PayTimes=&Approve=0123372&TranID=2005212344602257217875130286&TranDate=20200521234415&CheckString=ae8447d62dc501085a0a1a31b3819bca from 114.150.248.137
2020/05/21 23:44:15 [/shop/shopping/load_payment_module.php] Array
(
    [0] => Array
        (
            [ACS] => 0
            [OrderID] => 1562-21234414
            [Forward] => 2a99660
            [Method] => 1
            [PayTimes] => 
            [Approve] => 0123372
            [TranID] => 2005212344602257217875130286
            [TranDate] => 20200521234415
            [CheckString] => ae8447d62dc501085a0a1a31b3819bca
        )

)
 from 114.150.248.137
2020/05/21 23:44:15 [/shop/shopping/load_payment_module.php] load_payment_module.php set payment data:Array
(
    [ACS] => 0
    [Forward] => 2a99660
    [Method] => 1
    [PayTimes] => 
    [Approve] => 0123372
    [TranID] => 2005212344602257217875130286
    [TranDate] => 20200521234415
    [CheckString] => ae8447d62dc501085a0a1a31b3819bca
    [Amount] => 46640
    [JobCd] => AUTH
    [action_status] => 3
    [pay_status] => 11
)
 from 114.150.248.137
2020/05/21 23:44:15 [/shop/user_data/pg_mulpay_recv.php] ******* receiveer data start ******* from 210.175.7.20
2020/05/21 23:44:15 [/shop/user_data/pg_mulpay_recv.php] Array
(
    [ShopID] => 9102288779655
    [ShopPass] => **********
    [AccessID] => 3ac7125aeb5387805a44284154f7711b
    [AccessPass] => ********************************
    [OrderID] => 1562-21234414
    [Status] => AUTH
    [JobCd] => AUTH
    [Amount] => 46640
    [Tax] => 0
    [Currency] => JPN
    [Forward] => 2a99660
    [Method] => 1
    [PayTimes] => 
    [TranID] => 2005212344602257217875130286
    [Approve] => 0123372
    [TranDate] => 20200521234415
    [ErrCode] => 
    [ErrInfo] => 
    [PayType] => 0
)
 from 210.175.7.20
2020/05/21 23:44:15 [/shop/user_data/pg_mulpay_recv.php] ******* receiveer data end ******* from 210.175.7.20
2020/05/21 23:44:20 [/shop/user_data/pg_mulpay_recv.php] update order status:1 order_id=1562 from 210.175.7.20
2020/05/21 23:44:20 [/shop/user_data/pg_mulpay_recv.php] pg_mulpay_recv.php set payment data:Array
(
    [ShopID] => 9102288779655
    [AccessID] => 3ac7125aeb5387805a44284154f7711b
    [OrderID] => 1562-21234414
    [Status] => AUTH
    [JobCd] => AUTH
    [Amount] => 46640
    [Tax] => 0
    [Currency] => JPN
    [Forward] => 2a99660
    [Method] => 1
    [PayTimes] => 
    [TranID] => 2005212344602257217875130286
    [Approve] => 0123372
    [TranDate] => 20200521234415
    [ErrCode] => 
    [ErrInfo] => 
    [PayType] => 0
    [CvsCode] => 
    [CvsConfNo] => 
    [CvsReceiptNo] => 
    [EdyReceiptNo] => 
    [EdyOrderNo] => 
    [SuicaReceiptNo] => 
    [SuicaOrderNo] => 
    [CustID] => 
    [BkCode] => 
    [ConfNo] => 
    [PaymentTerm] => 
    [EncryptReceiptNo] => 
    [FinishDate] => 
    [ReceiptDate] => 
    [WebMoneyManagementNo] => 
    [WebMoneySettleCode] => 
    [AuPayInfoNo] => 
    [AuPayMethod] => 
    [AuCancelAmount] => 
    [AuCancelTax] => 
    [DocomoSettlementCode] => 
    [DocomoCancelAmount] => 
    [DocomoCancelTax] => 
    [pay_status] => 11
)
 from 210.175.7.20
2020/05/21 23:44:20 [/shop/user_data/pg_mulpay_recv.php] response:true from 210.175.7.20
