2020/10/22 09:17:26 [/shop/user_data/pg_mulpay_recv.php] ******* receiveer data start ******* from 210.175.7.20
2020/10/22 09:17:26 [/shop/user_data/pg_mulpay_recv.php] Array
(
    [ShopID] => 9102288779655
    [ShopPass] => **********
    [AccessID] => 6301e053d24310bcde5aa49999a47c77
    [AccessPass] => ********************************
    [OrderID] => 2198-21163945
    [Status] => PAYSUCCESS
    [Amount] => 17094
    [Tax] => 0
    [Currency] => JPN
    [TranID] => 20102100000251290382
    [TranDate] => 20201022091709
    [ErrCode] => 
    [ErrInfo] => 
    [PayType] => 3
    [CvsCode] => 10002
    [CvsConfNo] => 20020
    [CvsReceiptNo] => 810069686525
    [PaymentTerm] => 20201025235959
    [FinishDate] => 20201022091200
    [ReceiptDate] => 20201021163945
)
 from 210.175.7.20
2020/10/22 09:17:26 [/shop/user_data/pg_mulpay_recv.php] ******* receiveer data end ******* from 210.175.7.20
2020/10/22 09:17:26 [/shop/user_data/pg_mulpay_recv.php] update order status:6 from 210.175.7.20
2020/10/22 09:17:26 [/shop/user_data/pg_mulpay_recv.php] pg_mulpay_recv.php set payment data:Array
(
    [ShopID] => 9102288779655
    [AccessID] => 6301e053d24310bcde5aa49999a47c77
    [OrderID] => 2198-21163945
    [Status] => PAYSUCCESS
    [JobCd] => 
    [Amount] => 17094
    [Tax] => 0
    [Currency] => JPN
    [Forward] => 
    [Method] => 
    [PayTimes] => 
    [TranID] => 20102100000251290382
    [Approve] => 
    [TranDate] => 20201022091709
    [ErrCode] => 
    [ErrInfo] => 
    [PayType] => 3
    [CvsCode] => 10002
    [CvsConfNo] => 20020
    [CvsReceiptNo] => 810069686525
    [EdyReceiptNo] => 
    [EdyOrderNo] => 
    [SuicaReceiptNo] => 
    [SuicaOrderNo] => 
    [CustID] => 
    [BkCode] => 
    [PaymentTerm] => 20201025235959
    [EncryptReceiptNo] => 
    [FinishDate] => 20201022091200
    [ReceiptDate] => 20201021163945
    [WebMoneyManagementNo] => 
    [WebMoneySettleCode] => 
    [AuPayInfoNo] => 
    [AuPayMethod] => 
    [AuCancelAmount] => 
    [AuCancelTax] => 
    [DocomoSettlementCode] => 
    [DocomoCancelAmount] => 
    [DocomoCancelTax] => 
    [pay_status] => 2
)
 from 210.175.7.20
2020/10/22 09:17:26 [/shop/user_data/pg_mulpay_recv.php] response:true from 210.175.7.20
2020/10/22 22:26:41 [/shop/shopping/load_payment_module.php] SendRequest:https://p01.mul-pay.jp/payment/EntryTran.idPass from 126.9.106.248
2020/10/22 22:26:41 [/shop/shopping/load_payment_module.php] Array
(
    [ShopID] => 9102288779655
    [ShopPass] => ******
    [OrderID] => 2200-22222641
    [JobCd] => AUTH
    [Amount] => 40260
    [TdFlag] => 0
    [TdTenantName] => 
)
 from 126.9.106.248
2020/10/22 22:26:41 [/shop/shopping/load_payment_module.php] AccessID=85473d475cd3ec4226932b1b9ae9e4e0&AccessPass=e8e4b1573c9f0214c234a578b94050df from 126.9.106.248
2020/10/22 22:26:41 [/shop/shopping/load_payment_module.php] Array
(
    [0] => Array
        (
            [AccessID] => 85473d475cd3ec4226932b1b9ae9e4e0
            [AccessPass] => e8e4b1573c9f0214c234a578b94050df
        )

)
 from 126.9.106.248
2020/10/22 22:26:41 [/shop/shopping/load_payment_module.php] load_payment_module.php set payment data:Array
(
    [AccessID] => 85473d475cd3ec4226932b1b9ae9e4e0
    [AccessPass] => e8e4b1573c9f0214c234a578b94050df
    [OrderID] => 2200-22222641
    [Amount] => 40260
    [JobCd] => AUTH
    [action_status] => 1
    [pay_status] => 0
)
 from 126.9.106.248
2020/10/22 22:26:41 [/shop/shopping/load_payment_module.php] SendRequest:https://p01.mul-pay.jp/payment/ExecTran.idPass from 126.9.106.248
2020/10/22 22:26:41 [/shop/shopping/load_payment_module.php] Array
(
    [AccessID] => 85473d475cd3ec4226932b1b9ae9e4e0
    [AccessPass] => e8e4b1573c9f0214c234a578b94050df
    [OrderID] => 2200-22222641
    [Method] => 1
    [Token] => efcf28b6aa0e977f3eaa72d737eee3fce93a9651acfb4c0879491e1b05fa85dc
    [ClientField1] => 
    [ClientField2] => 
    [ClientField3] => EC-CUBE4.3.24
)
 from 126.9.106.248
2020/10/22 22:26:42 [/shop/shopping/load_payment_module.php] ACS=0&OrderID=2200-22222641&Forward=2a99661&Method=1&PayTimes=&Approve=0283165&TranID=2010222226602257217875130392&TranDate=20201022222642&CheckString=0f40cb0572809ca222666c12d4c57be6 from 126.9.106.248
2020/10/22 22:26:42 [/shop/shopping/load_payment_module.php] Array
(
    [0] => Array
        (
            [ACS] => 0
            [OrderID] => 2200-22222641
            [Forward] => 2a99661
            [Method] => 1
            [PayTimes] => 
            [Approve] => 0283165
            [TranID] => 2010222226602257217875130392
            [TranDate] => 20201022222642
            [CheckString] => 0f40cb0572809ca222666c12d4c57be6
        )

)
 from 126.9.106.248
2020/10/22 22:26:42 [/shop/shopping/load_payment_module.php] load_payment_module.php set payment data:Array
(
    [ACS] => 0
    [Forward] => 2a99661
    [Method] => 1
    [PayTimes] => 
    [Approve] => 0283165
    [TranID] => 2010222226602257217875130392
    [TranDate] => 20201022222642
    [CheckString] => 0f40cb0572809ca222666c12d4c57be6
    [Amount] => 40260
    [JobCd] => AUTH
    [action_status] => 3
    [pay_status] => 11
)
 from 126.9.106.248
2020/10/22 22:26:42 [/shop/user_data/pg_mulpay_recv.php] ******* receiveer data start ******* from 210.175.7.20
2020/10/22 22:26:42 [/shop/user_data/pg_mulpay_recv.php] Array
(
    [ShopID] => 9102288779655
    [ShopPass] => **********
    [AccessID] => 85473d475cd3ec4226932b1b9ae9e4e0
    [AccessPass] => ********************************
    [OrderID] => 2200-22222641
    [Status] => AUTH
    [JobCd] => AUTH
    [Amount] => 40260
    [Tax] => 0
    [Currency] => JPN
    [Forward] => 2a99661
    [Method] => 1
    [PayTimes] => 
    [TranID] => 2010222226602257217875130392
    [Approve] => 0283165
    [TranDate] => 20201022222642
    [ErrCode] => 
    [ErrInfo] => 
    [PayType] => 0
)
 from 210.175.7.20
2020/10/22 22:26:42 [/shop/user_data/pg_mulpay_recv.php] ******* receiveer data end ******* from 210.175.7.20
2020/10/22 22:26:47 [/shop/user_data/pg_mulpay_recv.php] update order status:1 order_id=2200 from 210.175.7.20
2020/10/22 22:26:47 [/shop/user_data/pg_mulpay_recv.php] pg_mulpay_recv.php set payment data:Array
(
    [ShopID] => 9102288779655
    [AccessID] => 85473d475cd3ec4226932b1b9ae9e4e0
    [OrderID] => 2200-22222641
    [Status] => AUTH
    [JobCd] => AUTH
    [Amount] => 40260
    [Tax] => 0
    [Currency] => JPN
    [Forward] => 2a99661
    [Method] => 1
    [PayTimes] => 
    [TranID] => 2010222226602257217875130392
    [Approve] => 0283165
    [TranDate] => 20201022222642
    [ErrCode] => 
    [ErrInfo] => 
    [PayType] => 0
    [CvsCode] => 
    [CvsConfNo] => 
    [CvsReceiptNo] => 
    [EdyReceiptNo] => 
    [EdyOrderNo] => 
    [SuicaReceiptNo] => 
    [SuicaOrderNo] => 
    [CustID] => 
    [BkCode] => 
    [ConfNo] => 
    [PaymentTerm] => 
    [EncryptReceiptNo] => 
    [FinishDate] => 
    [ReceiptDate] => 
    [WebMoneyManagementNo] => 
    [WebMoneySettleCode] => 
    [AuPayInfoNo] => 
    [AuPayMethod] => 
    [AuCancelAmount] => 
    [AuCancelTax] => 
    [DocomoSettlementCode] => 
    [DocomoCancelAmount] => 
    [DocomoCancelTax] => 
    [pay_status] => 11
)
 from 210.175.7.20
2020/10/22 22:26:47 [/shop/user_data/pg_mulpay_recv.php] response:true from 210.175.7.20
