2019/09/13 12:29:00 [/shop/kanri/order/edit.php] SendRequest:https://p01.mul-pay.jp/payment/AlterTran.idPass from 219.97.63.160
login_id = oukokuadmin(0)[dshl2elstea4jt4jkg2126gnh2]
/home/oukoku/public_html/shop/kanri/order/edit.php(28): LC_Page_Admin_Order_Edit_Ex->init
/home/oukoku/public_html/shop/data/class_extends/page_extends/admin/order/LC_Page_Admin_Order_Edit_Ex.php(44): LC_Page_Admin_Order_Edit->init
/home/oukoku/public_html/shop/data/class/pages/admin/order/LC_Page_Admin_Order_Edit.php(93): LC_Page_Admin_Order_Ex->init
/home/oukoku/public_html/shop/data/class_extends/page_extends/admin/order/LC_Page_Admin_Order_Ex.php(44): LC_Page_Admin_Order->init
/home/oukoku/public_html/shop/data/class/pages/admin/order/LC_Page_Admin_Order.php(42): LC_Page_Admin->init
/home/oukoku/public_html/shop/data/class/pages/admin/LC_Page_Admin.php(78): SC_Helper_Plugin->doAction
/home/oukoku/public_html/shop/data/class/helper/SC_Helper_Plugin.php(145): call_user_func_array
(): PgMulpayUtils->hookActionBefore
/home/oukoku/public_html/shop/data/downloads/plugin/PgMulpayUtils/PgMulpayUtils.php(143): PgMulpayUtils->callHookAction
/home/oukoku/public_html/shop/data/downloads/plugin/PgMulpayUtils/PgMulpayUtils.php(157): LC_PgMulpayUtils->actionHook
/home/oukoku/public_html/shop/data/downloads/module/mdl_pg_mulpay/class/plugin/LC_PgMulpayUtils.php(155): LC_PgMulpayUtils->lfDoAdminOrderEditBefore
/home/oukoku/public_html/shop/data/downloads/module/mdl_pg_mulpay/class/plugin/LC_PgMulpayUtils.php(385): SC_Mdl_PG_MULPAY_Client_Util->commitOrder
/home/oukoku/public_html/shop/data/downloads/module/mdl_pg_mulpay/class/client/SC_Mdl_PG_MULPAY_Client_Util.php(318): SC_Mdl_PG_MULPAY_Client_Base->sendRequest
/home/oukoku/public_html/shop/data/downloads/module/mdl_pg_mulpay/class/client/SC_Mdl_PG_MULPAY_Client_Base.php(375): SC_Mdl_PG_MULPAY->printLog
/home/oukoku/public_html/shop/data/downloads/module/mdl_pg_mulpay/class/SC_Mdl_PG_MULPAY.php(268): GC_Utils::gfPrintLog
2019/09/13 12:29:00 [/shop/kanri/order/edit.php] Array
(
    [ShopID] => 9102288779655
    [ShopPass] => ******
    [AccessID] => 80fb9f54dba6e59e8d560afd46f6d5a0
    [AccessPass] => 58a1e97c5e2b17ddc25193f016c5b136
    [JobCd] => SALES
    [Amount] => 9288
)
 from 219.97.63.160
login_id = oukokuadmin(0)[dshl2elstea4jt4jkg2126gnh2]
/home/oukoku/public_html/shop/kanri/order/edit.php(28): LC_Page_Admin_Order_Edit_Ex->init
/home/oukoku/public_html/shop/data/class_extends/page_extends/admin/order/LC_Page_Admin_Order_Edit_Ex.php(44): LC_Page_Admin_Order_Edit->init
/home/oukoku/public_html/shop/data/class/pages/admin/order/LC_Page_Admin_Order_Edit.php(93): LC_Page_Admin_Order_Ex->init
/home/oukoku/public_html/shop/data/class_extends/page_extends/admin/order/LC_Page_Admin_Order_Ex.php(44): LC_Page_Admin_Order->init
/home/oukoku/public_html/shop/data/class/pages/admin/order/LC_Page_Admin_Order.php(42): LC_Page_Admin->init
/home/oukoku/public_html/shop/data/class/pages/admin/LC_Page_Admin.php(78): SC_Helper_Plugin->doAction
/home/oukoku/public_html/shop/data/class/helper/SC_Helper_Plugin.php(145): call_user_func_array
(): PgMulpayUtils->hookActionBefore
/home/oukoku/public_html/shop/data/downloads/plugin/PgMulpayUtils/PgMulpayUtils.php(143): PgMulpayUtils->callHookAction
/home/oukoku/public_html/shop/data/downloads/plugin/PgMulpayUtils/PgMulpayUtils.php(157): LC_PgMulpayUtils->actionHook
/home/oukoku/public_html/shop/data/downloads/module/mdl_pg_mulpay/class/plugin/LC_PgMulpayUtils.php(155): LC_PgMulpayUtils->lfDoAdminOrderEditBefore
/home/oukoku/public_html/shop/data/downloads/module/mdl_pg_mulpay/class/plugin/LC_PgMulpayUtils.php(385): SC_Mdl_PG_MULPAY_Client_Util->commitOrder
/home/oukoku/public_html/shop/data/downloads/module/mdl_pg_mulpay/class/client/SC_Mdl_PG_MULPAY_Client_Util.php(318): SC_Mdl_PG_MULPAY_Client_Base->sendRequest
/home/oukoku/public_html/shop/data/downloads/module/mdl_pg_mulpay/class/client/SC_Mdl_PG_MULPAY_Client_Base.php(376): SC_Mdl_PG_MULPAY->printLog
/home/oukoku/public_html/shop/data/downloads/module/mdl_pg_mulpay/class/SC_Mdl_PG_MULPAY.php(268): GC_Utils::gfPrintLog
2019/09/13 12:29:00 [/shop/kanri/order/edit.php] AccessID=80fb9f54dba6e59e8d560afd46f6d5a0&AccessPass=58a1e97c5e2b17ddc25193f016c5b136&Forward=2959876&Approve=0004051&TranID=1909051609602257217875120089&TranDate=20190913122900 from 219.97.63.160
login_id = oukokuadmin(0)[dshl2elstea4jt4jkg2126gnh2]
/home/oukoku/public_html/shop/kanri/order/edit.php(28): LC_Page_Admin_Order_Edit_Ex->init
/home/oukoku/public_html/shop/data/class_extends/page_extends/admin/order/LC_Page_Admin_Order_Edit_Ex.php(44): LC_Page_Admin_Order_Edit->init
/home/oukoku/public_html/shop/data/class/pages/admin/order/LC_Page_Admin_Order_Edit.php(93): LC_Page_Admin_Order_Ex->init
/home/oukoku/public_html/shop/data/class_extends/page_extends/admin/order/LC_Page_Admin_Order_Ex.php(44): LC_Page_Admin_Order->init
/home/oukoku/public_html/shop/data/class/pages/admin/order/LC_Page_Admin_Order.php(42): LC_Page_Admin->init
/home/oukoku/public_html/shop/data/class/pages/admin/LC_Page_Admin.php(78): SC_Helper_Plugin->doAction
/home/oukoku/public_html/shop/data/class/helper/SC_Helper_Plugin.php(145): call_user_func_array
(): PgMulpayUtils->hookActionBefore
/home/oukoku/public_html/shop/data/downloads/plugin/PgMulpayUtils/PgMulpayUtils.php(143): PgMulpayUtils->callHookAction
/home/oukoku/public_html/shop/data/downloads/plugin/PgMulpayUtils/PgMulpayUtils.php(157): LC_PgMulpayUtils->actionHook
/home/oukoku/public_html/shop/data/downloads/module/mdl_pg_mulpay/class/plugin/LC_PgMulpayUtils.php(155): LC_PgMulpayUtils->lfDoAdminOrderEditBefore
/home/oukoku/public_html/shop/data/downloads/module/mdl_pg_mulpay/class/plugin/LC_PgMulpayUtils.php(385): SC_Mdl_PG_MULPAY_Client_Util->commitOrder
/home/oukoku/public_html/shop/data/downloads/module/mdl_pg_mulpay/class/client/SC_Mdl_PG_MULPAY_Client_Util.php(318): SC_Mdl_PG_MULPAY_Client_Base->sendRequest
/home/oukoku/public_html/shop/data/downloads/module/mdl_pg_mulpay/class/client/SC_Mdl_PG_MULPAY_Client_Base.php(418): SC_Mdl_PG_MULPAY_Client_Base->parseResponse
/home/oukoku/public_html/shop/data/downloads/module/mdl_pg_mulpay/class/client/SC_Mdl_PG_MULPAY_Client_Base.php(446): SC_Mdl_PG_MULPAY->printLog
/home/oukoku/public_html/shop/data/downloads/module/mdl_pg_mulpay/class/SC_Mdl_PG_MULPAY.php(268): GC_Utils::gfPrintLog
2019/09/13 12:29:00 [/shop/kanri/order/edit.php] Array
(
    [0] => Array
        (
            [AccessID] => 80fb9f54dba6e59e8d560afd46f6d5a0
            [AccessPass] => 58a1e97c5e2b17ddc25193f016c5b136
            [Forward] => 2959876
            [Approve] => 0004051
            [TranID] => 1909051609602257217875120089
            [TranDate] => 20190913122900
        )

)
 from 219.97.63.160
login_id = oukokuadmin(0)[dshl2elstea4jt4jkg2126gnh2]
/home/oukoku/public_html/shop/kanri/order/edit.php(28): LC_Page_Admin_Order_Edit_Ex->init
/home/oukoku/public_html/shop/data/class_extends/page_extends/admin/order/LC_Page_Admin_Order_Edit_Ex.php(44): LC_Page_Admin_Order_Edit->init
/home/oukoku/public_html/shop/data/class/pages/admin/order/LC_Page_Admin_Order_Edit.php(93): LC_Page_Admin_Order_Ex->init
/home/oukoku/public_html/shop/data/class_extends/page_extends/admin/order/LC_Page_Admin_Order_Ex.php(44): LC_Page_Admin_Order->init
/home/oukoku/public_html/shop/data/class/pages/admin/order/LC_Page_Admin_Order.php(42): LC_Page_Admin->init
/home/oukoku/public_html/shop/data/class/pages/admin/LC_Page_Admin.php(78): SC_Helper_Plugin->doAction
/home/oukoku/public_html/shop/data/class/helper/SC_Helper_Plugin.php(145): call_user_func_array
(): PgMulpayUtils->hookActionBefore
/home/oukoku/public_html/shop/data/downloads/plugin/PgMulpayUtils/PgMulpayUtils.php(143): PgMulpayUtils->callHookAction
/home/oukoku/public_html/shop/data/downloads/plugin/PgMulpayUtils/PgMulpayUtils.php(157): LC_PgMulpayUtils->actionHook
/home/oukoku/public_html/shop/data/downloads/module/mdl_pg_mulpay/class/plugin/LC_PgMulpayUtils.php(155): LC_PgMulpayUtils->lfDoAdminOrderEditBefore
/home/oukoku/public_html/shop/data/downloads/module/mdl_pg_mulpay/class/plugin/LC_PgMulpayUtils.php(385): SC_Mdl_PG_MULPAY_Client_Util->commitOrder
/home/oukoku/public_html/shop/data/downloads/module/mdl_pg_mulpay/class/client/SC_Mdl_PG_MULPAY_Client_Util.php(318): SC_Mdl_PG_MULPAY_Client_Base->sendRequest
/home/oukoku/public_html/shop/data/downloads/module/mdl_pg_mulpay/class/client/SC_Mdl_PG_MULPAY_Client_Base.php(419): SC_Mdl_PG_MULPAY_Client_Base->setResults
/home/oukoku/public_html/shop/data/downloads/module/mdl_pg_mulpay/class/client/SC_Mdl_PG_MULPAY_Client_Base.php(533): SC_Mdl_PG_MULPAY->printLog
/home/oukoku/public_html/shop/data/downloads/module/mdl_pg_mulpay/class/SC_Mdl_PG_MULPAY.php(268): GC_Utils::gfPrintLog
2019/09/13 12:29:00 [/shop/kanri/order/edit.php] edit.php set payment data:Array
(
    [AccessID] => 80fb9f54dba6e59e8d560afd46f6d5a0
    [AccessPass] => 58a1e97c5e2b17ddc25193f016c5b136
    [Forward] => 2959876
    [Approve] => 0004051
    [TranID] => 1909051609602257217875120089
    [TranDate] => 20190913122900
    [action_status] => 6
    [pay_status] => 12
)
 from 219.97.63.160
login_id = oukokuadmin(0)[dshl2elstea4jt4jkg2126gnh2]
/home/oukoku/public_html/shop/kanri/order/edit.php(28): LC_Page_Admin_Order_Edit_Ex->init
/home/oukoku/public_html/shop/data/class_extends/page_extends/admin/order/LC_Page_Admin_Order_Edit_Ex.php(44): LC_Page_Admin_Order_Edit->init
/home/oukoku/public_html/shop/data/class/pages/admin/order/LC_Page_Admin_Order_Edit.php(93): LC_Page_Admin_Order_Ex->init
/home/oukoku/public_html/shop/data/class_extends/page_extends/admin/order/LC_Page_Admin_Order_Ex.php(44): LC_Page_Admin_Order->init
/home/oukoku/public_html/shop/data/class/pages/admin/order/LC_Page_Admin_Order.php(42): LC_Page_Admin->init
/home/oukoku/public_html/shop/data/class/pages/admin/LC_Page_Admin.php(78): SC_Helper_Plugin->doAction
/home/oukoku/public_html/shop/data/class/helper/SC_Helper_Plugin.php(145): call_user_func_array
(): PgMulpayUtils->hookActionBefore
/home/oukoku/public_html/shop/data/downloads/plugin/PgMulpayUtils/PgMulpayUtils.php(143): PgMulpayUtils->callHookAction
/home/oukoku/public_html/shop/data/downloads/plugin/PgMulpayUtils/PgMulpayUtils.php(157): LC_PgMulpayUtils->actionHook
/home/oukoku/public_html/shop/data/downloads/module/mdl_pg_mulpay/class/plugin/LC_PgMulpayUtils.php(155): LC_PgMulpayUtils->lfDoAdminOrderEditBefore
/home/oukoku/public_html/shop/data/downloads/module/mdl_pg_mulpay/class/plugin/LC_PgMulpayUtils.php(385): SC_Mdl_PG_MULPAY_Client_Util->commitOrder
/home/oukoku/public_html/shop/data/downloads/module/mdl_pg_mulpay/class/client/SC_Mdl_PG_MULPAY_Client_Util.php(332): SC_Util_PG_MULPAY->setOrderPayData
/home/oukoku/public_html/shop/data/downloads/module/mdl_pg_mulpay/class/util/SC_Util_PG_MULPAY.php(501): SC_Mdl_PG_MULPAY->printLog
/home/oukoku/public_html/shop/data/downloads/module/mdl_pg_mulpay/class/SC_Mdl_PG_MULPAY.php(268): GC_Utils::gfPrintLog
2019/09/13 12:29:01 [/shop/user_data/pg_mulpay_recv.php] ******* receiveer data start ******* from 210.175.7.20
customer_id = 
/home/oukoku/public_html/shop/user_data/pg_mulpay_recv.php(15): LC_Page_Mdl_PG_MULPAY_Recv->process
/home/oukoku/public_html/shop/data/downloads/module/mdl_pg_mulpay/class/pages/LC_Page_Mdl_PG_MULPAY_Recv.php(44): LC_Page_Mdl_PG_MULPAY_Recv->action
/home/oukoku/public_html/shop/data/downloads/module/mdl_pg_mulpay/class/pages/LC_Page_Mdl_PG_MULPAY_Recv.php(54): LC_Page_Mdl_PG_MULPAY_Recv->lfSetPostLog
/home/oukoku/public_html/shop/data/downloads/module/mdl_pg_mulpay/class/pages/LC_Page_Mdl_PG_MULPAY_Recv.php(832): SC_Mdl_PG_MULPAY->printLog
/home/oukoku/public_html/shop/data/downloads/module/mdl_pg_mulpay/class/SC_Mdl_PG_MULPAY.php(268): GC_Utils::gfPrintLog
2019/09/13 12:29:01 [/shop/user_data/pg_mulpay_recv.php] Array
(
    [ShopID] => 9102288779655
    [ShopPass] => **********
    [AccessID] => 80fb9f54dba6e59e8d560afd46f6d5a0
    [AccessPass] => ********************************
    [OrderID] => 528-05160942
    [Status] => SALES
    [JobCd] => SALES
    [Amount] => 9288
    [Tax] => 0
    [Currency] => JPN
    [Forward] => 2959876
    [Method] => 1
    [PayTimes] => 
    [TranID] => 1909051609602257217875120089
    [Approve] => 0004051
    [TranDate] => 20190913122900
    [ErrCode] => 
    [ErrInfo] => 
    [PayType] => 0
)
 from 210.175.7.20
customer_id = 
/home/oukoku/public_html/shop/user_data/pg_mulpay_recv.php(15): LC_Page_Mdl_PG_MULPAY_Recv->process
/home/oukoku/public_html/shop/data/downloads/module/mdl_pg_mulpay/class/pages/LC_Page_Mdl_PG_MULPAY_Recv.php(44): LC_Page_Mdl_PG_MULPAY_Recv->action
/home/oukoku/public_html/shop/data/downloads/module/mdl_pg_mulpay/class/pages/LC_Page_Mdl_PG_MULPAY_Recv.php(54): LC_Page_Mdl_PG_MULPAY_Recv->lfSetPostLog
/home/oukoku/public_html/shop/data/downloads/module/mdl_pg_mulpay/class/pages/LC_Page_Mdl_PG_MULPAY_Recv.php(836): SC_Mdl_PG_MULPAY->printLog
/home/oukoku/public_html/shop/data/downloads/module/mdl_pg_mulpay/class/SC_Mdl_PG_MULPAY.php(268): GC_Utils::gfPrintLog
2019/09/13 12:29:01 [/shop/user_data/pg_mulpay_recv.php] ******* receiveer data end ******* from 210.175.7.20
customer_id = 
/home/oukoku/public_html/shop/user_data/pg_mulpay_recv.php(15): LC_Page_Mdl_PG_MULPAY_Recv->process
/home/oukoku/public_html/shop/data/downloads/module/mdl_pg_mulpay/class/pages/LC_Page_Mdl_PG_MULPAY_Recv.php(44): LC_Page_Mdl_PG_MULPAY_Recv->action
/home/oukoku/public_html/shop/data/downloads/module/mdl_pg_mulpay/class/pages/LC_Page_Mdl_PG_MULPAY_Recv.php(54): LC_Page_Mdl_PG_MULPAY_Recv->lfSetPostLog
/home/oukoku/public_html/shop/data/downloads/module/mdl_pg_mulpay/class/pages/LC_Page_Mdl_PG_MULPAY_Recv.php(837): SC_Mdl_PG_MULPAY->printLog
/home/oukoku/public_html/shop/data/downloads/module/mdl_pg_mulpay/class/SC_Mdl_PG_MULPAY.php(268): GC_Utils::gfPrintLog
2019/09/13 12:29:01 [/shop/user_data/pg_mulpay_recv.php] pg_mulpay_recv.php set payment data:Array
(
    [ShopID] => 9102288779655
    [AccessID] => 80fb9f54dba6e59e8d560afd46f6d5a0
    [OrderID] => 528-05160942
    [Status] => SALES
    [JobCd] => SALES
    [Amount] => 9288
    [Tax] => 0
    [Currency] => JPN
    [Forward] => 2959876
    [Method] => 1
    [PayTimes] => 
    [TranID] => 1909051609602257217875120089
    [Approve] => 0004051
    [TranDate] => 20190913122900
    [ErrCode] => 
    [ErrInfo] => 
    [PayType] => 0
    [CvsCode] => 
    [CvsConfNo] => 
    [CvsReceiptNo] => 
    [EdyReceiptNo] => 
    [EdyOrderNo] => 
    [SuicaReceiptNo] => 
    [SuicaOrderNo] => 
    [CustID] => 
    [BkCode] => 
    [ConfNo] => 
    [PaymentTerm] => 
    [EncryptReceiptNo] => 
    [FinishDate] => 
    [ReceiptDate] => 
    [WebMoneyManagementNo] => 
    [WebMoneySettleCode] => 
    [AuPayInfoNo] => 
    [AuPayMethod] => 
    [AuCancelAmount] => 
    [AuCancelTax] => 
    [DocomoSettlementCode] => 
    [DocomoCancelAmount] => 
    [DocomoCancelTax] => 
    [pay_status] => 12
)
 from 210.175.7.20
customer_id = 
/home/oukoku/public_html/shop/user_data/pg_mulpay_recv.php(15): LC_Page_Mdl_PG_MULPAY_Recv->process
/home/oukoku/public_html/shop/data/downloads/module/mdl_pg_mulpay/class/pages/LC_Page_Mdl_PG_MULPAY_Recv.php(44): LC_Page_Mdl_PG_MULPAY_Recv->action
/home/oukoku/public_html/shop/data/downloads/module/mdl_pg_mulpay/class/pages/LC_Page_Mdl_PG_MULPAY_Recv.php(91): LC_Page_Mdl_PG_MULPAY_Recv->lfDoReceive
/home/oukoku/public_html/shop/data/downloads/module/mdl_pg_mulpay/class/pages/LC_Page_Mdl_PG_MULPAY_Recv.php(226): SC_Util_PG_MULPAY->setOrderPayData
/home/oukoku/public_html/shop/data/downloads/module/mdl_pg_mulpay/class/util/SC_Util_PG_MULPAY.php(501): SC_Mdl_PG_MULPAY->printLog
/home/oukoku/public_html/shop/data/downloads/module/mdl_pg_mulpay/class/SC_Mdl_PG_MULPAY.php(268): GC_Utils::gfPrintLog
2019/09/13 12:29:01 [/shop/user_data/pg_mulpay_recv.php] response:true from 210.175.7.20
customer_id = 
/home/oukoku/public_html/shop/user_data/pg_mulpay_recv.php(15): LC_Page_Mdl_PG_MULPAY_Recv->process
/home/oukoku/public_html/shop/data/downloads/module/mdl_pg_mulpay/class/pages/LC_Page_Mdl_PG_MULPAY_Recv.php(44): LC_Page_Mdl_PG_MULPAY_Recv->action
/home/oukoku/public_html/shop/data/downloads/module/mdl_pg_mulpay/class/pages/LC_Page_Mdl_PG_MULPAY_Recv.php(93): LC_Page_Mdl_PG_MULPAY_Recv->lfSendResponse
/home/oukoku/public_html/shop/data/downloads/module/mdl_pg_mulpay/class/pages/LC_Page_Mdl_PG_MULPAY_Recv.php(849): SC_Mdl_PG_MULPAY->printLog
/home/oukoku/public_html/shop/data/downloads/module/mdl_pg_mulpay/class/SC_Mdl_PG_MULPAY.php(268): GC_Utils::gfPrintLog
2019/09/13 12:29:21 [/shop/kanri/order/edit.php] SendRequest:https://p01.mul-pay.jp/payment/AlterTran.idPass from 219.97.63.160
login_id = oukokuadmin(0)[dshl2elstea4jt4jkg2126gnh2]
/home/oukoku/public_html/shop/kanri/order/edit.php(28): LC_Page_Admin_Order_Edit_Ex->init
/home/oukoku/public_html/shop/data/class_extends/page_extends/admin/order/LC_Page_Admin_Order_Edit_Ex.php(44): LC_Page_Admin_Order_Edit->init
/home/oukoku/public_html/shop/data/class/pages/admin/order/LC_Page_Admin_Order_Edit.php(93): LC_Page_Admin_Order_Ex->init
/home/oukoku/public_html/shop/data/class_extends/page_extends/admin/order/LC_Page_Admin_Order_Ex.php(44): LC_Page_Admin_Order->init
/home/oukoku/public_html/shop/data/class/pages/admin/order/LC_Page_Admin_Order.php(42): LC_Page_Admin->init
/home/oukoku/public_html/shop/data/class/pages/admin/LC_Page_Admin.php(78): SC_Helper_Plugin->doAction
/home/oukoku/public_html/shop/data/class/helper/SC_Helper_Plugin.php(145): call_user_func_array
(): PgMulpayUtils->hookActionBefore
/home/oukoku/public_html/shop/data/downloads/plugin/PgMulpayUtils/PgMulpayUtils.php(143): PgMulpayUtils->callHookAction
/home/oukoku/public_html/shop/data/downloads/plugin/PgMulpayUtils/PgMulpayUtils.php(157): LC_PgMulpayUtils->actionHook
/home/oukoku/public_html/shop/data/downloads/module/mdl_pg_mulpay/class/plugin/LC_PgMulpayUtils.php(155): LC_PgMulpayUtils->lfDoAdminOrderEditBefore
/home/oukoku/public_html/shop/data/downloads/module/mdl_pg_mulpay/class/plugin/LC_PgMulpayUtils.php(385): SC_Mdl_PG_MULPAY_Client_Util->commitOrder
/home/oukoku/public_html/shop/data/downloads/module/mdl_pg_mulpay/class/client/SC_Mdl_PG_MULPAY_Client_Util.php(318): SC_Mdl_PG_MULPAY_Client_Base->sendRequest
/home/oukoku/public_html/shop/data/downloads/module/mdl_pg_mulpay/class/client/SC_Mdl_PG_MULPAY_Client_Base.php(375): SC_Mdl_PG_MULPAY->printLog
/home/oukoku/public_html/shop/data/downloads/module/mdl_pg_mulpay/class/SC_Mdl_PG_MULPAY.php(268): GC_Utils::gfPrintLog
2019/09/13 12:29:21 [/shop/kanri/order/edit.php] Array
(
    [ShopID] => 9102288779655
    [ShopPass] => ******
    [AccessID] => 2e8b4f14571b685150cee33207ce9f44
    [AccessPass] => c12964977b82eeef58cd0abdff2d7691
    [JobCd] => SALES
    [Amount] => 42768
)
 from 219.97.63.160
login_id = oukokuadmin(0)[dshl2elstea4jt4jkg2126gnh2]
/home/oukoku/public_html/shop/kanri/order/edit.php(28): LC_Page_Admin_Order_Edit_Ex->init
/home/oukoku/public_html/shop/data/class_extends/page_extends/admin/order/LC_Page_Admin_Order_Edit_Ex.php(44): LC_Page_Admin_Order_Edit->init
/home/oukoku/public_html/shop/data/class/pages/admin/order/LC_Page_Admin_Order_Edit.php(93): LC_Page_Admin_Order_Ex->init
/home/oukoku/public_html/shop/data/class_extends/page_extends/admin/order/LC_Page_Admin_Order_Ex.php(44): LC_Page_Admin_Order->init
/home/oukoku/public_html/shop/data/class/pages/admin/order/LC_Page_Admin_Order.php(42): LC_Page_Admin->init
/home/oukoku/public_html/shop/data/class/pages/admin/LC_Page_Admin.php(78): SC_Helper_Plugin->doAction
/home/oukoku/public_html/shop/data/class/helper/SC_Helper_Plugin.php(145): call_user_func_array
(): PgMulpayUtils->hookActionBefore
/home/oukoku/public_html/shop/data/downloads/plugin/PgMulpayUtils/PgMulpayUtils.php(143): PgMulpayUtils->callHookAction
/home/oukoku/public_html/shop/data/downloads/plugin/PgMulpayUtils/PgMulpayUtils.php(157): LC_PgMulpayUtils->actionHook
/home/oukoku/public_html/shop/data/downloads/module/mdl_pg_mulpay/class/plugin/LC_PgMulpayUtils.php(155): LC_PgMulpayUtils->lfDoAdminOrderEditBefore
/home/oukoku/public_html/shop/data/downloads/module/mdl_pg_mulpay/class/plugin/LC_PgMulpayUtils.php(385): SC_Mdl_PG_MULPAY_Client_Util->commitOrder
/home/oukoku/public_html/shop/data/downloads/module/mdl_pg_mulpay/class/client/SC_Mdl_PG_MULPAY_Client_Util.php(318): SC_Mdl_PG_MULPAY_Client_Base->sendRequest
/home/oukoku/public_html/shop/data/downloads/module/mdl_pg_mulpay/class/client/SC_Mdl_PG_MULPAY_Client_Base.php(376): SC_Mdl_PG_MULPAY->printLog
/home/oukoku/public_html/shop/data/downloads/module/mdl_pg_mulpay/class/SC_Mdl_PG_MULPAY.php(268): GC_Utils::gfPrintLog
2019/09/13 12:29:22 [/shop/kanri/order/edit.php] AccessID=2e8b4f14571b685150cee33207ce9f44&AccessPass=c12964977b82eeef58cd0abdff2d7691&Forward=2959876&Approve=0730093&TranID=1909051543602257217875130093&TranDate=20190913122921 from 219.97.63.160
login_id = oukokuadmin(0)[dshl2elstea4jt4jkg2126gnh2]
/home/oukoku/public_html/shop/kanri/order/edit.php(28): LC_Page_Admin_Order_Edit_Ex->init
/home/oukoku/public_html/shop/data/class_extends/page_extends/admin/order/LC_Page_Admin_Order_Edit_Ex.php(44): LC_Page_Admin_Order_Edit->init
/home/oukoku/public_html/shop/data/class/pages/admin/order/LC_Page_Admin_Order_Edit.php(93): LC_Page_Admin_Order_Ex->init
/home/oukoku/public_html/shop/data/class_extends/page_extends/admin/order/LC_Page_Admin_Order_Ex.php(44): LC_Page_Admin_Order->init
/home/oukoku/public_html/shop/data/class/pages/admin/order/LC_Page_Admin_Order.php(42): LC_Page_Admin->init
/home/oukoku/public_html/shop/data/class/pages/admin/LC_Page_Admin.php(78): SC_Helper_Plugin->doAction
/home/oukoku/public_html/shop/data/class/helper/SC_Helper_Plugin.php(145): call_user_func_array
(): PgMulpayUtils->hookActionBefore
/home/oukoku/public_html/shop/data/downloads/plugin/PgMulpayUtils/PgMulpayUtils.php(143): PgMulpayUtils->callHookAction
/home/oukoku/public_html/shop/data/downloads/plugin/PgMulpayUtils/PgMulpayUtils.php(157): LC_PgMulpayUtils->actionHook
/home/oukoku/public_html/shop/data/downloads/module/mdl_pg_mulpay/class/plugin/LC_PgMulpayUtils.php(155): LC_PgMulpayUtils->lfDoAdminOrderEditBefore
/home/oukoku/public_html/shop/data/downloads/module/mdl_pg_mulpay/class/plugin/LC_PgMulpayUtils.php(385): SC_Mdl_PG_MULPAY_Client_Util->commitOrder
/home/oukoku/public_html/shop/data/downloads/module/mdl_pg_mulpay/class/client/SC_Mdl_PG_MULPAY_Client_Util.php(318): SC_Mdl_PG_MULPAY_Client_Base->sendRequest
/home/oukoku/public_html/shop/data/downloads/module/mdl_pg_mulpay/class/client/SC_Mdl_PG_MULPAY_Client_Base.php(418): SC_Mdl_PG_MULPAY_Client_Base->parseResponse
/home/oukoku/public_html/shop/data/downloads/module/mdl_pg_mulpay/class/client/SC_Mdl_PG_MULPAY_Client_Base.php(446): SC_Mdl_PG_MULPAY->printLog
/home/oukoku/public_html/shop/data/downloads/module/mdl_pg_mulpay/class/SC_Mdl_PG_MULPAY.php(268): GC_Utils::gfPrintLog
2019/09/13 12:29:22 [/shop/kanri/order/edit.php] Array
(
    [0] => Array
        (
            [AccessID] => 2e8b4f14571b685150cee33207ce9f44
            [AccessPass] => c12964977b82eeef58cd0abdff2d7691
            [Forward] => 2959876
            [Approve] => 0730093
            [TranID] => 1909051543602257217875130093
            [TranDate] => 20190913122921
        )

)
 from 219.97.63.160
login_id = oukokuadmin(0)[dshl2elstea4jt4jkg2126gnh2]
/home/oukoku/public_html/shop/kanri/order/edit.php(28): LC_Page_Admin_Order_Edit_Ex->init
/home/oukoku/public_html/shop/data/class_extends/page_extends/admin/order/LC_Page_Admin_Order_Edit_Ex.php(44): LC_Page_Admin_Order_Edit->init
/home/oukoku/public_html/shop/data/class/pages/admin/order/LC_Page_Admin_Order_Edit.php(93): LC_Page_Admin_Order_Ex->init
/home/oukoku/public_html/shop/data/class_extends/page_extends/admin/order/LC_Page_Admin_Order_Ex.php(44): LC_Page_Admin_Order->init
/home/oukoku/public_html/shop/data/class/pages/admin/order/LC_Page_Admin_Order.php(42): LC_Page_Admin->init
/home/oukoku/public_html/shop/data/class/pages/admin/LC_Page_Admin.php(78): SC_Helper_Plugin->doAction
/home/oukoku/public_html/shop/data/class/helper/SC_Helper_Plugin.php(145): call_user_func_array
(): PgMulpayUtils->hookActionBefore
/home/oukoku/public_html/shop/data/downloads/plugin/PgMulpayUtils/PgMulpayUtils.php(143): PgMulpayUtils->callHookAction
/home/oukoku/public_html/shop/data/downloads/plugin/PgMulpayUtils/PgMulpayUtils.php(157): LC_PgMulpayUtils->actionHook
/home/oukoku/public_html/shop/data/downloads/module/mdl_pg_mulpay/class/plugin/LC_PgMulpayUtils.php(155): LC_PgMulpayUtils->lfDoAdminOrderEditBefore
/home/oukoku/public_html/shop/data/downloads/module/mdl_pg_mulpay/class/plugin/LC_PgMulpayUtils.php(385): SC_Mdl_PG_MULPAY_Client_Util->commitOrder
/home/oukoku/public_html/shop/data/downloads/module/mdl_pg_mulpay/class/client/SC_Mdl_PG_MULPAY_Client_Util.php(318): SC_Mdl_PG_MULPAY_Client_Base->sendRequest
/home/oukoku/public_html/shop/data/downloads/module/mdl_pg_mulpay/class/client/SC_Mdl_PG_MULPAY_Client_Base.php(419): SC_Mdl_PG_MULPAY_Client_Base->setResults
/home/oukoku/public_html/shop/data/downloads/module/mdl_pg_mulpay/class/client/SC_Mdl_PG_MULPAY_Client_Base.php(533): SC_Mdl_PG_MULPAY->printLog
/home/oukoku/public_html/shop/data/downloads/module/mdl_pg_mulpay/class/SC_Mdl_PG_MULPAY.php(268): GC_Utils::gfPrintLog
2019/09/13 12:29:22 [/shop/kanri/order/edit.php] edit.php set payment data:Array
(
    [AccessID] => 2e8b4f14571b685150cee33207ce9f44
    [AccessPass] => c12964977b82eeef58cd0abdff2d7691
    [Forward] => 2959876
    [Approve] => 0730093
    [TranID] => 1909051543602257217875130093
    [TranDate] => 20190913122921
    [action_status] => 6
    [pay_status] => 12
)
 from 219.97.63.160
login_id = oukokuadmin(0)[dshl2elstea4jt4jkg2126gnh2]
/home/oukoku/public_html/shop/kanri/order/edit.php(28): LC_Page_Admin_Order_Edit_Ex->init
/home/oukoku/public_html/shop/data/class_extends/page_extends/admin/order/LC_Page_Admin_Order_Edit_Ex.php(44): LC_Page_Admin_Order_Edit->init
/home/oukoku/public_html/shop/data/class/pages/admin/order/LC_Page_Admin_Order_Edit.php(93): LC_Page_Admin_Order_Ex->init
/home/oukoku/public_html/shop/data/class_extends/page_extends/admin/order/LC_Page_Admin_Order_Ex.php(44): LC_Page_Admin_Order->init
/home/oukoku/public_html/shop/data/class/pages/admin/order/LC_Page_Admin_Order.php(42): LC_Page_Admin->init
/home/oukoku/public_html/shop/data/class/pages/admin/LC_Page_Admin.php(78): SC_Helper_Plugin->doAction
/home/oukoku/public_html/shop/data/class/helper/SC_Helper_Plugin.php(145): call_user_func_array
(): PgMulpayUtils->hookActionBefore
/home/oukoku/public_html/shop/data/downloads/plugin/PgMulpayUtils/PgMulpayUtils.php(143): PgMulpayUtils->callHookAction
/home/oukoku/public_html/shop/data/downloads/plugin/PgMulpayUtils/PgMulpayUtils.php(157): LC_PgMulpayUtils->actionHook
/home/oukoku/public_html/shop/data/downloads/module/mdl_pg_mulpay/class/plugin/LC_PgMulpayUtils.php(155): LC_PgMulpayUtils->lfDoAdminOrderEditBefore
/home/oukoku/public_html/shop/data/downloads/module/mdl_pg_mulpay/class/plugin/LC_PgMulpayUtils.php(385): SC_Mdl_PG_MULPAY_Client_Util->commitOrder
/home/oukoku/public_html/shop/data/downloads/module/mdl_pg_mulpay/class/client/SC_Mdl_PG_MULPAY_Client_Util.php(332): SC_Util_PG_MULPAY->setOrderPayData
/home/oukoku/public_html/shop/data/downloads/module/mdl_pg_mulpay/class/util/SC_Util_PG_MULPAY.php(501): SC_Mdl_PG_MULPAY->printLog
/home/oukoku/public_html/shop/data/downloads/module/mdl_pg_mulpay/class/SC_Mdl_PG_MULPAY.php(268): GC_Utils::gfPrintLog
2019/09/13 12:29:22 [/shop/user_data/pg_mulpay_recv.php] ******* receiveer data start ******* from 210.175.7.20
customer_id = 
/home/oukoku/public_html/shop/user_data/pg_mulpay_recv.php(15): LC_Page_Mdl_PG_MULPAY_Recv->process
/home/oukoku/public_html/shop/data/downloads/module/mdl_pg_mulpay/class/pages/LC_Page_Mdl_PG_MULPAY_Recv.php(44): LC_Page_Mdl_PG_MULPAY_Recv->action
/home/oukoku/public_html/shop/data/downloads/module/mdl_pg_mulpay/class/pages/LC_Page_Mdl_PG_MULPAY_Recv.php(54): LC_Page_Mdl_PG_MULPAY_Recv->lfSetPostLog
/home/oukoku/public_html/shop/data/downloads/module/mdl_pg_mulpay/class/pages/LC_Page_Mdl_PG_MULPAY_Recv.php(832): SC_Mdl_PG_MULPAY->printLog
/home/oukoku/public_html/shop/data/downloads/module/mdl_pg_mulpay/class/SC_Mdl_PG_MULPAY.php(268): GC_Utils::gfPrintLog
2019/09/13 12:29:22 [/shop/user_data/pg_mulpay_recv.php] Array
(
    [ShopID] => 9102288779655
    [ShopPass] => **********
    [AccessID] => 2e8b4f14571b685150cee33207ce9f44
    [AccessPass] => ********************************
    [OrderID] => 527-05154327
    [Status] => SALES
    [JobCd] => SALES
    [Amount] => 42768
    [Tax] => 0
    [Currency] => JPN
    [Forward] => 2959876
    [Method] => 1
    [PayTimes] => 
    [TranID] => 1909051543602257217875130093
    [Approve] => 0730093
    [TranDate] => 20190913122921
    [ErrCode] => 
    [ErrInfo] => 
    [PayType] => 0
)
 from 210.175.7.20
customer_id = 
/home/oukoku/public_html/shop/user_data/pg_mulpay_recv.php(15): LC_Page_Mdl_PG_MULPAY_Recv->process
/home/oukoku/public_html/shop/data/downloads/module/mdl_pg_mulpay/class/pages/LC_Page_Mdl_PG_MULPAY_Recv.php(44): LC_Page_Mdl_PG_MULPAY_Recv->action
/home/oukoku/public_html/shop/data/downloads/module/mdl_pg_mulpay/class/pages/LC_Page_Mdl_PG_MULPAY_Recv.php(54): LC_Page_Mdl_PG_MULPAY_Recv->lfSetPostLog
/home/oukoku/public_html/shop/data/downloads/module/mdl_pg_mulpay/class/pages/LC_Page_Mdl_PG_MULPAY_Recv.php(836): SC_Mdl_PG_MULPAY->printLog
/home/oukoku/public_html/shop/data/downloads/module/mdl_pg_mulpay/class/SC_Mdl_PG_MULPAY.php(268): GC_Utils::gfPrintLog
2019/09/13 12:29:22 [/shop/user_data/pg_mulpay_recv.php] ******* receiveer data end ******* from 210.175.7.20
customer_id = 
/home/oukoku/public_html/shop/user_data/pg_mulpay_recv.php(15): LC_Page_Mdl_PG_MULPAY_Recv->process
/home/oukoku/public_html/shop/data/downloads/module/mdl_pg_mulpay/class/pages/LC_Page_Mdl_PG_MULPAY_Recv.php(44): LC_Page_Mdl_PG_MULPAY_Recv->action
/home/oukoku/public_html/shop/data/downloads/module/mdl_pg_mulpay/class/pages/LC_Page_Mdl_PG_MULPAY_Recv.php(54): LC_Page_Mdl_PG_MULPAY_Recv->lfSetPostLog
/home/oukoku/public_html/shop/data/downloads/module/mdl_pg_mulpay/class/pages/LC_Page_Mdl_PG_MULPAY_Recv.php(837): SC_Mdl_PG_MULPAY->printLog
/home/oukoku/public_html/shop/data/downloads/module/mdl_pg_mulpay/class/SC_Mdl_PG_MULPAY.php(268): GC_Utils::gfPrintLog
2019/09/13 12:29:22 [/shop/user_data/pg_mulpay_recv.php] pg_mulpay_recv.php set payment data:Array
(
    [ShopID] => 9102288779655
    [AccessID] => 2e8b4f14571b685150cee33207ce9f44
    [OrderID] => 527-05154327
    [Status] => SALES
    [JobCd] => SALES
    [Amount] => 42768
    [Tax] => 0
    [Currency] => JPN
    [Forward] => 2959876
    [Method] => 1
    [PayTimes] => 
    [TranID] => 1909051543602257217875130093
    [Approve] => 0730093
    [TranDate] => 20190913122921
    [ErrCode] => 
    [ErrInfo] => 
    [PayType] => 0
    [CvsCode] => 
    [CvsConfNo] => 
    [CvsReceiptNo] => 
    [EdyReceiptNo] => 
    [EdyOrderNo] => 
    [SuicaReceiptNo] => 
    [SuicaOrderNo] => 
    [CustID] => 
    [BkCode] => 
    [ConfNo] => 
    [PaymentTerm] => 
    [EncryptReceiptNo] => 
    [FinishDate] => 
    [ReceiptDate] => 
    [WebMoneyManagementNo] => 
    [WebMoneySettleCode] => 
    [AuPayInfoNo] => 
    [AuPayMethod] => 
    [AuCancelAmount] => 
    [AuCancelTax] => 
    [DocomoSettlementCode] => 
    [DocomoCancelAmount] => 
    [DocomoCancelTax] => 
    [pay_status] => 12
)
 from 210.175.7.20
customer_id = 
/home/oukoku/public_html/shop/user_data/pg_mulpay_recv.php(15): LC_Page_Mdl_PG_MULPAY_Recv->process
/home/oukoku/public_html/shop/data/downloads/module/mdl_pg_mulpay/class/pages/LC_Page_Mdl_PG_MULPAY_Recv.php(44): LC_Page_Mdl_PG_MULPAY_Recv->action
/home/oukoku/public_html/shop/data/downloads/module/mdl_pg_mulpay/class/pages/LC_Page_Mdl_PG_MULPAY_Recv.php(91): LC_Page_Mdl_PG_MULPAY_Recv->lfDoReceive
/home/oukoku/public_html/shop/data/downloads/module/mdl_pg_mulpay/class/pages/LC_Page_Mdl_PG_MULPAY_Recv.php(226): SC_Util_PG_MULPAY->setOrderPayData
/home/oukoku/public_html/shop/data/downloads/module/mdl_pg_mulpay/class/util/SC_Util_PG_MULPAY.php(501): SC_Mdl_PG_MULPAY->printLog
/home/oukoku/public_html/shop/data/downloads/module/mdl_pg_mulpay/class/SC_Mdl_PG_MULPAY.php(268): GC_Utils::gfPrintLog
2019/09/13 12:29:22 [/shop/user_data/pg_mulpay_recv.php] response:true from 210.175.7.20
customer_id = 
/home/oukoku/public_html/shop/user_data/pg_mulpay_recv.php(15): LC_Page_Mdl_PG_MULPAY_Recv->process
/home/oukoku/public_html/shop/data/downloads/module/mdl_pg_mulpay/class/pages/LC_Page_Mdl_PG_MULPAY_Recv.php(44): LC_Page_Mdl_PG_MULPAY_Recv->action
/home/oukoku/public_html/shop/data/downloads/module/mdl_pg_mulpay/class/pages/LC_Page_Mdl_PG_MULPAY_Recv.php(93): LC_Page_Mdl_PG_MULPAY_Recv->lfSendResponse
/home/oukoku/public_html/shop/data/downloads/module/mdl_pg_mulpay/class/pages/LC_Page_Mdl_PG_MULPAY_Recv.php(849): SC_Mdl_PG_MULPAY->printLog
/home/oukoku/public_html/shop/data/downloads/module/mdl_pg_mulpay/class/SC_Mdl_PG_MULPAY.php(268): GC_Utils::gfPrintLog
2019/09/13 22:52:41 [/shop/shopping/load_payment_module.php] SendRequest:https://p01.mul-pay.jp/payment/EntryTran.idPass from 153.213.198.171
customer_id = 
/home/oukoku/public_html/shop/shopping/load_payment_module.php(29): LC_Page_Shopping_LoadPaymentModule_Ex->process
/home/oukoku/public_html/shop/data/class_extends/page_extends/shopping/LC_Page_Shopping_LoadPaymentModule_Ex.php(54): LC_Page_Shopping_LoadPaymentModule->process
/home/oukoku/public_html/shop/data/class/pages/shopping/LC_Page_Shopping_LoadPaymentModule.php(70): require_once
/home/oukoku/public_html/shop/data/downloads/module/mdl_pg_mulpay/payment.php(16): LC_Page_Mdl_PG_MULPAY_Helper->process
/home/oukoku/public_html/shop/data/downloads/module/mdl_pg_mulpay/class/pages/LC_Page_Mdl_PG_MULPAY_Helper.php(45): LC_Page_Mdl_PG_MULPAY_Helper->action
/home/oukoku/public_html/shop/data/downloads/module/mdl_pg_mulpay/class/pages/LC_Page_Mdl_PG_MULPAY_Helper.php(136): LC_PageHelper_Mdl_PG_MULPAY_Token->modeAction
/home/oukoku/public_html/shop/data/downloads/module/mdl_pg_mulpay/class/pages/helper/LC_PageHelper_Mdl_PG_MULPAY_Token.php(129): SC_Mdl_PG_MULPAY_Client_Token->doPaymentRequest
/home/oukoku/public_html/shop/data/downloads/module/mdl_pg_mulpay/class/client/SC_Mdl_PG_MULPAY_Client_Token.php(105): SC_Mdl_PG_MULPAY_Client_Base->sendOrderRequest
/home/oukoku/public_html/shop/data/downloads/module/mdl_pg_mulpay/class/client/SC_Mdl_PG_MULPAY_Client_Base.php(241): SC_Mdl_PG_MULPAY_Client_Base->sendRequest
/home/oukoku/public_html/shop/data/downloads/module/mdl_pg_mulpay/class/client/SC_Mdl_PG_MULPAY_Client_Base.php(375): SC_Mdl_PG_MULPAY->printLog
/home/oukoku/public_html/shop/data/downloads/module/mdl_pg_mulpay/class/SC_Mdl_PG_MULPAY.php(268): GC_Utils::gfPrintLog
2019/09/13 22:52:41 [/shop/shopping/load_payment_module.php] Array
(
    [ShopID] => 9102288779655
    [ShopPass] => ******
    [OrderID] => 547-13225241
    [JobCd] => AUTH
    [Amount] => 7236
    [TdFlag] => 0
    [TdTenantName] => 
)
 from 153.213.198.171
customer_id = 
/home/oukoku/public_html/shop/shopping/load_payment_module.php(29): LC_Page_Shopping_LoadPaymentModule_Ex->process
/home/oukoku/public_html/shop/data/class_extends/page_extends/shopping/LC_Page_Shopping_LoadPaymentModule_Ex.php(54): LC_Page_Shopping_LoadPaymentModule->process
/home/oukoku/public_html/shop/data/class/pages/shopping/LC_Page_Shopping_LoadPaymentModule.php(70): require_once
/home/oukoku/public_html/shop/data/downloads/module/mdl_pg_mulpay/payment.php(16): LC_Page_Mdl_PG_MULPAY_Helper->process
/home/oukoku/public_html/shop/data/downloads/module/mdl_pg_mulpay/class/pages/LC_Page_Mdl_PG_MULPAY_Helper.php(45): LC_Page_Mdl_PG_MULPAY_Helper->action
/home/oukoku/public_html/shop/data/downloads/module/mdl_pg_mulpay/class/pages/LC_Page_Mdl_PG_MULPAY_Helper.php(136): LC_PageHelper_Mdl_PG_MULPAY_Token->modeAction
/home/oukoku/public_html/shop/data/downloads/module/mdl_pg_mulpay/class/pages/helper/LC_PageHelper_Mdl_PG_MULPAY_Token.php(129): SC_Mdl_PG_MULPAY_Client_Token->doPaymentRequest
/home/oukoku/public_html/shop/data/downloads/module/mdl_pg_mulpay/class/client/SC_Mdl_PG_MULPAY_Client_Token.php(105): SC_Mdl_PG_MULPAY_Client_Base->sendOrderRequest
/home/oukoku/public_html/shop/data/downloads/module/mdl_pg_mulpay/class/client/SC_Mdl_PG_MULPAY_Client_Base.php(241): SC_Mdl_PG_MULPAY_Client_Base->sendRequest
/home/oukoku/public_html/shop/data/downloads/module/mdl_pg_mulpay/class/client/SC_Mdl_PG_MULPAY_Client_Base.php(376): SC_Mdl_PG_MULPAY->printLog
/home/oukoku/public_html/shop/data/downloads/module/mdl_pg_mulpay/class/SC_Mdl_PG_MULPAY.php(268): GC_Utils::gfPrintLog
2019/09/13 22:52:41 [/shop/shopping/load_payment_module.php] AccessID=35ea43004e3e9ac1dabd20632ad944d2&AccessPass=cfa0cb3c1a377f148c2dd1152b1323f8 from 153.213.198.171
customer_id = 
/home/oukoku/public_html/shop/shopping/load_payment_module.php(29): LC_Page_Shopping_LoadPaymentModule_Ex->process
/home/oukoku/public_html/shop/data/class_extends/page_extends/shopping/LC_Page_Shopping_LoadPaymentModule_Ex.php(54): LC_Page_Shopping_LoadPaymentModule->process
/home/oukoku/public_html/shop/data/class/pages/shopping/LC_Page_Shopping_LoadPaymentModule.php(70): require_once
/home/oukoku/public_html/shop/data/downloads/module/mdl_pg_mulpay/payment.php(16): LC_Page_Mdl_PG_MULPAY_Helper->process
/home/oukoku/public_html/shop/data/downloads/module/mdl_pg_mulpay/class/pages/LC_Page_Mdl_PG_MULPAY_Helper.php(45): LC_Page_Mdl_PG_MULPAY_Helper->action
/home/oukoku/public_html/shop/data/downloads/module/mdl_pg_mulpay/class/pages/LC_Page_Mdl_PG_MULPAY_Helper.php(136): LC_PageHelper_Mdl_PG_MULPAY_Token->modeAction
/home/oukoku/public_html/shop/data/downloads/module/mdl_pg_mulpay/class/pages/helper/LC_PageHelper_Mdl_PG_MULPAY_Token.php(129): SC_Mdl_PG_MULPAY_Client_Token->doPaymentRequest
/home/oukoku/public_html/shop/data/downloads/module/mdl_pg_mulpay/class/client/SC_Mdl_PG_MULPAY_Client_Token.php(105): SC_Mdl_PG_MULPAY_Client_Base->sendOrderRequest
/home/oukoku/public_html/shop/data/downloads/module/mdl_pg_mulpay/class/client/SC_Mdl_PG_MULPAY_Client_Base.php(241): SC_Mdl_PG_MULPAY_Client_Base->sendRequest
/home/oukoku/public_html/shop/data/downloads/module/mdl_pg_mulpay/class/client/SC_Mdl_PG_MULPAY_Client_Base.php(418): SC_Mdl_PG_MULPAY_Client_Base->parseResponse
/home/oukoku/public_html/shop/data/downloads/module/mdl_pg_mulpay/class/client/SC_Mdl_PG_MULPAY_Client_Base.php(446): SC_Mdl_PG_MULPAY->printLog
/home/oukoku/public_html/shop/data/downloads/module/mdl_pg_mulpay/class/SC_Mdl_PG_MULPAY.php(268): GC_Utils::gfPrintLog
2019/09/13 22:52:41 [/shop/shopping/load_payment_module.php] Array
(
    [0] => Array
        (
            [AccessID] => 35ea43004e3e9ac1dabd20632ad944d2
            [AccessPass] => cfa0cb3c1a377f148c2dd1152b1323f8
        )

)
 from 153.213.198.171
customer_id = 
/home/oukoku/public_html/shop/shopping/load_payment_module.php(29): LC_Page_Shopping_LoadPaymentModule_Ex->process
/home/oukoku/public_html/shop/data/class_extends/page_extends/shopping/LC_Page_Shopping_LoadPaymentModule_Ex.php(54): LC_Page_Shopping_LoadPaymentModule->process
/home/oukoku/public_html/shop/data/class/pages/shopping/LC_Page_Shopping_LoadPaymentModule.php(70): require_once
/home/oukoku/public_html/shop/data/downloads/module/mdl_pg_mulpay/payment.php(16): LC_Page_Mdl_PG_MULPAY_Helper->process
/home/oukoku/public_html/shop/data/downloads/module/mdl_pg_mulpay/class/pages/LC_Page_Mdl_PG_MULPAY_Helper.php(45): LC_Page_Mdl_PG_MULPAY_Helper->action
/home/oukoku/public_html/shop/data/downloads/module/mdl_pg_mulpay/class/pages/LC_Page_Mdl_PG_MULPAY_Helper.php(136): LC_PageHelper_Mdl_PG_MULPAY_Token->modeAction
/home/oukoku/public_html/shop/data/downloads/module/mdl_pg_mulpay/class/pages/helper/LC_PageHelper_Mdl_PG_MULPAY_Token.php(129): SC_Mdl_PG_MULPAY_Client_Token->doPaymentRequest
/home/oukoku/public_html/shop/data/downloads/module/mdl_pg_mulpay/class/client/SC_Mdl_PG_MULPAY_Client_Token.php(105): SC_Mdl_PG_MULPAY_Client_Base->sendOrderRequest
/home/oukoku/public_html/shop/data/downloads/module/mdl_pg_mulpay/class/client/SC_Mdl_PG_MULPAY_Client_Base.php(241): SC_Mdl_PG_MULPAY_Client_Base->sendRequest
/home/oukoku/public_html/shop/data/downloads/module/mdl_pg_mulpay/class/client/SC_Mdl_PG_MULPAY_Client_Base.php(419): SC_Mdl_PG_MULPAY_Client_Base->setResults
/home/oukoku/public_html/shop/data/downloads/module/mdl_pg_mulpay/class/client/SC_Mdl_PG_MULPAY_Client_Base.php(533): SC_Mdl_PG_MULPAY->printLog
/home/oukoku/public_html/shop/data/downloads/module/mdl_pg_mulpay/class/SC_Mdl_PG_MULPAY.php(268): GC_Utils::gfPrintLog
2019/09/13 22:52:41 [/shop/shopping/load_payment_module.php] load_payment_module.php set payment data:Array
(
    [AccessID] => 35ea43004e3e9ac1dabd20632ad944d2
    [AccessPass] => cfa0cb3c1a377f148c2dd1152b1323f8
    [OrderID] => 547-13225241
    [Amount] => 7236
    [JobCd] => AUTH
    [action_status] => 1
    [pay_status] => 0
)
 from 153.213.198.171
customer_id = 
/home/oukoku/public_html/shop/shopping/load_payment_module.php(29): LC_Page_Shopping_LoadPaymentModule_Ex->process
/home/oukoku/public_html/shop/data/class_extends/page_extends/shopping/LC_Page_Shopping_LoadPaymentModule_Ex.php(54): LC_Page_Shopping_LoadPaymentModule->process
/home/oukoku/public_html/shop/data/class/pages/shopping/LC_Page_Shopping_LoadPaymentModule.php(70): require_once
/home/oukoku/public_html/shop/data/downloads/module/mdl_pg_mulpay/payment.php(16): LC_Page_Mdl_PG_MULPAY_Helper->process
/home/oukoku/public_html/shop/data/downloads/module/mdl_pg_mulpay/class/pages/LC_Page_Mdl_PG_MULPAY_Helper.php(45): LC_Page_Mdl_PG_MULPAY_Helper->action
/home/oukoku/public_html/shop/data/downloads/module/mdl_pg_mulpay/class/pages/LC_Page_Mdl_PG_MULPAY_Helper.php(136): LC_PageHelper_Mdl_PG_MULPAY_Token->modeAction
/home/oukoku/public_html/shop/data/downloads/module/mdl_pg_mulpay/class/pages/helper/LC_PageHelper_Mdl_PG_MULPAY_Token.php(129): SC_Mdl_PG_MULPAY_Client_Token->doPaymentRequest
/home/oukoku/public_html/shop/data/downloads/module/mdl_pg_mulpay/class/client/SC_Mdl_PG_MULPAY_Client_Token.php(105): SC_Mdl_PG_MULPAY_Client_Base->sendOrderRequest
/home/oukoku/public_html/shop/data/downloads/module/mdl_pg_mulpay/class/client/SC_Mdl_PG_MULPAY_Client_Base.php(275): SC_Util_PG_MULPAY->setOrderPayData
/home/oukoku/public_html/shop/data/downloads/module/mdl_pg_mulpay/class/util/SC_Util_PG_MULPAY.php(501): SC_Mdl_PG_MULPAY->printLog
/home/oukoku/public_html/shop/data/downloads/module/mdl_pg_mulpay/class/SC_Mdl_PG_MULPAY.php(268): GC_Utils::gfPrintLog
2019/09/13 22:52:41 [/shop/shopping/load_payment_module.php] SendRequest:https://p01.mul-pay.jp/payment/ExecTran.idPass from 153.213.198.171
customer_id = 
/home/oukoku/public_html/shop/shopping/load_payment_module.php(29): LC_Page_Shopping_LoadPaymentModule_Ex->process
/home/oukoku/public_html/shop/data/class_extends/page_extends/shopping/LC_Page_Shopping_LoadPaymentModule_Ex.php(54): LC_Page_Shopping_LoadPaymentModule->process
/home/oukoku/public_html/shop/data/class/pages/shopping/LC_Page_Shopping_LoadPaymentModule.php(70): require_once
/home/oukoku/public_html/shop/data/downloads/module/mdl_pg_mulpay/payment.php(16): LC_Page_Mdl_PG_MULPAY_Helper->process
/home/oukoku/public_html/shop/data/downloads/module/mdl_pg_mulpay/class/pages/LC_Page_Mdl_PG_MULPAY_Helper.php(45): LC_Page_Mdl_PG_MULPAY_Helper->action
/home/oukoku/public_html/shop/data/downloads/module/mdl_pg_mulpay/class/pages/LC_Page_Mdl_PG_MULPAY_Helper.php(136): LC_PageHelper_Mdl_PG_MULPAY_Token->modeAction
/home/oukoku/public_html/shop/data/downloads/module/mdl_pg_mulpay/class/pages/helper/LC_PageHelper_Mdl_PG_MULPAY_Token.php(129): SC_Mdl_PG_MULPAY_Client_Token->doPaymentRequest
/home/oukoku/public_html/shop/data/downloads/module/mdl_pg_mulpay/class/client/SC_Mdl_PG_MULPAY_Client_Token.php(146): SC_Mdl_PG_MULPAY_Client_Base->sendOrderRequest
/home/oukoku/public_html/shop/data/downloads/module/mdl_pg_mulpay/class/client/SC_Mdl_PG_MULPAY_Client_Base.php(241): SC_Mdl_PG_MULPAY_Client_Base->sendRequest
/home/oukoku/public_html/shop/data/downloads/module/mdl_pg_mulpay/class/client/SC_Mdl_PG_MULPAY_Client_Base.php(375): SC_Mdl_PG_MULPAY->printLog
/home/oukoku/public_html/shop/data/downloads/module/mdl_pg_mulpay/class/SC_Mdl_PG_MULPAY.php(268): GC_Utils::gfPrintLog
2019/09/13 22:52:41 [/shop/shopping/load_payment_module.php] Array
(
    [AccessID] => 35ea43004e3e9ac1dabd20632ad944d2
    [AccessPass] => cfa0cb3c1a377f148c2dd1152b1323f8
    [OrderID] => 547-13225241
    [Method] => 1
    [Token] => f2f373e8484fa48331cb0b1a8bb563ad8b8a5f8c21c03d2e0bd59f833e87d3e5
    [ClientField1] => 
    [ClientField2] => 
    [ClientField3] => EC-CUBE4.3.24
)
 from 153.213.198.171
customer_id = 
/home/oukoku/public_html/shop/shopping/load_payment_module.php(29): LC_Page_Shopping_LoadPaymentModule_Ex->process
/home/oukoku/public_html/shop/data/class_extends/page_extends/shopping/LC_Page_Shopping_LoadPaymentModule_Ex.php(54): LC_Page_Shopping_LoadPaymentModule->process
/home/oukoku/public_html/shop/data/class/pages/shopping/LC_Page_Shopping_LoadPaymentModule.php(70): require_once
/home/oukoku/public_html/shop/data/downloads/module/mdl_pg_mulpay/payment.php(16): LC_Page_Mdl_PG_MULPAY_Helper->process
/home/oukoku/public_html/shop/data/downloads/module/mdl_pg_mulpay/class/pages/LC_Page_Mdl_PG_MULPAY_Helper.php(45): LC_Page_Mdl_PG_MULPAY_Helper->action
/home/oukoku/public_html/shop/data/downloads/module/mdl_pg_mulpay/class/pages/LC_Page_Mdl_PG_MULPAY_Helper.php(136): LC_PageHelper_Mdl_PG_MULPAY_Token->modeAction
/home/oukoku/public_html/shop/data/downloads/module/mdl_pg_mulpay/class/pages/helper/LC_PageHelper_Mdl_PG_MULPAY_Token.php(129): SC_Mdl_PG_MULPAY_Client_Token->doPaymentRequest
/home/oukoku/public_html/shop/data/downloads/module/mdl_pg_mulpay/class/client/SC_Mdl_PG_MULPAY_Client_Token.php(146): SC_Mdl_PG_MULPAY_Client_Base->sendOrderRequest
/home/oukoku/public_html/shop/data/downloads/module/mdl_pg_mulpay/class/client/SC_Mdl_PG_MULPAY_Client_Base.php(241): SC_Mdl_PG_MULPAY_Client_Base->sendRequest
/home/oukoku/public_html/shop/data/downloads/module/mdl_pg_mulpay/class/client/SC_Mdl_PG_MULPAY_Client_Base.php(376): SC_Mdl_PG_MULPAY->printLog
/home/oukoku/public_html/shop/data/downloads/module/mdl_pg_mulpay/class/SC_Mdl_PG_MULPAY.php(268): GC_Utils::gfPrintLog
2019/09/13 22:52:42 [/shop/shopping/load_payment_module.php] ACS=0&OrderID=547-13225241&Forward=2a99661&Method=1&PayTimes=&Approve=0718315&TranID=1909132252602257217875100002&TranDate=20190913225242&CheckString=717df7ddf6476975bc308a6d1688d917 from 153.213.198.171
customer_id = 
/home/oukoku/public_html/shop/shopping/load_payment_module.php(29): LC_Page_Shopping_LoadPaymentModule_Ex->process
/home/oukoku/public_html/shop/data/class_extends/page_extends/shopping/LC_Page_Shopping_LoadPaymentModule_Ex.php(54): LC_Page_Shopping_LoadPaymentModule->process
/home/oukoku/public_html/shop/data/class/pages/shopping/LC_Page_Shopping_LoadPaymentModule.php(70): require_once
/home/oukoku/public_html/shop/data/downloads/module/mdl_pg_mulpay/payment.php(16): LC_Page_Mdl_PG_MULPAY_Helper->process
/home/oukoku/public_html/shop/data/downloads/module/mdl_pg_mulpay/class/pages/LC_Page_Mdl_PG_MULPAY_Helper.php(45): LC_Page_Mdl_PG_MULPAY_Helper->action
/home/oukoku/public_html/shop/data/downloads/module/mdl_pg_mulpay/class/pages/LC_Page_Mdl_PG_MULPAY_Helper.php(136): LC_PageHelper_Mdl_PG_MULPAY_Token->modeAction
/home/oukoku/public_html/shop/data/downloads/module/mdl_pg_mulpay/class/pages/helper/LC_PageHelper_Mdl_PG_MULPAY_Token.php(129): SC_Mdl_PG_MULPAY_Client_Token->doPaymentRequest
/home/oukoku/public_html/shop/data/downloads/module/mdl_pg_mulpay/class/client/SC_Mdl_PG_MULPAY_Client_Token.php(146): SC_Mdl_PG_MULPAY_Client_Base->sendOrderRequest
/home/oukoku/public_html/shop/data/downloads/module/mdl_pg_mulpay/class/client/SC_Mdl_PG_MULPAY_Client_Base.php(241): SC_Mdl_PG_MULPAY_Client_Base->sendRequest
/home/oukoku/public_html/shop/data/downloads/module/mdl_pg_mulpay/class/client/SC_Mdl_PG_MULPAY_Client_Base.php(418): SC_Mdl_PG_MULPAY_Client_Base->parseResponse
/home/oukoku/public_html/shop/data/downloads/module/mdl_pg_mulpay/class/client/SC_Mdl_PG_MULPAY_Client_Base.php(446): SC_Mdl_PG_MULPAY->printLog
/home/oukoku/public_html/shop/data/downloads/module/mdl_pg_mulpay/class/SC_Mdl_PG_MULPAY.php(268): GC_Utils::gfPrintLog
2019/09/13 22:52:42 [/shop/shopping/load_payment_module.php] Array
(
    [0] => Array
        (
            [ACS] => 0
            [OrderID] => 547-13225241
            [Forward] => 2a99661
            [Method] => 1
            [PayTimes] => 
            [Approve] => 0718315
            [TranID] => 1909132252602257217875100002
            [TranDate] => 20190913225242
            [CheckString] => 717df7ddf6476975bc308a6d1688d917
        )

)
 from 153.213.198.171
customer_id = 
/home/oukoku/public_html/shop/shopping/load_payment_module.php(29): LC_Page_Shopping_LoadPaymentModule_Ex->process
/home/oukoku/public_html/shop/data/class_extends/page_extends/shopping/LC_Page_Shopping_LoadPaymentModule_Ex.php(54): LC_Page_Shopping_LoadPaymentModule->process
/home/oukoku/public_html/shop/data/class/pages/shopping/LC_Page_Shopping_LoadPaymentModule.php(70): require_once
/home/oukoku/public_html/shop/data/downloads/module/mdl_pg_mulpay/payment.php(16): LC_Page_Mdl_PG_MULPAY_Helper->process
/home/oukoku/public_html/shop/data/downloads/module/mdl_pg_mulpay/class/pages/LC_Page_Mdl_PG_MULPAY_Helper.php(45): LC_Page_Mdl_PG_MULPAY_Helper->action
/home/oukoku/public_html/shop/data/downloads/module/mdl_pg_mulpay/class/pages/LC_Page_Mdl_PG_MULPAY_Helper.php(136): LC_PageHelper_Mdl_PG_MULPAY_Token->modeAction
/home/oukoku/public_html/shop/data/downloads/module/mdl_pg_mulpay/class/pages/helper/LC_PageHelper_Mdl_PG_MULPAY_Token.php(129): SC_Mdl_PG_MULPAY_Client_Token->doPaymentRequest
/home/oukoku/public_html/shop/data/downloads/module/mdl_pg_mulpay/class/client/SC_Mdl_PG_MULPAY_Client_Token.php(146): SC_Mdl_PG_MULPAY_Client_Base->sendOrderRequest
/home/oukoku/public_html/shop/data/downloads/module/mdl_pg_mulpay/class/client/SC_Mdl_PG_MULPAY_Client_Base.php(241): SC_Mdl_PG_MULPAY_Client_Base->sendRequest
/home/oukoku/public_html/shop/data/downloads/module/mdl_pg_mulpay/class/client/SC_Mdl_PG_MULPAY_Client_Base.php(419): SC_Mdl_PG_MULPAY_Client_Base->setResults
/home/oukoku/public_html/shop/data/downloads/module/mdl_pg_mulpay/class/client/SC_Mdl_PG_MULPAY_Client_Base.php(533): SC_Mdl_PG_MULPAY->printLog
/home/oukoku/public_html/shop/data/downloads/module/mdl_pg_mulpay/class/SC_Mdl_PG_MULPAY.php(268): GC_Utils::gfPrintLog
2019/09/13 22:52:42 [/shop/shopping/load_payment_module.php] load_payment_module.php set payment data:Array
(
    [ACS] => 0
    [Forward] => 2a99661
    [Method] => 1
    [PayTimes] => 
    [Approve] => 0718315
    [TranID] => 1909132252602257217875100002
    [TranDate] => 20190913225242
    [CheckString] => 717df7ddf6476975bc308a6d1688d917
    [Amount] => 7236
    [JobCd] => AUTH
    [action_status] => 3
    [pay_status] => 11
)
 from 153.213.198.171
customer_id = 
/home/oukoku/public_html/shop/shopping/load_payment_module.php(29): LC_Page_Shopping_LoadPaymentModule_Ex->process
/home/oukoku/public_html/shop/data/class_extends/page_extends/shopping/LC_Page_Shopping_LoadPaymentModule_Ex.php(54): LC_Page_Shopping_LoadPaymentModule->process
/home/oukoku/public_html/shop/data/class/pages/shopping/LC_Page_Shopping_LoadPaymentModule.php(70): require_once
/home/oukoku/public_html/shop/data/downloads/module/mdl_pg_mulpay/payment.php(16): LC_Page_Mdl_PG_MULPAY_Helper->process
/home/oukoku/public_html/shop/data/downloads/module/mdl_pg_mulpay/class/pages/LC_Page_Mdl_PG_MULPAY_Helper.php(45): LC_Page_Mdl_PG_MULPAY_Helper->action
/home/oukoku/public_html/shop/data/downloads/module/mdl_pg_mulpay/class/pages/LC_Page_Mdl_PG_MULPAY_Helper.php(136): LC_PageHelper_Mdl_PG_MULPAY_Token->modeAction
/home/oukoku/public_html/shop/data/downloads/module/mdl_pg_mulpay/class/pages/helper/LC_PageHelper_Mdl_PG_MULPAY_Token.php(129): SC_Mdl_PG_MULPAY_Client_Token->doPaymentRequest
/home/oukoku/public_html/shop/data/downloads/module/mdl_pg_mulpay/class/client/SC_Mdl_PG_MULPAY_Client_Token.php(146): SC_Mdl_PG_MULPAY_Client_Base->sendOrderRequest
/home/oukoku/public_html/shop/data/downloads/module/mdl_pg_mulpay/class/client/SC_Mdl_PG_MULPAY_Client_Base.php(275): SC_Util_PG_MULPAY->setOrderPayData
/home/oukoku/public_html/shop/data/downloads/module/mdl_pg_mulpay/class/util/SC_Util_PG_MULPAY.php(501): SC_Mdl_PG_MULPAY->printLog
/home/oukoku/public_html/shop/data/downloads/module/mdl_pg_mulpay/class/SC_Mdl_PG_MULPAY.php(268): GC_Utils::gfPrintLog
2019/09/13 22:52:43 [/shop/user_data/pg_mulpay_recv.php] ******* receiveer data start ******* from 210.175.7.20
customer_id = 
/home/oukoku/public_html/shop/user_data/pg_mulpay_recv.php(15): LC_Page_Mdl_PG_MULPAY_Recv->process
/home/oukoku/public_html/shop/data/downloads/module/mdl_pg_mulpay/class/pages/LC_Page_Mdl_PG_MULPAY_Recv.php(44): LC_Page_Mdl_PG_MULPAY_Recv->action
/home/oukoku/public_html/shop/data/downloads/module/mdl_pg_mulpay/class/pages/LC_Page_Mdl_PG_MULPAY_Recv.php(54): LC_Page_Mdl_PG_MULPAY_Recv->lfSetPostLog
/home/oukoku/public_html/shop/data/downloads/module/mdl_pg_mulpay/class/pages/LC_Page_Mdl_PG_MULPAY_Recv.php(832): SC_Mdl_PG_MULPAY->printLog
/home/oukoku/public_html/shop/data/downloads/module/mdl_pg_mulpay/class/SC_Mdl_PG_MULPAY.php(268): GC_Utils::gfPrintLog
2019/09/13 22:52:43 [/shop/user_data/pg_mulpay_recv.php] Array
(
    [ShopID] => 9102288779655
    [ShopPass] => **********
    [AccessID] => 35ea43004e3e9ac1dabd20632ad944d2
    [AccessPass] => ********************************
    [OrderID] => 547-13225241
    [Status] => AUTH
    [JobCd] => AUTH
    [Amount] => 7236
    [Tax] => 0
    [Currency] => JPN
    [Forward] => 2a99661
    [Method] => 1
    [PayTimes] => 
    [TranID] => 1909132252602257217875100002
    [Approve] => 0718315
    [TranDate] => 20190913225242
    [ErrCode] => 
    [ErrInfo] => 
    [PayType] => 0
)
 from 210.175.7.20
customer_id = 
/home/oukoku/public_html/shop/user_data/pg_mulpay_recv.php(15): LC_Page_Mdl_PG_MULPAY_Recv->process
/home/oukoku/public_html/shop/data/downloads/module/mdl_pg_mulpay/class/pages/LC_Page_Mdl_PG_MULPAY_Recv.php(44): LC_Page_Mdl_PG_MULPAY_Recv->action
/home/oukoku/public_html/shop/data/downloads/module/mdl_pg_mulpay/class/pages/LC_Page_Mdl_PG_MULPAY_Recv.php(54): LC_Page_Mdl_PG_MULPAY_Recv->lfSetPostLog
/home/oukoku/public_html/shop/data/downloads/module/mdl_pg_mulpay/class/pages/LC_Page_Mdl_PG_MULPAY_Recv.php(836): SC_Mdl_PG_MULPAY->printLog
/home/oukoku/public_html/shop/data/downloads/module/mdl_pg_mulpay/class/SC_Mdl_PG_MULPAY.php(268): GC_Utils::gfPrintLog
2019/09/13 22:52:43 [/shop/user_data/pg_mulpay_recv.php] ******* receiveer data end ******* from 210.175.7.20
customer_id = 
/home/oukoku/public_html/shop/user_data/pg_mulpay_recv.php(15): LC_Page_Mdl_PG_MULPAY_Recv->process
/home/oukoku/public_html/shop/data/downloads/module/mdl_pg_mulpay/class/pages/LC_Page_Mdl_PG_MULPAY_Recv.php(44): LC_Page_Mdl_PG_MULPAY_Recv->action
/home/oukoku/public_html/shop/data/downloads/module/mdl_pg_mulpay/class/pages/LC_Page_Mdl_PG_MULPAY_Recv.php(54): LC_Page_Mdl_PG_MULPAY_Recv->lfSetPostLog
/home/oukoku/public_html/shop/data/downloads/module/mdl_pg_mulpay/class/pages/LC_Page_Mdl_PG_MULPAY_Recv.php(837): SC_Mdl_PG_MULPAY->printLog
/home/oukoku/public_html/shop/data/downloads/module/mdl_pg_mulpay/class/SC_Mdl_PG_MULPAY.php(268): GC_Utils::gfPrintLog
2019/09/13 22:52:48 [/shop/user_data/pg_mulpay_recv.php] update order status:1 order_id=547 from 210.175.7.20
customer_id = 
/home/oukoku/public_html/shop/user_data/pg_mulpay_recv.php(15): LC_Page_Mdl_PG_MULPAY_Recv->process
/home/oukoku/public_html/shop/data/downloads/module/mdl_pg_mulpay/class/pages/LC_Page_Mdl_PG_MULPAY_Recv.php(44): LC_Page_Mdl_PG_MULPAY_Recv->action
/home/oukoku/public_html/shop/data/downloads/module/mdl_pg_mulpay/class/pages/LC_Page_Mdl_PG_MULPAY_Recv.php(91): LC_Page_Mdl_PG_MULPAY_Recv->lfDoReceive
/home/oukoku/public_html/shop/data/downloads/module/mdl_pg_mulpay/class/pages/LC_Page_Mdl_PG_MULPAY_Recv.php(219): LC_Page_Mdl_PG_MULPAY_Recv->lfDoRecvCredit
/home/oukoku/public_html/shop/data/downloads/module/mdl_pg_mulpay/class/pages/LC_Page_Mdl_PG_MULPAY_Recv.php(717): SC_Mdl_PG_MULPAY->printLog
/home/oukoku/public_html/shop/data/downloads/module/mdl_pg_mulpay/class/SC_Mdl_PG_MULPAY.php(268): GC_Utils::gfPrintLog
2019/09/13 22:52:48 [/shop/user_data/pg_mulpay_recv.php] pg_mulpay_recv.php set payment data:Array
(
    [ShopID] => 9102288779655
    [AccessID] => 35ea43004e3e9ac1dabd20632ad944d2
    [OrderID] => 547-13225241
    [Status] => AUTH
    [JobCd] => AUTH
    [Amount] => 7236
    [Tax] => 0
    [Currency] => JPN
    [Forward] => 2a99661
    [Method] => 1
    [PayTimes] => 
    [TranID] => 1909132252602257217875100002
    [Approve] => 0718315
    [TranDate] => 20190913225242
    [ErrCode] => 
    [ErrInfo] => 
    [PayType] => 0
    [CvsCode] => 
    [CvsConfNo] => 
    [CvsReceiptNo] => 
    [EdyReceiptNo] => 
    [EdyOrderNo] => 
    [SuicaReceiptNo] => 
    [SuicaOrderNo] => 
    [CustID] => 
    [BkCode] => 
    [ConfNo] => 
    [PaymentTerm] => 
    [EncryptReceiptNo] => 
    [FinishDate] => 
    [ReceiptDate] => 
    [WebMoneyManagementNo] => 
    [WebMoneySettleCode] => 
    [AuPayInfoNo] => 
    [AuPayMethod] => 
    [AuCancelAmount] => 
    [AuCancelTax] => 
    [DocomoSettlementCode] => 
    [DocomoCancelAmount] => 
    [DocomoCancelTax] => 
    [pay_status] => 11
)
 from 210.175.7.20
customer_id = 
/home/oukoku/public_html/shop/user_data/pg_mulpay_recv.php(15): LC_Page_Mdl_PG_MULPAY_Recv->process
/home/oukoku/public_html/shop/data/downloads/module/mdl_pg_mulpay/class/pages/LC_Page_Mdl_PG_MULPAY_Recv.php(44): LC_Page_Mdl_PG_MULPAY_Recv->action
/home/oukoku/public_html/shop/data/downloads/module/mdl_pg_mulpay/class/pages/LC_Page_Mdl_PG_MULPAY_Recv.php(91): LC_Page_Mdl_PG_MULPAY_Recv->lfDoReceive
/home/oukoku/public_html/shop/data/downloads/module/mdl_pg_mulpay/class/pages/LC_Page_Mdl_PG_MULPAY_Recv.php(226): SC_Util_PG_MULPAY->setOrderPayData
/home/oukoku/public_html/shop/data/downloads/module/mdl_pg_mulpay/class/util/SC_Util_PG_MULPAY.php(501): SC_Mdl_PG_MULPAY->printLog
/home/oukoku/public_html/shop/data/downloads/module/mdl_pg_mulpay/class/SC_Mdl_PG_MULPAY.php(268): GC_Utils::gfPrintLog
2019/09/13 22:52:48 [/shop/user_data/pg_mulpay_recv.php] response:true from 210.175.7.20
customer_id = 
/home/oukoku/public_html/shop/user_data/pg_mulpay_recv.php(15): LC_Page_Mdl_PG_MULPAY_Recv->process
/home/oukoku/public_html/shop/data/downloads/module/mdl_pg_mulpay/class/pages/LC_Page_Mdl_PG_MULPAY_Recv.php(44): LC_Page_Mdl_PG_MULPAY_Recv->action
/home/oukoku/public_html/shop/data/downloads/module/mdl_pg_mulpay/class/pages/LC_Page_Mdl_PG_MULPAY_Recv.php(93): LC_Page_Mdl_PG_MULPAY_Recv->lfSendResponse
/home/oukoku/public_html/shop/data/downloads/module/mdl_pg_mulpay/class/pages/LC_Page_Mdl_PG_MULPAY_Recv.php(849): SC_Mdl_PG_MULPAY->printLog
/home/oukoku/public_html/shop/data/downloads/module/mdl_pg_mulpay/class/SC_Mdl_PG_MULPAY.php(268): GC_Utils::gfPrintLog
