2020/08/19 00:56:37 [/shop/shopping/load_payment_module.php] SendRequest:https://p01.mul-pay.jp/payment/EntryTranCvs.idPass from 125.102.13.139
2020/08/19 00:56:37 [/shop/shopping/load_payment_module.php] Array
(
    [ShopID] => 9102288779655
    [ShopPass] => ******
    [OrderID] => 1989-19005637
    [Amount] => 3696
)
 from 125.102.13.139
2020/08/19 00:56:37 [/shop/shopping/load_payment_module.php] AccessID=decf83d1548f7e1b411bc7d5a4675a99&AccessPass=116a39e6f6b6faf5f1f8f1551b895c4b from 125.102.13.139
2020/08/19 00:56:37 [/shop/shopping/load_payment_module.php] Array
(
    [0] => Array
        (
            [AccessID] => decf83d1548f7e1b411bc7d5a4675a99
            [AccessPass] => 116a39e6f6b6faf5f1f8f1551b895c4b
        )

)
 from 125.102.13.139
2020/08/19 00:56:37 [/shop/shopping/load_payment_module.php] load_payment_module.php set payment data:Array
(
    [AccessID] => decf83d1548f7e1b411bc7d5a4675a99
    [AccessPass] => 116a39e6f6b6faf5f1f8f1551b895c4b
    [OrderID] => 1989-19005637
    [Amount] => 3696
    [action_status] => 1
    [pay_status] => 0
)
 from 125.102.13.139
2020/08/19 00:56:37 [/shop/shopping/load_payment_module.php] SendRequest:https://p01.mul-pay.jp/payment/ExecTranCvs.idPass from 125.102.13.139
2020/08/19 00:56:37 [/shop/shopping/load_payment_module.php] Array
(
    [AccessID] => decf83d1548f7e1b411bc7d5a4675a99
    [AccessPass] => 116a39e6f6b6faf5f1f8f1551b895c4b
    [OrderID] => 1989-19005637
    [Convenience] => 10001
    [CustomerName] => ******
    [CustomerKana] => ******
    [TelNo] => 07085051608
    [PaymentTermDay] => 
    [MailAddress] => ******
    [ShopMailAddress] => oukoku-onlineshop@oukoku.biz
    [ReserveNo] => 1989
    [MemberNo] => 
    [RegisterDisp1] => 
    [RegisterDisp2] => 
    [RegisterDisp3] => 
    [RegisterDisp4] => 
    [RegisterDisp5] => 
    [RegisterDisp6] => 
    [RegisterDisp7] => 
    [RegisterDisp8] => 
    [ReceiptsDisp1] => 
    [ReceiptsDisp2] => 
    [ReceiptsDisp3] => 
    [ReceiptsDisp4] => 
    [ReceiptsDisp5] => 
    [ReceiptsDisp6] => 
    [ReceiptsDisp7] => 
    [ReceiptsDisp8] => 
    [ReceiptsDisp9] => 
    [ReceiptsDisp10] => 
    [ReceiptsDisp11] => 株式会社カーテン・じゅうたん王国
    [ReceiptsDisp12] => 0356493000
    [ReceiptsDisp13] => 09:30-18:30
    [ClientField1] => 
    [ClientField2] => 
    [ClientField3] => EC-CUBE4.3.24
    [ClientFieldFlag] => 1
)
 from 125.102.13.139
2020/08/19 00:56:37 [/shop/shopping/load_payment_module.php] OrderID=1989-19005637&Convenience=10001&ConfNo=5839&ReceiptNo=92023219785023&PaymentTerm=20200823235959&TranDate=20200819005637&CheckString=d57406fede1f046168ea3e0743a5e4cb&ClientField1=&ClientField2=&ClientField3=EC-CUBE4.3.24 from 125.102.13.139
2020/08/19 00:56:37 [/shop/shopping/load_payment_module.php] Array
(
    [0] => Array
        (
            [OrderID] => 1989-19005637
            [Convenience] => 10001
            [ConfNo] => 5839
            [ReceiptNo] => 92023219785023
            [PaymentTerm] => 20200823235959
            [TranDate] => 20200819005637
            [CheckString] => d57406fede1f046168ea3e0743a5e4cb
            [ClientField1] => 
            [ClientField2] => 
            [ClientField3] => EC-CUBE4.3.24
        )

)
 from 125.102.13.139
2020/08/19 00:56:37 [/shop/shopping/load_payment_module.php] load_payment_module.php set payment data:Array
(
    [Convenience] => 00001
    [ConfNo] => 5839
    [ReceiptNo] => 92023219785023
    [PaymentTerm] => 20200823235959
    [TranDate] => 20200819005637
    [CheckString] => d57406fede1f046168ea3e0743a5e4cb
    [ClientField1] => 
    [ClientField2] => 
    [ClientField3] => EC-CUBE4.3.24
    [Amount] => 3696
    [action_status] => 3
    [pay_status] => 1
)
 from 125.102.13.139
2020/08/19 00:56:37 [/shop/user_data/pg_mulpay_recv.php] ******* receiveer data start ******* from 210.175.7.20
2020/08/19 00:56:37 [/shop/user_data/pg_mulpay_recv.php] Array
(
    [ShopID] => 9102288779655
    [ShopPass] => **********
    [AccessID] => decf83d1548f7e1b411bc7d5a4675a99
    [AccessPass] => ********************************
    [OrderID] => 1989-19005637
    [Status] => REQSUCCESS
    [Amount] => 3696
    [Tax] => 0
    [Currency] => JPN
    [TranID] => 20081900000242524685
    [TranDate] => 20200819005637
    [ErrCode] => 
    [ErrInfo] => 
    [PayType] => 3
    [CvsCode] => 10001
    [CvsConfNo] => 5839
    [CvsReceiptNo] => 92023219785023
    [PaymentTerm] => 20200823235959
    [FinishDate] => 
    [ReceiptDate] => 20200819005637
)
 from 210.175.7.20
2020/08/19 00:56:37 [/shop/user_data/pg_mulpay_recv.php] ******* receiveer data end ******* from 210.175.7.20
2020/08/19 00:56:37 [/shop/user_data/pg_mulpay_recv.php] update order status:2 from 210.175.7.20
2020/08/19 00:56:37 [/shop/user_data/pg_mulpay_recv.php] pg_mulpay_recv.php set payment data:Array
(
    [ShopID] => 9102288779655
    [AccessID] => decf83d1548f7e1b411bc7d5a4675a99
    [OrderID] => 1989-19005637
    [Status] => REQSUCCESS
    [JobCd] => 
    [Amount] => 3696
    [Tax] => 0
    [Currency] => JPN
    [Forward] => 
    [Method] => 
    [PayTimes] => 
    [TranID] => 20081900000242524685
    [Approve] => 
    [TranDate] => 20200819005637
    [ErrCode] => 
    [ErrInfo] => 
    [PayType] => 3
    [CvsCode] => 10001
    [CvsConfNo] => 5839
    [CvsReceiptNo] => 92023219785023
    [EdyReceiptNo] => 
    [EdyOrderNo] => 
    [SuicaReceiptNo] => 
    [SuicaOrderNo] => 
    [CustID] => 
    [BkCode] => 
    [PaymentTerm] => 20200823235959
    [EncryptReceiptNo] => 
    [FinishDate] => 
    [ReceiptDate] => 20200819005637
    [WebMoneyManagementNo] => 
    [WebMoneySettleCode] => 
    [AuPayInfoNo] => 
    [AuPayMethod] => 
    [AuCancelAmount] => 
    [AuCancelTax] => 
    [DocomoSettlementCode] => 
    [DocomoCancelAmount] => 
    [DocomoCancelTax] => 
    [pay_status] => 1
)
 from 210.175.7.20
2020/08/19 00:56:37 [/shop/user_data/pg_mulpay_recv.php] response:true from 210.175.7.20
2020/08/19 13:08:11 [/shop/shopping/load_payment_module.php] SendRequest:https://p01.mul-pay.jp/payment/EntryTranCvs.idPass from 119.24.68.179
2020/08/19 13:08:11 [/shop/shopping/load_payment_module.php] Array
(
    [ShopID] => 9102288779655
    [ShopPass] => ******
    [OrderID] => 1990-19130811
    [Amount] => 43340
)
 from 119.24.68.179
2020/08/19 13:08:11 [/shop/shopping/load_payment_module.php] AccessID=1738bdb684e1b16be6a84e4e35a57826&AccessPass=e1e8dae797e5f917aa4af5947edab984 from 119.24.68.179
2020/08/19 13:08:11 [/shop/shopping/load_payment_module.php] Array
(
    [0] => Array
        (
            [AccessID] => 1738bdb684e1b16be6a84e4e35a57826
            [AccessPass] => e1e8dae797e5f917aa4af5947edab984
        )

)
 from 119.24.68.179
2020/08/19 13:08:11 [/shop/shopping/load_payment_module.php] load_payment_module.php set payment data:Array
(
    [AccessID] => 1738bdb684e1b16be6a84e4e35a57826
    [AccessPass] => e1e8dae797e5f917aa4af5947edab984
    [OrderID] => 1990-19130811
    [Amount] => 43340
    [action_status] => 1
    [pay_status] => 0
)
 from 119.24.68.179
2020/08/19 13:08:11 [/shop/shopping/load_payment_module.php] SendRequest:https://p01.mul-pay.jp/payment/ExecTranCvs.idPass from 119.24.68.179
2020/08/19 13:08:11 [/shop/shopping/load_payment_module.php] Array
(
    [AccessID] => 1738bdb684e1b16be6a84e4e35a57826
    [AccessPass] => e1e8dae797e5f917aa4af5947edab984
    [OrderID] => 1990-19130811
    [Convenience] => 10001
    [CustomerName] => ******
    [CustomerKana] => ******
    [TelNo] => 0667319429
    [PaymentTermDay] => 
    [MailAddress] => ******
    [ShopMailAddress] => oukoku-onlineshop@oukoku.biz
    [ReserveNo] => 1990
    [MemberNo] => 820
    [RegisterDisp1] => 
    [RegisterDisp2] => 
    [RegisterDisp3] => 
    [RegisterDisp4] => 
    [RegisterDisp5] => 
    [RegisterDisp6] => 
    [RegisterDisp7] => 
    [RegisterDisp8] => 
    [ReceiptsDisp1] => 
    [ReceiptsDisp2] => 
    [ReceiptsDisp3] => 
    [ReceiptsDisp4] => 
    [ReceiptsDisp5] => 
    [ReceiptsDisp6] => 
    [ReceiptsDisp7] => 
    [ReceiptsDisp8] => 
    [ReceiptsDisp9] => 
    [ReceiptsDisp10] => 
    [ReceiptsDisp11] => 株式会社カーテン・じゅうたん王国
    [ReceiptsDisp12] => 0356493000
    [ReceiptsDisp13] => 09:30-18:30
    [ClientField1] => 
    [ClientField2] => 
    [ClientField3] => EC-CUBE4.3.24
    [ClientFieldFlag] => 1
)
 from 119.24.68.179
2020/08/19 13:08:12 [/shop/shopping/load_payment_module.php] OrderID=1990-19130811&Convenience=10001&ConfNo=7296&ReceiptNo=92023219899683&PaymentTerm=20200823235959&TranDate=20200819130811&CheckString=f12651abe6afc5361056fb8a4a4151de&ClientField1=&ClientField2=&ClientField3=EC-CUBE4.3.24 from 119.24.68.179
2020/08/19 13:08:12 [/shop/shopping/load_payment_module.php] Array
(
    [0] => Array
        (
            [OrderID] => 1990-19130811
            [Convenience] => 10001
            [ConfNo] => 7296
            [ReceiptNo] => 92023219899683
            [PaymentTerm] => 20200823235959
            [TranDate] => 20200819130811
            [CheckString] => f12651abe6afc5361056fb8a4a4151de
            [ClientField1] => 
            [ClientField2] => 
            [ClientField3] => EC-CUBE4.3.24
        )

)
 from 119.24.68.179
2020/08/19 13:08:12 [/shop/shopping/load_payment_module.php] load_payment_module.php set payment data:Array
(
    [Convenience] => 00001
    [ConfNo] => 7296
    [ReceiptNo] => 92023219899683
    [PaymentTerm] => 20200823235959
    [TranDate] => 20200819130811
    [CheckString] => f12651abe6afc5361056fb8a4a4151de
    [ClientField1] => 
    [ClientField2] => 
    [ClientField3] => EC-CUBE4.3.24
    [Amount] => 43340
    [action_status] => 3
    [pay_status] => 1
)
 from 119.24.68.179
2020/08/19 13:08:13 [/shop/user_data/pg_mulpay_recv.php] ******* receiveer data start ******* from 210.175.7.20
2020/08/19 13:08:13 [/shop/user_data/pg_mulpay_recv.php] Array
(
    [ShopID] => 9102288779655
    [ShopPass] => **********
    [AccessID] => 1738bdb684e1b16be6a84e4e35a57826
    [AccessPass] => ********************************
    [OrderID] => 1990-19130811
    [Status] => REQSUCCESS
    [Amount] => 43340
    [Tax] => 0
    [Currency] => JPN
    [TranID] => 20081900000242564197
    [TranDate] => 20200819130811
    [ErrCode] => 
    [ErrInfo] => 
    [PayType] => 3
    [CvsCode] => 10001
    [CvsConfNo] => 7296
    [CvsReceiptNo] => 92023219899683
    [PaymentTerm] => 20200823235959
    [FinishDate] => 
    [ReceiptDate] => 20200819130811
)
 from 210.175.7.20
2020/08/19 13:08:13 [/shop/user_data/pg_mulpay_recv.php] ******* receiveer data end ******* from 210.175.7.20
2020/08/19 13:08:13 [/shop/user_data/pg_mulpay_recv.php] update order status:2 from 210.175.7.20
2020/08/19 13:08:13 [/shop/user_data/pg_mulpay_recv.php] pg_mulpay_recv.php set payment data:Array
(
    [ShopID] => 9102288779655
    [AccessID] => 1738bdb684e1b16be6a84e4e35a57826
    [OrderID] => 1990-19130811
    [Status] => REQSUCCESS
    [JobCd] => 
    [Amount] => 43340
    [Tax] => 0
    [Currency] => JPN
    [Forward] => 
    [Method] => 
    [PayTimes] => 
    [TranID] => 20081900000242564197
    [Approve] => 
    [TranDate] => 20200819130811
    [ErrCode] => 
    [ErrInfo] => 
    [PayType] => 3
    [CvsCode] => 10001
    [CvsConfNo] => 7296
    [CvsReceiptNo] => 92023219899683
    [EdyReceiptNo] => 
    [EdyOrderNo] => 
    [SuicaReceiptNo] => 
    [SuicaOrderNo] => 
    [CustID] => 
    [BkCode] => 
    [PaymentTerm] => 20200823235959
    [EncryptReceiptNo] => 
    [FinishDate] => 
    [ReceiptDate] => 20200819130811
    [WebMoneyManagementNo] => 
    [WebMoneySettleCode] => 
    [AuPayInfoNo] => 
    [AuPayMethod] => 
    [AuCancelAmount] => 
    [AuCancelTax] => 
    [DocomoSettlementCode] => 
    [DocomoCancelAmount] => 
    [DocomoCancelTax] => 
    [pay_status] => 1
)
 from 210.175.7.20
2020/08/19 13:08:13 [/shop/user_data/pg_mulpay_recv.php] response:true from 210.175.7.20
2020/08/19 15:59:27 [/shop/shopping/load_payment_module.php] SendRequest:https://p01.mul-pay.jp/payment/SearchMember.idPass from 114.144.112.50
2020/08/19 15:59:27 [/shop/shopping/load_payment_module.php] Array
(
    [SiteID] => mst2000016748
    [SitePass] => ******
    [MemberID] => 821
)
 from 114.144.112.50
2020/08/19 15:59:28 [/shop/shopping/load_payment_module.php] ErrCode=E01&ErrInfo=E01390002 from 114.144.112.50
2020/08/19 15:59:28 [/shop/shopping/load_payment_module.php] Array
(
    [0] => Array
        (
            [ErrCode] => E01
            [ErrInfo] => E01390002
        )

)
 from 114.144.112.50
2020/08/19 15:59:28 [/shop/shopping/load_payment_module.php] SendRequest:https://p01.mul-pay.jp/payment/SearchCard.idPass from 114.144.112.50
2020/08/19 15:59:28 [/shop/shopping/load_payment_module.php] Array
(
    [SiteID] => mst2000016748
    [SitePass] => ******
    [MemberID] => 821
)
 from 114.144.112.50
2020/08/19 15:59:28 [/shop/shopping/load_payment_module.php] ErrCode=E01|E01&ErrInfo=E01390002|E01240002 from 114.144.112.50
2020/08/19 15:59:28 [/shop/shopping/load_payment_module.php] Array
(
    [0] => Array
        (
            [ErrCode] => E01
            [ErrInfo] => E01390002
        )

    [1] => Array
        (
            [ErrCode] => E01
            [ErrInfo] => E01240002
        )

)
 from 114.144.112.50
2020/08/19 16:01:27 [/shop/shopping/load_payment_module.php] SendRequest:https://p01.mul-pay.jp/payment/SearchMember.idPass from 114.144.112.50
2020/08/19 16:01:27 [/shop/shopping/load_payment_module.php] Array
(
    [SiteID] => mst2000016748
    [SitePass] => ******
    [MemberID] => 821
)
 from 114.144.112.50
2020/08/19 16:01:27 [/shop/shopping/load_payment_module.php] ErrCode=E01&ErrInfo=E01390002 from 114.144.112.50
2020/08/19 16:01:27 [/shop/shopping/load_payment_module.php] Array
(
    [0] => Array
        (
            [ErrCode] => E01
            [ErrInfo] => E01390002
        )

)
 from 114.144.112.50
2020/08/19 16:01:27 [/shop/shopping/load_payment_module.php] SendRequest:https://p01.mul-pay.jp/payment/SearchCard.idPass from 114.144.112.50
2020/08/19 16:01:27 [/shop/shopping/load_payment_module.php] Array
(
    [SiteID] => mst2000016748
    [SitePass] => ******
    [MemberID] => 821
)
 from 114.144.112.50
2020/08/19 16:01:27 [/shop/shopping/load_payment_module.php] ErrCode=E01|E01&ErrInfo=E01390002|E01240002 from 114.144.112.50
2020/08/19 16:01:27 [/shop/shopping/load_payment_module.php] Array
(
    [0] => Array
        (
            [ErrCode] => E01
            [ErrInfo] => E01390002
        )

    [1] => Array
        (
            [ErrCode] => E01
            [ErrInfo] => E01240002
        )

)
 from 114.144.112.50
2020/08/19 16:01:27 [/shop/shopping/load_payment_module.php] SendRequest:https://p01.mul-pay.jp/payment/EntryTran.idPass from 114.144.112.50
2020/08/19 16:01:27 [/shop/shopping/load_payment_module.php] Array
(
    [ShopID] => 9102288779655
    [ShopPass] => ******
    [OrderID] => 1991-19160127
    [JobCd] => AUTH
    [Amount] => 12210
    [TdFlag] => 0
    [TdTenantName] => 
)
 from 114.144.112.50
2020/08/19 16:01:27 [/shop/shopping/load_payment_module.php] AccessID=4930fc31bcc84362ce79aba7d6a277ef&AccessPass=6ca7b0dd3b188a83c22e61ddbe2510c1 from 114.144.112.50
2020/08/19 16:01:27 [/shop/shopping/load_payment_module.php] Array
(
    [0] => Array
        (
            [AccessID] => 4930fc31bcc84362ce79aba7d6a277ef
            [AccessPass] => 6ca7b0dd3b188a83c22e61ddbe2510c1
        )

)
 from 114.144.112.50
2020/08/19 16:01:27 [/shop/shopping/load_payment_module.php] load_payment_module.php set payment data:Array
(
    [AccessID] => 4930fc31bcc84362ce79aba7d6a277ef
    [AccessPass] => 6ca7b0dd3b188a83c22e61ddbe2510c1
    [OrderID] => 1991-19160127
    [Amount] => 12210
    [JobCd] => AUTH
    [action_status] => 1
    [pay_status] => 0
)
 from 114.144.112.50
2020/08/19 16:01:27 [/shop/shopping/load_payment_module.php] SendRequest:https://p01.mul-pay.jp/payment/ExecTran.idPass from 114.144.112.50
2020/08/19 16:01:27 [/shop/shopping/load_payment_module.php] Array
(
    [AccessID] => 4930fc31bcc84362ce79aba7d6a277ef
    [AccessPass] => 6ca7b0dd3b188a83c22e61ddbe2510c1
    [OrderID] => 1991-19160127
    [Method] => 1
    [Token] => 1f3eea2c866433d2e34c4c77fe5158aa5ad72a98e13241224661b224df73cbc7
    [ClientField1] => 
    [ClientField2] => 
    [ClientField3] => EC-CUBE4.3.24
)
 from 114.144.112.50
2020/08/19 16:01:28 [/shop/shopping/load_payment_module.php] ACS=0&OrderID=1991-19160127&Forward=2a99661&Method=1&PayTimes=&Approve=0187950&TranID=2008191601602257217875110342&TranDate=20200819160128&CheckString=1f0c92bfa9eee62600eec6971eeaff34 from 114.144.112.50
2020/08/19 16:01:28 [/shop/shopping/load_payment_module.php] Array
(
    [0] => Array
        (
            [ACS] => 0
            [OrderID] => 1991-19160127
            [Forward] => 2a99661
            [Method] => 1
            [PayTimes] => 
            [Approve] => 0187950
            [TranID] => 2008191601602257217875110342
            [TranDate] => 20200819160128
            [CheckString] => 1f0c92bfa9eee62600eec6971eeaff34
        )

)
 from 114.144.112.50
2020/08/19 16:01:28 [/shop/shopping/load_payment_module.php] load_payment_module.php set payment data:Array
(
    [ACS] => 0
    [Forward] => 2a99661
    [Method] => 1
    [PayTimes] => 
    [Approve] => 0187950
    [TranID] => 2008191601602257217875110342
    [TranDate] => 20200819160128
    [CheckString] => 1f0c92bfa9eee62600eec6971eeaff34
    [Amount] => 12210
    [JobCd] => AUTH
    [action_status] => 3
    [pay_status] => 11
)
 from 114.144.112.50
2020/08/19 16:01:29 [/shop/user_data/pg_mulpay_recv.php] ******* receiveer data start ******* from 210.175.7.20
2020/08/19 16:01:29 [/shop/user_data/pg_mulpay_recv.php] Array
(
    [ShopID] => 9102288779655
    [ShopPass] => **********
    [AccessID] => 4930fc31bcc84362ce79aba7d6a277ef
    [AccessPass] => ********************************
    [OrderID] => 1991-19160127
    [Status] => AUTH
    [JobCd] => AUTH
    [Amount] => 12210
    [Tax] => 0
    [Currency] => JPN
    [Forward] => 2a99661
    [Method] => 1
    [PayTimes] => 
    [TranID] => 2008191601602257217875110342
    [Approve] => 0187950
    [TranDate] => 20200819160128
    [ErrCode] => 
    [ErrInfo] => 
    [PayType] => 0
)
 from 210.175.7.20
2020/08/19 16:01:29 [/shop/user_data/pg_mulpay_recv.php] ******* receiveer data end ******* from 210.175.7.20
2020/08/19 16:01:34 [/shop/user_data/pg_mulpay_recv.php] update order status:1 order_id=1991 from 210.175.7.20
2020/08/19 16:01:34 [/shop/user_data/pg_mulpay_recv.php] pg_mulpay_recv.php set payment data:Array
(
    [ShopID] => 9102288779655
    [AccessID] => 4930fc31bcc84362ce79aba7d6a277ef
    [OrderID] => 1991-19160127
    [Status] => AUTH
    [JobCd] => AUTH
    [Amount] => 12210
    [Tax] => 0
    [Currency] => JPN
    [Forward] => 2a99661
    [Method] => 1
    [PayTimes] => 
    [TranID] => 2008191601602257217875110342
    [Approve] => 0187950
    [TranDate] => 20200819160128
    [ErrCode] => 
    [ErrInfo] => 
    [PayType] => 0
    [CvsCode] => 
    [CvsConfNo] => 
    [CvsReceiptNo] => 
    [EdyReceiptNo] => 
    [EdyOrderNo] => 
    [SuicaReceiptNo] => 
    [SuicaOrderNo] => 
    [CustID] => 
    [BkCode] => 
    [ConfNo] => 
    [PaymentTerm] => 
    [EncryptReceiptNo] => 
    [FinishDate] => 
    [ReceiptDate] => 
    [WebMoneyManagementNo] => 
    [WebMoneySettleCode] => 
    [AuPayInfoNo] => 
    [AuPayMethod] => 
    [AuCancelAmount] => 
    [AuCancelTax] => 
    [DocomoSettlementCode] => 
    [DocomoCancelAmount] => 
    [DocomoCancelTax] => 
    [pay_status] => 11
)
 from 210.175.7.20
2020/08/19 16:01:34 [/shop/user_data/pg_mulpay_recv.php] response:true from 210.175.7.20
2020/08/19 19:24:29 [/shop/kanri/order/index.php] SendRequest:https://p01.mul-pay.jp/payment/AlterTran.idPass from 61.124.245.8
2020/08/19 19:24:29 [/shop/kanri/order/index.php] Array
(
    [ShopID] => 9102288779655
    [ShopPass] => ******
    [AccessID] => ae5ad1c5f7de3ed1dc845709dacba903
    [AccessPass] => d803b7adfe4770dccb12789a57ae3b82
    [JobCd] => SALES
    [Amount] => 12760
)
 from 61.124.245.8
2020/08/19 19:24:29 [/shop/kanri/order/index.php] AccessID=ae5ad1c5f7de3ed1dc845709dacba903&AccessPass=d803b7adfe4770dccb12789a57ae3b82&Forward=2S49631&Approve=0783512&TranID=2008091235602257217875120389&TranDate=20200819192429 from 61.124.245.8
2020/08/19 19:24:29 [/shop/kanri/order/index.php] Array
(
    [0] => Array
        (
            [AccessID] => ae5ad1c5f7de3ed1dc845709dacba903
            [AccessPass] => d803b7adfe4770dccb12789a57ae3b82
            [Forward] => 2S49631
            [Approve] => 0783512
            [TranID] => 2008091235602257217875120389
            [TranDate] => 20200819192429
        )

)
 from 61.124.245.8
2020/08/19 19:24:29 [/shop/kanri/order/index.php] index.php set payment data:Array
(
    [AccessID] => ae5ad1c5f7de3ed1dc845709dacba903
    [AccessPass] => d803b7adfe4770dccb12789a57ae3b82
    [Forward] => 2S49631
    [Approve] => 0783512
    [TranID] => 2008091235602257217875120389
    [TranDate] => 20200819192429
    [action_status] => 6
    [pay_status] => 12
)
 from 61.124.245.8
2020/08/19 19:24:30 [/shop/user_data/pg_mulpay_recv.php] ******* receiveer data start ******* from 210.175.7.20
2020/08/19 19:24:30 [/shop/user_data/pg_mulpay_recv.php] Array
(
    [ShopID] => 9102288779655
    [ShopPass] => **********
    [AccessID] => ae5ad1c5f7de3ed1dc845709dacba903
    [AccessPass] => ********************************
    [OrderID] => 1948-09123556
    [Status] => SALES
    [JobCd] => SALES
    [Amount] => 12760
    [Tax] => 0
    [Currency] => JPN
    [Forward] => 2S49631
    [Method] => 1
    [PayTimes] => 
    [TranID] => 2008091235602257217875120389
    [Approve] => 0783512
    [TranDate] => 20200819192429
    [ErrCode] => 
    [ErrInfo] => 
    [PayType] => 0
)
 from 210.175.7.20
2020/08/19 19:24:30 [/shop/user_data/pg_mulpay_recv.php] ******* receiveer data end ******* from 210.175.7.20
2020/08/19 19:24:30 [/shop/user_data/pg_mulpay_recv.php] pg_mulpay_recv.php set payment data:Array
(
    [ShopID] => 9102288779655
    [AccessID] => ae5ad1c5f7de3ed1dc845709dacba903
    [OrderID] => 1948-09123556
    [Status] => SALES
    [JobCd] => SALES
    [Amount] => 12760
    [Tax] => 0
    [Currency] => JPN
    [Forward] => 2S49631
    [Method] => 1
    [PayTimes] => 
    [TranID] => 2008091235602257217875120389
    [Approve] => 0783512
    [TranDate] => 20200819192429
    [ErrCode] => 
    [ErrInfo] => 
    [PayType] => 0
    [CvsCode] => 
    [CvsConfNo] => 
    [CvsReceiptNo] => 
    [EdyReceiptNo] => 
    [EdyOrderNo] => 
    [SuicaReceiptNo] => 
    [SuicaOrderNo] => 
    [CustID] => 
    [BkCode] => 
    [ConfNo] => 
    [PaymentTerm] => 
    [EncryptReceiptNo] => 
    [FinishDate] => 
    [ReceiptDate] => 
    [WebMoneyManagementNo] => 
    [WebMoneySettleCode] => 
    [AuPayInfoNo] => 
    [AuPayMethod] => 
    [AuCancelAmount] => 
    [AuCancelTax] => 
    [DocomoSettlementCode] => 
    [DocomoCancelAmount] => 
    [DocomoCancelTax] => 
    [pay_status] => 12
)
 from 210.175.7.20
2020/08/19 19:24:30 [/shop/user_data/pg_mulpay_recv.php] response:true from 210.175.7.20
2020/08/19 19:24:31 [/shop/kanri/order/index.php] SendRequest:https://p01.mul-pay.jp/payment/DocomoSales.idPass from 61.124.245.8
2020/08/19 19:24:31 [/shop/kanri/order/index.php] Array
(
    [ShopID] => 9102288779655
    [ShopPass] => ******
    [AccessID] => f16585056c21d1fcdc009974c80e0d8e
    [AccessPass] => a4d47c3ef7aa56d56246490a26e0e23d
    [OrderID] => 1973-15214818
    [Amount] => 20460
)
 from 61.124.245.8
2020/08/19 19:24:32 [/shop/kanri/order/index.php] OrderID=1973-15214818&Status=SALES&Amount=20460&Tax=0 from 61.124.245.8
2020/08/19 19:24:32 [/shop/kanri/order/index.php] Array
(
    [0] => Array
        (
            [OrderID] => 1973-15214818
            [Status] => SALES
            [Amount] => 20460
            [Tax] => 0
        )

)
 from 61.124.245.8
2020/08/19 19:24:32 [/shop/kanri/order/index.php] index.php set payment data:Array
(
    [OrderID] => 1973-15214818
    [Status] => SALES
    [Amount] => 20460
    [Tax] => 0
    [action_status] => 6
    [pay_status] => 12
)
 from 61.124.245.8
2020/08/19 19:24:32 [/shop/user_data/pg_mulpay_recv.php] ******* receiveer data start ******* from 210.175.7.20
2020/08/19 19:24:32 [/shop/user_data/pg_mulpay_recv.php] Array
(
    [ShopID] => 9102288779655
    [ShopPass] => **********
    [AccessID] => f16585056c21d1fcdc009974c80e0d8e
    [AccessPass] => ********************************
    [OrderID] => 1973-15214818
    [Status] => SALES
    [JobCd] => SALES
    [Amount] => 20460
    [Tax] => 0
    [Currency] => 
    [Forward] => 
    [Method] => 
    [PayTimes] => 
    [TranID] => 
    [Approve] => 
    [TranDate] => 20200819192432
    [ErrCode] => 
    [ErrInfo] => 
    [PayType] => 9
    [CvsCode] => 
    [CvsConfNo] => 
    [CvsReceiptNo] => 
    [EdyReceiptNo] => 
    [EdyOrderNo] => 
    [SuicaReceiptNo] => 
    [SuicaOrderNo] => 
    [CustID] => 
    [BkCode] => 
    [ConfNo] => 
    [PaymentTerm] => 
    [EncryptReceiptNo] => 
    [FinishDate] => 
    [ReceiptDate] => 
    [PayeasyPaymentURL] => 
    [WebMoneyManagementNo] => 
    [WebMoneySettleCode] => 
    [AuPayInfoNo] => 
    [AuPayMethod] => 
    [AuCancelAmount] => 
    [AuCancelTax] => 
    [DocomoSettlementCode] => 403892089208
    [DocomoCancelAmount] => 0
    [DocomoCancelTax] => 0
    [DocomoIncreaseAmount] => 0
    [DocomoIncreaseTax] => 0
    [SbTrackingId] => 
    [SbCancelAmount] => 
    [SbCancelTax] => 
    [JibunReceiptNo] => 
    [AuFirstAmount] => 
    [AuFirstTax] => 
    [AuAccountMonth] => 
    [AuContinueAccountId] => 
    [JcbPrecaSalesCode] => 
    [RequestNo] => 
    [AccountNo] => 
    [CenterCode] => 
    [NetCashPayType] => 
    [OrderDate] => 
    [CompletionDate] => 
    [RakutenidCouponFee] => 
    [McpPayInDate] => 
    [McpPayInAmount] => 
    [McpPayOutDate] => 
    [McpPayOutAmount] => 
    [RED_REQ_ID] => 
    [RED_ORD_ID] => 
    [RED_STAT_CD] => 
    [RED_FRAUD_STAT_CD] => 
    [RED_FRAUD_RSP_CD] => 
    [RED_FRAUD_REC_ID] => 
    [ProductName] => 
    [CancelAmount] => 
    [CancelTax] => 
    [PayMethod] => 
    [VaRequestAmount] => 
    [VaExpireDate] => 
    [VaTradeReason] => 
    [VaTradeClientName] => 
    [VaTradeClientMailaddress] => 
    [VaBankCode] => 
    [VaBankName] => 
    [VaBranchCode] => 
    [VaBranchName] => 
    [VaAccountType] => 
    [VaAccountNumber] => 
    [VaInInquiryNumber] => 
    [VaInSettlementDate] => 
    [VaInAmount] => 
    [VaInClientCode] => 
    [VaInClientName] => 
    [VaInSummary] => 
    [VaReserveID] => 
    [VaTradeCode] => 
    [SbStartChargeMonth] => 
    [SbChargeDay] => 
    [RcCustomerId] => 
    [RcUsePoint] => 
    [RcOrderId] => 
    [RcUpdateAuthDay] => 
    [RcUseCoupon] => 
    [RcUseShopCoupon] => 
    [RcContractId] => 
    [RcStartChargeMonth] => 
    [RcChargeDay] => 
    [RecurringID] => 
    [RecurringMethod] => 
    [RecurringChargeStartDate] => 
    [RecurringChargeStopDate] => 
    [RecurringChargeMonth] => 
    [RecurringChargeDay] => 
    [RecurringNextChargeDate] => 
    [BaSiteId] => 
    [BaMemberId] => 
    [BaTargetDate] => 
    [BaRequestAcceptEndDate] => 
    [BaTransferReturnDate] => 
    [BaWithdrawalDate] => 
    [BaResultcode] => 
    [PaidCancelAmount] => 
    [PaidCancelTax] => 
    [PaidBuyerID] => 
    [PaidCode] => 
    [PrecaNo] => 
    [PrecaSeq] => 
    [PrecaExpireDate] => 
    [ChargeType] => 
    [QuickID] => 
    [CampaignUrl] => 
    [DocomoAcceptCode] => 
    [PvFrontBillKey] => 
    [PvResultCode] => 
    [PvReceiptDatetime] => 
    [PvReceiptAgencyCode] => 
    [PvBarcode] => 
    [PvCvsCode] => 
    [PvCvsBranchCode] => 
    [PvPaymentAmount] => 
    [RakutenidSubscriptionId] => 
    [RakutenidSettlementSubscriptionId] => 
    [AuAcceptCode] => 
    [SbAcceptCode] => 
    [PaysleResultCode] => 
    [BankCode] => 
    [BankTranDate] => 
    [GanbProcessType] => 
    [GanbRequestAmount] => 
    [GanbExpireDate] => 
    [GanbTradeReason] => 
    [GanbTradeClientName] => 
    [GanbTradeClientMailaddress] => 
    [GanbBankCode] => 
    [GanbBankName] => 
    [GanbBranchCode] => 
    [GanbBranchName] => 
    [GanbAccountType] => 
    [GanbAccountNumber] => 
    [GanbAccountHolderName] => 
    [GanbInSettlementDate] => 
    [GanbInAmount] => 
    [GanbInClientName] => 
    [GanbInRemittingBankName] => 
    [GanbInRemittingBranchName] => 
    [GanbTotalTransferAmount] => 
    [GanbTotalTransferCount] => 
)
 from 210.175.7.20
2020/08/19 19:24:32 [/shop/user_data/pg_mulpay_recv.php] ******* receiveer data end ******* from 210.175.7.20
2020/08/19 19:24:32 [/shop/user_data/pg_mulpay_recv.php] pg_mulpay_recv.php set payment data:Array
(
    [ShopID] => 9102288779655
    [AccessID] => f16585056c21d1fcdc009974c80e0d8e
    [OrderID] => 1973-15214818
    [Status] => SALES
    [JobCd] => SALES
    [Amount] => 20460
    [Tax] => 0
    [Currency] => 
    [Forward] => 
    [Method] => 
    [PayTimes] => 
    [TranID] => 
    [Approve] => 
    [TranDate] => 20200819192432
    [ErrCode] => 
    [ErrInfo] => 
    [PayType] => 9
    [CvsCode] => 
    [CvsConfNo] => 
    [CvsReceiptNo] => 
    [EdyReceiptNo] => 
    [EdyOrderNo] => 
    [SuicaReceiptNo] => 
    [SuicaOrderNo] => 
    [CustID] => 
    [BkCode] => 
    [ConfNo] => 
    [PaymentTerm] => 
    [EncryptReceiptNo] => 
    [FinishDate] => 
    [ReceiptDate] => 
    [WebMoneyManagementNo] => 
    [WebMoneySettleCode] => 
    [AuPayInfoNo] => 
    [AuPayMethod] => 
    [AuCancelAmount] => 
    [AuCancelTax] => 
    [DocomoSettlementCode] => 403892089208
    [DocomoCancelAmount] => 0
    [DocomoCancelTax] => 0
    [pay_status] => 12
)
 from 210.175.7.20
2020/08/19 19:24:32 [/shop/user_data/pg_mulpay_recv.php] response:true from 210.175.7.20
2020/08/19 22:34:27 [/shop/shopping/load_payment_module.php] SendRequest:https://p01.mul-pay.jp/payment/EntryTran.idPass from 111.90.38.93
2020/08/19 22:34:27 [/shop/shopping/load_payment_module.php] Array
(
    [ShopID] => 9102288779655
    [ShopPass] => ******
    [OrderID] => 1992-19223427
    [JobCd] => AUTH
    [Amount] => 7480
    [TdFlag] => 0
    [TdTenantName] => 
)
 from 111.90.38.93
2020/08/19 22:34:27 [/shop/shopping/load_payment_module.php] AccessID=7a77152c5e139f2ba0a66880ebe885bf&AccessPass=ea302e90cd84bc0bb0bab6884376064e from 111.90.38.93
2020/08/19 22:34:27 [/shop/shopping/load_payment_module.php] Array
(
    [0] => Array
        (
            [AccessID] => 7a77152c5e139f2ba0a66880ebe885bf
            [AccessPass] => ea302e90cd84bc0bb0bab6884376064e
        )

)
 from 111.90.38.93
2020/08/19 22:34:27 [/shop/shopping/load_payment_module.php] load_payment_module.php set payment data:Array
(
    [AccessID] => 7a77152c5e139f2ba0a66880ebe885bf
    [AccessPass] => ea302e90cd84bc0bb0bab6884376064e
    [OrderID] => 1992-19223427
    [Amount] => 7480
    [JobCd] => AUTH
    [action_status] => 1
    [pay_status] => 0
)
 from 111.90.38.93
2020/08/19 22:34:27 [/shop/shopping/load_payment_module.php] SendRequest:https://p01.mul-pay.jp/payment/ExecTran.idPass from 111.90.38.93
2020/08/19 22:34:27 [/shop/shopping/load_payment_module.php] Array
(
    [AccessID] => 7a77152c5e139f2ba0a66880ebe885bf
    [AccessPass] => ea302e90cd84bc0bb0bab6884376064e
    [OrderID] => 1992-19223427
    [Method] => 1
    [Token] => 126975247247ad376fff936cbd3590decdc26eba374fb39a5f0b7d131966308e
    [ClientField1] => 
    [ClientField2] => 
    [ClientField3] => EC-CUBE4.3.24
)
 from 111.90.38.93
2020/08/19 22:34:28 [/shop/shopping/load_payment_module.php] ACS=0&OrderID=1992-19223427&Forward=2a99661&Method=1&PayTimes=&Approve=0720396&TranID=2008192234602257217875120396&TranDate=20200819223428&CheckString=d0d5c35dfc3685f286638201fc393ecd from 111.90.38.93
2020/08/19 22:34:28 [/shop/shopping/load_payment_module.php] Array
(
    [0] => Array
        (
            [ACS] => 0
            [OrderID] => 1992-19223427
            [Forward] => 2a99661
            [Method] => 1
            [PayTimes] => 
            [Approve] => 0720396
            [TranID] => 2008192234602257217875120396
            [TranDate] => 20200819223428
            [CheckString] => d0d5c35dfc3685f286638201fc393ecd
        )

)
 from 111.90.38.93
2020/08/19 22:34:28 [/shop/shopping/load_payment_module.php] load_payment_module.php set payment data:Array
(
    [ACS] => 0
    [Forward] => 2a99661
    [Method] => 1
    [PayTimes] => 
    [Approve] => 0720396
    [TranID] => 2008192234602257217875120396
    [TranDate] => 20200819223428
    [CheckString] => d0d5c35dfc3685f286638201fc393ecd
    [Amount] => 7480
    [JobCd] => AUTH
    [action_status] => 3
    [pay_status] => 11
)
 from 111.90.38.93
2020/08/19 22:34:29 [/shop/user_data/pg_mulpay_recv.php] ******* receiveer data start ******* from 210.175.7.20
2020/08/19 22:34:29 [/shop/user_data/pg_mulpay_recv.php] Array
(
    [ShopID] => 9102288779655
    [ShopPass] => **********
    [AccessID] => 7a77152c5e139f2ba0a66880ebe885bf
    [AccessPass] => ********************************
    [OrderID] => 1992-19223427
    [Status] => AUTH
    [JobCd] => AUTH
    [Amount] => 7480
    [Tax] => 0
    [Currency] => JPN
    [Forward] => 2a99661
    [Method] => 1
    [PayTimes] => 
    [TranID] => 2008192234602257217875120396
    [Approve] => 0720396
    [TranDate] => 20200819223428
    [ErrCode] => 
    [ErrInfo] => 
    [PayType] => 0
)
 from 210.175.7.20
2020/08/19 22:34:29 [/shop/user_data/pg_mulpay_recv.php] ******* receiveer data end ******* from 210.175.7.20
2020/08/19 22:34:34 [/shop/user_data/pg_mulpay_recv.php] update order status:1 order_id=1992 from 210.175.7.20
2020/08/19 22:34:34 [/shop/user_data/pg_mulpay_recv.php] pg_mulpay_recv.php set payment data:Array
(
    [ShopID] => 9102288779655
    [AccessID] => 7a77152c5e139f2ba0a66880ebe885bf
    [OrderID] => 1992-19223427
    [Status] => AUTH
    [JobCd] => AUTH
    [Amount] => 7480
    [Tax] => 0
    [Currency] => JPN
    [Forward] => 2a99661
    [Method] => 1
    [PayTimes] => 
    [TranID] => 2008192234602257217875120396
    [Approve] => 0720396
    [TranDate] => 20200819223428
    [ErrCode] => 
    [ErrInfo] => 
    [PayType] => 0
    [CvsCode] => 
    [CvsConfNo] => 
    [CvsReceiptNo] => 
    [EdyReceiptNo] => 
    [EdyOrderNo] => 
    [SuicaReceiptNo] => 
    [SuicaOrderNo] => 
    [CustID] => 
    [BkCode] => 
    [ConfNo] => 
    [PaymentTerm] => 
    [EncryptReceiptNo] => 
    [FinishDate] => 
    [ReceiptDate] => 
    [WebMoneyManagementNo] => 
    [WebMoneySettleCode] => 
    [AuPayInfoNo] => 
    [AuPayMethod] => 
    [AuCancelAmount] => 
    [AuCancelTax] => 
    [DocomoSettlementCode] => 
    [DocomoCancelAmount] => 
    [DocomoCancelTax] => 
    [pay_status] => 11
)
 from 210.175.7.20
2020/08/19 22:34:34 [/shop/user_data/pg_mulpay_recv.php] response:true from 210.175.7.20
