2019/09/24 17:24:32 [/shop/shopping/load_payment_module.php] SendRequest:https://p01.mul-pay.jp/payment/EntryTran.idPass from 126.2.150.144
customer_id = 
/home/oukoku/public_html/shop/shopping/load_payment_module.php(29): LC_Page_Shopping_LoadPaymentModule_Ex->process
/home/oukoku/public_html/shop/data/class_extends/page_extends/shopping/LC_Page_Shopping_LoadPaymentModule_Ex.php(54): LC_Page_Shopping_LoadPaymentModule->process
/home/oukoku/public_html/shop/data/class/pages/shopping/LC_Page_Shopping_LoadPaymentModule.php(70): require_once
/home/oukoku/public_html/shop/data/downloads/module/mdl_pg_mulpay/payment.php(16): LC_Page_Mdl_PG_MULPAY_Helper->process
/home/oukoku/public_html/shop/data/downloads/module/mdl_pg_mulpay/class/pages/LC_Page_Mdl_PG_MULPAY_Helper.php(45): LC_Page_Mdl_PG_MULPAY_Helper->action
/home/oukoku/public_html/shop/data/downloads/module/mdl_pg_mulpay/class/pages/LC_Page_Mdl_PG_MULPAY_Helper.php(136): LC_PageHelper_Mdl_PG_MULPAY_Token->modeAction
/home/oukoku/public_html/shop/data/downloads/module/mdl_pg_mulpay/class/pages/helper/LC_PageHelper_Mdl_PG_MULPAY_Token.php(129): SC_Mdl_PG_MULPAY_Client_Token->doPaymentRequest
/home/oukoku/public_html/shop/data/downloads/module/mdl_pg_mulpay/class/client/SC_Mdl_PG_MULPAY_Client_Token.php(105): SC_Mdl_PG_MULPAY_Client_Base->sendOrderRequest
/home/oukoku/public_html/shop/data/downloads/module/mdl_pg_mulpay/class/client/SC_Mdl_PG_MULPAY_Client_Base.php(241): SC_Mdl_PG_MULPAY_Client_Base->sendRequest
/home/oukoku/public_html/shop/data/downloads/module/mdl_pg_mulpay/class/client/SC_Mdl_PG_MULPAY_Client_Base.php(375): SC_Mdl_PG_MULPAY->printLog
/home/oukoku/public_html/shop/data/downloads/module/mdl_pg_mulpay/class/SC_Mdl_PG_MULPAY.php(268): GC_Utils::gfPrintLog
2019/09/24 17:24:32 [/shop/shopping/load_payment_module.php] Array
(
    [ShopID] => 9102288779655
    [ShopPass] => ******
    [OrderID] => 567-24172432
    [JobCd] => AUTH
    [Amount] => 23976
    [TdFlag] => 0
    [TdTenantName] => 
)
 from 126.2.150.144
customer_id = 
/home/oukoku/public_html/shop/shopping/load_payment_module.php(29): LC_Page_Shopping_LoadPaymentModule_Ex->process
/home/oukoku/public_html/shop/data/class_extends/page_extends/shopping/LC_Page_Shopping_LoadPaymentModule_Ex.php(54): LC_Page_Shopping_LoadPaymentModule->process
/home/oukoku/public_html/shop/data/class/pages/shopping/LC_Page_Shopping_LoadPaymentModule.php(70): require_once
/home/oukoku/public_html/shop/data/downloads/module/mdl_pg_mulpay/payment.php(16): LC_Page_Mdl_PG_MULPAY_Helper->process
/home/oukoku/public_html/shop/data/downloads/module/mdl_pg_mulpay/class/pages/LC_Page_Mdl_PG_MULPAY_Helper.php(45): LC_Page_Mdl_PG_MULPAY_Helper->action
/home/oukoku/public_html/shop/data/downloads/module/mdl_pg_mulpay/class/pages/LC_Page_Mdl_PG_MULPAY_Helper.php(136): LC_PageHelper_Mdl_PG_MULPAY_Token->modeAction
/home/oukoku/public_html/shop/data/downloads/module/mdl_pg_mulpay/class/pages/helper/LC_PageHelper_Mdl_PG_MULPAY_Token.php(129): SC_Mdl_PG_MULPAY_Client_Token->doPaymentRequest
/home/oukoku/public_html/shop/data/downloads/module/mdl_pg_mulpay/class/client/SC_Mdl_PG_MULPAY_Client_Token.php(105): SC_Mdl_PG_MULPAY_Client_Base->sendOrderRequest
/home/oukoku/public_html/shop/data/downloads/module/mdl_pg_mulpay/class/client/SC_Mdl_PG_MULPAY_Client_Base.php(241): SC_Mdl_PG_MULPAY_Client_Base->sendRequest
/home/oukoku/public_html/shop/data/downloads/module/mdl_pg_mulpay/class/client/SC_Mdl_PG_MULPAY_Client_Base.php(376): SC_Mdl_PG_MULPAY->printLog
/home/oukoku/public_html/shop/data/downloads/module/mdl_pg_mulpay/class/SC_Mdl_PG_MULPAY.php(268): GC_Utils::gfPrintLog
2019/09/24 17:24:32 [/shop/shopping/load_payment_module.php] AccessID=5faa833b5a5207f185d4da0d0cedda6f&AccessPass=5d66f5b5db84e42d08a3037843b3ce1b from 126.2.150.144
customer_id = 
/home/oukoku/public_html/shop/shopping/load_payment_module.php(29): LC_Page_Shopping_LoadPaymentModule_Ex->process
/home/oukoku/public_html/shop/data/class_extends/page_extends/shopping/LC_Page_Shopping_LoadPaymentModule_Ex.php(54): LC_Page_Shopping_LoadPaymentModule->process
/home/oukoku/public_html/shop/data/class/pages/shopping/LC_Page_Shopping_LoadPaymentModule.php(70): require_once
/home/oukoku/public_html/shop/data/downloads/module/mdl_pg_mulpay/payment.php(16): LC_Page_Mdl_PG_MULPAY_Helper->process
/home/oukoku/public_html/shop/data/downloads/module/mdl_pg_mulpay/class/pages/LC_Page_Mdl_PG_MULPAY_Helper.php(45): LC_Page_Mdl_PG_MULPAY_Helper->action
/home/oukoku/public_html/shop/data/downloads/module/mdl_pg_mulpay/class/pages/LC_Page_Mdl_PG_MULPAY_Helper.php(136): LC_PageHelper_Mdl_PG_MULPAY_Token->modeAction
/home/oukoku/public_html/shop/data/downloads/module/mdl_pg_mulpay/class/pages/helper/LC_PageHelper_Mdl_PG_MULPAY_Token.php(129): SC_Mdl_PG_MULPAY_Client_Token->doPaymentRequest
/home/oukoku/public_html/shop/data/downloads/module/mdl_pg_mulpay/class/client/SC_Mdl_PG_MULPAY_Client_Token.php(105): SC_Mdl_PG_MULPAY_Client_Base->sendOrderRequest
/home/oukoku/public_html/shop/data/downloads/module/mdl_pg_mulpay/class/client/SC_Mdl_PG_MULPAY_Client_Base.php(241): SC_Mdl_PG_MULPAY_Client_Base->sendRequest
/home/oukoku/public_html/shop/data/downloads/module/mdl_pg_mulpay/class/client/SC_Mdl_PG_MULPAY_Client_Base.php(418): SC_Mdl_PG_MULPAY_Client_Base->parseResponse
/home/oukoku/public_html/shop/data/downloads/module/mdl_pg_mulpay/class/client/SC_Mdl_PG_MULPAY_Client_Base.php(446): SC_Mdl_PG_MULPAY->printLog
/home/oukoku/public_html/shop/data/downloads/module/mdl_pg_mulpay/class/SC_Mdl_PG_MULPAY.php(268): GC_Utils::gfPrintLog
2019/09/24 17:24:32 [/shop/shopping/load_payment_module.php] Array
(
    [0] => Array
        (
            [AccessID] => 5faa833b5a5207f185d4da0d0cedda6f
            [AccessPass] => 5d66f5b5db84e42d08a3037843b3ce1b
        )

)
 from 126.2.150.144
customer_id = 
/home/oukoku/public_html/shop/shopping/load_payment_module.php(29): LC_Page_Shopping_LoadPaymentModule_Ex->process
/home/oukoku/public_html/shop/data/class_extends/page_extends/shopping/LC_Page_Shopping_LoadPaymentModule_Ex.php(54): LC_Page_Shopping_LoadPaymentModule->process
/home/oukoku/public_html/shop/data/class/pages/shopping/LC_Page_Shopping_LoadPaymentModule.php(70): require_once
/home/oukoku/public_html/shop/data/downloads/module/mdl_pg_mulpay/payment.php(16): LC_Page_Mdl_PG_MULPAY_Helper->process
/home/oukoku/public_html/shop/data/downloads/module/mdl_pg_mulpay/class/pages/LC_Page_Mdl_PG_MULPAY_Helper.php(45): LC_Page_Mdl_PG_MULPAY_Helper->action
/home/oukoku/public_html/shop/data/downloads/module/mdl_pg_mulpay/class/pages/LC_Page_Mdl_PG_MULPAY_Helper.php(136): LC_PageHelper_Mdl_PG_MULPAY_Token->modeAction
/home/oukoku/public_html/shop/data/downloads/module/mdl_pg_mulpay/class/pages/helper/LC_PageHelper_Mdl_PG_MULPAY_Token.php(129): SC_Mdl_PG_MULPAY_Client_Token->doPaymentRequest
/home/oukoku/public_html/shop/data/downloads/module/mdl_pg_mulpay/class/client/SC_Mdl_PG_MULPAY_Client_Token.php(105): SC_Mdl_PG_MULPAY_Client_Base->sendOrderRequest
/home/oukoku/public_html/shop/data/downloads/module/mdl_pg_mulpay/class/client/SC_Mdl_PG_MULPAY_Client_Base.php(241): SC_Mdl_PG_MULPAY_Client_Base->sendRequest
/home/oukoku/public_html/shop/data/downloads/module/mdl_pg_mulpay/class/client/SC_Mdl_PG_MULPAY_Client_Base.php(419): SC_Mdl_PG_MULPAY_Client_Base->setResults
/home/oukoku/public_html/shop/data/downloads/module/mdl_pg_mulpay/class/client/SC_Mdl_PG_MULPAY_Client_Base.php(533): SC_Mdl_PG_MULPAY->printLog
/home/oukoku/public_html/shop/data/downloads/module/mdl_pg_mulpay/class/SC_Mdl_PG_MULPAY.php(268): GC_Utils::gfPrintLog
2019/09/24 17:24:32 [/shop/shopping/load_payment_module.php] load_payment_module.php set payment data:Array
(
    [AccessID] => 5faa833b5a5207f185d4da0d0cedda6f
    [AccessPass] => 5d66f5b5db84e42d08a3037843b3ce1b
    [OrderID] => 567-24172432
    [Amount] => 23976
    [JobCd] => AUTH
    [action_status] => 1
    [pay_status] => 0
)
 from 126.2.150.144
customer_id = 
/home/oukoku/public_html/shop/shopping/load_payment_module.php(29): LC_Page_Shopping_LoadPaymentModule_Ex->process
/home/oukoku/public_html/shop/data/class_extends/page_extends/shopping/LC_Page_Shopping_LoadPaymentModule_Ex.php(54): LC_Page_Shopping_LoadPaymentModule->process
/home/oukoku/public_html/shop/data/class/pages/shopping/LC_Page_Shopping_LoadPaymentModule.php(70): require_once
/home/oukoku/public_html/shop/data/downloads/module/mdl_pg_mulpay/payment.php(16): LC_Page_Mdl_PG_MULPAY_Helper->process
/home/oukoku/public_html/shop/data/downloads/module/mdl_pg_mulpay/class/pages/LC_Page_Mdl_PG_MULPAY_Helper.php(45): LC_Page_Mdl_PG_MULPAY_Helper->action
/home/oukoku/public_html/shop/data/downloads/module/mdl_pg_mulpay/class/pages/LC_Page_Mdl_PG_MULPAY_Helper.php(136): LC_PageHelper_Mdl_PG_MULPAY_Token->modeAction
/home/oukoku/public_html/shop/data/downloads/module/mdl_pg_mulpay/class/pages/helper/LC_PageHelper_Mdl_PG_MULPAY_Token.php(129): SC_Mdl_PG_MULPAY_Client_Token->doPaymentRequest
/home/oukoku/public_html/shop/data/downloads/module/mdl_pg_mulpay/class/client/SC_Mdl_PG_MULPAY_Client_Token.php(105): SC_Mdl_PG_MULPAY_Client_Base->sendOrderRequest
/home/oukoku/public_html/shop/data/downloads/module/mdl_pg_mulpay/class/client/SC_Mdl_PG_MULPAY_Client_Base.php(275): SC_Util_PG_MULPAY->setOrderPayData
/home/oukoku/public_html/shop/data/downloads/module/mdl_pg_mulpay/class/util/SC_Util_PG_MULPAY.php(501): SC_Mdl_PG_MULPAY->printLog
/home/oukoku/public_html/shop/data/downloads/module/mdl_pg_mulpay/class/SC_Mdl_PG_MULPAY.php(268): GC_Utils::gfPrintLog
2019/09/24 17:24:32 [/shop/shopping/load_payment_module.php] SendRequest:https://p01.mul-pay.jp/payment/ExecTran.idPass from 126.2.150.144
customer_id = 
/home/oukoku/public_html/shop/shopping/load_payment_module.php(29): LC_Page_Shopping_LoadPaymentModule_Ex->process
/home/oukoku/public_html/shop/data/class_extends/page_extends/shopping/LC_Page_Shopping_LoadPaymentModule_Ex.php(54): LC_Page_Shopping_LoadPaymentModule->process
/home/oukoku/public_html/shop/data/class/pages/shopping/LC_Page_Shopping_LoadPaymentModule.php(70): require_once
/home/oukoku/public_html/shop/data/downloads/module/mdl_pg_mulpay/payment.php(16): LC_Page_Mdl_PG_MULPAY_Helper->process
/home/oukoku/public_html/shop/data/downloads/module/mdl_pg_mulpay/class/pages/LC_Page_Mdl_PG_MULPAY_Helper.php(45): LC_Page_Mdl_PG_MULPAY_Helper->action
/home/oukoku/public_html/shop/data/downloads/module/mdl_pg_mulpay/class/pages/LC_Page_Mdl_PG_MULPAY_Helper.php(136): LC_PageHelper_Mdl_PG_MULPAY_Token->modeAction
/home/oukoku/public_html/shop/data/downloads/module/mdl_pg_mulpay/class/pages/helper/LC_PageHelper_Mdl_PG_MULPAY_Token.php(129): SC_Mdl_PG_MULPAY_Client_Token->doPaymentRequest
/home/oukoku/public_html/shop/data/downloads/module/mdl_pg_mulpay/class/client/SC_Mdl_PG_MULPAY_Client_Token.php(146): SC_Mdl_PG_MULPAY_Client_Base->sendOrderRequest
/home/oukoku/public_html/shop/data/downloads/module/mdl_pg_mulpay/class/client/SC_Mdl_PG_MULPAY_Client_Base.php(241): SC_Mdl_PG_MULPAY_Client_Base->sendRequest
/home/oukoku/public_html/shop/data/downloads/module/mdl_pg_mulpay/class/client/SC_Mdl_PG_MULPAY_Client_Base.php(375): SC_Mdl_PG_MULPAY->printLog
/home/oukoku/public_html/shop/data/downloads/module/mdl_pg_mulpay/class/SC_Mdl_PG_MULPAY.php(268): GC_Utils::gfPrintLog
2019/09/24 17:24:32 [/shop/shopping/load_payment_module.php] Array
(
    [AccessID] => 5faa833b5a5207f185d4da0d0cedda6f
    [AccessPass] => 5d66f5b5db84e42d08a3037843b3ce1b
    [OrderID] => 567-24172432
    [Method] => 1
    [Token] => 5df5896f27a893fc880887abab15bd9f8cfdda7e44f9cd794b4708e3f740e544
    [ClientField1] => 
    [ClientField2] => 
    [ClientField3] => EC-CUBE4.3.24
)
 from 126.2.150.144
customer_id = 
/home/oukoku/public_html/shop/shopping/load_payment_module.php(29): LC_Page_Shopping_LoadPaymentModule_Ex->process
/home/oukoku/public_html/shop/data/class_extends/page_extends/shopping/LC_Page_Shopping_LoadPaymentModule_Ex.php(54): LC_Page_Shopping_LoadPaymentModule->process
/home/oukoku/public_html/shop/data/class/pages/shopping/LC_Page_Shopping_LoadPaymentModule.php(70): require_once
/home/oukoku/public_html/shop/data/downloads/module/mdl_pg_mulpay/payment.php(16): LC_Page_Mdl_PG_MULPAY_Helper->process
/home/oukoku/public_html/shop/data/downloads/module/mdl_pg_mulpay/class/pages/LC_Page_Mdl_PG_MULPAY_Helper.php(45): LC_Page_Mdl_PG_MULPAY_Helper->action
/home/oukoku/public_html/shop/data/downloads/module/mdl_pg_mulpay/class/pages/LC_Page_Mdl_PG_MULPAY_Helper.php(136): LC_PageHelper_Mdl_PG_MULPAY_Token->modeAction
/home/oukoku/public_html/shop/data/downloads/module/mdl_pg_mulpay/class/pages/helper/LC_PageHelper_Mdl_PG_MULPAY_Token.php(129): SC_Mdl_PG_MULPAY_Client_Token->doPaymentRequest
/home/oukoku/public_html/shop/data/downloads/module/mdl_pg_mulpay/class/client/SC_Mdl_PG_MULPAY_Client_Token.php(146): SC_Mdl_PG_MULPAY_Client_Base->sendOrderRequest
/home/oukoku/public_html/shop/data/downloads/module/mdl_pg_mulpay/class/client/SC_Mdl_PG_MULPAY_Client_Base.php(241): SC_Mdl_PG_MULPAY_Client_Base->sendRequest
/home/oukoku/public_html/shop/data/downloads/module/mdl_pg_mulpay/class/client/SC_Mdl_PG_MULPAY_Client_Base.php(376): SC_Mdl_PG_MULPAY->printLog
/home/oukoku/public_html/shop/data/downloads/module/mdl_pg_mulpay/class/SC_Mdl_PG_MULPAY.php(268): GC_Utils::gfPrintLog
2019/09/24 17:24:33 [/shop/shopping/load_payment_module.php] ACS=0&OrderID=567-24172432&Forward=2a99661&Method=1&PayTimes=&Approve=0715593&TranID=1909241724602257217875110095&TranDate=20190924172433&CheckString=f8f1103be2a404ca227b3882689e1838 from 126.2.150.144
customer_id = 
/home/oukoku/public_html/shop/shopping/load_payment_module.php(29): LC_Page_Shopping_LoadPaymentModule_Ex->process
/home/oukoku/public_html/shop/data/class_extends/page_extends/shopping/LC_Page_Shopping_LoadPaymentModule_Ex.php(54): LC_Page_Shopping_LoadPaymentModule->process
/home/oukoku/public_html/shop/data/class/pages/shopping/LC_Page_Shopping_LoadPaymentModule.php(70): require_once
/home/oukoku/public_html/shop/data/downloads/module/mdl_pg_mulpay/payment.php(16): LC_Page_Mdl_PG_MULPAY_Helper->process
/home/oukoku/public_html/shop/data/downloads/module/mdl_pg_mulpay/class/pages/LC_Page_Mdl_PG_MULPAY_Helper.php(45): LC_Page_Mdl_PG_MULPAY_Helper->action
/home/oukoku/public_html/shop/data/downloads/module/mdl_pg_mulpay/class/pages/LC_Page_Mdl_PG_MULPAY_Helper.php(136): LC_PageHelper_Mdl_PG_MULPAY_Token->modeAction
/home/oukoku/public_html/shop/data/downloads/module/mdl_pg_mulpay/class/pages/helper/LC_PageHelper_Mdl_PG_MULPAY_Token.php(129): SC_Mdl_PG_MULPAY_Client_Token->doPaymentRequest
/home/oukoku/public_html/shop/data/downloads/module/mdl_pg_mulpay/class/client/SC_Mdl_PG_MULPAY_Client_Token.php(146): SC_Mdl_PG_MULPAY_Client_Base->sendOrderRequest
/home/oukoku/public_html/shop/data/downloads/module/mdl_pg_mulpay/class/client/SC_Mdl_PG_MULPAY_Client_Base.php(241): SC_Mdl_PG_MULPAY_Client_Base->sendRequest
/home/oukoku/public_html/shop/data/downloads/module/mdl_pg_mulpay/class/client/SC_Mdl_PG_MULPAY_Client_Base.php(418): SC_Mdl_PG_MULPAY_Client_Base->parseResponse
/home/oukoku/public_html/shop/data/downloads/module/mdl_pg_mulpay/class/client/SC_Mdl_PG_MULPAY_Client_Base.php(446): SC_Mdl_PG_MULPAY->printLog
/home/oukoku/public_html/shop/data/downloads/module/mdl_pg_mulpay/class/SC_Mdl_PG_MULPAY.php(268): GC_Utils::gfPrintLog
2019/09/24 17:24:33 [/shop/shopping/load_payment_module.php] Array
(
    [0] => Array
        (
            [ACS] => 0
            [OrderID] => 567-24172432
            [Forward] => 2a99661
            [Method] => 1
            [PayTimes] => 
            [Approve] => 0715593
            [TranID] => 1909241724602257217875110095
            [TranDate] => 20190924172433
            [CheckString] => f8f1103be2a404ca227b3882689e1838
        )

)
 from 126.2.150.144
customer_id = 
/home/oukoku/public_html/shop/shopping/load_payment_module.php(29): LC_Page_Shopping_LoadPaymentModule_Ex->process
/home/oukoku/public_html/shop/data/class_extends/page_extends/shopping/LC_Page_Shopping_LoadPaymentModule_Ex.php(54): LC_Page_Shopping_LoadPaymentModule->process
/home/oukoku/public_html/shop/data/class/pages/shopping/LC_Page_Shopping_LoadPaymentModule.php(70): require_once
/home/oukoku/public_html/shop/data/downloads/module/mdl_pg_mulpay/payment.php(16): LC_Page_Mdl_PG_MULPAY_Helper->process
/home/oukoku/public_html/shop/data/downloads/module/mdl_pg_mulpay/class/pages/LC_Page_Mdl_PG_MULPAY_Helper.php(45): LC_Page_Mdl_PG_MULPAY_Helper->action
/home/oukoku/public_html/shop/data/downloads/module/mdl_pg_mulpay/class/pages/LC_Page_Mdl_PG_MULPAY_Helper.php(136): LC_PageHelper_Mdl_PG_MULPAY_Token->modeAction
/home/oukoku/public_html/shop/data/downloads/module/mdl_pg_mulpay/class/pages/helper/LC_PageHelper_Mdl_PG_MULPAY_Token.php(129): SC_Mdl_PG_MULPAY_Client_Token->doPaymentRequest
/home/oukoku/public_html/shop/data/downloads/module/mdl_pg_mulpay/class/client/SC_Mdl_PG_MULPAY_Client_Token.php(146): SC_Mdl_PG_MULPAY_Client_Base->sendOrderRequest
/home/oukoku/public_html/shop/data/downloads/module/mdl_pg_mulpay/class/client/SC_Mdl_PG_MULPAY_Client_Base.php(241): SC_Mdl_PG_MULPAY_Client_Base->sendRequest
/home/oukoku/public_html/shop/data/downloads/module/mdl_pg_mulpay/class/client/SC_Mdl_PG_MULPAY_Client_Base.php(419): SC_Mdl_PG_MULPAY_Client_Base->setResults
/home/oukoku/public_html/shop/data/downloads/module/mdl_pg_mulpay/class/client/SC_Mdl_PG_MULPAY_Client_Base.php(533): SC_Mdl_PG_MULPAY->printLog
/home/oukoku/public_html/shop/data/downloads/module/mdl_pg_mulpay/class/SC_Mdl_PG_MULPAY.php(268): GC_Utils::gfPrintLog
2019/09/24 17:24:33 [/shop/shopping/load_payment_module.php] load_payment_module.php set payment data:Array
(
    [ACS] => 0
    [Forward] => 2a99661
    [Method] => 1
    [PayTimes] => 
    [Approve] => 0715593
    [TranID] => 1909241724602257217875110095
    [TranDate] => 20190924172433
    [CheckString] => f8f1103be2a404ca227b3882689e1838
    [Amount] => 23976
    [JobCd] => AUTH
    [action_status] => 3
    [pay_status] => 11
)
 from 126.2.150.144
customer_id = 
/home/oukoku/public_html/shop/shopping/load_payment_module.php(29): LC_Page_Shopping_LoadPaymentModule_Ex->process
/home/oukoku/public_html/shop/data/class_extends/page_extends/shopping/LC_Page_Shopping_LoadPaymentModule_Ex.php(54): LC_Page_Shopping_LoadPaymentModule->process
/home/oukoku/public_html/shop/data/class/pages/shopping/LC_Page_Shopping_LoadPaymentModule.php(70): require_once
/home/oukoku/public_html/shop/data/downloads/module/mdl_pg_mulpay/payment.php(16): LC_Page_Mdl_PG_MULPAY_Helper->process
/home/oukoku/public_html/shop/data/downloads/module/mdl_pg_mulpay/class/pages/LC_Page_Mdl_PG_MULPAY_Helper.php(45): LC_Page_Mdl_PG_MULPAY_Helper->action
/home/oukoku/public_html/shop/data/downloads/module/mdl_pg_mulpay/class/pages/LC_Page_Mdl_PG_MULPAY_Helper.php(136): LC_PageHelper_Mdl_PG_MULPAY_Token->modeAction
/home/oukoku/public_html/shop/data/downloads/module/mdl_pg_mulpay/class/pages/helper/LC_PageHelper_Mdl_PG_MULPAY_Token.php(129): SC_Mdl_PG_MULPAY_Client_Token->doPaymentRequest
/home/oukoku/public_html/shop/data/downloads/module/mdl_pg_mulpay/class/client/SC_Mdl_PG_MULPAY_Client_Token.php(146): SC_Mdl_PG_MULPAY_Client_Base->sendOrderRequest
/home/oukoku/public_html/shop/data/downloads/module/mdl_pg_mulpay/class/client/SC_Mdl_PG_MULPAY_Client_Base.php(275): SC_Util_PG_MULPAY->setOrderPayData
/home/oukoku/public_html/shop/data/downloads/module/mdl_pg_mulpay/class/util/SC_Util_PG_MULPAY.php(501): SC_Mdl_PG_MULPAY->printLog
/home/oukoku/public_html/shop/data/downloads/module/mdl_pg_mulpay/class/SC_Mdl_PG_MULPAY.php(268): GC_Utils::gfPrintLog
2019/09/24 17:24:34 [/shop/user_data/pg_mulpay_recv.php] ******* receiveer data start ******* from 210.175.7.20
customer_id = 
/home/oukoku/public_html/shop/user_data/pg_mulpay_recv.php(15): LC_Page_Mdl_PG_MULPAY_Recv->process
/home/oukoku/public_html/shop/data/downloads/module/mdl_pg_mulpay/class/pages/LC_Page_Mdl_PG_MULPAY_Recv.php(44): LC_Page_Mdl_PG_MULPAY_Recv->action
/home/oukoku/public_html/shop/data/downloads/module/mdl_pg_mulpay/class/pages/LC_Page_Mdl_PG_MULPAY_Recv.php(54): LC_Page_Mdl_PG_MULPAY_Recv->lfSetPostLog
/home/oukoku/public_html/shop/data/downloads/module/mdl_pg_mulpay/class/pages/LC_Page_Mdl_PG_MULPAY_Recv.php(832): SC_Mdl_PG_MULPAY->printLog
/home/oukoku/public_html/shop/data/downloads/module/mdl_pg_mulpay/class/SC_Mdl_PG_MULPAY.php(268): GC_Utils::gfPrintLog
2019/09/24 17:24:34 [/shop/user_data/pg_mulpay_recv.php] Array
(
    [ShopID] => 9102288779655
    [ShopPass] => **********
    [AccessID] => 5faa833b5a5207f185d4da0d0cedda6f
    [AccessPass] => ********************************
    [OrderID] => 567-24172432
    [Status] => AUTH
    [JobCd] => AUTH
    [Amount] => 23976
    [Tax] => 0
    [Currency] => JPN
    [Forward] => 2a99661
    [Method] => 1
    [PayTimes] => 
    [TranID] => 1909241724602257217875110095
    [Approve] => 0715593
    [TranDate] => 20190924172433
    [ErrCode] => 
    [ErrInfo] => 
    [PayType] => 0
)
 from 210.175.7.20
customer_id = 
/home/oukoku/public_html/shop/user_data/pg_mulpay_recv.php(15): LC_Page_Mdl_PG_MULPAY_Recv->process
/home/oukoku/public_html/shop/data/downloads/module/mdl_pg_mulpay/class/pages/LC_Page_Mdl_PG_MULPAY_Recv.php(44): LC_Page_Mdl_PG_MULPAY_Recv->action
/home/oukoku/public_html/shop/data/downloads/module/mdl_pg_mulpay/class/pages/LC_Page_Mdl_PG_MULPAY_Recv.php(54): LC_Page_Mdl_PG_MULPAY_Recv->lfSetPostLog
/home/oukoku/public_html/shop/data/downloads/module/mdl_pg_mulpay/class/pages/LC_Page_Mdl_PG_MULPAY_Recv.php(836): SC_Mdl_PG_MULPAY->printLog
/home/oukoku/public_html/shop/data/downloads/module/mdl_pg_mulpay/class/SC_Mdl_PG_MULPAY.php(268): GC_Utils::gfPrintLog
2019/09/24 17:24:34 [/shop/user_data/pg_mulpay_recv.php] ******* receiveer data end ******* from 210.175.7.20
customer_id = 
/home/oukoku/public_html/shop/user_data/pg_mulpay_recv.php(15): LC_Page_Mdl_PG_MULPAY_Recv->process
/home/oukoku/public_html/shop/data/downloads/module/mdl_pg_mulpay/class/pages/LC_Page_Mdl_PG_MULPAY_Recv.php(44): LC_Page_Mdl_PG_MULPAY_Recv->action
/home/oukoku/public_html/shop/data/downloads/module/mdl_pg_mulpay/class/pages/LC_Page_Mdl_PG_MULPAY_Recv.php(54): LC_Page_Mdl_PG_MULPAY_Recv->lfSetPostLog
/home/oukoku/public_html/shop/data/downloads/module/mdl_pg_mulpay/class/pages/LC_Page_Mdl_PG_MULPAY_Recv.php(837): SC_Mdl_PG_MULPAY->printLog
/home/oukoku/public_html/shop/data/downloads/module/mdl_pg_mulpay/class/SC_Mdl_PG_MULPAY.php(268): GC_Utils::gfPrintLog
2019/09/24 17:24:39 [/shop/user_data/pg_mulpay_recv.php] update order status:1 order_id=567 from 210.175.7.20
customer_id = 
/home/oukoku/public_html/shop/user_data/pg_mulpay_recv.php(15): LC_Page_Mdl_PG_MULPAY_Recv->process
/home/oukoku/public_html/shop/data/downloads/module/mdl_pg_mulpay/class/pages/LC_Page_Mdl_PG_MULPAY_Recv.php(44): LC_Page_Mdl_PG_MULPAY_Recv->action
/home/oukoku/public_html/shop/data/downloads/module/mdl_pg_mulpay/class/pages/LC_Page_Mdl_PG_MULPAY_Recv.php(91): LC_Page_Mdl_PG_MULPAY_Recv->lfDoReceive
/home/oukoku/public_html/shop/data/downloads/module/mdl_pg_mulpay/class/pages/LC_Page_Mdl_PG_MULPAY_Recv.php(219): LC_Page_Mdl_PG_MULPAY_Recv->lfDoRecvCredit
/home/oukoku/public_html/shop/data/downloads/module/mdl_pg_mulpay/class/pages/LC_Page_Mdl_PG_MULPAY_Recv.php(717): SC_Mdl_PG_MULPAY->printLog
/home/oukoku/public_html/shop/data/downloads/module/mdl_pg_mulpay/class/SC_Mdl_PG_MULPAY.php(268): GC_Utils::gfPrintLog
2019/09/24 17:24:39 [/shop/user_data/pg_mulpay_recv.php] pg_mulpay_recv.php set payment data:Array
(
    [ShopID] => 9102288779655
    [AccessID] => 5faa833b5a5207f185d4da0d0cedda6f
    [OrderID] => 567-24172432
    [Status] => AUTH
    [JobCd] => AUTH
    [Amount] => 23976
    [Tax] => 0
    [Currency] => JPN
    [Forward] => 2a99661
    [Method] => 1
    [PayTimes] => 
    [TranID] => 1909241724602257217875110095
    [Approve] => 0715593
    [TranDate] => 20190924172433
    [ErrCode] => 
    [ErrInfo] => 
    [PayType] => 0
    [CvsCode] => 
    [CvsConfNo] => 
    [CvsReceiptNo] => 
    [EdyReceiptNo] => 
    [EdyOrderNo] => 
    [SuicaReceiptNo] => 
    [SuicaOrderNo] => 
    [CustID] => 
    [BkCode] => 
    [ConfNo] => 
    [PaymentTerm] => 
    [EncryptReceiptNo] => 
    [FinishDate] => 
    [ReceiptDate] => 
    [WebMoneyManagementNo] => 
    [WebMoneySettleCode] => 
    [AuPayInfoNo] => 
    [AuPayMethod] => 
    [AuCancelAmount] => 
    [AuCancelTax] => 
    [DocomoSettlementCode] => 
    [DocomoCancelAmount] => 
    [DocomoCancelTax] => 
    [pay_status] => 11
)
 from 210.175.7.20
customer_id = 
/home/oukoku/public_html/shop/user_data/pg_mulpay_recv.php(15): LC_Page_Mdl_PG_MULPAY_Recv->process
/home/oukoku/public_html/shop/data/downloads/module/mdl_pg_mulpay/class/pages/LC_Page_Mdl_PG_MULPAY_Recv.php(44): LC_Page_Mdl_PG_MULPAY_Recv->action
/home/oukoku/public_html/shop/data/downloads/module/mdl_pg_mulpay/class/pages/LC_Page_Mdl_PG_MULPAY_Recv.php(91): LC_Page_Mdl_PG_MULPAY_Recv->lfDoReceive
/home/oukoku/public_html/shop/data/downloads/module/mdl_pg_mulpay/class/pages/LC_Page_Mdl_PG_MULPAY_Recv.php(226): SC_Util_PG_MULPAY->setOrderPayData
/home/oukoku/public_html/shop/data/downloads/module/mdl_pg_mulpay/class/util/SC_Util_PG_MULPAY.php(501): SC_Mdl_PG_MULPAY->printLog
/home/oukoku/public_html/shop/data/downloads/module/mdl_pg_mulpay/class/SC_Mdl_PG_MULPAY.php(268): GC_Utils::gfPrintLog
2019/09/24 17:24:39 [/shop/user_data/pg_mulpay_recv.php] response:true from 210.175.7.20
customer_id = 
/home/oukoku/public_html/shop/user_data/pg_mulpay_recv.php(15): LC_Page_Mdl_PG_MULPAY_Recv->process
/home/oukoku/public_html/shop/data/downloads/module/mdl_pg_mulpay/class/pages/LC_Page_Mdl_PG_MULPAY_Recv.php(44): LC_Page_Mdl_PG_MULPAY_Recv->action
/home/oukoku/public_html/shop/data/downloads/module/mdl_pg_mulpay/class/pages/LC_Page_Mdl_PG_MULPAY_Recv.php(93): LC_Page_Mdl_PG_MULPAY_Recv->lfSendResponse
/home/oukoku/public_html/shop/data/downloads/module/mdl_pg_mulpay/class/pages/LC_Page_Mdl_PG_MULPAY_Recv.php(849): SC_Mdl_PG_MULPAY->printLog
/home/oukoku/public_html/shop/data/downloads/module/mdl_pg_mulpay/class/SC_Mdl_PG_MULPAY.php(268): GC_Utils::gfPrintLog
