2020/10/01 15:26:03 [/shop/kanri/order/index.php] SendRequest:https://p01.mul-pay.jp/payment/AlterTran.idPass from 61.124.245.8
2020/10/01 15:26:03 [/shop/kanri/order/index.php] Array
(
    [ShopID] => 9102288779655
    [ShopPass] => ******
    [AccessID] => 54cde204550644c5951e790bef5bccf2
    [AccessPass] => 8b274afac5a0135a32cd798869700829
    [JobCd] => SALES
    [Amount] => 34144
)
 from 61.124.245.8
2020/10/01 15:26:03 [/shop/kanri/order/index.php] AccessID=54cde204550644c5951e790bef5bccf2&AccessPass=8b274afac5a0135a32cd798869700829&Forward=2S49631&Approve=0710369&TranID=2009251950602257217875110369&TranDate=20201001152603 from 61.124.245.8
2020/10/01 15:26:03 [/shop/kanri/order/index.php] Array
(
    [0] => Array
        (
            [AccessID] => 54cde204550644c5951e790bef5bccf2
            [AccessPass] => 8b274afac5a0135a32cd798869700829
            [Forward] => 2S49631
            [Approve] => 0710369
            [TranID] => 2009251950602257217875110369
            [TranDate] => 20201001152603
        )

)
 from 61.124.245.8
2020/10/01 15:26:03 [/shop/kanri/order/index.php] index.php set payment data:Array
(
    [AccessID] => 54cde204550644c5951e790bef5bccf2
    [AccessPass] => 8b274afac5a0135a32cd798869700829
    [Forward] => 2S49631
    [Approve] => 0710369
    [TranID] => 2009251950602257217875110369
    [TranDate] => 20201001152603
    [action_status] => 6
    [pay_status] => 12
)
 from 61.124.245.8
2020/10/01 15:26:03 [/shop/user_data/pg_mulpay_recv.php] ******* receiveer data start ******* from 210.175.7.20
2020/10/01 15:26:03 [/shop/user_data/pg_mulpay_recv.php] Array
(
    [ShopID] => 9102288779655
    [ShopPass] => **********
    [AccessID] => 54cde204550644c5951e790bef5bccf2
    [AccessPass] => ********************************
    [OrderID] => 2131-25195034
    [Status] => SALES
    [JobCd] => SALES
    [Amount] => 34144
    [Tax] => 0
    [Currency] => JPN
    [Forward] => 2S49631
    [Method] => 1
    [PayTimes] => 
    [TranID] => 2009251950602257217875110369
    [Approve] => 0710369
    [TranDate] => 20201001152603
    [ErrCode] => 
    [ErrInfo] => 
    [PayType] => 0
)
 from 210.175.7.20
2020/10/01 15:26:03 [/shop/user_data/pg_mulpay_recv.php] ******* receiveer data end ******* from 210.175.7.20
2020/10/01 15:26:03 [/shop/user_data/pg_mulpay_recv.php] pg_mulpay_recv.php set payment data:Array
(
    [ShopID] => 9102288779655
    [AccessID] => 54cde204550644c5951e790bef5bccf2
    [OrderID] => 2131-25195034
    [Status] => SALES
    [JobCd] => SALES
    [Amount] => 34144
    [Tax] => 0
    [Currency] => JPN
    [Forward] => 2S49631
    [Method] => 1
    [PayTimes] => 
    [TranID] => 2009251950602257217875110369
    [Approve] => 0710369
    [TranDate] => 20201001152603
    [ErrCode] => 
    [ErrInfo] => 
    [PayType] => 0
    [CvsCode] => 
    [CvsConfNo] => 
    [CvsReceiptNo] => 
    [EdyReceiptNo] => 
    [EdyOrderNo] => 
    [SuicaReceiptNo] => 
    [SuicaOrderNo] => 
    [CustID] => 
    [BkCode] => 
    [ConfNo] => 
    [PaymentTerm] => 
    [EncryptReceiptNo] => 
    [FinishDate] => 
    [ReceiptDate] => 
    [WebMoneyManagementNo] => 
    [WebMoneySettleCode] => 
    [AuPayInfoNo] => 
    [AuPayMethod] => 
    [AuCancelAmount] => 
    [AuCancelTax] => 
    [DocomoSettlementCode] => 
    [DocomoCancelAmount] => 
    [DocomoCancelTax] => 
    [pay_status] => 12
)
 from 210.175.7.20
2020/10/01 15:26:03 [/shop/user_data/pg_mulpay_recv.php] response:true from 210.175.7.20
2020/10/01 15:30:16 [/shop/kanri/order/index.php] SendRequest:https://p01.mul-pay.jp/payment/AlterTran.idPass from 61.124.245.8
2020/10/01 15:30:16 [/shop/kanri/order/index.php] Array
(
    [ShopID] => 9102288779655
    [ShopPass] => ******
    [AccessID] => 9498ddde36d8601c3dddbc5d7e1c420c
    [AccessPass] => 5c99b73e3cd208bdbee67ea3e2827bdb
    [JobCd] => SALES
    [Amount] => 13640
)
 from 61.124.245.8
2020/10/01 15:30:16 [/shop/kanri/order/index.php] AccessID=9498ddde36d8601c3dddbc5d7e1c420c&AccessPass=5c99b73e3cd208bdbee67ea3e2827bdb&Forward=2a99661&Approve=0000057&TranID=2009191645602257217875130368&TranDate=20201001153016 from 61.124.245.8
2020/10/01 15:30:16 [/shop/kanri/order/index.php] Array
(
    [0] => Array
        (
            [AccessID] => 9498ddde36d8601c3dddbc5d7e1c420c
            [AccessPass] => 5c99b73e3cd208bdbee67ea3e2827bdb
            [Forward] => 2a99661
            [Approve] => 0000057
            [TranID] => 2009191645602257217875130368
            [TranDate] => 20201001153016
        )

)
 from 61.124.245.8
2020/10/01 15:30:16 [/shop/kanri/order/index.php] index.php set payment data:Array
(
    [AccessID] => 9498ddde36d8601c3dddbc5d7e1c420c
    [AccessPass] => 5c99b73e3cd208bdbee67ea3e2827bdb
    [Forward] => 2a99661
    [Approve] => 0000057
    [TranID] => 2009191645602257217875130368
    [TranDate] => 20201001153016
    [action_status] => 6
    [pay_status] => 12
)
 from 61.124.245.8
2020/10/01 15:30:17 [/shop/user_data/pg_mulpay_recv.php] ******* receiveer data start ******* from 210.175.7.20
2020/10/01 15:30:17 [/shop/user_data/pg_mulpay_recv.php] Array
(
    [ShopID] => 9102288779655
    [ShopPass] => **********
    [AccessID] => 9498ddde36d8601c3dddbc5d7e1c420c
    [AccessPass] => ********************************
    [OrderID] => 2098-19164459
    [Status] => SALES
    [JobCd] => SALES
    [Amount] => 13640
    [Tax] => 0
    [Currency] => JPN
    [Forward] => 2a99661
    [Method] => 1
    [PayTimes] => 
    [TranID] => 2009191645602257217875130368
    [Approve] => 0000057
    [TranDate] => 20201001153016
    [ErrCode] => 
    [ErrInfo] => 
    [PayType] => 0
)
 from 210.175.7.20
2020/10/01 15:30:17 [/shop/user_data/pg_mulpay_recv.php] ******* receiveer data end ******* from 210.175.7.20
2020/10/01 15:30:17 [/shop/user_data/pg_mulpay_recv.php] pg_mulpay_recv.php set payment data:Array
(
    [ShopID] => 9102288779655
    [AccessID] => 9498ddde36d8601c3dddbc5d7e1c420c
    [OrderID] => 2098-19164459
    [Status] => SALES
    [JobCd] => SALES
    [Amount] => 13640
    [Tax] => 0
    [Currency] => JPN
    [Forward] => 2a99661
    [Method] => 1
    [PayTimes] => 
    [TranID] => 2009191645602257217875130368
    [Approve] => 0000057
    [TranDate] => 20201001153016
    [ErrCode] => 
    [ErrInfo] => 
    [PayType] => 0
    [CvsCode] => 
    [CvsConfNo] => 
    [CvsReceiptNo] => 
    [EdyReceiptNo] => 
    [EdyOrderNo] => 
    [SuicaReceiptNo] => 
    [SuicaOrderNo] => 
    [CustID] => 
    [BkCode] => 
    [ConfNo] => 
    [PaymentTerm] => 
    [EncryptReceiptNo] => 
    [FinishDate] => 
    [ReceiptDate] => 
    [WebMoneyManagementNo] => 
    [WebMoneySettleCode] => 
    [AuPayInfoNo] => 
    [AuPayMethod] => 
    [AuCancelAmount] => 
    [AuCancelTax] => 
    [DocomoSettlementCode] => 
    [DocomoCancelAmount] => 
    [DocomoCancelTax] => 
    [pay_status] => 12
)
 from 210.175.7.20
2020/10/01 15:30:17 [/shop/user_data/pg_mulpay_recv.php] response:true from 210.175.7.20
2020/10/01 15:32:03 [/shop/kanri/order/index.php] SendRequest:https://p01.mul-pay.jp/payment/AlterTran.idPass from 61.124.245.8
2020/10/01 15:32:03 [/shop/kanri/order/index.php] Array
(
    [ShopID] => 9102288779655
    [ShopPass] => ******
    [AccessID] => e89c773a6b07496e39c805dc29061ded
    [AccessPass] => a649119b8bb992f9290d3ce984a3916a
    [JobCd] => SALES
    [Amount] => 11660
)
 from 61.124.245.8
2020/10/01 15:32:04 [/shop/kanri/order/index.php] AccessID=e89c773a6b07496e39c805dc29061ded&AccessPass=a649119b8bb992f9290d3ce984a3916a&Forward=2959876&Approve=0004737&TranID=2009221351602257217875120410&TranDate=20201001153204 from 61.124.245.8
2020/10/01 15:32:04 [/shop/kanri/order/index.php] Array
(
    [0] => Array
        (
            [AccessID] => e89c773a6b07496e39c805dc29061ded
            [AccessPass] => a649119b8bb992f9290d3ce984a3916a
            [Forward] => 2959876
            [Approve] => 0004737
            [TranID] => 2009221351602257217875120410
            [TranDate] => 20201001153204
        )

)
 from 61.124.245.8
2020/10/01 15:32:04 [/shop/kanri/order/index.php] index.php set payment data:Array
(
    [AccessID] => e89c773a6b07496e39c805dc29061ded
    [AccessPass] => a649119b8bb992f9290d3ce984a3916a
    [Forward] => 2959876
    [Approve] => 0004737
    [TranID] => 2009221351602257217875120410
    [TranDate] => 20201001153204
    [action_status] => 6
    [pay_status] => 12
)
 from 61.124.245.8
2020/10/01 15:32:04 [/shop/user_data/pg_mulpay_recv.php] ******* receiveer data start ******* from 210.175.7.20
2020/10/01 15:32:04 [/shop/user_data/pg_mulpay_recv.php] Array
(
    [ShopID] => 9102288779655
    [ShopPass] => **********
    [AccessID] => e89c773a6b07496e39c805dc29061ded
    [AccessPass] => ********************************
    [OrderID] => 2113-22135115
    [Status] => SALES
    [JobCd] => SALES
    [Amount] => 11660
    [Tax] => 0
    [Currency] => JPN
    [Forward] => 2959876
    [Method] => 1
    [PayTimes] => 
    [TranID] => 2009221351602257217875120410
    [Approve] => 0004737
    [TranDate] => 20201001153204
    [ErrCode] => 
    [ErrInfo] => 
    [PayType] => 0
)
 from 210.175.7.20
2020/10/01 15:32:04 [/shop/user_data/pg_mulpay_recv.php] ******* receiveer data end ******* from 210.175.7.20
2020/10/01 15:32:04 [/shop/user_data/pg_mulpay_recv.php] pg_mulpay_recv.php set payment data:Array
(
    [ShopID] => 9102288779655
    [AccessID] => e89c773a6b07496e39c805dc29061ded
    [OrderID] => 2113-22135115
    [Status] => SALES
    [JobCd] => SALES
    [Amount] => 11660
    [Tax] => 0
    [Currency] => JPN
    [Forward] => 2959876
    [Method] => 1
    [PayTimes] => 
    [TranID] => 2009221351602257217875120410
    [Approve] => 0004737
    [TranDate] => 20201001153204
    [ErrCode] => 
    [ErrInfo] => 
    [PayType] => 0
    [CvsCode] => 
    [CvsConfNo] => 
    [CvsReceiptNo] => 
    [EdyReceiptNo] => 
    [EdyOrderNo] => 
    [SuicaReceiptNo] => 
    [SuicaOrderNo] => 
    [CustID] => 
    [BkCode] => 
    [ConfNo] => 
    [PaymentTerm] => 
    [EncryptReceiptNo] => 
    [FinishDate] => 
    [ReceiptDate] => 
    [WebMoneyManagementNo] => 
    [WebMoneySettleCode] => 
    [AuPayInfoNo] => 
    [AuPayMethod] => 
    [AuCancelAmount] => 
    [AuCancelTax] => 
    [DocomoSettlementCode] => 
    [DocomoCancelAmount] => 
    [DocomoCancelTax] => 
    [pay_status] => 12
)
 from 210.175.7.20
2020/10/01 15:32:04 [/shop/user_data/pg_mulpay_recv.php] response:true from 210.175.7.20
2020/10/01 15:32:06 [/shop/kanri/order/index.php] SendRequest:https://p01.mul-pay.jp/payment/AlterTran.idPass from 61.124.245.8
2020/10/01 15:32:06 [/shop/kanri/order/index.php] Array
(
    [ShopID] => 9102288779655
    [ShopPass] => ******
    [AccessID] => d888dd79be1cac22084ebcaa29f510a0
    [AccessPass] => 4373a96c32a418361a4bd04a9f5001f9
    [JobCd] => SALES
    [Amount] => 18040
)
 from 61.124.245.8
2020/10/01 15:32:06 [/shop/kanri/order/index.php] AccessID=d888dd79be1cac22084ebcaa29f510a0&AccessPass=4373a96c32a418361a4bd04a9f5001f9&Forward=2a99661&Approve=0000095&TranID=2009201012602257217875130369&TranDate=20201001153206 from 61.124.245.8
2020/10/01 15:32:06 [/shop/kanri/order/index.php] Array
(
    [0] => Array
        (
            [AccessID] => d888dd79be1cac22084ebcaa29f510a0
            [AccessPass] => 4373a96c32a418361a4bd04a9f5001f9
            [Forward] => 2a99661
            [Approve] => 0000095
            [TranID] => 2009201012602257217875130369
            [TranDate] => 20201001153206
        )

)
 from 61.124.245.8
2020/10/01 15:32:06 [/shop/kanri/order/index.php] index.php set payment data:Array
(
    [AccessID] => d888dd79be1cac22084ebcaa29f510a0
    [AccessPass] => 4373a96c32a418361a4bd04a9f5001f9
    [Forward] => 2a99661
    [Approve] => 0000095
    [TranID] => 2009201012602257217875130369
    [TranDate] => 20201001153206
    [action_status] => 6
    [pay_status] => 12
)
 from 61.124.245.8
2020/10/01 15:32:07 [/shop/user_data/pg_mulpay_recv.php] ******* receiveer data start ******* from 210.175.7.20
2020/10/01 15:32:07 [/shop/user_data/pg_mulpay_recv.php] Array
(
    [ShopID] => 9102288779655
    [ShopPass] => **********
    [AccessID] => d888dd79be1cac22084ebcaa29f510a0
    [AccessPass] => ********************************
    [OrderID] => 2101-20101207
    [Status] => SALES
    [JobCd] => SALES
    [Amount] => 18040
    [Tax] => 0
    [Currency] => JPN
    [Forward] => 2a99661
    [Method] => 1
    [PayTimes] => 
    [TranID] => 2009201012602257217875130369
    [Approve] => 0000095
    [TranDate] => 20201001153206
    [ErrCode] => 
    [ErrInfo] => 
    [PayType] => 0
)
 from 210.175.7.20
2020/10/01 15:32:07 [/shop/user_data/pg_mulpay_recv.php] ******* receiveer data end ******* from 210.175.7.20
2020/10/01 15:32:07 [/shop/user_data/pg_mulpay_recv.php] pg_mulpay_recv.php set payment data:Array
(
    [ShopID] => 9102288779655
    [AccessID] => d888dd79be1cac22084ebcaa29f510a0
    [OrderID] => 2101-20101207
    [Status] => SALES
    [JobCd] => SALES
    [Amount] => 18040
    [Tax] => 0
    [Currency] => JPN
    [Forward] => 2a99661
    [Method] => 1
    [PayTimes] => 
    [TranID] => 2009201012602257217875130369
    [Approve] => 0000095
    [TranDate] => 20201001153206
    [ErrCode] => 
    [ErrInfo] => 
    [PayType] => 0
    [CvsCode] => 
    [CvsConfNo] => 
    [CvsReceiptNo] => 
    [EdyReceiptNo] => 
    [EdyOrderNo] => 
    [SuicaReceiptNo] => 
    [SuicaOrderNo] => 
    [CustID] => 
    [BkCode] => 
    [ConfNo] => 
    [PaymentTerm] => 
    [EncryptReceiptNo] => 
    [FinishDate] => 
    [ReceiptDate] => 
    [WebMoneyManagementNo] => 
    [WebMoneySettleCode] => 
    [AuPayInfoNo] => 
    [AuPayMethod] => 
    [AuCancelAmount] => 
    [AuCancelTax] => 
    [DocomoSettlementCode] => 
    [DocomoCancelAmount] => 
    [DocomoCancelTax] => 
    [pay_status] => 12
)
 from 210.175.7.20
2020/10/01 15:32:07 [/shop/user_data/pg_mulpay_recv.php] response:true from 210.175.7.20
2020/10/01 15:33:30 [/shop/kanri/order/index.php] SendRequest:https://p01.mul-pay.jp/payment/AlterTran.idPass from 61.124.245.8
2020/10/01 15:33:30 [/shop/kanri/order/index.php] Array
(
    [ShopID] => 9102288779655
    [ShopPass] => ******
    [AccessID] => f4f545a613b7490d802b58c783425d74
    [AccessPass] => 86c649a417b3ebdcde392ea04e211733
    [JobCd] => SALES
    [Amount] => 6512
)
 from 61.124.245.8
2020/10/01 15:33:30 [/shop/kanri/order/index.php] AccessID=f4f545a613b7490d802b58c783425d74&AccessPass=86c649a417b3ebdcde392ea04e211733&Forward=2S49631&Approve=0050719&TranID=2009231116602257217875120412&TranDate=20201001153330 from 61.124.245.8
2020/10/01 15:33:30 [/shop/kanri/order/index.php] Array
(
    [0] => Array
        (
            [AccessID] => f4f545a613b7490d802b58c783425d74
            [AccessPass] => 86c649a417b3ebdcde392ea04e211733
            [Forward] => 2S49631
            [Approve] => 0050719
            [TranID] => 2009231116602257217875120412
            [TranDate] => 20201001153330
        )

)
 from 61.124.245.8
2020/10/01 15:33:30 [/shop/kanri/order/index.php] index.php set payment data:Array
(
    [AccessID] => f4f545a613b7490d802b58c783425d74
    [AccessPass] => 86c649a417b3ebdcde392ea04e211733
    [Forward] => 2S49631
    [Approve] => 0050719
    [TranID] => 2009231116602257217875120412
    [TranDate] => 20201001153330
    [action_status] => 6
    [pay_status] => 12
)
 from 61.124.245.8
2020/10/01 15:33:31 [/shop/user_data/pg_mulpay_recv.php] ******* receiveer data start ******* from 210.175.7.20
2020/10/01 15:33:31 [/shop/user_data/pg_mulpay_recv.php] Array
(
    [ShopID] => 9102288779655
    [ShopPass] => **********
    [AccessID] => f4f545a613b7490d802b58c783425d74
    [AccessPass] => ********************************
    [OrderID] => 2117-23111606
    [Status] => SALES
    [JobCd] => SALES
    [Amount] => 6512
    [Tax] => 0
    [Currency] => JPN
    [Forward] => 2S49631
    [Method] => 1
    [PayTimes] => 
    [TranID] => 2009231116602257217875120412
    [Approve] => 0050719
    [TranDate] => 20201001153330
    [ErrCode] => 
    [ErrInfo] => 
    [PayType] => 0
)
 from 210.175.7.20
2020/10/01 15:33:31 [/shop/user_data/pg_mulpay_recv.php] ******* receiveer data end ******* from 210.175.7.20
2020/10/01 15:33:31 [/shop/user_data/pg_mulpay_recv.php] pg_mulpay_recv.php set payment data:Array
(
    [ShopID] => 9102288779655
    [AccessID] => f4f545a613b7490d802b58c783425d74
    [OrderID] => 2117-23111606
    [Status] => SALES
    [JobCd] => SALES
    [Amount] => 6512
    [Tax] => 0
    [Currency] => JPN
    [Forward] => 2S49631
    [Method] => 1
    [PayTimes] => 
    [TranID] => 2009231116602257217875120412
    [Approve] => 0050719
    [TranDate] => 20201001153330
    [ErrCode] => 
    [ErrInfo] => 
    [PayType] => 0
    [CvsCode] => 
    [CvsConfNo] => 
    [CvsReceiptNo] => 
    [EdyReceiptNo] => 
    [EdyOrderNo] => 
    [SuicaReceiptNo] => 
    [SuicaOrderNo] => 
    [CustID] => 
    [BkCode] => 
    [ConfNo] => 
    [PaymentTerm] => 
    [EncryptReceiptNo] => 
    [FinishDate] => 
    [ReceiptDate] => 
    [WebMoneyManagementNo] => 
    [WebMoneySettleCode] => 
    [AuPayInfoNo] => 
    [AuPayMethod] => 
    [AuCancelAmount] => 
    [AuCancelTax] => 
    [DocomoSettlementCode] => 
    [DocomoCancelAmount] => 
    [DocomoCancelTax] => 
    [pay_status] => 12
)
 from 210.175.7.20
2020/10/01 15:33:31 [/shop/user_data/pg_mulpay_recv.php] response:true from 210.175.7.20
2020/10/01 15:33:32 [/shop/kanri/order/index.php] SendRequest:https://p01.mul-pay.jp/payment/AlterTran.idPass from 61.124.245.8
2020/10/01 15:33:32 [/shop/kanri/order/index.php] Array
(
    [ShopID] => 9102288779655
    [ShopPass] => ******
    [AccessID] => 173f89992958ce508339aca69fbc0fa9
    [AccessPass] => aabf0b5c2a60a74462a19b0b4a52d2a5
    [JobCd] => SALES
    [Amount] => 29040
)
 from 61.124.245.8
2020/10/01 15:33:33 [/shop/kanri/order/index.php] AccessID=173f89992958ce508339aca69fbc0fa9&AccessPass=aabf0b5c2a60a74462a19b0b4a52d2a5&Forward=2S49631&Approve=0003152&TranID=2009211527602257217875130374&TranDate=20201001153333 from 61.124.245.8
2020/10/01 15:33:33 [/shop/kanri/order/index.php] Array
(
    [0] => Array
        (
            [AccessID] => 173f89992958ce508339aca69fbc0fa9
            [AccessPass] => aabf0b5c2a60a74462a19b0b4a52d2a5
            [Forward] => 2S49631
            [Approve] => 0003152
            [TranID] => 2009211527602257217875130374
            [TranDate] => 20201001153333
        )

)
 from 61.124.245.8
2020/10/01 15:33:33 [/shop/kanri/order/index.php] index.php set payment data:Array
(
    [AccessID] => 173f89992958ce508339aca69fbc0fa9
    [AccessPass] => aabf0b5c2a60a74462a19b0b4a52d2a5
    [Forward] => 2S49631
    [Approve] => 0003152
    [TranID] => 2009211527602257217875130374
    [TranDate] => 20201001153333
    [action_status] => 6
    [pay_status] => 12
)
 from 61.124.245.8
2020/10/01 15:33:33 [/shop/user_data/pg_mulpay_recv.php] ******* receiveer data start ******* from 210.175.7.20
2020/10/01 15:33:33 [/shop/user_data/pg_mulpay_recv.php] Array
(
    [ShopID] => 9102288779655
    [ShopPass] => **********
    [AccessID] => 173f89992958ce508339aca69fbc0fa9
    [AccessPass] => ********************************
    [OrderID] => 2107-21152701
    [Status] => SALES
    [JobCd] => SALES
    [Amount] => 29040
    [Tax] => 0
    [Currency] => JPN
    [Forward] => 2S49631
    [Method] => 1
    [PayTimes] => 
    [TranID] => 2009211527602257217875130374
    [Approve] => 0003152
    [TranDate] => 20201001153333
    [ErrCode] => 
    [ErrInfo] => 
    [PayType] => 0
)
 from 210.175.7.20
2020/10/01 15:33:33 [/shop/user_data/pg_mulpay_recv.php] ******* receiveer data end ******* from 210.175.7.20
2020/10/01 15:33:33 [/shop/user_data/pg_mulpay_recv.php] pg_mulpay_recv.php set payment data:Array
(
    [ShopID] => 9102288779655
    [AccessID] => 173f89992958ce508339aca69fbc0fa9
    [OrderID] => 2107-21152701
    [Status] => SALES
    [JobCd] => SALES
    [Amount] => 29040
    [Tax] => 0
    [Currency] => JPN
    [Forward] => 2S49631
    [Method] => 1
    [PayTimes] => 
    [TranID] => 2009211527602257217875130374
    [Approve] => 0003152
    [TranDate] => 20201001153333
    [ErrCode] => 
    [ErrInfo] => 
    [PayType] => 0
    [CvsCode] => 
    [CvsConfNo] => 
    [CvsReceiptNo] => 
    [EdyReceiptNo] => 
    [EdyOrderNo] => 
    [SuicaReceiptNo] => 
    [SuicaOrderNo] => 
    [CustID] => 
    [BkCode] => 
    [ConfNo] => 
    [PaymentTerm] => 
    [EncryptReceiptNo] => 
    [FinishDate] => 
    [ReceiptDate] => 
    [WebMoneyManagementNo] => 
    [WebMoneySettleCode] => 
    [AuPayInfoNo] => 
    [AuPayMethod] => 
    [AuCancelAmount] => 
    [AuCancelTax] => 
    [DocomoSettlementCode] => 
    [DocomoCancelAmount] => 
    [DocomoCancelTax] => 
    [pay_status] => 12
)
 from 210.175.7.20
2020/10/01 15:33:33 [/shop/user_data/pg_mulpay_recv.php] response:true from 210.175.7.20
2020/10/01 15:34:19 [/shop/kanri/order/index.php] SendRequest:https://p01.mul-pay.jp/payment/SbSales.idPass from 61.124.245.8
2020/10/01 15:34:19 [/shop/kanri/order/index.php] Array
(
    [ShopID] => 9102288779655
    [ShopPass] => ******
    [AccessID] => c8a253712222c97b57b7cb4486edc7d9
    [AccessPass] => dcf91cce8945a2ea9fe8c89447f3ad44
    [OrderID] => 2109-21163538
    [Amount] => 10560
)
 from 61.124.245.8
2020/10/01 15:34:23 [/shop/kanri/order/index.php] OrderID=2109-21163538&Status=SALES&Amount=10560&Tax=0 from 61.124.245.8
2020/10/01 15:34:23 [/shop/kanri/order/index.php] Array
(
    [0] => Array
        (
            [OrderID] => 2109-21163538
            [Status] => SALES
            [Amount] => 10560
            [Tax] => 0
        )

)
 from 61.124.245.8
2020/10/01 15:34:23 [/shop/kanri/order/index.php] index.php set payment data:Array
(
    [OrderID] => 2109-21163538
    [Status] => SALES
    [Amount] => 10560
    [Tax] => 0
    [action_status] => 6
    [pay_status] => 12
)
 from 61.124.245.8
2020/10/01 15:34:23 [/shop/user_data/pg_mulpay_recv.php] ******* receiveer data start ******* from 210.175.7.20
2020/10/01 15:34:23 [/shop/user_data/pg_mulpay_recv.php] Array
(
    [ShopID] => 9102288779655
    [ShopPass] => **********
    [AccessID] => c8a253712222c97b57b7cb4486edc7d9
    [AccessPass] => ********************************
    [OrderID] => 2109-21163538
    [Status] => SALES
    [JobCd] => SALES
    [Amount] => 10560
    [Tax] => 0
    [Currency] => 
    [Forward] => 
    [Method] => 
    [PayTimes] => 
    [TranID] => 
    [Approve] => 
    [TranDate] => 20201001153422
    [ErrCode] => 
    [ErrInfo] => 
    [PayType] => 11
    [CvsCode] => 
    [CvsConfNo] => 
    [CvsReceiptNo] => 
    [EdyReceiptNo] => 
    [EdyOrderNo] => 
    [SuicaReceiptNo] => 
    [SuicaOrderNo] => 
    [CustID] => 
    [BkCode] => 
    [ConfNo] => 
    [PaymentTerm] => 
    [EncryptReceiptNo] => 
    [FinishDate] => 
    [ReceiptDate] => 
    [PayeasyPaymentURL] => 
    [WebMoneyManagementNo] => 
    [WebMoneySettleCode] => 
    [AuPayInfoNo] => 
    [AuPayMethod] => 
    [AuCancelAmount] => 
    [AuCancelTax] => 
    [DocomoSettlementCode] => 
    [DocomoCancelAmount] => 
    [DocomoCancelTax] => 
    [DocomoIncreaseAmount] => 
    [DocomoIncreaseTax] => 
    [SbTrackingId] => 51326609239250
    [SbCancelAmount] => 0
    [SbCancelTax] => 0
    [JibunReceiptNo] => 
    [AuFirstAmount] => 
    [AuFirstTax] => 
    [AuAccountMonth] => 
    [AuContinueAccountId] => 
    [JcbPrecaSalesCode] => 
    [RequestNo] => 
    [AccountNo] => 
    [CenterCode] => 
    [NetCashPayType] => 
    [OrderDate] => 
    [CompletionDate] => 
    [RakutenidCouponFee] => 
    [McpPayInDate] => 
    [McpPayInAmount] => 
    [McpPayOutDate] => 
    [McpPayOutAmount] => 
    [RED_REQ_ID] => 
    [RED_ORD_ID] => 
    [RED_STAT_CD] => 
    [RED_FRAUD_STAT_CD] => 
    [RED_FRAUD_RSP_CD] => 
    [RED_FRAUD_REC_ID] => 
    [ProductName] => 
    [CancelAmount] => 
    [CancelTax] => 
    [PayMethod] => 
    [VaRequestAmount] => 
    [VaExpireDate] => 
    [VaTradeReason] => 
    [VaTradeClientName] => 
    [VaTradeClientMailaddress] => 
    [VaBankCode] => 
    [VaBankName] => 
    [VaBranchCode] => 
    [VaBranchName] => 
    [VaAccountType] => 
    [VaAccountNumber] => 
    [VaInInquiryNumber] => 
    [VaInSettlementDate] => 
    [VaInAmount] => 
    [VaInClientCode] => 
    [VaInClientName] => 
    [VaInSummary] => 
    [VaReserveID] => 
    [VaTradeCode] => 
    [SbStartChargeMonth] => 
    [SbChargeDay] => 
    [RcCustomerId] => 
    [RcUsePoint] => 
    [RcOrderId] => 
    [RcUpdateAuthDay] => 
    [RcUseCoupon] => 
    [RcUseShopCoupon] => 
    [RcContractId] => 
    [RcStartChargeMonth] => 
    [RcChargeDay] => 
    [RecurringID] => 
    [RecurringMethod] => 
    [RecurringChargeStartDate] => 
    [RecurringChargeStopDate] => 
    [RecurringChargeMonth] => 
    [RecurringChargeDay] => 
    [RecurringNextChargeDate] => 
    [BaSiteId] => 
    [BaMemberId] => 
    [BaTargetDate] => 
    [BaRequestAcceptEndDate] => 
    [BaTransferReturnDate] => 
    [BaWithdrawalDate] => 
    [BaResultcode] => 
    [PaidCancelAmount] => 
    [PaidCancelTax] => 
    [PaidBuyerID] => 
    [PaidCode] => 
    [PrecaNo] => 
    [PrecaSeq] => 
    [PrecaExpireDate] => 
    [ChargeType] => 
    [QuickID] => 
    [CampaignUrl] => 
    [DocomoAcceptCode] => 
    [PvFrontBillKey] => 
    [PvResultCode] => 
    [PvReceiptDatetime] => 
    [PvReceiptAgencyCode] => 
    [PvBarcode] => 
    [PvCvsCode] => 
    [PvCvsBranchCode] => 
    [PvPaymentAmount] => 
    [RakutenidSubscriptionId] => 
    [RakutenidSettlementSubscriptionId] => 
    [AuAcceptCode] => 
    [SbAcceptCode] => 
    [PaysleResultCode] => 
    [BankCode] => 
    [BankTranDate] => 
    [GanbProcessType] => 
    [GanbRequestAmount] => 
    [GanbExpireDate] => 
    [GanbTradeReason] => 
    [GanbTradeClientName] => 
    [GanbTradeClientMailaddress] => 
    [GanbBankCode] => 
    [GanbBankName] => 
    [GanbBranchCode] => 
    [GanbBranchName] => 
    [GanbAccountType] => 
    [GanbAccountNumber] => 
    [GanbAccountHolderName] => 
    [GanbInSettlementDate] => 
    [GanbInAmount] => 
    [GanbInClientName] => 
    [GanbInRemittingBankName] => 
    [GanbInRemittingBranchName] => 
    [GanbTotalTransferAmount] => 
    [GanbTotalTransferCount] => 
)
 from 210.175.7.20
2020/10/01 15:34:23 [/shop/user_data/pg_mulpay_recv.php] ******* receiveer data end ******* from 210.175.7.20
2020/10/01 15:34:23 [/shop/user_data/pg_mulpay_recv.php] pg_mulpay_recv.php set payment data:Array
(
    [ShopID] => 9102288779655
    [AccessID] => c8a253712222c97b57b7cb4486edc7d9
    [OrderID] => 2109-21163538
    [Status] => SALES
    [JobCd] => SALES
    [Amount] => 10560
    [Tax] => 0
    [Currency] => 
    [Forward] => 
    [Method] => 
    [PayTimes] => 
    [TranID] => 
    [Approve] => 
    [TranDate] => 20201001153422
    [ErrCode] => 
    [ErrInfo] => 
    [PayType] => 11
    [CvsCode] => 
    [CvsConfNo] => 
    [CvsReceiptNo] => 
    [EdyReceiptNo] => 
    [EdyOrderNo] => 
    [SuicaReceiptNo] => 
    [SuicaOrderNo] => 
    [CustID] => 
    [BkCode] => 
    [ConfNo] => 
    [PaymentTerm] => 
    [EncryptReceiptNo] => 
    [FinishDate] => 
    [ReceiptDate] => 
    [WebMoneyManagementNo] => 
    [WebMoneySettleCode] => 
    [AuPayInfoNo] => 
    [AuPayMethod] => 
    [AuCancelAmount] => 
    [AuCancelTax] => 
    [DocomoSettlementCode] => 
    [DocomoCancelAmount] => 
    [DocomoCancelTax] => 
    [pay_status] => 12
)
 from 210.175.7.20
2020/10/01 15:34:23 [/shop/user_data/pg_mulpay_recv.php] response:true from 210.175.7.20
2020/10/01 21:09:16 [/shop/shopping/load_payment_module.php] SendRequest:https://p01.mul-pay.jp/payment/EntryTranCvs.idPass from 14.11.161.130
2020/10/01 21:09:16 [/shop/shopping/load_payment_module.php] Array
(
    [ShopID] => 9102288779655
    [ShopPass] => ******
    [OrderID] => 2148-01210916
    [Amount] => 25080
)
 from 14.11.161.130
2020/10/01 21:09:16 [/shop/shopping/load_payment_module.php] AccessID=6b28369804d29e1737eb71a1dafbb75a&AccessPass=afd64a19829fe42a3de34185e798e905 from 14.11.161.130
2020/10/01 21:09:16 [/shop/shopping/load_payment_module.php] Array
(
    [0] => Array
        (
            [AccessID] => 6b28369804d29e1737eb71a1dafbb75a
            [AccessPass] => afd64a19829fe42a3de34185e798e905
        )

)
 from 14.11.161.130
2020/10/01 21:09:16 [/shop/shopping/load_payment_module.php] load_payment_module.php set payment data:Array
(
    [AccessID] => 6b28369804d29e1737eb71a1dafbb75a
    [AccessPass] => afd64a19829fe42a3de34185e798e905
    [OrderID] => 2148-01210916
    [Amount] => 25080
    [action_status] => 1
    [pay_status] => 0
)
 from 14.11.161.130
2020/10/01 21:09:16 [/shop/shopping/load_payment_module.php] SendRequest:https://p01.mul-pay.jp/payment/ExecTranCvs.idPass from 14.11.161.130
2020/10/01 21:09:16 [/shop/shopping/load_payment_module.php] Array
(
    [AccessID] => 6b28369804d29e1737eb71a1dafbb75a
    [AccessPass] => afd64a19829fe42a3de34185e798e905
    [OrderID] => 2148-01210916
    [Convenience] => 10002
    [CustomerName] => ******
    [CustomerKana] => ******
    [TelNo] => 07010578530
    [PaymentTermDay] => 
    [MailAddress] => ******
    [ShopMailAddress] => oukoku-onlineshop@oukoku.biz
    [ReserveNo] => 2148
    [MemberNo] => 
    [RegisterDisp1] => 
    [RegisterDisp2] => 
    [RegisterDisp3] => 
    [RegisterDisp4] => 
    [RegisterDisp5] => 
    [RegisterDisp6] => 
    [RegisterDisp7] => 
    [RegisterDisp8] => 
    [ReceiptsDisp1] => 
    [ReceiptsDisp2] => 
    [ReceiptsDisp3] => 
    [ReceiptsDisp4] => 
    [ReceiptsDisp5] => 
    [ReceiptsDisp6] => 
    [ReceiptsDisp7] => 
    [ReceiptsDisp8] => 
    [ReceiptsDisp9] => 
    [ReceiptsDisp10] => 
    [ReceiptsDisp11] => 株式会社カーテン・じゅうたん王国
    [ReceiptsDisp12] => 0356493000
    [ReceiptsDisp13] => 09:30-18:30
    [ClientField1] => 
    [ClientField2] => 
    [ClientField3] => EC-CUBE4.3.24
    [ClientFieldFlag] => 1
)
 from 14.11.161.130
2020/10/01 21:09:17 [/shop/shopping/load_payment_module.php] OrderID=2148-01210916&Convenience=10002&ConfNo=20020&ReceiptNo=810069039725&PaymentTerm=20201005235959&TranDate=20201001210916&CheckString=67176b1cbcbf3fc9c3f988ab18ede7e3&ClientField1=&ClientField2=&ClientField3=EC-CUBE4.3.24 from 14.11.161.130
2020/10/01 21:09:17 [/shop/shopping/load_payment_module.php] Array
(
    [0] => Array
        (
            [OrderID] => 2148-01210916
            [Convenience] => 10002
            [ConfNo] => 20020
            [ReceiptNo] => 810069039725
            [PaymentTerm] => 20201005235959
            [TranDate] => 20201001210916
            [CheckString] => 67176b1cbcbf3fc9c3f988ab18ede7e3
            [ClientField1] => 
            [ClientField2] => 
            [ClientField3] => EC-CUBE4.3.24
        )

)
 from 14.11.161.130
2020/10/01 21:09:17 [/shop/shopping/load_payment_module.php] load_payment_module.php set payment data:Array
(
    [Convenience] => 00002
    [ConfNo] => 20020
    [ReceiptNo] => 810069039725
    [PaymentTerm] => 20201005235959
    [TranDate] => 20201001210916
    [CheckString] => 67176b1cbcbf3fc9c3f988ab18ede7e3
    [ClientField1] => 
    [ClientField2] => 
    [ClientField3] => EC-CUBE4.3.24
    [Amount] => 25080
    [action_status] => 3
    [pay_status] => 1
)
 from 14.11.161.130
2020/10/01 21:09:17 [/shop/user_data/pg_mulpay_recv.php] ******* receiveer data start ******* from 210.175.7.20
2020/10/01 21:09:17 [/shop/user_data/pg_mulpay_recv.php] Array
(
    [ShopID] => 9102288779655
    [ShopPass] => **********
    [AccessID] => 6b28369804d29e1737eb71a1dafbb75a
    [AccessPass] => ********************************
    [OrderID] => 2148-01210916
    [Status] => REQSUCCESS
    [Amount] => 25080
    [Tax] => 0
    [Currency] => JPN
    [TranID] => 20100100000248626663
    [TranDate] => 20201001210916
    [ErrCode] => 
    [ErrInfo] => 
    [PayType] => 3
    [CvsCode] => 10002
    [CvsConfNo] => 20020
    [CvsReceiptNo] => 810069039725
    [PaymentTerm] => 20201005235959
    [FinishDate] => 
    [ReceiptDate] => 20201001210916
)
 from 210.175.7.20
2020/10/01 21:09:17 [/shop/user_data/pg_mulpay_recv.php] ******* receiveer data end ******* from 210.175.7.20
2020/10/01 21:09:17 [/shop/user_data/pg_mulpay_recv.php] update order status:2 from 210.175.7.20
2020/10/01 21:09:17 [/shop/user_data/pg_mulpay_recv.php] pg_mulpay_recv.php set payment data:Array
(
    [ShopID] => 9102288779655
    [AccessID] => 6b28369804d29e1737eb71a1dafbb75a
    [OrderID] => 2148-01210916
    [Status] => REQSUCCESS
    [JobCd] => 
    [Amount] => 25080
    [Tax] => 0
    [Currency] => JPN
    [Forward] => 
    [Method] => 
    [PayTimes] => 
    [TranID] => 20100100000248626663
    [Approve] => 
    [TranDate] => 20201001210916
    [ErrCode] => 
    [ErrInfo] => 
    [PayType] => 3
    [CvsCode] => 10002
    [CvsConfNo] => 20020
    [CvsReceiptNo] => 810069039725
    [EdyReceiptNo] => 
    [EdyOrderNo] => 
    [SuicaReceiptNo] => 
    [SuicaOrderNo] => 
    [CustID] => 
    [BkCode] => 
    [PaymentTerm] => 20201005235959
    [EncryptReceiptNo] => 
    [FinishDate] => 
    [ReceiptDate] => 20201001210916
    [WebMoneyManagementNo] => 
    [WebMoneySettleCode] => 
    [AuPayInfoNo] => 
    [AuPayMethod] => 
    [AuCancelAmount] => 
    [AuCancelTax] => 
    [DocomoSettlementCode] => 
    [DocomoCancelAmount] => 
    [DocomoCancelTax] => 
    [pay_status] => 1
)
 from 210.175.7.20
2020/10/01 21:09:17 [/shop/user_data/pg_mulpay_recv.php] response:true from 210.175.7.20
