2020/04/03 13:15:04 [/shop/shopping/load_payment_module.php] SendRequest:https://p01.mul-pay.jp/payment/EntryTranCvs.idPass from 36.14.50.246
2020/04/03 13:15:04 [/shop/shopping/load_payment_module.php] Array
(
    [ShopID] => 9102288779655
    [ShopPass] => ******
    [OrderID] => 1215-03131504
    [Amount] => 6160
)
 from 36.14.50.246
2020/04/03 13:15:05 [/shop/shopping/load_payment_module.php] AccessID=d035045cafe6382dcb16f01fc43c9d16&AccessPass=ddda2830cc57cf5dfc448f9e2b5366d8 from 36.14.50.246
2020/04/03 13:15:05 [/shop/shopping/load_payment_module.php] Array
(
    [0] => Array
        (
            [AccessID] => d035045cafe6382dcb16f01fc43c9d16
            [AccessPass] => ddda2830cc57cf5dfc448f9e2b5366d8
        )

)
 from 36.14.50.246
2020/04/03 13:15:05 [/shop/shopping/load_payment_module.php] load_payment_module.php set payment data:Array
(
    [AccessID] => d035045cafe6382dcb16f01fc43c9d16
    [AccessPass] => ddda2830cc57cf5dfc448f9e2b5366d8
    [OrderID] => 1215-03131504
    [Amount] => 6160
    [action_status] => 1
    [pay_status] => 0
)
 from 36.14.50.246
2020/04/03 13:15:05 [/shop/shopping/load_payment_module.php] SendRequest:https://p01.mul-pay.jp/payment/ExecTranCvs.idPass from 36.14.50.246
2020/04/03 13:15:05 [/shop/shopping/load_payment_module.php] Array
(
    [AccessID] => d035045cafe6382dcb16f01fc43c9d16
    [AccessPass] => ddda2830cc57cf5dfc448f9e2b5366d8
    [OrderID] => 1215-03131504
    [Convenience] => 10001
    [CustomerName] => ******
    [CustomerKana] => ******
    [TelNo] => 0423625371
    [PaymentTermDay] => 
    [MailAddress] => ******
    [ShopMailAddress] => oukoku-onlineshop@oukoku.biz
    [ReserveNo] => 1215
    [MemberNo] => 
    [RegisterDisp1] => 
    [RegisterDisp2] => 
    [RegisterDisp3] => 
    [RegisterDisp4] => 
    [RegisterDisp5] => 
    [RegisterDisp6] => 
    [RegisterDisp7] => 
    [RegisterDisp8] => 
    [ReceiptsDisp1] => 
    [ReceiptsDisp2] => 
    [ReceiptsDisp3] => 
    [ReceiptsDisp4] => 
    [ReceiptsDisp5] => 
    [ReceiptsDisp6] => 
    [ReceiptsDisp7] => 
    [ReceiptsDisp8] => 
    [ReceiptsDisp9] => 
    [ReceiptsDisp10] => 
    [ReceiptsDisp11] => 株式会社カーテン・じゅうたん王国
    [ReceiptsDisp12] => 0356493000
    [ReceiptsDisp13] => 09:30-18:30
    [ClientField1] => 
    [ClientField2] => 
    [ClientField3] => EC-CUBE4.3.24
    [ClientFieldFlag] => 1
)
 from 36.14.50.246
2020/04/03 13:15:06 [/shop/shopping/load_payment_module.php] OrderID=1215-03131504&Convenience=10001&ConfNo=4814&ReceiptNo=92009456030379&PaymentTerm=20200407235959&TranDate=20200403131505&CheckString=b244d67e3f942c6336a1cfe4bd833d8b&ClientField1=&ClientField2=&ClientField3=EC-CUBE4.3.24 from 36.14.50.246
2020/04/03 13:15:06 [/shop/shopping/load_payment_module.php] Array
(
    [0] => Array
        (
            [OrderID] => 1215-03131504
            [Convenience] => 10001
            [ConfNo] => 4814
            [ReceiptNo] => 92009456030379
            [PaymentTerm] => 20200407235959
            [TranDate] => 20200403131505
            [CheckString] => b244d67e3f942c6336a1cfe4bd833d8b
            [ClientField1] => 
            [ClientField2] => 
            [ClientField3] => EC-CUBE4.3.24
        )

)
 from 36.14.50.246
2020/04/03 13:15:06 [/shop/shopping/load_payment_module.php] load_payment_module.php set payment data:Array
(
    [Convenience] => 00001
    [ConfNo] => 4814
    [ReceiptNo] => 92009456030379
    [PaymentTerm] => 20200407235959
    [TranDate] => 20200403131505
    [CheckString] => b244d67e3f942c6336a1cfe4bd833d8b
    [ClientField1] => 
    [ClientField2] => 
    [ClientField3] => EC-CUBE4.3.24
    [Amount] => 6160
    [action_status] => 3
    [pay_status] => 1
)
 from 36.14.50.246
2020/04/03 13:15:07 [/shop/user_data/pg_mulpay_recv.php] ******* receiveer data start ******* from 210.175.7.20
2020/04/03 13:15:07 [/shop/user_data/pg_mulpay_recv.php] Array
(
    [ShopID] => 9102288779655
    [ShopPass] => **********
    [AccessID] => d035045cafe6382dcb16f01fc43c9d16
    [AccessPass] => ********************************
    [OrderID] => 1215-03131504
    [Status] => REQSUCCESS
    [Amount] => 6160
    [Tax] => 0
    [Currency] => JPN
    [TranID] => 20040300000220791010
    [TranDate] => 20200403131505
    [ErrCode] => 
    [ErrInfo] => 
    [PayType] => 3
    [CvsCode] => 10001
    [CvsConfNo] => 4814
    [CvsReceiptNo] => 92009456030379
    [PaymentTerm] => 20200407235959
    [FinishDate] => 
    [ReceiptDate] => 20200403131505
)
 from 210.175.7.20
2020/04/03 13:15:07 [/shop/user_data/pg_mulpay_recv.php] ******* receiveer data end ******* from 210.175.7.20
2020/04/03 13:15:07 [/shop/user_data/pg_mulpay_recv.php] update order status:2 from 210.175.7.20
2020/04/03 13:15:07 [/shop/user_data/pg_mulpay_recv.php] pg_mulpay_recv.php set payment data:Array
(
    [ShopID] => 9102288779655
    [AccessID] => d035045cafe6382dcb16f01fc43c9d16
    [OrderID] => 1215-03131504
    [Status] => REQSUCCESS
    [JobCd] => 
    [Amount] => 6160
    [Tax] => 0
    [Currency] => JPN
    [Forward] => 
    [Method] => 
    [PayTimes] => 
    [TranID] => 20040300000220791010
    [Approve] => 
    [TranDate] => 20200403131505
    [ErrCode] => 
    [ErrInfo] => 
    [PayType] => 3
    [CvsCode] => 10001
    [CvsConfNo] => 4814
    [CvsReceiptNo] => 92009456030379
    [EdyReceiptNo] => 
    [EdyOrderNo] => 
    [SuicaReceiptNo] => 
    [SuicaOrderNo] => 
    [CustID] => 
    [BkCode] => 
    [PaymentTerm] => 20200407235959
    [EncryptReceiptNo] => 
    [FinishDate] => 
    [ReceiptDate] => 20200403131505
    [WebMoneyManagementNo] => 
    [WebMoneySettleCode] => 
    [AuPayInfoNo] => 
    [AuPayMethod] => 
    [AuCancelAmount] => 
    [AuCancelTax] => 
    [DocomoSettlementCode] => 
    [DocomoCancelAmount] => 
    [DocomoCancelTax] => 
    [pay_status] => 1
)
 from 210.175.7.20
2020/04/03 13:15:07 [/shop/user_data/pg_mulpay_recv.php] response:true from 210.175.7.20
2020/04/03 17:09:38 [/shop/kanri/order/index.php] SendRequest:https://p01.mul-pay.jp/payment/AlterTran.idPass from 220.145.239.170
2020/04/03 17:09:38 [/shop/kanri/order/index.php] Array
(
    [ShopID] => 9102288779655
    [ShopPass] => ******
    [AccessID] => b0e46b0546b1a77cd09ff04dc7aaa762
    [AccessPass] => 29f4f5d11b7392c3b187165c576260a1
    [JobCd] => SALES
    [Amount] => 221892
)
 from 220.145.239.170
2020/04/03 17:09:38 [/shop/kanri/order/index.php] AccessID=b0e46b0546b1a77cd09ff04dc7aaa762&AccessPass=29f4f5d11b7392c3b187165c576260a1&Forward=2S49631&Approve=0730203&TranID=2003260706602257217875130203&TranDate=20200403170938 from 220.145.239.170
2020/04/03 17:09:38 [/shop/kanri/order/index.php] Array
(
    [0] => Array
        (
            [AccessID] => b0e46b0546b1a77cd09ff04dc7aaa762
            [AccessPass] => 29f4f5d11b7392c3b187165c576260a1
            [Forward] => 2S49631
            [Approve] => 0730203
            [TranID] => 2003260706602257217875130203
            [TranDate] => 20200403170938
        )

)
 from 220.145.239.170
2020/04/03 17:09:38 [/shop/kanri/order/index.php] index.php set payment data:Array
(
    [AccessID] => b0e46b0546b1a77cd09ff04dc7aaa762
    [AccessPass] => 29f4f5d11b7392c3b187165c576260a1
    [Forward] => 2S49631
    [Approve] => 0730203
    [TranID] => 2003260706602257217875130203
    [TranDate] => 20200403170938
    [action_status] => 6
    [pay_status] => 12
)
 from 220.145.239.170
2020/04/03 17:09:39 [/shop/user_data/pg_mulpay_recv.php] ******* receiveer data start ******* from 210.175.7.20
2020/04/03 17:09:39 [/shop/user_data/pg_mulpay_recv.php] Array
(
    [ShopID] => 9102288779655
    [ShopPass] => **********
    [AccessID] => b0e46b0546b1a77cd09ff04dc7aaa762
    [AccessPass] => ********************************
    [OrderID] => 1185-26070354
    [Status] => SALES
    [JobCd] => SALES
    [Amount] => 221892
    [Tax] => 0
    [Currency] => JPN
    [Forward] => 2S49631
    [Method] => 1
    [PayTimes] => 
    [TranID] => 2003260706602257217875130203
    [Approve] => 0730203
    [TranDate] => 20200403170938
    [ErrCode] => 
    [ErrInfo] => 
    [PayType] => 0
)
 from 210.175.7.20
2020/04/03 17:09:39 [/shop/user_data/pg_mulpay_recv.php] ******* receiveer data end ******* from 210.175.7.20
2020/04/03 17:09:39 [/shop/user_data/pg_mulpay_recv.php] pg_mulpay_recv.php set payment data:Array
(
    [ShopID] => 9102288779655
    [AccessID] => b0e46b0546b1a77cd09ff04dc7aaa762
    [OrderID] => 1185-26070354
    [Status] => SALES
    [JobCd] => SALES
    [Amount] => 221892
    [Tax] => 0
    [Currency] => JPN
    [Forward] => 2S49631
    [Method] => 1
    [PayTimes] => 
    [TranID] => 2003260706602257217875130203
    [Approve] => 0730203
    [TranDate] => 20200403170938
    [PayType] => 0
    [CvsCode] => 
    [CvsConfNo] => 
    [CvsReceiptNo] => 
    [EdyReceiptNo] => 
    [EdyOrderNo] => 
    [SuicaReceiptNo] => 
    [SuicaOrderNo] => 
    [CustID] => 
    [BkCode] => 
    [ConfNo] => 
    [PaymentTerm] => 
    [EncryptReceiptNo] => 
    [FinishDate] => 
    [ReceiptDate] => 
    [WebMoneyManagementNo] => 
    [WebMoneySettleCode] => 
    [AuPayInfoNo] => 
    [AuPayMethod] => 
    [AuCancelAmount] => 
    [AuCancelTax] => 
    [DocomoSettlementCode] => 
    [DocomoCancelAmount] => 
    [DocomoCancelTax] => 
    [pay_status] => 12
)
 from 210.175.7.20
2020/04/03 17:09:39 [/shop/user_data/pg_mulpay_recv.php] response:true from 210.175.7.20
2020/04/03 18:38:52 [/shop/shopping/load_payment_module.php] SendRequest:https://p01.mul-pay.jp/payment/SearchMember.idPass from 43.233.197.117
2020/04/03 18:38:52 [/shop/shopping/load_payment_module.php] Array
(
    [SiteID] => mst2000016748
    [SitePass] => ******
    [MemberID] => 571
)
 from 43.233.197.117
2020/04/03 18:38:52 [/shop/shopping/load_payment_module.php] ErrCode=E01&ErrInfo=E01390002 from 43.233.197.117
2020/04/03 18:38:52 [/shop/shopping/load_payment_module.php] Array
(
    [0] => Array
        (
            [ErrCode] => E01
            [ErrInfo] => E01390002
        )

)
 from 43.233.197.117
2020/04/03 18:38:52 [/shop/shopping/load_payment_module.php] SendRequest:https://p01.mul-pay.jp/payment/SearchCard.idPass from 43.233.197.117
2020/04/03 18:38:52 [/shop/shopping/load_payment_module.php] Array
(
    [SiteID] => mst2000016748
    [SitePass] => ******
    [MemberID] => 571
)
 from 43.233.197.117
2020/04/03 18:38:53 [/shop/shopping/load_payment_module.php] ErrCode=E01|E01&ErrInfo=E01390002|E01240002 from 43.233.197.117
2020/04/03 18:38:53 [/shop/shopping/load_payment_module.php] Array
(
    [0] => Array
        (
            [ErrCode] => E01
            [ErrInfo] => E01390002
        )

    [1] => Array
        (
            [ErrCode] => E01
            [ErrInfo] => E01240002
        )

)
 from 43.233.197.117
2020/04/03 18:39:59 [/shop/shopping/load_payment_module.php] SendRequest:https://p01.mul-pay.jp/payment/SearchMember.idPass from 43.233.197.117
2020/04/03 18:39:59 [/shop/shopping/load_payment_module.php] Array
(
    [SiteID] => mst2000016748
    [SitePass] => ******
    [MemberID] => 571
)
 from 43.233.197.117
2020/04/03 18:39:59 [/shop/shopping/load_payment_module.php] ErrCode=E01&ErrInfo=E01390002 from 43.233.197.117
2020/04/03 18:39:59 [/shop/shopping/load_payment_module.php] Array
(
    [0] => Array
        (
            [ErrCode] => E01
            [ErrInfo] => E01390002
        )

)
 from 43.233.197.117
2020/04/03 18:39:59 [/shop/shopping/load_payment_module.php] SendRequest:https://p01.mul-pay.jp/payment/SearchCard.idPass from 43.233.197.117
2020/04/03 18:39:59 [/shop/shopping/load_payment_module.php] Array
(
    [SiteID] => mst2000016748
    [SitePass] => ******
    [MemberID] => 571
)
 from 43.233.197.117
2020/04/03 18:39:59 [/shop/shopping/load_payment_module.php] ErrCode=E01|E01&ErrInfo=E01390002|E01240002 from 43.233.197.117
2020/04/03 18:39:59 [/shop/shopping/load_payment_module.php] Array
(
    [0] => Array
        (
            [ErrCode] => E01
            [ErrInfo] => E01390002
        )

    [1] => Array
        (
            [ErrCode] => E01
            [ErrInfo] => E01240002
        )

)
 from 43.233.197.117
2020/04/03 18:39:59 [/shop/shopping/load_payment_module.php] SendRequest:https://p01.mul-pay.jp/payment/EntryTran.idPass from 43.233.197.117
2020/04/03 18:39:59 [/shop/shopping/load_payment_module.php] Array
(
    [ShopID] => 9102288779655
    [ShopPass] => ******
    [OrderID] => 1216-03183959
    [JobCd] => AUTH
    [Amount] => 9460
    [TdFlag] => 0
    [TdTenantName] => 
)
 from 43.233.197.117
2020/04/03 18:40:00 [/shop/shopping/load_payment_module.php] AccessID=20ac2389f2a58a990e0a13f4de5a241f&AccessPass=25426b404becbb1e69ba0f1e583e8880 from 43.233.197.117
2020/04/03 18:40:00 [/shop/shopping/load_payment_module.php] Array
(
    [0] => Array
        (
            [AccessID] => 20ac2389f2a58a990e0a13f4de5a241f
            [AccessPass] => 25426b404becbb1e69ba0f1e583e8880
        )

)
 from 43.233.197.117
2020/04/03 18:40:00 [/shop/shopping/load_payment_module.php] load_payment_module.php set payment data:Array
(
    [AccessID] => 20ac2389f2a58a990e0a13f4de5a241f
    [AccessPass] => 25426b404becbb1e69ba0f1e583e8880
    [OrderID] => 1216-03183959
    [Amount] => 9460
    [JobCd] => AUTH
    [action_status] => 1
    [pay_status] => 0
)
 from 43.233.197.117
2020/04/03 18:40:00 [/shop/shopping/load_payment_module.php] SendRequest:https://p01.mul-pay.jp/payment/ExecTran.idPass from 43.233.197.117
2020/04/03 18:40:00 [/shop/shopping/load_payment_module.php] Array
(
    [AccessID] => 20ac2389f2a58a990e0a13f4de5a241f
    [AccessPass] => 25426b404becbb1e69ba0f1e583e8880
    [OrderID] => 1216-03183959
    [Method] => 1
    [Token] => fc48f760bc9ba00537143a2a4dc46dfc5d0972b6f3aa6eefa2a47e487caf4b01
    [ClientField1] => 
    [ClientField2] => 
    [ClientField3] => EC-CUBE4.3.24
)
 from 43.233.197.117
2020/04/03 18:40:02 [/shop/shopping/load_payment_module.php] ACS=0&OrderID=1216-03183959&Forward=2S49631&Method=1&PayTimes=&Approve=0001598&TranID=2004031840602257217875110223&TranDate=20200403184002&CheckString=d34240bbf3524259c7f4cada09d75d20 from 43.233.197.117
2020/04/03 18:40:02 [/shop/shopping/load_payment_module.php] Array
(
    [0] => Array
        (
            [ACS] => 0
            [OrderID] => 1216-03183959
            [Forward] => 2S49631
            [Method] => 1
            [PayTimes] => 
            [Approve] => 0001598
            [TranID] => 2004031840602257217875110223
            [TranDate] => 20200403184002
            [CheckString] => d34240bbf3524259c7f4cada09d75d20
        )

)
 from 43.233.197.117
2020/04/03 18:40:02 [/shop/shopping/load_payment_module.php] load_payment_module.php set payment data:Array
(
    [ACS] => 0
    [Forward] => 2S49631
    [Method] => 1
    [PayTimes] => 
    [Approve] => 0001598
    [TranID] => 2004031840602257217875110223
    [TranDate] => 20200403184002
    [CheckString] => d34240bbf3524259c7f4cada09d75d20
    [Amount] => 9460
    [JobCd] => AUTH
    [action_status] => 3
    [pay_status] => 11
)
 from 43.233.197.117
2020/04/03 18:40:02 [/shop/shopping/load_payment_module.php] load_payment_module.php set payment data:Array
(
    [register_card] => 1
    [HolderName] => TATSUYA SHIMADA
)
 from 43.233.197.117
2020/04/03 18:40:02 [/shop/user_data/pg_mulpay_recv.php] ******* receiveer data start ******* from 210.175.7.20
2020/04/03 18:40:02 [/shop/user_data/pg_mulpay_recv.php] Array
(
    [ShopID] => 9102288779655
    [ShopPass] => **********
    [AccessID] => 20ac2389f2a58a990e0a13f4de5a241f
    [AccessPass] => ********************************
    [OrderID] => 1216-03183959
    [Status] => AUTH
    [JobCd] => AUTH
    [Amount] => 9460
    [Tax] => 0
    [Currency] => JPN
    [Forward] => 2S49631
    [Method] => 1
    [PayTimes] => 
    [TranID] => 2004031840602257217875110223
    [Approve] => 0001598
    [TranDate] => 20200403184002
    [ErrCode] => 
    [ErrInfo] => 
    [PayType] => 0
)
 from 210.175.7.20
2020/04/03 18:40:02 [/shop/user_data/pg_mulpay_recv.php] ******* receiveer data end ******* from 210.175.7.20
2020/04/03 18:40:03 [/shop/shopping/load_payment_module.php] SendRequest:https://p01.mul-pay.jp/payment/SearchMember.idPass from 43.233.197.117
2020/04/03 18:40:03 [/shop/shopping/load_payment_module.php] Array
(
    [SiteID] => mst2000016748
    [SitePass] => ******
    [MemberID] => 571
)
 from 43.233.197.117
2020/04/03 18:40:03 [/shop/shopping/load_payment_module.php] ErrCode=E01&ErrInfo=E01390002 from 43.233.197.117
2020/04/03 18:40:03 [/shop/shopping/load_payment_module.php] Array
(
    [0] => Array
        (
            [ErrCode] => E01
            [ErrInfo] => E01390002
        )

)
 from 43.233.197.117
2020/04/03 18:40:03 [/shop/shopping/load_payment_module.php] SendRequest:https://p01.mul-pay.jp/payment/SaveMember.idPass from 43.233.197.117
2020/04/03 18:40:03 [/shop/shopping/load_payment_module.php] Array
(
    [SiteID] => mst2000016748
    [SitePass] => ******
    [MemberID] => 571
    [MemberName] => ******
)
 from 43.233.197.117
2020/04/03 18:40:04 [/shop/shopping/load_payment_module.php] MemberID=571 from 43.233.197.117
2020/04/03 18:40:04 [/shop/shopping/load_payment_module.php] Array
(
    [0] => Array
        (
            [MemberID] => 571
        )

)
 from 43.233.197.117
2020/04/03 18:40:04 [/shop/shopping/load_payment_module.php] SendRequest:https://p01.mul-pay.jp/payment/TradedCard.idPass from 43.233.197.117
2020/04/03 18:40:04 [/shop/shopping/load_payment_module.php] Array
(
    [ShopID] => 9102288779655
    [ShopPass] => ******
    [OrderID] => 1216-03183959
    [SiteID] => mst2000016748
    [SitePass] => ******
    [MemberID] => 571
    [DefaultFlag] => 1
    [HolderName] => TATSUYA SHIMADA
)
 from 43.233.197.117
2020/04/03 18:40:04 [/shop/shopping/load_payment_module.php] CardSeq=0&CardNo=************2429&Forward=2S49631 from 43.233.197.117
2020/04/03 18:40:04 [/shop/shopping/load_payment_module.php] Array
(
    [0] => Array
        (
            [CardSeq] => 0
            [CardNo] => ************2429
            [Forward] => 2S49631
        )

)
 from 43.233.197.117
2020/04/03 18:40:07 [/shop/user_data/pg_mulpay_recv.php] update order status:1 order_id=1216 from 210.175.7.20
2020/04/03 18:40:07 [/shop/user_data/pg_mulpay_recv.php] pg_mulpay_recv.php set payment data:Array
(
    [ShopID] => 9102288779655
    [AccessID] => 20ac2389f2a58a990e0a13f4de5a241f
    [OrderID] => 1216-03183959
    [Status] => AUTH
    [JobCd] => AUTH
    [Amount] => 9460
    [Tax] => 0
    [Currency] => JPN
    [Forward] => 2S49631
    [Method] => 1
    [PayTimes] => 
    [TranID] => 2004031840602257217875110223
    [Approve] => 0001598
    [TranDate] => 20200403184002
    [ErrCode] => 
    [ErrInfo] => 
    [PayType] => 0
    [CvsCode] => 
    [CvsConfNo] => 
    [CvsReceiptNo] => 
    [EdyReceiptNo] => 
    [EdyOrderNo] => 
    [SuicaReceiptNo] => 
    [SuicaOrderNo] => 
    [CustID] => 
    [BkCode] => 
    [ConfNo] => 
    [PaymentTerm] => 
    [EncryptReceiptNo] => 
    [FinishDate] => 
    [ReceiptDate] => 
    [WebMoneyManagementNo] => 
    [WebMoneySettleCode] => 
    [AuPayInfoNo] => 
    [AuPayMethod] => 
    [AuCancelAmount] => 
    [AuCancelTax] => 
    [DocomoSettlementCode] => 
    [DocomoCancelAmount] => 
    [DocomoCancelTax] => 
    [pay_status] => 11
)
 from 210.175.7.20
2020/04/03 18:40:07 [/shop/user_data/pg_mulpay_recv.php] response:true from 210.175.7.20
2020/04/03 18:41:03 [/shop/user_data/pg_mulpay_recv.php] ******* receiveer data start ******* from 210.175.7.20
2020/04/03 18:41:03 [/shop/user_data/pg_mulpay_recv.php] Array
(
    [ShopID] => 9102288779655
    [ShopPass] => **********
    [AccessID] => d035045cafe6382dcb16f01fc43c9d16
    [AccessPass] => ********************************
    [OrderID] => 1215-03131504
    [Status] => PAYSUCCESS
    [Amount] => 6160
    [Tax] => 0
    [Currency] => JPN
    [TranID] => 20040300000220791010
    [TranDate] => 20200403184102
    [ErrCode] => 
    [ErrInfo] => 
    [PayType] => 3
    [CvsCode] => 10001
    [CvsConfNo] => 4814
    [CvsReceiptNo] => 92009456030379
    [PaymentTerm] => 20200407235959
    [FinishDate] => 20200403184100
    [ReceiptDate] => 20200403131505
)
 from 210.175.7.20
2020/04/03 18:41:03 [/shop/user_data/pg_mulpay_recv.php] ******* receiveer data end ******* from 210.175.7.20
2020/04/03 18:41:03 [/shop/user_data/pg_mulpay_recv.php] update order status:6 from 210.175.7.20
2020/04/03 18:41:03 [/shop/user_data/pg_mulpay_recv.php] pg_mulpay_recv.php set payment data:Array
(
    [ShopID] => 9102288779655
    [AccessID] => d035045cafe6382dcb16f01fc43c9d16
    [OrderID] => 1215-03131504
    [Status] => PAYSUCCESS
    [JobCd] => 
    [Amount] => 6160
    [Tax] => 0
    [Currency] => JPN
    [Forward] => 
    [Method] => 
    [PayTimes] => 
    [TranID] => 20040300000220791010
    [Approve] => 
    [TranDate] => 20200403184102
    [ErrCode] => 
    [ErrInfo] => 
    [PayType] => 3
    [CvsCode] => 10001
    [CvsConfNo] => 4814
    [CvsReceiptNo] => 92009456030379
    [EdyReceiptNo] => 
    [EdyOrderNo] => 
    [SuicaReceiptNo] => 
    [SuicaOrderNo] => 
    [CustID] => 
    [BkCode] => 
    [PaymentTerm] => 20200407235959
    [EncryptReceiptNo] => 
    [FinishDate] => 20200403184100
    [ReceiptDate] => 20200403131505
    [WebMoneyManagementNo] => 
    [WebMoneySettleCode] => 
    [AuPayInfoNo] => 
    [AuPayMethod] => 
    [AuCancelAmount] => 
    [AuCancelTax] => 
    [DocomoSettlementCode] => 
    [DocomoCancelAmount] => 
    [DocomoCancelTax] => 
    [pay_status] => 2
)
 from 210.175.7.20
2020/04/03 18:41:03 [/shop/user_data/pg_mulpay_recv.php] response:true from 210.175.7.20
2020/04/03 18:41:03 [/shop/user_data/pg_mulpay_recv.php] ******* receiveer data start ******* from 210.175.7.20
2020/04/03 18:41:03 [/shop/user_data/pg_mulpay_recv.php] Array
(
    [ShopID] => 9102288779655
    [ShopPass] => **********
    [AccessID] => 7dd44fe340a380f1df775404122ecf0b
    [AccessPass] => ********************************
    [OrderID] => 1210-02010517
    [Status] => PAYSUCCESS
    [Amount] => 13530
    [Tax] => 0
    [Currency] => JPN
    [TranID] => 20040200000220584323
    [TranDate] => 20200403184102
    [ErrCode] => 
    [ErrInfo] => 
    [PayType] => 3
    [CvsCode] => 10001
    [CvsConfNo] => 4231
    [CvsReceiptNo] => 92009355433783
    [PaymentTerm] => 20200406235959
    [FinishDate] => 20200403184100
    [ReceiptDate] => 20200402010517
)
 from 210.175.7.20
2020/04/03 18:41:03 [/shop/user_data/pg_mulpay_recv.php] ******* receiveer data end ******* from 210.175.7.20
2020/04/03 18:41:03 [/shop/user_data/pg_mulpay_recv.php] update order status:6 from 210.175.7.20
2020/04/03 18:41:03 [/shop/user_data/pg_mulpay_recv.php] pg_mulpay_recv.php set payment data:Array
(
    [ShopID] => 9102288779655
    [AccessID] => 7dd44fe340a380f1df775404122ecf0b
    [OrderID] => 1210-02010517
    [Status] => PAYSUCCESS
    [JobCd] => 
    [Amount] => 13530
    [Tax] => 0
    [Currency] => JPN
    [Forward] => 
    [Method] => 
    [PayTimes] => 
    [TranID] => 20040200000220584323
    [Approve] => 
    [TranDate] => 20200403184102
    [ErrCode] => 
    [ErrInfo] => 
    [PayType] => 3
    [CvsCode] => 10001
    [CvsConfNo] => 4231
    [CvsReceiptNo] => 92009355433783
    [EdyReceiptNo] => 
    [EdyOrderNo] => 
    [SuicaReceiptNo] => 
    [SuicaOrderNo] => 
    [CustID] => 
    [BkCode] => 
    [PaymentTerm] => 20200406235959
    [EncryptReceiptNo] => 
    [FinishDate] => 20200403184100
    [ReceiptDate] => 20200402010517
    [WebMoneyManagementNo] => 
    [WebMoneySettleCode] => 
    [AuPayInfoNo] => 
    [AuPayMethod] => 
    [AuCancelAmount] => 
    [AuCancelTax] => 
    [DocomoSettlementCode] => 
    [DocomoCancelAmount] => 
    [DocomoCancelTax] => 
    [pay_status] => 2
)
 from 210.175.7.20
2020/04/03 18:41:03 [/shop/user_data/pg_mulpay_recv.php] response:true from 210.175.7.20
2020/04/03 19:19:13 [/shop/shopping/load_payment_module.php] SendRequest:https://p01.mul-pay.jp/payment/EntryTran.idPass from 106.168.42.67
2020/04/03 19:19:13 [/shop/shopping/load_payment_module.php] Array
(
    [ShopID] => 9102288779655
    [ShopPass] => ******
    [OrderID] => 1217-03191913
    [JobCd] => AUTH
    [Amount] => 5830
    [TdFlag] => 0
    [TdTenantName] => 
)
 from 106.168.42.67
2020/04/03 19:19:13 [/shop/shopping/load_payment_module.php] AccessID=7ca734f787207f34fac03c4af11824fe&AccessPass=7dcd0099a424bf0f21fff623456c5f49 from 106.168.42.67
2020/04/03 19:19:13 [/shop/shopping/load_payment_module.php] Array
(
    [0] => Array
        (
            [AccessID] => 7ca734f787207f34fac03c4af11824fe
            [AccessPass] => 7dcd0099a424bf0f21fff623456c5f49
        )

)
 from 106.168.42.67
2020/04/03 19:19:13 [/shop/shopping/load_payment_module.php] load_payment_module.php set payment data:Array
(
    [AccessID] => 7ca734f787207f34fac03c4af11824fe
    [AccessPass] => 7dcd0099a424bf0f21fff623456c5f49
    [OrderID] => 1217-03191913
    [Amount] => 5830
    [JobCd] => AUTH
    [action_status] => 1
    [pay_status] => 0
)
 from 106.168.42.67
2020/04/03 19:19:13 [/shop/shopping/load_payment_module.php] SendRequest:https://p01.mul-pay.jp/payment/ExecTran.idPass from 106.168.42.67
2020/04/03 19:19:13 [/shop/shopping/load_payment_module.php] Array
(
    [AccessID] => 7ca734f787207f34fac03c4af11824fe
    [AccessPass] => 7dcd0099a424bf0f21fff623456c5f49
    [OrderID] => 1217-03191913
    [Method] => 1
    [Token] => d6fa1c03debc2ec02d1ef814a5b914ad0e88bcadc14d27d2e005d1a7e90f4c80
    [ClientField1] => 
    [ClientField2] => 
    [ClientField3] => EC-CUBE4.3.24
)
 from 106.168.42.67
2020/04/03 19:19:14 [/shop/shopping/load_payment_module.php] ACS=0&OrderID=1217-03191913&Forward=2a99661&Method=1&PayTimes=&Approve=0000286&TranID=2004031919602257217875110224&TranDate=20200403191913&CheckString=245d834b60fc17196b6b69666e533063 from 106.168.42.67
2020/04/03 19:19:14 [/shop/shopping/load_payment_module.php] Array
(
    [0] => Array
        (
            [ACS] => 0
            [OrderID] => 1217-03191913
            [Forward] => 2a99661
            [Method] => 1
            [PayTimes] => 
            [Approve] => 0000286
            [TranID] => 2004031919602257217875110224
            [TranDate] => 20200403191913
            [CheckString] => 245d834b60fc17196b6b69666e533063
        )

)
 from 106.168.42.67
2020/04/03 19:19:14 [/shop/shopping/load_payment_module.php] load_payment_module.php set payment data:Array
(
    [ACS] => 0
    [Forward] => 2a99661
    [Method] => 1
    [PayTimes] => 
    [Approve] => 0000286
    [TranID] => 2004031919602257217875110224
    [TranDate] => 20200403191913
    [CheckString] => 245d834b60fc17196b6b69666e533063
    [Amount] => 5830
    [JobCd] => AUTH
    [action_status] => 3
    [pay_status] => 11
)
 from 106.168.42.67
2020/04/03 19:19:14 [/shop/user_data/pg_mulpay_recv.php] ******* receiveer data start ******* from 210.175.7.20
2020/04/03 19:19:14 [/shop/user_data/pg_mulpay_recv.php] Array
(
    [ShopID] => 9102288779655
    [ShopPass] => **********
    [AccessID] => 7ca734f787207f34fac03c4af11824fe
    [AccessPass] => ********************************
    [OrderID] => 1217-03191913
    [Status] => AUTH
    [JobCd] => AUTH
    [Amount] => 5830
    [Tax] => 0
    [Currency] => JPN
    [Forward] => 2a99661
    [Method] => 1
    [PayTimes] => 
    [TranID] => 2004031919602257217875110224
    [Approve] => 0000286
    [TranDate] => 20200403191913
    [ErrCode] => 
    [ErrInfo] => 
    [PayType] => 0
)
 from 210.175.7.20
2020/04/03 19:19:14 [/shop/user_data/pg_mulpay_recv.php] ******* receiveer data end ******* from 210.175.7.20
2020/04/03 19:19:19 [/shop/user_data/pg_mulpay_recv.php] update order status:1 order_id=1217 from 210.175.7.20
2020/04/03 19:19:19 [/shop/user_data/pg_mulpay_recv.php] pg_mulpay_recv.php set payment data:Array
(
    [ShopID] => 9102288779655
    [AccessID] => 7ca734f787207f34fac03c4af11824fe
    [OrderID] => 1217-03191913
    [Status] => AUTH
    [JobCd] => AUTH
    [Amount] => 5830
    [Tax] => 0
    [Currency] => JPN
    [Forward] => 2a99661
    [Method] => 1
    [PayTimes] => 
    [TranID] => 2004031919602257217875110224
    [Approve] => 0000286
    [TranDate] => 20200403191913
    [ErrCode] => 
    [ErrInfo] => 
    [PayType] => 0
    [CvsCode] => 
    [CvsConfNo] => 
    [CvsReceiptNo] => 
    [EdyReceiptNo] => 
    [EdyOrderNo] => 
    [SuicaReceiptNo] => 
    [SuicaOrderNo] => 
    [CustID] => 
    [BkCode] => 
    [ConfNo] => 
    [PaymentTerm] => 
    [EncryptReceiptNo] => 
    [FinishDate] => 
    [ReceiptDate] => 
    [WebMoneyManagementNo] => 
    [WebMoneySettleCode] => 
    [AuPayInfoNo] => 
    [AuPayMethod] => 
    [AuCancelAmount] => 
    [AuCancelTax] => 
    [DocomoSettlementCode] => 
    [DocomoCancelAmount] => 
    [DocomoCancelTax] => 
    [pay_status] => 11
)
 from 210.175.7.20
2020/04/03 19:19:19 [/shop/user_data/pg_mulpay_recv.php] response:true from 210.175.7.20
2020/04/03 22:49:25 [/shop/shopping/load_payment_module.php] SendRequest:https://p01.mul-pay.jp/payment/EntryTranSb.idPass from 126.200.124.2
2020/04/03 22:49:25 [/shop/shopping/load_payment_module.php] Array
(
    [ShopID] => 9102288779655
    [ShopPass] => ******
    [OrderID] => 1218-03224925
    [JobCd] => AUTH
    [Amount] => 15840
)
 from 126.200.124.2
2020/04/03 22:49:25 [/shop/shopping/load_payment_module.php] AccessID=a5983f3bd295396449bd9ec558882330&AccessPass=e56eab86173d68137cfd21213d38c37c from 126.200.124.2
2020/04/03 22:49:25 [/shop/shopping/load_payment_module.php] Array
(
    [0] => Array
        (
            [AccessID] => a5983f3bd295396449bd9ec558882330
            [AccessPass] => e56eab86173d68137cfd21213d38c37c
        )

)
 from 126.200.124.2
2020/04/03 22:49:25 [/shop/shopping/load_payment_module.php] load_payment_module.php set payment data:Array
(
    [AccessID] => a5983f3bd295396449bd9ec558882330
    [AccessPass] => e56eab86173d68137cfd21213d38c37c
    [OrderID] => 1218-03224925
    [Amount] => 15840
    [JobCd] => AUTH
    [action_status] => 1
    [pay_status] => 0
)
 from 126.200.124.2
2020/04/03 22:49:25 [/shop/shopping/load_payment_module.php] SendRequest:https://p01.mul-pay.jp/payment/ExecTranSb.idPass from 126.200.124.2
2020/04/03 22:49:25 [/shop/shopping/load_payment_module.php] Array
(
    [ShopID] => 9102288779655
    [ShopPass] => ******
    [AccessID] => a5983f3bd295396449bd9ec558882330
    [AccessPass] => e56eab86173d68137cfd21213d38c37c
    [OrderID] => 1218-03224925
    [ClientField1] => 
    [ClientField2] => 
    [ClientField3] => EC-CUBE4.3.24
    [RetURL] => https://www.oukoku.co.jp/shop/shopping/load_payment_module.php?mode=pgreturn&order_id=1218&transactionid=f2d03dc58171bb4704bb0f83680a8d8edec18dff
    [PaymentTermSec] => 
)
 from 126.200.124.2
2020/04/03 22:49:25 [/shop/shopping/load_payment_module.php] AccessID=a5983f3bd295396449bd9ec558882330&Token=QQA1BnQ/x40STkPhalyt55ZH+cFvgm/BAPtxeyogrsKwBS7yYvxSiC0zeMVH+O4F&StartURL=https://p01.mul-pay.jp/payment/SbStart.idPass&StartLimitDate=20200403225125 from 126.200.124.2
2020/04/03 22:49:25 [/shop/shopping/load_payment_module.php] Array
(
    [0] => Array
        (
            [AccessID] => a5983f3bd295396449bd9ec558882330
            [Token] => QQA1BnQ/x40STkPhalyt55ZH+cFvgm/BAPtxeyogrsKwBS7yYvxSiC0zeMVH+O4F
            [StartURL] => https://p01.mul-pay.jp/payment/SbStart.idPass
            [StartLimitDate] => 20200403225125
        )

)
 from 126.200.124.2
2020/04/03 22:49:25 [/shop/shopping/load_payment_module.php] load_payment_module.php set payment data:Array
(
    [AccessID] => a5983f3bd295396449bd9ec558882330
    [Token] => QQA1BnQ/x40STkPhalyt55ZH+cFvgm/BAPtxeyogrsKwBS7yYvxSiC0zeMVH+O4F
    [StartURL] => https://p01.mul-pay.jp/payment/SbStart.idPass
    [StartLimitDate] => 20200403225125
    [Amount] => 15840
    [JobCd] => AUTH
    [action_status] => 3
)
 from 126.200.124.2
2020/04/03 22:49:25 [/shop/user_data/pg_mulpay_recv.php] ******* receiveer data start ******* from 210.175.7.20
2020/04/03 22:49:25 [/shop/user_data/pg_mulpay_recv.php] Array
(
    [ShopID] => 9102288779655
    [ShopPass] => **********
    [AccessID] => a5983f3bd295396449bd9ec558882330
    [AccessPass] => ********************************
    [OrderID] => 1218-03224925
    [Status] => REQSUCCESS
    [JobCd] => AUTH
    [Amount] => 15840
    [Tax] => 0
    [Currency] => 
    [Forward] => 
    [Method] => 
    [PayTimes] => 
    [TranID] => 
    [Approve] => 
    [TranDate] => 20200403224925
    [ErrCode] => 
    [ErrInfo] => 
    [PayType] => 11
    [CvsCode] => 
    [CvsConfNo] => 
    [CvsReceiptNo] => 
    [EdyReceiptNo] => 
    [EdyOrderNo] => 
    [SuicaReceiptNo] => 
    [SuicaOrderNo] => 
    [CustID] => 
    [BkCode] => 
    [ConfNo] => 
    [PaymentTerm] => 
    [EncryptReceiptNo] => 
    [FinishDate] => 
    [ReceiptDate] => 
    [PayeasyPaymentURL] => 
    [WebMoneyManagementNo] => 
    [WebMoneySettleCode] => 
    [AuPayInfoNo] => 
    [AuPayMethod] => 
    [AuCancelAmount] => 
    [AuCancelTax] => 
    [DocomoSettlementCode] => 
    [DocomoCancelAmount] => 
    [DocomoCancelTax] => 
    [DocomoIncreaseAmount] => 
    [DocomoIncreaseTax] => 
    [SbTrackingId] => 
    [SbCancelAmount] => 0
    [SbCancelTax] => 0
    [JibunReceiptNo] => 
    [AuFirstAmount] => 
    [AuFirstTax] => 
    [AuAccountMonth] => 
    [AuContinueAccountId] => 
    [JcbPrecaSalesCode] => 
    [RequestNo] => 
    [AccountNo] => 
    [CenterCode] => 
    [NetCashPayType] => 
    [OrderDate] => 
    [CompletionDate] => 
    [RakutenidCouponFee] => 
    [McpPayInDate] => 
    [McpPayInAmount] => 
    [McpPayOutDate] => 
    [McpPayOutAmount] => 
    [RED_REQ_ID] => 
    [RED_ORD_ID] => 
    [RED_STAT_CD] => 
    [RED_FRAUD_STAT_CD] => 
    [RED_FRAUD_RSP_CD] => 
    [RED_FRAUD_REC_ID] => 
    [ProductName] => 
    [CancelAmount] => 
    [CancelTax] => 
    [PayMethod] => 
    [VaRequestAmount] => 
    [VaExpireDate] => 
    [VaTradeReason] => 
    [VaTradeClientName] => 
    [VaTradeClientMailaddress] => 
    [VaBankCode] => 
    [VaBankName] => 
    [VaBranchCode] => 
    [VaBranchName] => 
    [VaAccountType] => 
    [VaAccountNumber] => 
    [VaInInquiryNumber] => 
    [VaInSettlementDate] => 
    [VaInAmount] => 
    [VaInClientCode] => 
    [VaInClientName] => 
    [VaInSummary] => 
    [VaReserveID] => 
    [VaTradeCode] => 
    [SbStartChargeMonth] => 
    [SbChargeDay] => 
    [RcCustomerId] => 
    [RcUsePoint] => 
    [RcOrderId] => 
    [RcUpdateAuthDay] => 
    [RcUseCoupon] => 
    [RcUseShopCoupon] => 
    [RcContractId] => 
    [RcStartChargeMonth] => 
    [RcChargeDay] => 
    [RecurringID] => 
    [RecurringMethod] => 
    [RecurringChargeStartDate] => 
    [RecurringChargeStopDate] => 
    [RecurringChargeMonth] => 
    [RecurringChargeDay] => 
    [RecurringNextChargeDate] => 
    [BaSiteId] => 
    [BaMemberId] => 
    [BaTargetDate] => 
    [BaRequestAcceptEndDate] => 
    [BaTransferReturnDate] => 
    [BaWithdrawalDate] => 
    [BaResultcode] => 
    [PaidCancelAmount] => 
    [PaidCancelTax] => 
    [PaidBuyerID] => 
    [PaidCode] => 
    [PrecaNo] => 
    [PrecaSeq] => 
    [PrecaExpireDate] => 
    [ChargeType] => 
    [QuickID] => 
    [CampaignUrl] => 
    [DocomoAcceptCode] => 
    [PvFrontBillKey] => 
    [PvResultCode] => 
    [PvReceiptDatetime] => 
    [PvReceiptAgencyCode] => 
    [PvBarcode] => 
    [PvCvsCode] => 
    [PvCvsBranchCode] => 
    [PvPaymentAmount] => 
    [RakutenidSubscriptionId] => 
    [RakutenidSettlementSubscriptionId] => 
    [AuAcceptCode] => 
    [SbAcceptCode] => 
    [PaysleResultCode] => 
    [BankCode] => 
    [BankTranDate] => 
    [GanbProcessType] => 
    [GanbRequestAmount] => 
    [GanbExpireDate] => 
    [GanbTradeReason] => 
    [GanbTradeClientName] => 
    [GanbTradeClientMailaddress] => 
    [GanbBankCode] => 
    [GanbBankName] => 
    [GanbBranchCode] => 
    [GanbBranchName] => 
    [GanbAccountType] => 
    [GanbAccountNumber] => 
    [GanbAccountHolderName] => 
    [GanbInSettlementDate] => 
    [GanbInAmount] => 
    [GanbInClientName] => 
    [GanbInRemittingBankName] => 
    [GanbInRemittingBranchName] => 
    [GanbTotalTransferAmount] => 
    [GanbTotalTransferCount] => 
)
 from 210.175.7.20
2020/04/03 22:49:25 [/shop/user_data/pg_mulpay_recv.php] ******* receiveer data end ******* from 210.175.7.20
2020/04/03 22:49:25 [/shop/user_data/pg_mulpay_recv.php] update order status:7 from 210.175.7.20
2020/04/03 22:49:25 [/shop/user_data/pg_mulpay_recv.php] pg_mulpay_recv.php set payment data:Array
(
    [ShopID] => 9102288779655
    [AccessID] => a5983f3bd295396449bd9ec558882330
    [OrderID] => 1218-03224925
    [Status] => REQSUCCESS
    [JobCd] => AUTH
    [Amount] => 15840
    [Tax] => 0
    [Currency] => 
    [Forward] => 
    [Method] => 
    [PayTimes] => 
    [TranID] => 
    [Approve] => 
    [TranDate] => 20200403224925
    [ErrCode] => 
    [ErrInfo] => 
    [PayType] => 11
    [CvsCode] => 
    [CvsConfNo] => 
    [CvsReceiptNo] => 
    [EdyReceiptNo] => 
    [EdyOrderNo] => 
    [SuicaReceiptNo] => 
    [SuicaOrderNo] => 
    [CustID] => 
    [BkCode] => 
    [ConfNo] => 
    [PaymentTerm] => 
    [EncryptReceiptNo] => 
    [FinishDate] => 
    [ReceiptDate] => 
    [WebMoneyManagementNo] => 
    [WebMoneySettleCode] => 
    [AuPayInfoNo] => 
    [AuPayMethod] => 
    [AuCancelAmount] => 
    [AuCancelTax] => 
    [DocomoSettlementCode] => 
    [DocomoCancelAmount] => 
    [DocomoCancelTax] => 
)
 from 210.175.7.20
2020/04/03 22:49:25 [/shop/user_data/pg_mulpay_recv.php] response:true from 210.175.7.20
2020/04/03 22:50:02 [/shop/user_data/pg_mulpay_recv.php] ******* receiveer data start ******* from 210.175.7.20
2020/04/03 22:50:02 [/shop/user_data/pg_mulpay_recv.php] Array
(
    [ShopID] => 9102288779655
    [ShopPass] => **********
    [AccessID] => a5983f3bd295396449bd9ec558882330
    [AccessPass] => ********************************
    [OrderID] => 1218-03224925
    [Status] => AUTH
    [JobCd] => AUTH
    [Amount] => 15840
    [Tax] => 0
    [Currency] => 
    [Forward] => 
    [Method] => 
    [PayTimes] => 
    [TranID] => 
    [Approve] => 
    [TranDate] => 20200403225001
    [ErrCode] => 
    [ErrInfo] => 
    [PayType] => 11
    [CvsCode] => 
    [CvsConfNo] => 
    [CvsReceiptNo] => 
    [EdyReceiptNo] => 
    [EdyOrderNo] => 
    [SuicaReceiptNo] => 
    [SuicaOrderNo] => 
    [CustID] => 
    [BkCode] => 
    [ConfNo] => 
    [PaymentTerm] => 
    [EncryptReceiptNo] => 
    [FinishDate] => 
    [ReceiptDate] => 
    [PayeasyPaymentURL] => 
    [WebMoneyManagementNo] => 
    [WebMoneySettleCode] => 
    [AuPayInfoNo] => 
    [AuPayMethod] => 
    [AuCancelAmount] => 
    [AuCancelTax] => 
    [DocomoSettlementCode] => 
    [DocomoCancelAmount] => 
    [DocomoCancelTax] => 
    [DocomoIncreaseAmount] => 
    [DocomoIncreaseTax] => 
    [SbTrackingId] => 51300703554854
    [SbCancelAmount] => 0
    [SbCancelTax] => 0
    [JibunReceiptNo] => 
    [AuFirstAmount] => 
    [AuFirstTax] => 
    [AuAccountMonth] => 
    [AuContinueAccountId] => 
    [JcbPrecaSalesCode] => 
    [RequestNo] => 
    [AccountNo] => 
    [CenterCode] => 
    [NetCashPayType] => 
    [OrderDate] => 
    [CompletionDate] => 
    [RakutenidCouponFee] => 
    [McpPayInDate] => 
    [McpPayInAmount] => 
    [McpPayOutDate] => 
    [McpPayOutAmount] => 
    [RED_REQ_ID] => 
    [RED_ORD_ID] => 
    [RED_STAT_CD] => 
    [RED_FRAUD_STAT_CD] => 
    [RED_FRAUD_RSP_CD] => 
    [RED_FRAUD_REC_ID] => 
    [ProductName] => 
    [CancelAmount] => 
    [CancelTax] => 
    [PayMethod] => 
    [VaRequestAmount] => 
    [VaExpireDate] => 
    [VaTradeReason] => 
    [VaTradeClientName] => 
    [VaTradeClientMailaddress] => 
    [VaBankCode] => 
    [VaBankName] => 
    [VaBranchCode] => 
    [VaBranchName] => 
    [VaAccountType] => 
    [VaAccountNumber] => 
    [VaInInquiryNumber] => 
    [VaInSettlementDate] => 
    [VaInAmount] => 
    [VaInClientCode] => 
    [VaInClientName] => 
    [VaInSummary] => 
    [VaReserveID] => 
    [VaTradeCode] => 
    [SbStartChargeMonth] => 
    [SbChargeDay] => 
    [RcCustomerId] => 
    [RcUsePoint] => 
    [RcOrderId] => 
    [RcUpdateAuthDay] => 
    [RcUseCoupon] => 
    [RcUseShopCoupon] => 
    [RcContractId] => 
    [RcStartChargeMonth] => 
    [RcChargeDay] => 
    [RecurringID] => 
    [RecurringMethod] => 
    [RecurringChargeStartDate] => 
    [RecurringChargeStopDate] => 
    [RecurringChargeMonth] => 
    [RecurringChargeDay] => 
    [RecurringNextChargeDate] => 
    [BaSiteId] => 
    [BaMemberId] => 
    [BaTargetDate] => 
    [BaRequestAcceptEndDate] => 
    [BaTransferReturnDate] => 
    [BaWithdrawalDate] => 
    [BaResultcode] => 
    [PaidCancelAmount] => 
    [PaidCancelTax] => 
    [PaidBuyerID] => 
    [PaidCode] => 
    [PrecaNo] => 
    [PrecaSeq] => 
    [PrecaExpireDate] => 
    [ChargeType] => 
    [QuickID] => 
    [CampaignUrl] => 
    [DocomoAcceptCode] => 
    [PvFrontBillKey] => 
    [PvResultCode] => 
    [PvReceiptDatetime] => 
    [PvReceiptAgencyCode] => 
    [PvBarcode] => 
    [PvCvsCode] => 
    [PvCvsBranchCode] => 
    [PvPaymentAmount] => 
    [RakutenidSubscriptionId] => 
    [RakutenidSettlementSubscriptionId] => 
    [AuAcceptCode] => 
    [SbAcceptCode] => 
    [PaysleResultCode] => 
    [BankCode] => 
    [BankTranDate] => 
    [GanbProcessType] => 
    [GanbRequestAmount] => 
    [GanbExpireDate] => 
    [GanbTradeReason] => 
    [GanbTradeClientName] => 
    [GanbTradeClientMailaddress] => 
    [GanbBankCode] => 
    [GanbBankName] => 
    [GanbBranchCode] => 
    [GanbBranchName] => 
    [GanbAccountType] => 
    [GanbAccountNumber] => 
    [GanbAccountHolderName] => 
    [GanbInSettlementDate] => 
    [GanbInAmount] => 
    [GanbInClientName] => 
    [GanbInRemittingBankName] => 
    [GanbInRemittingBranchName] => 
    [GanbTotalTransferAmount] => 
    [GanbTotalTransferCount] => 
)
 from 210.175.7.20
2020/04/03 22:50:02 [/shop/user_data/pg_mulpay_recv.php] ******* receiveer data end ******* from 210.175.7.20
2020/04/03 22:50:07 [/shop/user_data/pg_mulpay_recv.php] update order status:1 from 210.175.7.20
2020/04/03 22:50:07 [/shop/user_data/pg_mulpay_recv.php] send order mail:1218 from 210.175.7.20
2020/04/03 22:50:07 [/shop/user_data/pg_mulpay_recv.php] pg_mulpay_recv.php set payment data:Array
(
    [ShopID] => 9102288779655
    [AccessID] => a5983f3bd295396449bd9ec558882330
    [OrderID] => 1218-03224925
    [Status] => AUTH
    [JobCd] => AUTH
    [Amount] => 15840
    [Tax] => 0
    [Currency] => 
    [Forward] => 
    [Method] => 
    [PayTimes] => 
    [TranID] => 
    [Approve] => 
    [TranDate] => 20200403225001
    [ErrCode] => 
    [ErrInfo] => 
    [PayType] => 11
    [CvsCode] => 
    [CvsConfNo] => 
    [CvsReceiptNo] => 
    [EdyReceiptNo] => 
    [EdyOrderNo] => 
    [SuicaReceiptNo] => 
    [SuicaOrderNo] => 
    [CustID] => 
    [BkCode] => 
    [ConfNo] => 
    [PaymentTerm] => 
    [EncryptReceiptNo] => 
    [FinishDate] => 
    [ReceiptDate] => 
    [WebMoneyManagementNo] => 
    [WebMoneySettleCode] => 
    [AuPayInfoNo] => 
    [AuPayMethod] => 
    [AuCancelAmount] => 
    [AuCancelTax] => 
    [DocomoSettlementCode] => 
    [DocomoCancelAmount] => 
    [DocomoCancelTax] => 
    [pay_status] => 11
)
 from 210.175.7.20
2020/04/03 22:50:07 [/shop/user_data/pg_mulpay_recv.php] response:true from 210.175.7.20
