2019/07/31 11:28:20 [/shop/kanri/order/edit.php] SendRequest:https://p01.mul-pay.jp/payment/AlterTran.idPass from 219.116.191.87
login_id = oukokuadmin(0)[jgb70cgqn9pq989bbmmg433f56]
/home/oukoku/public_html/shop/kanri/order/edit.php(28): LC_Page_Admin_Order_Edit_Ex->init
/home/oukoku/public_html/shop/data/class_extends/page_extends/admin/order/LC_Page_Admin_Order_Edit_Ex.php(44): LC_Page_Admin_Order_Edit->init
/home/oukoku/public_html/shop/data/class/pages/admin/order/LC_Page_Admin_Order_Edit.php(93): LC_Page_Admin_Order_Ex->init
/home/oukoku/public_html/shop/data/class_extends/page_extends/admin/order/LC_Page_Admin_Order_Ex.php(44): LC_Page_Admin_Order->init
/home/oukoku/public_html/shop/data/class/pages/admin/order/LC_Page_Admin_Order.php(42): LC_Page_Admin->init
/home/oukoku/public_html/shop/data/class/pages/admin/LC_Page_Admin.php(78): SC_Helper_Plugin->doAction
/home/oukoku/public_html/shop/data/class/helper/SC_Helper_Plugin.php(145): call_user_func_array
(): PgMulpayUtils->hookActionBefore
/home/oukoku/public_html/shop/data/downloads/plugin/PgMulpayUtils/PgMulpayUtils.php(143): PgMulpayUtils->callHookAction
/home/oukoku/public_html/shop/data/downloads/plugin/PgMulpayUtils/PgMulpayUtils.php(157): LC_PgMulpayUtils->actionHook
/home/oukoku/public_html/shop/data/downloads/module/mdl_pg_mulpay/class/plugin/LC_PgMulpayUtils.php(155): LC_PgMulpayUtils->lfDoAdminOrderEditBefore
/home/oukoku/public_html/shop/data/downloads/module/mdl_pg_mulpay/class/plugin/LC_PgMulpayUtils.php(385): SC_Mdl_PG_MULPAY_Client_Util->commitOrder
/home/oukoku/public_html/shop/data/downloads/module/mdl_pg_mulpay/class/client/SC_Mdl_PG_MULPAY_Client_Util.php(318): SC_Mdl_PG_MULPAY_Client_Base->sendRequest
/home/oukoku/public_html/shop/data/downloads/module/mdl_pg_mulpay/class/client/SC_Mdl_PG_MULPAY_Client_Base.php(375): SC_Mdl_PG_MULPAY->printLog
/home/oukoku/public_html/shop/data/downloads/module/mdl_pg_mulpay/class/SC_Mdl_PG_MULPAY.php(268): GC_Utils::gfPrintLog
2019/07/31 11:28:20 [/shop/kanri/order/edit.php] Array
(
    [ShopID] => 9102288779655
    [ShopPass] => ******
    [AccessID] => 262be5fdc02606a208e09f9a3aa7bddb
    [AccessPass] => 167a8ae038c9a95c7fc2d812bbe1bd4f
    [JobCd] => SALES
    [Amount] => 42552
)
 from 219.116.191.87
login_id = oukokuadmin(0)[jgb70cgqn9pq989bbmmg433f56]
/home/oukoku/public_html/shop/kanri/order/edit.php(28): LC_Page_Admin_Order_Edit_Ex->init
/home/oukoku/public_html/shop/data/class_extends/page_extends/admin/order/LC_Page_Admin_Order_Edit_Ex.php(44): LC_Page_Admin_Order_Edit->init
/home/oukoku/public_html/shop/data/class/pages/admin/order/LC_Page_Admin_Order_Edit.php(93): LC_Page_Admin_Order_Ex->init
/home/oukoku/public_html/shop/data/class_extends/page_extends/admin/order/LC_Page_Admin_Order_Ex.php(44): LC_Page_Admin_Order->init
/home/oukoku/public_html/shop/data/class/pages/admin/order/LC_Page_Admin_Order.php(42): LC_Page_Admin->init
/home/oukoku/public_html/shop/data/class/pages/admin/LC_Page_Admin.php(78): SC_Helper_Plugin->doAction
/home/oukoku/public_html/shop/data/class/helper/SC_Helper_Plugin.php(145): call_user_func_array
(): PgMulpayUtils->hookActionBefore
/home/oukoku/public_html/shop/data/downloads/plugin/PgMulpayUtils/PgMulpayUtils.php(143): PgMulpayUtils->callHookAction
/home/oukoku/public_html/shop/data/downloads/plugin/PgMulpayUtils/PgMulpayUtils.php(157): LC_PgMulpayUtils->actionHook
/home/oukoku/public_html/shop/data/downloads/module/mdl_pg_mulpay/class/plugin/LC_PgMulpayUtils.php(155): LC_PgMulpayUtils->lfDoAdminOrderEditBefore
/home/oukoku/public_html/shop/data/downloads/module/mdl_pg_mulpay/class/plugin/LC_PgMulpayUtils.php(385): SC_Mdl_PG_MULPAY_Client_Util->commitOrder
/home/oukoku/public_html/shop/data/downloads/module/mdl_pg_mulpay/class/client/SC_Mdl_PG_MULPAY_Client_Util.php(318): SC_Mdl_PG_MULPAY_Client_Base->sendRequest
/home/oukoku/public_html/shop/data/downloads/module/mdl_pg_mulpay/class/client/SC_Mdl_PG_MULPAY_Client_Base.php(376): SC_Mdl_PG_MULPAY->printLog
/home/oukoku/public_html/shop/data/downloads/module/mdl_pg_mulpay/class/SC_Mdl_PG_MULPAY.php(268): GC_Utils::gfPrintLog
2019/07/31 11:28:20 [/shop/kanri/order/edit.php] AccessID=262be5fdc02606a208e09f9a3aa7bddb&AccessPass=167a8ae038c9a95c7fc2d812bbe1bd4f&Forward=2959876&Approve=0004073&TranID=1907221920602257217875110065&TranDate=20190731112820 from 219.116.191.87
login_id = oukokuadmin(0)[jgb70cgqn9pq989bbmmg433f56]
/home/oukoku/public_html/shop/kanri/order/edit.php(28): LC_Page_Admin_Order_Edit_Ex->init
/home/oukoku/public_html/shop/data/class_extends/page_extends/admin/order/LC_Page_Admin_Order_Edit_Ex.php(44): LC_Page_Admin_Order_Edit->init
/home/oukoku/public_html/shop/data/class/pages/admin/order/LC_Page_Admin_Order_Edit.php(93): LC_Page_Admin_Order_Ex->init
/home/oukoku/public_html/shop/data/class_extends/page_extends/admin/order/LC_Page_Admin_Order_Ex.php(44): LC_Page_Admin_Order->init
/home/oukoku/public_html/shop/data/class/pages/admin/order/LC_Page_Admin_Order.php(42): LC_Page_Admin->init
/home/oukoku/public_html/shop/data/class/pages/admin/LC_Page_Admin.php(78): SC_Helper_Plugin->doAction
/home/oukoku/public_html/shop/data/class/helper/SC_Helper_Plugin.php(145): call_user_func_array
(): PgMulpayUtils->hookActionBefore
/home/oukoku/public_html/shop/data/downloads/plugin/PgMulpayUtils/PgMulpayUtils.php(143): PgMulpayUtils->callHookAction
/home/oukoku/public_html/shop/data/downloads/plugin/PgMulpayUtils/PgMulpayUtils.php(157): LC_PgMulpayUtils->actionHook
/home/oukoku/public_html/shop/data/downloads/module/mdl_pg_mulpay/class/plugin/LC_PgMulpayUtils.php(155): LC_PgMulpayUtils->lfDoAdminOrderEditBefore
/home/oukoku/public_html/shop/data/downloads/module/mdl_pg_mulpay/class/plugin/LC_PgMulpayUtils.php(385): SC_Mdl_PG_MULPAY_Client_Util->commitOrder
/home/oukoku/public_html/shop/data/downloads/module/mdl_pg_mulpay/class/client/SC_Mdl_PG_MULPAY_Client_Util.php(318): SC_Mdl_PG_MULPAY_Client_Base->sendRequest
/home/oukoku/public_html/shop/data/downloads/module/mdl_pg_mulpay/class/client/SC_Mdl_PG_MULPAY_Client_Base.php(418): SC_Mdl_PG_MULPAY_Client_Base->parseResponse
/home/oukoku/public_html/shop/data/downloads/module/mdl_pg_mulpay/class/client/SC_Mdl_PG_MULPAY_Client_Base.php(446): SC_Mdl_PG_MULPAY->printLog
/home/oukoku/public_html/shop/data/downloads/module/mdl_pg_mulpay/class/SC_Mdl_PG_MULPAY.php(268): GC_Utils::gfPrintLog
2019/07/31 11:28:20 [/shop/kanri/order/edit.php] Array
(
    [0] => Array
        (
            [AccessID] => 262be5fdc02606a208e09f9a3aa7bddb
            [AccessPass] => 167a8ae038c9a95c7fc2d812bbe1bd4f
            [Forward] => 2959876
            [Approve] => 0004073
            [TranID] => 1907221920602257217875110065
            [TranDate] => 20190731112820
        )

)
 from 219.116.191.87
login_id = oukokuadmin(0)[jgb70cgqn9pq989bbmmg433f56]
/home/oukoku/public_html/shop/kanri/order/edit.php(28): LC_Page_Admin_Order_Edit_Ex->init
/home/oukoku/public_html/shop/data/class_extends/page_extends/admin/order/LC_Page_Admin_Order_Edit_Ex.php(44): LC_Page_Admin_Order_Edit->init
/home/oukoku/public_html/shop/data/class/pages/admin/order/LC_Page_Admin_Order_Edit.php(93): LC_Page_Admin_Order_Ex->init
/home/oukoku/public_html/shop/data/class_extends/page_extends/admin/order/LC_Page_Admin_Order_Ex.php(44): LC_Page_Admin_Order->init
/home/oukoku/public_html/shop/data/class/pages/admin/order/LC_Page_Admin_Order.php(42): LC_Page_Admin->init
/home/oukoku/public_html/shop/data/class/pages/admin/LC_Page_Admin.php(78): SC_Helper_Plugin->doAction
/home/oukoku/public_html/shop/data/class/helper/SC_Helper_Plugin.php(145): call_user_func_array
(): PgMulpayUtils->hookActionBefore
/home/oukoku/public_html/shop/data/downloads/plugin/PgMulpayUtils/PgMulpayUtils.php(143): PgMulpayUtils->callHookAction
/home/oukoku/public_html/shop/data/downloads/plugin/PgMulpayUtils/PgMulpayUtils.php(157): LC_PgMulpayUtils->actionHook
/home/oukoku/public_html/shop/data/downloads/module/mdl_pg_mulpay/class/plugin/LC_PgMulpayUtils.php(155): LC_PgMulpayUtils->lfDoAdminOrderEditBefore
/home/oukoku/public_html/shop/data/downloads/module/mdl_pg_mulpay/class/plugin/LC_PgMulpayUtils.php(385): SC_Mdl_PG_MULPAY_Client_Util->commitOrder
/home/oukoku/public_html/shop/data/downloads/module/mdl_pg_mulpay/class/client/SC_Mdl_PG_MULPAY_Client_Util.php(318): SC_Mdl_PG_MULPAY_Client_Base->sendRequest
/home/oukoku/public_html/shop/data/downloads/module/mdl_pg_mulpay/class/client/SC_Mdl_PG_MULPAY_Client_Base.php(419): SC_Mdl_PG_MULPAY_Client_Base->setResults
/home/oukoku/public_html/shop/data/downloads/module/mdl_pg_mulpay/class/client/SC_Mdl_PG_MULPAY_Client_Base.php(533): SC_Mdl_PG_MULPAY->printLog
/home/oukoku/public_html/shop/data/downloads/module/mdl_pg_mulpay/class/SC_Mdl_PG_MULPAY.php(268): GC_Utils::gfPrintLog
2019/07/31 11:28:20 [/shop/kanri/order/edit.php] edit.php set payment data:Array
(
    [AccessID] => 262be5fdc02606a208e09f9a3aa7bddb
    [AccessPass] => 167a8ae038c9a95c7fc2d812bbe1bd4f
    [Forward] => 2959876
    [Approve] => 0004073
    [TranID] => 1907221920602257217875110065
    [TranDate] => 20190731112820
    [action_status] => 6
    [pay_status] => 12
)
 from 219.116.191.87
login_id = oukokuadmin(0)[jgb70cgqn9pq989bbmmg433f56]
/home/oukoku/public_html/shop/kanri/order/edit.php(28): LC_Page_Admin_Order_Edit_Ex->init
/home/oukoku/public_html/shop/data/class_extends/page_extends/admin/order/LC_Page_Admin_Order_Edit_Ex.php(44): LC_Page_Admin_Order_Edit->init
/home/oukoku/public_html/shop/data/class/pages/admin/order/LC_Page_Admin_Order_Edit.php(93): LC_Page_Admin_Order_Ex->init
/home/oukoku/public_html/shop/data/class_extends/page_extends/admin/order/LC_Page_Admin_Order_Ex.php(44): LC_Page_Admin_Order->init
/home/oukoku/public_html/shop/data/class/pages/admin/order/LC_Page_Admin_Order.php(42): LC_Page_Admin->init
/home/oukoku/public_html/shop/data/class/pages/admin/LC_Page_Admin.php(78): SC_Helper_Plugin->doAction
/home/oukoku/public_html/shop/data/class/helper/SC_Helper_Plugin.php(145): call_user_func_array
(): PgMulpayUtils->hookActionBefore
/home/oukoku/public_html/shop/data/downloads/plugin/PgMulpayUtils/PgMulpayUtils.php(143): PgMulpayUtils->callHookAction
/home/oukoku/public_html/shop/data/downloads/plugin/PgMulpayUtils/PgMulpayUtils.php(157): LC_PgMulpayUtils->actionHook
/home/oukoku/public_html/shop/data/downloads/module/mdl_pg_mulpay/class/plugin/LC_PgMulpayUtils.php(155): LC_PgMulpayUtils->lfDoAdminOrderEditBefore
/home/oukoku/public_html/shop/data/downloads/module/mdl_pg_mulpay/class/plugin/LC_PgMulpayUtils.php(385): SC_Mdl_PG_MULPAY_Client_Util->commitOrder
/home/oukoku/public_html/shop/data/downloads/module/mdl_pg_mulpay/class/client/SC_Mdl_PG_MULPAY_Client_Util.php(332): SC_Util_PG_MULPAY->setOrderPayData
/home/oukoku/public_html/shop/data/downloads/module/mdl_pg_mulpay/class/util/SC_Util_PG_MULPAY.php(501): SC_Mdl_PG_MULPAY->printLog
/home/oukoku/public_html/shop/data/downloads/module/mdl_pg_mulpay/class/SC_Mdl_PG_MULPAY.php(268): GC_Utils::gfPrintLog
2019/07/31 11:28:21 [/shop/user_data/pg_mulpay_recv.php] ******* receiveer data start ******* from 210.175.7.20
customer_id = 
/home/oukoku/public_html/shop/user_data/pg_mulpay_recv.php(15): LC_Page_Mdl_PG_MULPAY_Recv->process
/home/oukoku/public_html/shop/data/downloads/module/mdl_pg_mulpay/class/pages/LC_Page_Mdl_PG_MULPAY_Recv.php(44): LC_Page_Mdl_PG_MULPAY_Recv->action
/home/oukoku/public_html/shop/data/downloads/module/mdl_pg_mulpay/class/pages/LC_Page_Mdl_PG_MULPAY_Recv.php(54): LC_Page_Mdl_PG_MULPAY_Recv->lfSetPostLog
/home/oukoku/public_html/shop/data/downloads/module/mdl_pg_mulpay/class/pages/LC_Page_Mdl_PG_MULPAY_Recv.php(832): SC_Mdl_PG_MULPAY->printLog
/home/oukoku/public_html/shop/data/downloads/module/mdl_pg_mulpay/class/SC_Mdl_PG_MULPAY.php(268): GC_Utils::gfPrintLog
2019/07/31 11:28:21 [/shop/user_data/pg_mulpay_recv.php] Array
(
    [ShopID] => 9102288779655
    [ShopPass] => **********
    [AccessID] => 262be5fdc02606a208e09f9a3aa7bddb
    [AccessPass] => ********************************
    [OrderID] => 447-22192046
    [Status] => SALES
    [JobCd] => SALES
    [Amount] => 42552
    [Tax] => 0
    [Currency] => JPN
    [Forward] => 2959876
    [Method] => 1
    [PayTimes] => 
    [TranID] => 1907221920602257217875110065
    [Approve] => 0004073
    [TranDate] => 20190731112820
    [ErrCode] => 
    [ErrInfo] => 
    [PayType] => 0
    [CvsCode] => 
    [CvsConfNo] => 
    [CvsReceiptNo] => 
    [EdyReceiptNo] => 
    [EdyOrderNo] => 
    [SuicaReceiptNo] => 
    [SuicaOrderNo] => 
    [CustID] => 
    [BkCode] => 
    [ConfNo] => 
    [PaymentTerm] => 
    [EncryptReceiptNo] => 
    [FinishDate] => 
    [ReceiptDate] => 
    [PayeasyPaymentURL] => 
    [WebMoneyManagementNo] => 
    [WebMoneySettleCode] => 
    [AuPayInfoNo] => 
    [AuPayMethod] => 
    [AuCancelAmount] => 
    [AuCancelTax] => 
    [DocomoSettlementCode] => 
    [DocomoCancelAmount] => 
    [DocomoCancelTax] => 
    [DocomoIncreaseAmount] => 
    [DocomoIncreaseTax] => 
    [SbTrackingId] => 
    [SbCancelAmount] => 
    [SbCancelTax] => 
    [JibunReceiptNo] => 
    [AuFirstAmount] => 
    [AuFirstTax] => 
    [AuAccountMonth] => 
    [AuContinueAccountId] => 
    [JcbPrecaSalesCode] => 
    [RequestNo] => 
    [AccountNo] => 
    [CenterCode] => 
    [NetCashPayType] => 
    [OrderDate] => 
    [CompletionDate] => 
    [RakutenidCouponFee] => 
    [McpPayInDate] => 
    [McpPayInAmount] => 
    [McpPayOutDate] => 
    [McpPayOutAmount] => 
    [RED_REQ_ID] => 
    [RED_ORD_ID] => 
    [RED_STAT_CD] => 
    [RED_FRAUD_STAT_CD] => 
    [RED_FRAUD_RSP_CD] => 
    [RED_FRAUD_REC_ID] => 
    [ProductName] => 
    [CancelAmount] => 
    [CancelTax] => 
    [PayMethod] => 
    [VaRequestAmount] => 
    [VaExpireDate] => 
    [VaTradeReason] => 
    [VaTradeClientName] => 
    [VaTradeClientMailaddress] => 
    [VaBankCode] => 
    [VaBankName] => 
    [VaBranchCode] => 
    [VaBranchName] => 
    [VaAccountType] => 
    [VaAccountNumber] => 
    [VaInInquiryNumber] => 
    [VaInSettlementDate] => 
    [VaInAmount] => 
    [VaInClientCode] => 
    [VaInClientName] => 
    [VaInSummary] => 
    [VaReserveID] => 
    [VaTradeCode] => 
    [SbStartChargeMonth] => 
    [SbChargeDay] => 
    [RcCustomerId] => 
    [RcUsePoint] => 
    [RcOrderId] => 
    [RcUpdateAuthDay] => 
    [RcUseCoupon] => 
    [RcUseShopCoupon] => 
    [RcContractId] => 
    [RcStartChargeMonth] => 
    [RcChargeDay] => 
    [RecurringID] => 
    [RecurringMethod] => 
    [RecurringChargeStartDate] => 
    [RecurringChargeStopDate] => 
    [RecurringChargeMonth] => 
    [RecurringChargeDay] => 
    [RecurringNextChargeDate] => 
    [BaSiteId] => 
    [BaMemberId] => 
    [BaTargetDate] => 
    [BaRequestAcceptEndDate] => 
    [BaTransferReturnDate] => 
    [BaWithdrawalDate] => 
    [BaResultcode] => 
    [PaidCancelAmount] => 
    [PaidCancelTax] => 
    [PaidBuyerID] => 
    [PaidCode] => 
    [PrecaNo] => 
    [PrecaSeq] => 
    [PrecaExpireDate] => 
    [ChargeType] => 
    [QuickID] => 
    [CampaignUrl] => 
    [DocomoAcceptCode] => 
    [PvFrontBillKey] => 
    [PvResultCode] => 
    [PvReceiptDatetime] => 
    [PvReceiptAgencyCode] => 
    [PvBarcode] => 
    [PvCvsCode] => 
    [PvCvsBranchCode] => 
    [PvPaymentAmount] => 
    [RakutenidSubscriptionId] => 
    [RakutenidSettlementSubscriptionId] => 
    [AuAcceptCode] => 
    [SbAcceptCode] => 
    [PaysleResultCode] => 
    [BankCode] => 
    [BankTranDate] => 
    [GanbProcessType] => 
    [GanbRequestAmount] => 
    [GanbExpireDate] => 
    [GanbTradeReason] => 
    [GanbTradeClientName] => 
    [GanbTradeClientMailaddress] => 
    [GanbBankCode] => 
    [GanbBankName] => 
    [GanbBranchCode] => 
    [GanbBranchName] => 
    [GanbAccountType] => 
    [GanbAccountNumber] => 
    [GanbAccountHolderName] => 
    [GanbInSettlementDate] => 
    [GanbInAmount] => 
    [GanbInClientName] => 
    [GanbInRemittingBankName] => 
    [GanbInRemittingBranchName] => 
    [GanbTotalTransferAmount] => 
    [GanbTotalTransferCount] => 
)
 from 210.175.7.20
customer_id = 
/home/oukoku/public_html/shop/user_data/pg_mulpay_recv.php(15): LC_Page_Mdl_PG_MULPAY_Recv->process
/home/oukoku/public_html/shop/data/downloads/module/mdl_pg_mulpay/class/pages/LC_Page_Mdl_PG_MULPAY_Recv.php(44): LC_Page_Mdl_PG_MULPAY_Recv->action
/home/oukoku/public_html/shop/data/downloads/module/mdl_pg_mulpay/class/pages/LC_Page_Mdl_PG_MULPAY_Recv.php(54): LC_Page_Mdl_PG_MULPAY_Recv->lfSetPostLog
/home/oukoku/public_html/shop/data/downloads/module/mdl_pg_mulpay/class/pages/LC_Page_Mdl_PG_MULPAY_Recv.php(836): SC_Mdl_PG_MULPAY->printLog
/home/oukoku/public_html/shop/data/downloads/module/mdl_pg_mulpay/class/SC_Mdl_PG_MULPAY.php(268): GC_Utils::gfPrintLog
2019/07/31 11:28:21 [/shop/user_data/pg_mulpay_recv.php] ******* receiveer data end ******* from 210.175.7.20
customer_id = 
/home/oukoku/public_html/shop/user_data/pg_mulpay_recv.php(15): LC_Page_Mdl_PG_MULPAY_Recv->process
/home/oukoku/public_html/shop/data/downloads/module/mdl_pg_mulpay/class/pages/LC_Page_Mdl_PG_MULPAY_Recv.php(44): LC_Page_Mdl_PG_MULPAY_Recv->action
/home/oukoku/public_html/shop/data/downloads/module/mdl_pg_mulpay/class/pages/LC_Page_Mdl_PG_MULPAY_Recv.php(54): LC_Page_Mdl_PG_MULPAY_Recv->lfSetPostLog
/home/oukoku/public_html/shop/data/downloads/module/mdl_pg_mulpay/class/pages/LC_Page_Mdl_PG_MULPAY_Recv.php(837): SC_Mdl_PG_MULPAY->printLog
/home/oukoku/public_html/shop/data/downloads/module/mdl_pg_mulpay/class/SC_Mdl_PG_MULPAY.php(268): GC_Utils::gfPrintLog
2019/07/31 11:28:21 [/shop/user_data/pg_mulpay_recv.php] pg_mulpay_recv.php set payment data:Array
(
    [ShopID] => 9102288779655
    [AccessID] => 262be5fdc02606a208e09f9a3aa7bddb
    [OrderID] => 447-22192046
    [Status] => SALES
    [JobCd] => SALES
    [Amount] => 42552
    [Tax] => 0
    [Currency] => JPN
    [Forward] => 2959876
    [Method] => 1
    [PayTimes] => 
    [TranID] => 1907221920602257217875110065
    [Approve] => 0004073
    [TranDate] => 20190731112820
    [ErrCode] => 
    [ErrInfo] => 
    [PayType] => 0
    [CvsCode] => 
    [CvsConfNo] => 
    [CvsReceiptNo] => 
    [EdyReceiptNo] => 
    [EdyOrderNo] => 
    [SuicaReceiptNo] => 
    [SuicaOrderNo] => 
    [CustID] => 
    [BkCode] => 
    [ConfNo] => 
    [PaymentTerm] => 
    [EncryptReceiptNo] => 
    [FinishDate] => 
    [ReceiptDate] => 
    [WebMoneyManagementNo] => 
    [WebMoneySettleCode] => 
    [AuPayInfoNo] => 
    [AuPayMethod] => 
    [AuCancelAmount] => 
    [AuCancelTax] => 
    [DocomoSettlementCode] => 
    [DocomoCancelAmount] => 
    [DocomoCancelTax] => 
    [pay_status] => 12
)
 from 210.175.7.20
customer_id = 
/home/oukoku/public_html/shop/user_data/pg_mulpay_recv.php(15): LC_Page_Mdl_PG_MULPAY_Recv->process
/home/oukoku/public_html/shop/data/downloads/module/mdl_pg_mulpay/class/pages/LC_Page_Mdl_PG_MULPAY_Recv.php(44): LC_Page_Mdl_PG_MULPAY_Recv->action
/home/oukoku/public_html/shop/data/downloads/module/mdl_pg_mulpay/class/pages/LC_Page_Mdl_PG_MULPAY_Recv.php(91): LC_Page_Mdl_PG_MULPAY_Recv->lfDoReceive
/home/oukoku/public_html/shop/data/downloads/module/mdl_pg_mulpay/class/pages/LC_Page_Mdl_PG_MULPAY_Recv.php(226): SC_Util_PG_MULPAY->setOrderPayData
/home/oukoku/public_html/shop/data/downloads/module/mdl_pg_mulpay/class/util/SC_Util_PG_MULPAY.php(501): SC_Mdl_PG_MULPAY->printLog
/home/oukoku/public_html/shop/data/downloads/module/mdl_pg_mulpay/class/SC_Mdl_PG_MULPAY.php(268): GC_Utils::gfPrintLog
2019/07/31 11:28:21 [/shop/user_data/pg_mulpay_recv.php] response:true from 210.175.7.20
customer_id = 
/home/oukoku/public_html/shop/user_data/pg_mulpay_recv.php(15): LC_Page_Mdl_PG_MULPAY_Recv->process
/home/oukoku/public_html/shop/data/downloads/module/mdl_pg_mulpay/class/pages/LC_Page_Mdl_PG_MULPAY_Recv.php(44): LC_Page_Mdl_PG_MULPAY_Recv->action
/home/oukoku/public_html/shop/data/downloads/module/mdl_pg_mulpay/class/pages/LC_Page_Mdl_PG_MULPAY_Recv.php(93): LC_Page_Mdl_PG_MULPAY_Recv->lfSendResponse
/home/oukoku/public_html/shop/data/downloads/module/mdl_pg_mulpay/class/pages/LC_Page_Mdl_PG_MULPAY_Recv.php(849): SC_Mdl_PG_MULPAY->printLog
/home/oukoku/public_html/shop/data/downloads/module/mdl_pg_mulpay/class/SC_Mdl_PG_MULPAY.php(268): GC_Utils::gfPrintLog
2019/07/31 11:30:50 [/shop/kanri/order/edit.php] SendRequest:https://p01.mul-pay.jp/payment/AlterTran.idPass from 219.116.191.87
login_id = oukokuadmin(0)[jgb70cgqn9pq989bbmmg433f56]
/home/oukoku/public_html/shop/kanri/order/edit.php(28): LC_Page_Admin_Order_Edit_Ex->init
/home/oukoku/public_html/shop/data/class_extends/page_extends/admin/order/LC_Page_Admin_Order_Edit_Ex.php(44): LC_Page_Admin_Order_Edit->init
/home/oukoku/public_html/shop/data/class/pages/admin/order/LC_Page_Admin_Order_Edit.php(93): LC_Page_Admin_Order_Ex->init
/home/oukoku/public_html/shop/data/class_extends/page_extends/admin/order/LC_Page_Admin_Order_Ex.php(44): LC_Page_Admin_Order->init
/home/oukoku/public_html/shop/data/class/pages/admin/order/LC_Page_Admin_Order.php(42): LC_Page_Admin->init
/home/oukoku/public_html/shop/data/class/pages/admin/LC_Page_Admin.php(78): SC_Helper_Plugin->doAction
/home/oukoku/public_html/shop/data/class/helper/SC_Helper_Plugin.php(145): call_user_func_array
(): PgMulpayUtils->hookActionBefore
/home/oukoku/public_html/shop/data/downloads/plugin/PgMulpayUtils/PgMulpayUtils.php(143): PgMulpayUtils->callHookAction
/home/oukoku/public_html/shop/data/downloads/plugin/PgMulpayUtils/PgMulpayUtils.php(157): LC_PgMulpayUtils->actionHook
/home/oukoku/public_html/shop/data/downloads/module/mdl_pg_mulpay/class/plugin/LC_PgMulpayUtils.php(155): LC_PgMulpayUtils->lfDoAdminOrderEditBefore
/home/oukoku/public_html/shop/data/downloads/module/mdl_pg_mulpay/class/plugin/LC_PgMulpayUtils.php(385): SC_Mdl_PG_MULPAY_Client_Util->commitOrder
/home/oukoku/public_html/shop/data/downloads/module/mdl_pg_mulpay/class/client/SC_Mdl_PG_MULPAY_Client_Util.php(318): SC_Mdl_PG_MULPAY_Client_Base->sendRequest
/home/oukoku/public_html/shop/data/downloads/module/mdl_pg_mulpay/class/client/SC_Mdl_PG_MULPAY_Client_Base.php(375): SC_Mdl_PG_MULPAY->printLog
/home/oukoku/public_html/shop/data/downloads/module/mdl_pg_mulpay/class/SC_Mdl_PG_MULPAY.php(268): GC_Utils::gfPrintLog
2019/07/31 11:30:50 [/shop/kanri/order/edit.php] Array
(
    [ShopID] => 9102288779655
    [ShopPass] => ******
    [AccessID] => 32b8b7453dd88123298fedafdb1c48c2
    [AccessPass] => fd5e7236e18c3da8aec7e12fb8d6dd13
    [JobCd] => SALES
    [Amount] => 8052
)
 from 219.116.191.87
login_id = oukokuadmin(0)[jgb70cgqn9pq989bbmmg433f56]
/home/oukoku/public_html/shop/kanri/order/edit.php(28): LC_Page_Admin_Order_Edit_Ex->init
/home/oukoku/public_html/shop/data/class_extends/page_extends/admin/order/LC_Page_Admin_Order_Edit_Ex.php(44): LC_Page_Admin_Order_Edit->init
/home/oukoku/public_html/shop/data/class/pages/admin/order/LC_Page_Admin_Order_Edit.php(93): LC_Page_Admin_Order_Ex->init
/home/oukoku/public_html/shop/data/class_extends/page_extends/admin/order/LC_Page_Admin_Order_Ex.php(44): LC_Page_Admin_Order->init
/home/oukoku/public_html/shop/data/class/pages/admin/order/LC_Page_Admin_Order.php(42): LC_Page_Admin->init
/home/oukoku/public_html/shop/data/class/pages/admin/LC_Page_Admin.php(78): SC_Helper_Plugin->doAction
/home/oukoku/public_html/shop/data/class/helper/SC_Helper_Plugin.php(145): call_user_func_array
(): PgMulpayUtils->hookActionBefore
/home/oukoku/public_html/shop/data/downloads/plugin/PgMulpayUtils/PgMulpayUtils.php(143): PgMulpayUtils->callHookAction
/home/oukoku/public_html/shop/data/downloads/plugin/PgMulpayUtils/PgMulpayUtils.php(157): LC_PgMulpayUtils->actionHook
/home/oukoku/public_html/shop/data/downloads/module/mdl_pg_mulpay/class/plugin/LC_PgMulpayUtils.php(155): LC_PgMulpayUtils->lfDoAdminOrderEditBefore
/home/oukoku/public_html/shop/data/downloads/module/mdl_pg_mulpay/class/plugin/LC_PgMulpayUtils.php(385): SC_Mdl_PG_MULPAY_Client_Util->commitOrder
/home/oukoku/public_html/shop/data/downloads/module/mdl_pg_mulpay/class/client/SC_Mdl_PG_MULPAY_Client_Util.php(318): SC_Mdl_PG_MULPAY_Client_Base->sendRequest
/home/oukoku/public_html/shop/data/downloads/module/mdl_pg_mulpay/class/client/SC_Mdl_PG_MULPAY_Client_Base.php(376): SC_Mdl_PG_MULPAY->printLog
/home/oukoku/public_html/shop/data/downloads/module/mdl_pg_mulpay/class/SC_Mdl_PG_MULPAY.php(268): GC_Utils::gfPrintLog
2019/07/31 11:30:51 [/shop/kanri/order/edit.php] AccessID=32b8b7453dd88123298fedafdb1c48c2&AccessPass=fd5e7236e18c3da8aec7e12fb8d6dd13&Forward=2a99661&Approve=0710068&TranID=1907290928602257217875110068&TranDate=20190731113051 from 219.116.191.87
login_id = oukokuadmin(0)[jgb70cgqn9pq989bbmmg433f56]
/home/oukoku/public_html/shop/kanri/order/edit.php(28): LC_Page_Admin_Order_Edit_Ex->init
/home/oukoku/public_html/shop/data/class_extends/page_extends/admin/order/LC_Page_Admin_Order_Edit_Ex.php(44): LC_Page_Admin_Order_Edit->init
/home/oukoku/public_html/shop/data/class/pages/admin/order/LC_Page_Admin_Order_Edit.php(93): LC_Page_Admin_Order_Ex->init
/home/oukoku/public_html/shop/data/class_extends/page_extends/admin/order/LC_Page_Admin_Order_Ex.php(44): LC_Page_Admin_Order->init
/home/oukoku/public_html/shop/data/class/pages/admin/order/LC_Page_Admin_Order.php(42): LC_Page_Admin->init
/home/oukoku/public_html/shop/data/class/pages/admin/LC_Page_Admin.php(78): SC_Helper_Plugin->doAction
/home/oukoku/public_html/shop/data/class/helper/SC_Helper_Plugin.php(145): call_user_func_array
(): PgMulpayUtils->hookActionBefore
/home/oukoku/public_html/shop/data/downloads/plugin/PgMulpayUtils/PgMulpayUtils.php(143): PgMulpayUtils->callHookAction
/home/oukoku/public_html/shop/data/downloads/plugin/PgMulpayUtils/PgMulpayUtils.php(157): LC_PgMulpayUtils->actionHook
/home/oukoku/public_html/shop/data/downloads/module/mdl_pg_mulpay/class/plugin/LC_PgMulpayUtils.php(155): LC_PgMulpayUtils->lfDoAdminOrderEditBefore
/home/oukoku/public_html/shop/data/downloads/module/mdl_pg_mulpay/class/plugin/LC_PgMulpayUtils.php(385): SC_Mdl_PG_MULPAY_Client_Util->commitOrder
/home/oukoku/public_html/shop/data/downloads/module/mdl_pg_mulpay/class/client/SC_Mdl_PG_MULPAY_Client_Util.php(318): SC_Mdl_PG_MULPAY_Client_Base->sendRequest
/home/oukoku/public_html/shop/data/downloads/module/mdl_pg_mulpay/class/client/SC_Mdl_PG_MULPAY_Client_Base.php(418): SC_Mdl_PG_MULPAY_Client_Base->parseResponse
/home/oukoku/public_html/shop/data/downloads/module/mdl_pg_mulpay/class/client/SC_Mdl_PG_MULPAY_Client_Base.php(446): SC_Mdl_PG_MULPAY->printLog
/home/oukoku/public_html/shop/data/downloads/module/mdl_pg_mulpay/class/SC_Mdl_PG_MULPAY.php(268): GC_Utils::gfPrintLog
2019/07/31 11:30:51 [/shop/kanri/order/edit.php] Array
(
    [0] => Array
        (
            [AccessID] => 32b8b7453dd88123298fedafdb1c48c2
            [AccessPass] => fd5e7236e18c3da8aec7e12fb8d6dd13
            [Forward] => 2a99661
            [Approve] => 0710068
            [TranID] => 1907290928602257217875110068
            [TranDate] => 20190731113051
        )

)
 from 219.116.191.87
login_id = oukokuadmin(0)[jgb70cgqn9pq989bbmmg433f56]
/home/oukoku/public_html/shop/kanri/order/edit.php(28): LC_Page_Admin_Order_Edit_Ex->init
/home/oukoku/public_html/shop/data/class_extends/page_extends/admin/order/LC_Page_Admin_Order_Edit_Ex.php(44): LC_Page_Admin_Order_Edit->init
/home/oukoku/public_html/shop/data/class/pages/admin/order/LC_Page_Admin_Order_Edit.php(93): LC_Page_Admin_Order_Ex->init
/home/oukoku/public_html/shop/data/class_extends/page_extends/admin/order/LC_Page_Admin_Order_Ex.php(44): LC_Page_Admin_Order->init
/home/oukoku/public_html/shop/data/class/pages/admin/order/LC_Page_Admin_Order.php(42): LC_Page_Admin->init
/home/oukoku/public_html/shop/data/class/pages/admin/LC_Page_Admin.php(78): SC_Helper_Plugin->doAction
/home/oukoku/public_html/shop/data/class/helper/SC_Helper_Plugin.php(145): call_user_func_array
(): PgMulpayUtils->hookActionBefore
/home/oukoku/public_html/shop/data/downloads/plugin/PgMulpayUtils/PgMulpayUtils.php(143): PgMulpayUtils->callHookAction
/home/oukoku/public_html/shop/data/downloads/plugin/PgMulpayUtils/PgMulpayUtils.php(157): LC_PgMulpayUtils->actionHook
/home/oukoku/public_html/shop/data/downloads/module/mdl_pg_mulpay/class/plugin/LC_PgMulpayUtils.php(155): LC_PgMulpayUtils->lfDoAdminOrderEditBefore
/home/oukoku/public_html/shop/data/downloads/module/mdl_pg_mulpay/class/plugin/LC_PgMulpayUtils.php(385): SC_Mdl_PG_MULPAY_Client_Util->commitOrder
/home/oukoku/public_html/shop/data/downloads/module/mdl_pg_mulpay/class/client/SC_Mdl_PG_MULPAY_Client_Util.php(318): SC_Mdl_PG_MULPAY_Client_Base->sendRequest
/home/oukoku/public_html/shop/data/downloads/module/mdl_pg_mulpay/class/client/SC_Mdl_PG_MULPAY_Client_Base.php(419): SC_Mdl_PG_MULPAY_Client_Base->setResults
/home/oukoku/public_html/shop/data/downloads/module/mdl_pg_mulpay/class/client/SC_Mdl_PG_MULPAY_Client_Base.php(533): SC_Mdl_PG_MULPAY->printLog
/home/oukoku/public_html/shop/data/downloads/module/mdl_pg_mulpay/class/SC_Mdl_PG_MULPAY.php(268): GC_Utils::gfPrintLog
2019/07/31 11:30:51 [/shop/kanri/order/edit.php] edit.php set payment data:Array
(
    [AccessID] => 32b8b7453dd88123298fedafdb1c48c2
    [AccessPass] => fd5e7236e18c3da8aec7e12fb8d6dd13
    [Forward] => 2a99661
    [Approve] => 0710068
    [TranID] => 1907290928602257217875110068
    [TranDate] => 20190731113051
    [action_status] => 6
    [pay_status] => 12
)
 from 219.116.191.87
login_id = oukokuadmin(0)[jgb70cgqn9pq989bbmmg433f56]
/home/oukoku/public_html/shop/kanri/order/edit.php(28): LC_Page_Admin_Order_Edit_Ex->init
/home/oukoku/public_html/shop/data/class_extends/page_extends/admin/order/LC_Page_Admin_Order_Edit_Ex.php(44): LC_Page_Admin_Order_Edit->init
/home/oukoku/public_html/shop/data/class/pages/admin/order/LC_Page_Admin_Order_Edit.php(93): LC_Page_Admin_Order_Ex->init
/home/oukoku/public_html/shop/data/class_extends/page_extends/admin/order/LC_Page_Admin_Order_Ex.php(44): LC_Page_Admin_Order->init
/home/oukoku/public_html/shop/data/class/pages/admin/order/LC_Page_Admin_Order.php(42): LC_Page_Admin->init
/home/oukoku/public_html/shop/data/class/pages/admin/LC_Page_Admin.php(78): SC_Helper_Plugin->doAction
/home/oukoku/public_html/shop/data/class/helper/SC_Helper_Plugin.php(145): call_user_func_array
(): PgMulpayUtils->hookActionBefore
/home/oukoku/public_html/shop/data/downloads/plugin/PgMulpayUtils/PgMulpayUtils.php(143): PgMulpayUtils->callHookAction
/home/oukoku/public_html/shop/data/downloads/plugin/PgMulpayUtils/PgMulpayUtils.php(157): LC_PgMulpayUtils->actionHook
/home/oukoku/public_html/shop/data/downloads/module/mdl_pg_mulpay/class/plugin/LC_PgMulpayUtils.php(155): LC_PgMulpayUtils->lfDoAdminOrderEditBefore
/home/oukoku/public_html/shop/data/downloads/module/mdl_pg_mulpay/class/plugin/LC_PgMulpayUtils.php(385): SC_Mdl_PG_MULPAY_Client_Util->commitOrder
/home/oukoku/public_html/shop/data/downloads/module/mdl_pg_mulpay/class/client/SC_Mdl_PG_MULPAY_Client_Util.php(332): SC_Util_PG_MULPAY->setOrderPayData
/home/oukoku/public_html/shop/data/downloads/module/mdl_pg_mulpay/class/util/SC_Util_PG_MULPAY.php(501): SC_Mdl_PG_MULPAY->printLog
/home/oukoku/public_html/shop/data/downloads/module/mdl_pg_mulpay/class/SC_Mdl_PG_MULPAY.php(268): GC_Utils::gfPrintLog
2019/07/31 11:30:51 [/shop/user_data/pg_mulpay_recv.php] ******* receiveer data start ******* from 210.175.7.20
customer_id = 
/home/oukoku/public_html/shop/user_data/pg_mulpay_recv.php(15): LC_Page_Mdl_PG_MULPAY_Recv->process
/home/oukoku/public_html/shop/data/downloads/module/mdl_pg_mulpay/class/pages/LC_Page_Mdl_PG_MULPAY_Recv.php(44): LC_Page_Mdl_PG_MULPAY_Recv->action
/home/oukoku/public_html/shop/data/downloads/module/mdl_pg_mulpay/class/pages/LC_Page_Mdl_PG_MULPAY_Recv.php(54): LC_Page_Mdl_PG_MULPAY_Recv->lfSetPostLog
/home/oukoku/public_html/shop/data/downloads/module/mdl_pg_mulpay/class/pages/LC_Page_Mdl_PG_MULPAY_Recv.php(832): SC_Mdl_PG_MULPAY->printLog
/home/oukoku/public_html/shop/data/downloads/module/mdl_pg_mulpay/class/SC_Mdl_PG_MULPAY.php(268): GC_Utils::gfPrintLog
2019/07/31 11:30:51 [/shop/user_data/pg_mulpay_recv.php] Array
(
    [ShopID] => 9102288779655
    [ShopPass] => **********
    [AccessID] => 32b8b7453dd88123298fedafdb1c48c2
    [AccessPass] => ********************************
    [OrderID] => 451-26081320
    [Status] => SALES
    [JobCd] => SALES
    [Amount] => 8052
    [Tax] => 0
    [Currency] => JPN
    [Forward] => 2a99661
    [Method] => 1
    [PayTimes] => 
    [TranID] => 1907290928602257217875110068
    [Approve] => 0710068
    [TranDate] => 20190731113051
    [ErrCode] => 
    [ErrInfo] => 
    [PayType] => 0
    [CvsCode] => 
    [CvsConfNo] => 
    [CvsReceiptNo] => 
    [EdyReceiptNo] => 
    [EdyOrderNo] => 
    [SuicaReceiptNo] => 
    [SuicaOrderNo] => 
    [CustID] => 
    [BkCode] => 
    [ConfNo] => 
    [PaymentTerm] => 
    [EncryptReceiptNo] => 
    [FinishDate] => 
    [ReceiptDate] => 
    [PayeasyPaymentURL] => 
    [WebMoneyManagementNo] => 
    [WebMoneySettleCode] => 
    [AuPayInfoNo] => 
    [AuPayMethod] => 
    [AuCancelAmount] => 
    [AuCancelTax] => 
    [DocomoSettlementCode] => 
    [DocomoCancelAmount] => 
    [DocomoCancelTax] => 
    [DocomoIncreaseAmount] => 
    [DocomoIncreaseTax] => 
    [SbTrackingId] => 
    [SbCancelAmount] => 
    [SbCancelTax] => 
    [JibunReceiptNo] => 
    [AuFirstAmount] => 
    [AuFirstTax] => 
    [AuAccountMonth] => 
    [AuContinueAccountId] => 
    [JcbPrecaSalesCode] => 
    [RequestNo] => 
    [AccountNo] => 
    [CenterCode] => 
    [NetCashPayType] => 
    [OrderDate] => 
    [CompletionDate] => 
    [RakutenidCouponFee] => 
    [McpPayInDate] => 
    [McpPayInAmount] => 
    [McpPayOutDate] => 
    [McpPayOutAmount] => 
    [RED_REQ_ID] => 
    [RED_ORD_ID] => 
    [RED_STAT_CD] => 
    [RED_FRAUD_STAT_CD] => 
    [RED_FRAUD_RSP_CD] => 
    [RED_FRAUD_REC_ID] => 
    [ProductName] => 
    [CancelAmount] => 
    [CancelTax] => 
    [PayMethod] => 
    [VaRequestAmount] => 
    [VaExpireDate] => 
    [VaTradeReason] => 
    [VaTradeClientName] => 
    [VaTradeClientMailaddress] => 
    [VaBankCode] => 
    [VaBankName] => 
    [VaBranchCode] => 
    [VaBranchName] => 
    [VaAccountType] => 
    [VaAccountNumber] => 
    [VaInInquiryNumber] => 
    [VaInSettlementDate] => 
    [VaInAmount] => 
    [VaInClientCode] => 
    [VaInClientName] => 
    [VaInSummary] => 
    [VaReserveID] => 
    [VaTradeCode] => 
    [SbStartChargeMonth] => 
    [SbChargeDay] => 
    [RcCustomerId] => 
    [RcUsePoint] => 
    [RcOrderId] => 
    [RcUpdateAuthDay] => 
    [RcUseCoupon] => 
    [RcUseShopCoupon] => 
    [RcContractId] => 
    [RcStartChargeMonth] => 
    [RcChargeDay] => 
    [RecurringID] => 
    [RecurringMethod] => 
    [RecurringChargeStartDate] => 
    [RecurringChargeStopDate] => 
    [RecurringChargeMonth] => 
    [RecurringChargeDay] => 
    [RecurringNextChargeDate] => 
    [BaSiteId] => 
    [BaMemberId] => 
    [BaTargetDate] => 
    [BaRequestAcceptEndDate] => 
    [BaTransferReturnDate] => 
    [BaWithdrawalDate] => 
    [BaResultcode] => 
    [PaidCancelAmount] => 
    [PaidCancelTax] => 
    [PaidBuyerID] => 
    [PaidCode] => 
    [PrecaNo] => 
    [PrecaSeq] => 
    [PrecaExpireDate] => 
    [ChargeType] => 
    [QuickID] => 
    [CampaignUrl] => 
    [DocomoAcceptCode] => 
    [PvFrontBillKey] => 
    [PvResultCode] => 
    [PvReceiptDatetime] => 
    [PvReceiptAgencyCode] => 
    [PvBarcode] => 
    [PvCvsCode] => 
    [PvCvsBranchCode] => 
    [PvPaymentAmount] => 
    [RakutenidSubscriptionId] => 
    [RakutenidSettlementSubscriptionId] => 
    [AuAcceptCode] => 
    [SbAcceptCode] => 
    [PaysleResultCode] => 
    [BankCode] => 
    [BankTranDate] => 
    [GanbProcessType] => 
    [GanbRequestAmount] => 
    [GanbExpireDate] => 
    [GanbTradeReason] => 
    [GanbTradeClientName] => 
    [GanbTradeClientMailaddress] => 
    [GanbBankCode] => 
    [GanbBankName] => 
    [GanbBranchCode] => 
    [GanbBranchName] => 
    [GanbAccountType] => 
    [GanbAccountNumber] => 
    [GanbAccountHolderName] => 
    [GanbInSettlementDate] => 
    [GanbInAmount] => 
    [GanbInClientName] => 
    [GanbInRemittingBankName] => 
    [GanbInRemittingBranchName] => 
    [GanbTotalTransferAmount] => 
    [GanbTotalTransferCount] => 
)
 from 210.175.7.20
customer_id = 
/home/oukoku/public_html/shop/user_data/pg_mulpay_recv.php(15): LC_Page_Mdl_PG_MULPAY_Recv->process
/home/oukoku/public_html/shop/data/downloads/module/mdl_pg_mulpay/class/pages/LC_Page_Mdl_PG_MULPAY_Recv.php(44): LC_Page_Mdl_PG_MULPAY_Recv->action
/home/oukoku/public_html/shop/data/downloads/module/mdl_pg_mulpay/class/pages/LC_Page_Mdl_PG_MULPAY_Recv.php(54): LC_Page_Mdl_PG_MULPAY_Recv->lfSetPostLog
/home/oukoku/public_html/shop/data/downloads/module/mdl_pg_mulpay/class/pages/LC_Page_Mdl_PG_MULPAY_Recv.php(836): SC_Mdl_PG_MULPAY->printLog
/home/oukoku/public_html/shop/data/downloads/module/mdl_pg_mulpay/class/SC_Mdl_PG_MULPAY.php(268): GC_Utils::gfPrintLog
2019/07/31 11:30:51 [/shop/user_data/pg_mulpay_recv.php] ******* receiveer data end ******* from 210.175.7.20
customer_id = 
/home/oukoku/public_html/shop/user_data/pg_mulpay_recv.php(15): LC_Page_Mdl_PG_MULPAY_Recv->process
/home/oukoku/public_html/shop/data/downloads/module/mdl_pg_mulpay/class/pages/LC_Page_Mdl_PG_MULPAY_Recv.php(44): LC_Page_Mdl_PG_MULPAY_Recv->action
/home/oukoku/public_html/shop/data/downloads/module/mdl_pg_mulpay/class/pages/LC_Page_Mdl_PG_MULPAY_Recv.php(54): LC_Page_Mdl_PG_MULPAY_Recv->lfSetPostLog
/home/oukoku/public_html/shop/data/downloads/module/mdl_pg_mulpay/class/pages/LC_Page_Mdl_PG_MULPAY_Recv.php(837): SC_Mdl_PG_MULPAY->printLog
/home/oukoku/public_html/shop/data/downloads/module/mdl_pg_mulpay/class/SC_Mdl_PG_MULPAY.php(268): GC_Utils::gfPrintLog
2019/07/31 11:30:51 [/shop/user_data/pg_mulpay_recv.php] pg_mulpay_recv.php set payment data:Array
(
    [ShopID] => 9102288779655
    [AccessID] => 32b8b7453dd88123298fedafdb1c48c2
    [OrderID] => 451-26081320
    [Status] => SALES
    [JobCd] => SALES
    [Amount] => 8052
    [Tax] => 0
    [Currency] => JPN
    [Forward] => 2a99661
    [Method] => 1
    [PayTimes] => 
    [TranID] => 1907290928602257217875110068
    [Approve] => 0710068
    [TranDate] => 20190731113051
    [ErrCode] => 
    [ErrInfo] => 
    [PayType] => 0
    [CvsCode] => 
    [CvsConfNo] => 
    [CvsReceiptNo] => 
    [EdyReceiptNo] => 
    [EdyOrderNo] => 
    [SuicaReceiptNo] => 
    [SuicaOrderNo] => 
    [CustID] => 
    [BkCode] => 
    [ConfNo] => 
    [PaymentTerm] => 
    [EncryptReceiptNo] => 
    [FinishDate] => 
    [ReceiptDate] => 
    [WebMoneyManagementNo] => 
    [WebMoneySettleCode] => 
    [AuPayInfoNo] => 
    [AuPayMethod] => 
    [AuCancelAmount] => 
    [AuCancelTax] => 
    [DocomoSettlementCode] => 
    [DocomoCancelAmount] => 
    [DocomoCancelTax] => 
    [pay_status] => 12
)
 from 210.175.7.20
customer_id = 
/home/oukoku/public_html/shop/user_data/pg_mulpay_recv.php(15): LC_Page_Mdl_PG_MULPAY_Recv->process
/home/oukoku/public_html/shop/data/downloads/module/mdl_pg_mulpay/class/pages/LC_Page_Mdl_PG_MULPAY_Recv.php(44): LC_Page_Mdl_PG_MULPAY_Recv->action
/home/oukoku/public_html/shop/data/downloads/module/mdl_pg_mulpay/class/pages/LC_Page_Mdl_PG_MULPAY_Recv.php(91): LC_Page_Mdl_PG_MULPAY_Recv->lfDoReceive
/home/oukoku/public_html/shop/data/downloads/module/mdl_pg_mulpay/class/pages/LC_Page_Mdl_PG_MULPAY_Recv.php(226): SC_Util_PG_MULPAY->setOrderPayData
/home/oukoku/public_html/shop/data/downloads/module/mdl_pg_mulpay/class/util/SC_Util_PG_MULPAY.php(501): SC_Mdl_PG_MULPAY->printLog
/home/oukoku/public_html/shop/data/downloads/module/mdl_pg_mulpay/class/SC_Mdl_PG_MULPAY.php(268): GC_Utils::gfPrintLog
2019/07/31 11:30:51 [/shop/user_data/pg_mulpay_recv.php] response:true from 210.175.7.20
customer_id = 
/home/oukoku/public_html/shop/user_data/pg_mulpay_recv.php(15): LC_Page_Mdl_PG_MULPAY_Recv->process
/home/oukoku/public_html/shop/data/downloads/module/mdl_pg_mulpay/class/pages/LC_Page_Mdl_PG_MULPAY_Recv.php(44): LC_Page_Mdl_PG_MULPAY_Recv->action
/home/oukoku/public_html/shop/data/downloads/module/mdl_pg_mulpay/class/pages/LC_Page_Mdl_PG_MULPAY_Recv.php(93): LC_Page_Mdl_PG_MULPAY_Recv->lfSendResponse
/home/oukoku/public_html/shop/data/downloads/module/mdl_pg_mulpay/class/pages/LC_Page_Mdl_PG_MULPAY_Recv.php(849): SC_Mdl_PG_MULPAY->printLog
/home/oukoku/public_html/shop/data/downloads/module/mdl_pg_mulpay/class/SC_Mdl_PG_MULPAY.php(268): GC_Utils::gfPrintLog
2019/07/31 16:41:03 [/shop/kanri/order/edit.php] SendRequest:https://p01.mul-pay.jp/payment/AlterTran.idPass from 219.116.191.87
login_id = oukokuadmin(0)[ubu08iofjcf4n5tgfniou69jk1]
/home/oukoku/public_html/shop/kanri/order/edit.php(28): LC_Page_Admin_Order_Edit_Ex->init
/home/oukoku/public_html/shop/data/class_extends/page_extends/admin/order/LC_Page_Admin_Order_Edit_Ex.php(44): LC_Page_Admin_Order_Edit->init
/home/oukoku/public_html/shop/data/class/pages/admin/order/LC_Page_Admin_Order_Edit.php(93): LC_Page_Admin_Order_Ex->init
/home/oukoku/public_html/shop/data/class_extends/page_extends/admin/order/LC_Page_Admin_Order_Ex.php(44): LC_Page_Admin_Order->init
/home/oukoku/public_html/shop/data/class/pages/admin/order/LC_Page_Admin_Order.php(42): LC_Page_Admin->init
/home/oukoku/public_html/shop/data/class/pages/admin/LC_Page_Admin.php(78): SC_Helper_Plugin->doAction
/home/oukoku/public_html/shop/data/class/helper/SC_Helper_Plugin.php(145): call_user_func_array
(): PgMulpayUtils->hookActionBefore
/home/oukoku/public_html/shop/data/downloads/plugin/PgMulpayUtils/PgMulpayUtils.php(143): PgMulpayUtils->callHookAction
/home/oukoku/public_html/shop/data/downloads/plugin/PgMulpayUtils/PgMulpayUtils.php(157): LC_PgMulpayUtils->actionHook
/home/oukoku/public_html/shop/data/downloads/module/mdl_pg_mulpay/class/plugin/LC_PgMulpayUtils.php(155): LC_PgMulpayUtils->lfDoAdminOrderEditBefore
/home/oukoku/public_html/shop/data/downloads/module/mdl_pg_mulpay/class/plugin/LC_PgMulpayUtils.php(385): SC_Mdl_PG_MULPAY_Client_Util->commitOrder
/home/oukoku/public_html/shop/data/downloads/module/mdl_pg_mulpay/class/client/SC_Mdl_PG_MULPAY_Client_Util.php(318): SC_Mdl_PG_MULPAY_Client_Base->sendRequest
/home/oukoku/public_html/shop/data/downloads/module/mdl_pg_mulpay/class/client/SC_Mdl_PG_MULPAY_Client_Base.php(375): SC_Mdl_PG_MULPAY->printLog
/home/oukoku/public_html/shop/data/downloads/module/mdl_pg_mulpay/class/SC_Mdl_PG_MULPAY.php(268): GC_Utils::gfPrintLog
2019/07/31 16:41:03 [/shop/kanri/order/edit.php] Array
(
    [ShopID] => 9102288779655
    [ShopPass] => ******
    [AccessID] => e1ef5eeea84a2d8544cd63c3a88b59a0
    [AccessPass] => 3720f9df7bdc69e1ad7666ad484cacef
    [JobCd] => SALES
    [Amount] => 47304
)
 from 219.116.191.87
login_id = oukokuadmin(0)[ubu08iofjcf4n5tgfniou69jk1]
/home/oukoku/public_html/shop/kanri/order/edit.php(28): LC_Page_Admin_Order_Edit_Ex->init
/home/oukoku/public_html/shop/data/class_extends/page_extends/admin/order/LC_Page_Admin_Order_Edit_Ex.php(44): LC_Page_Admin_Order_Edit->init
/home/oukoku/public_html/shop/data/class/pages/admin/order/LC_Page_Admin_Order_Edit.php(93): LC_Page_Admin_Order_Ex->init
/home/oukoku/public_html/shop/data/class_extends/page_extends/admin/order/LC_Page_Admin_Order_Ex.php(44): LC_Page_Admin_Order->init
/home/oukoku/public_html/shop/data/class/pages/admin/order/LC_Page_Admin_Order.php(42): LC_Page_Admin->init
/home/oukoku/public_html/shop/data/class/pages/admin/LC_Page_Admin.php(78): SC_Helper_Plugin->doAction
/home/oukoku/public_html/shop/data/class/helper/SC_Helper_Plugin.php(145): call_user_func_array
(): PgMulpayUtils->hookActionBefore
/home/oukoku/public_html/shop/data/downloads/plugin/PgMulpayUtils/PgMulpayUtils.php(143): PgMulpayUtils->callHookAction
/home/oukoku/public_html/shop/data/downloads/plugin/PgMulpayUtils/PgMulpayUtils.php(157): LC_PgMulpayUtils->actionHook
/home/oukoku/public_html/shop/data/downloads/module/mdl_pg_mulpay/class/plugin/LC_PgMulpayUtils.php(155): LC_PgMulpayUtils->lfDoAdminOrderEditBefore
/home/oukoku/public_html/shop/data/downloads/module/mdl_pg_mulpay/class/plugin/LC_PgMulpayUtils.php(385): SC_Mdl_PG_MULPAY_Client_Util->commitOrder
/home/oukoku/public_html/shop/data/downloads/module/mdl_pg_mulpay/class/client/SC_Mdl_PG_MULPAY_Client_Util.php(318): SC_Mdl_PG_MULPAY_Client_Base->sendRequest
/home/oukoku/public_html/shop/data/downloads/module/mdl_pg_mulpay/class/client/SC_Mdl_PG_MULPAY_Client_Base.php(376): SC_Mdl_PG_MULPAY->printLog
/home/oukoku/public_html/shop/data/downloads/module/mdl_pg_mulpay/class/SC_Mdl_PG_MULPAY.php(268): GC_Utils::gfPrintLog
2019/07/31 16:41:03 [/shop/kanri/order/edit.php] AccessID=e1ef5eeea84a2d8544cd63c3a88b59a0&AccessPass=3720f9df7bdc69e1ad7666ad484cacef&Forward=2S49631&Approve=0523231&TranID=1907191503602257217875130078&TranDate=20190731164103 from 219.116.191.87
login_id = oukokuadmin(0)[ubu08iofjcf4n5tgfniou69jk1]
/home/oukoku/public_html/shop/kanri/order/edit.php(28): LC_Page_Admin_Order_Edit_Ex->init
/home/oukoku/public_html/shop/data/class_extends/page_extends/admin/order/LC_Page_Admin_Order_Edit_Ex.php(44): LC_Page_Admin_Order_Edit->init
/home/oukoku/public_html/shop/data/class/pages/admin/order/LC_Page_Admin_Order_Edit.php(93): LC_Page_Admin_Order_Ex->init
/home/oukoku/public_html/shop/data/class_extends/page_extends/admin/order/LC_Page_Admin_Order_Ex.php(44): LC_Page_Admin_Order->init
/home/oukoku/public_html/shop/data/class/pages/admin/order/LC_Page_Admin_Order.php(42): LC_Page_Admin->init
/home/oukoku/public_html/shop/data/class/pages/admin/LC_Page_Admin.php(78): SC_Helper_Plugin->doAction
/home/oukoku/public_html/shop/data/class/helper/SC_Helper_Plugin.php(145): call_user_func_array
(): PgMulpayUtils->hookActionBefore
/home/oukoku/public_html/shop/data/downloads/plugin/PgMulpayUtils/PgMulpayUtils.php(143): PgMulpayUtils->callHookAction
/home/oukoku/public_html/shop/data/downloads/plugin/PgMulpayUtils/PgMulpayUtils.php(157): LC_PgMulpayUtils->actionHook
/home/oukoku/public_html/shop/data/downloads/module/mdl_pg_mulpay/class/plugin/LC_PgMulpayUtils.php(155): LC_PgMulpayUtils->lfDoAdminOrderEditBefore
/home/oukoku/public_html/shop/data/downloads/module/mdl_pg_mulpay/class/plugin/LC_PgMulpayUtils.php(385): SC_Mdl_PG_MULPAY_Client_Util->commitOrder
/home/oukoku/public_html/shop/data/downloads/module/mdl_pg_mulpay/class/client/SC_Mdl_PG_MULPAY_Client_Util.php(318): SC_Mdl_PG_MULPAY_Client_Base->sendRequest
/home/oukoku/public_html/shop/data/downloads/module/mdl_pg_mulpay/class/client/SC_Mdl_PG_MULPAY_Client_Base.php(418): SC_Mdl_PG_MULPAY_Client_Base->parseResponse
/home/oukoku/public_html/shop/data/downloads/module/mdl_pg_mulpay/class/client/SC_Mdl_PG_MULPAY_Client_Base.php(446): SC_Mdl_PG_MULPAY->printLog
/home/oukoku/public_html/shop/data/downloads/module/mdl_pg_mulpay/class/SC_Mdl_PG_MULPAY.php(268): GC_Utils::gfPrintLog
2019/07/31 16:41:03 [/shop/kanri/order/edit.php] Array
(
    [0] => Array
        (
            [AccessID] => e1ef5eeea84a2d8544cd63c3a88b59a0
            [AccessPass] => 3720f9df7bdc69e1ad7666ad484cacef
            [Forward] => 2S49631
            [Approve] => 0523231
            [TranID] => 1907191503602257217875130078
            [TranDate] => 20190731164103
        )

)
 from 219.116.191.87
login_id = oukokuadmin(0)[ubu08iofjcf4n5tgfniou69jk1]
/home/oukoku/public_html/shop/kanri/order/edit.php(28): LC_Page_Admin_Order_Edit_Ex->init
/home/oukoku/public_html/shop/data/class_extends/page_extends/admin/order/LC_Page_Admin_Order_Edit_Ex.php(44): LC_Page_Admin_Order_Edit->init
/home/oukoku/public_html/shop/data/class/pages/admin/order/LC_Page_Admin_Order_Edit.php(93): LC_Page_Admin_Order_Ex->init
/home/oukoku/public_html/shop/data/class_extends/page_extends/admin/order/LC_Page_Admin_Order_Ex.php(44): LC_Page_Admin_Order->init
/home/oukoku/public_html/shop/data/class/pages/admin/order/LC_Page_Admin_Order.php(42): LC_Page_Admin->init
/home/oukoku/public_html/shop/data/class/pages/admin/LC_Page_Admin.php(78): SC_Helper_Plugin->doAction
/home/oukoku/public_html/shop/data/class/helper/SC_Helper_Plugin.php(145): call_user_func_array
(): PgMulpayUtils->hookActionBefore
/home/oukoku/public_html/shop/data/downloads/plugin/PgMulpayUtils/PgMulpayUtils.php(143): PgMulpayUtils->callHookAction
/home/oukoku/public_html/shop/data/downloads/plugin/PgMulpayUtils/PgMulpayUtils.php(157): LC_PgMulpayUtils->actionHook
/home/oukoku/public_html/shop/data/downloads/module/mdl_pg_mulpay/class/plugin/LC_PgMulpayUtils.php(155): LC_PgMulpayUtils->lfDoAdminOrderEditBefore
/home/oukoku/public_html/shop/data/downloads/module/mdl_pg_mulpay/class/plugin/LC_PgMulpayUtils.php(385): SC_Mdl_PG_MULPAY_Client_Util->commitOrder
/home/oukoku/public_html/shop/data/downloads/module/mdl_pg_mulpay/class/client/SC_Mdl_PG_MULPAY_Client_Util.php(318): SC_Mdl_PG_MULPAY_Client_Base->sendRequest
/home/oukoku/public_html/shop/data/downloads/module/mdl_pg_mulpay/class/client/SC_Mdl_PG_MULPAY_Client_Base.php(419): SC_Mdl_PG_MULPAY_Client_Base->setResults
/home/oukoku/public_html/shop/data/downloads/module/mdl_pg_mulpay/class/client/SC_Mdl_PG_MULPAY_Client_Base.php(533): SC_Mdl_PG_MULPAY->printLog
/home/oukoku/public_html/shop/data/downloads/module/mdl_pg_mulpay/class/SC_Mdl_PG_MULPAY.php(268): GC_Utils::gfPrintLog
2019/07/31 16:41:03 [/shop/kanri/order/edit.php] edit.php set payment data:Array
(
    [AccessID] => e1ef5eeea84a2d8544cd63c3a88b59a0
    [AccessPass] => 3720f9df7bdc69e1ad7666ad484cacef
    [Forward] => 2S49631
    [Approve] => 0523231
    [TranID] => 1907191503602257217875130078
    [TranDate] => 20190731164103
    [action_status] => 6
    [pay_status] => 12
)
 from 219.116.191.87
login_id = oukokuadmin(0)[ubu08iofjcf4n5tgfniou69jk1]
/home/oukoku/public_html/shop/kanri/order/edit.php(28): LC_Page_Admin_Order_Edit_Ex->init
/home/oukoku/public_html/shop/data/class_extends/page_extends/admin/order/LC_Page_Admin_Order_Edit_Ex.php(44): LC_Page_Admin_Order_Edit->init
/home/oukoku/public_html/shop/data/class/pages/admin/order/LC_Page_Admin_Order_Edit.php(93): LC_Page_Admin_Order_Ex->init
/home/oukoku/public_html/shop/data/class_extends/page_extends/admin/order/LC_Page_Admin_Order_Ex.php(44): LC_Page_Admin_Order->init
/home/oukoku/public_html/shop/data/class/pages/admin/order/LC_Page_Admin_Order.php(42): LC_Page_Admin->init
/home/oukoku/public_html/shop/data/class/pages/admin/LC_Page_Admin.php(78): SC_Helper_Plugin->doAction
/home/oukoku/public_html/shop/data/class/helper/SC_Helper_Plugin.php(145): call_user_func_array
(): PgMulpayUtils->hookActionBefore
/home/oukoku/public_html/shop/data/downloads/plugin/PgMulpayUtils/PgMulpayUtils.php(143): PgMulpayUtils->callHookAction
/home/oukoku/public_html/shop/data/downloads/plugin/PgMulpayUtils/PgMulpayUtils.php(157): LC_PgMulpayUtils->actionHook
/home/oukoku/public_html/shop/data/downloads/module/mdl_pg_mulpay/class/plugin/LC_PgMulpayUtils.php(155): LC_PgMulpayUtils->lfDoAdminOrderEditBefore
/home/oukoku/public_html/shop/data/downloads/module/mdl_pg_mulpay/class/plugin/LC_PgMulpayUtils.php(385): SC_Mdl_PG_MULPAY_Client_Util->commitOrder
/home/oukoku/public_html/shop/data/downloads/module/mdl_pg_mulpay/class/client/SC_Mdl_PG_MULPAY_Client_Util.php(332): SC_Util_PG_MULPAY->setOrderPayData
/home/oukoku/public_html/shop/data/downloads/module/mdl_pg_mulpay/class/util/SC_Util_PG_MULPAY.php(501): SC_Mdl_PG_MULPAY->printLog
/home/oukoku/public_html/shop/data/downloads/module/mdl_pg_mulpay/class/SC_Mdl_PG_MULPAY.php(268): GC_Utils::gfPrintLog
2019/07/31 16:41:03 [/shop/user_data/pg_mulpay_recv.php] ******* receiveer data start ******* from 210.175.7.20
customer_id = 
/home/oukoku/public_html/shop/user_data/pg_mulpay_recv.php(15): LC_Page_Mdl_PG_MULPAY_Recv->process
/home/oukoku/public_html/shop/data/downloads/module/mdl_pg_mulpay/class/pages/LC_Page_Mdl_PG_MULPAY_Recv.php(44): LC_Page_Mdl_PG_MULPAY_Recv->action
/home/oukoku/public_html/shop/data/downloads/module/mdl_pg_mulpay/class/pages/LC_Page_Mdl_PG_MULPAY_Recv.php(54): LC_Page_Mdl_PG_MULPAY_Recv->lfSetPostLog
/home/oukoku/public_html/shop/data/downloads/module/mdl_pg_mulpay/class/pages/LC_Page_Mdl_PG_MULPAY_Recv.php(832): SC_Mdl_PG_MULPAY->printLog
/home/oukoku/public_html/shop/data/downloads/module/mdl_pg_mulpay/class/SC_Mdl_PG_MULPAY.php(268): GC_Utils::gfPrintLog
2019/07/31 16:41:03 [/shop/user_data/pg_mulpay_recv.php] Array
(
    [ShopID] => 9102288779655
    [ShopPass] => **********
    [AccessID] => e1ef5eeea84a2d8544cd63c3a88b59a0
    [AccessPass] => ********************************
    [OrderID] => 442-19150354
    [Status] => SALES
    [JobCd] => SALES
    [Amount] => 47304
    [Tax] => 0
    [Currency] => JPN
    [Forward] => 2S49631
    [Method] => 1
    [PayTimes] => 
    [TranID] => 1907191503602257217875130078
    [Approve] => 0523231
    [TranDate] => 20190731164103
    [ErrCode] => 
    [ErrInfo] => 
    [PayType] => 0
    [CvsCode] => 
    [CvsConfNo] => 
    [CvsReceiptNo] => 
    [EdyReceiptNo] => 
    [EdyOrderNo] => 
    [SuicaReceiptNo] => 
    [SuicaOrderNo] => 
    [CustID] => 
    [BkCode] => 
    [ConfNo] => 
    [PaymentTerm] => 
    [EncryptReceiptNo] => 
    [FinishDate] => 
    [ReceiptDate] => 
    [PayeasyPaymentURL] => 
    [WebMoneyManagementNo] => 
    [WebMoneySettleCode] => 
    [AuPayInfoNo] => 
    [AuPayMethod] => 
    [AuCancelAmount] => 
    [AuCancelTax] => 
    [DocomoSettlementCode] => 
    [DocomoCancelAmount] => 
    [DocomoCancelTax] => 
    [DocomoIncreaseAmount] => 
    [DocomoIncreaseTax] => 
    [SbTrackingId] => 
    [SbCancelAmount] => 
    [SbCancelTax] => 
    [JibunReceiptNo] => 
    [AuFirstAmount] => 
    [AuFirstTax] => 
    [AuAccountMonth] => 
    [AuContinueAccountId] => 
    [JcbPrecaSalesCode] => 
    [RequestNo] => 
    [AccountNo] => 
    [CenterCode] => 
    [NetCashPayType] => 
    [OrderDate] => 
    [CompletionDate] => 
    [RakutenidCouponFee] => 
    [McpPayInDate] => 
    [McpPayInAmount] => 
    [McpPayOutDate] => 
    [McpPayOutAmount] => 
    [RED_REQ_ID] => 
    [RED_ORD_ID] => 
    [RED_STAT_CD] => 
    [RED_FRAUD_STAT_CD] => 
    [RED_FRAUD_RSP_CD] => 
    [RED_FRAUD_REC_ID] => 
    [ProductName] => 
    [CancelAmount] => 
    [CancelTax] => 
    [PayMethod] => 
    [VaRequestAmount] => 
    [VaExpireDate] => 
    [VaTradeReason] => 
    [VaTradeClientName] => 
    [VaTradeClientMailaddress] => 
    [VaBankCode] => 
    [VaBankName] => 
    [VaBranchCode] => 
    [VaBranchName] => 
    [VaAccountType] => 
    [VaAccountNumber] => 
    [VaInInquiryNumber] => 
    [VaInSettlementDate] => 
    [VaInAmount] => 
    [VaInClientCode] => 
    [VaInClientName] => 
    [VaInSummary] => 
    [VaReserveID] => 
    [VaTradeCode] => 
    [SbStartChargeMonth] => 
    [SbChargeDay] => 
    [RcCustomerId] => 
    [RcUsePoint] => 
    [RcOrderId] => 
    [RcUpdateAuthDay] => 
    [RcUseCoupon] => 
    [RcUseShopCoupon] => 
    [RcContractId] => 
    [RcStartChargeMonth] => 
    [RcChargeDay] => 
    [RecurringID] => 
    [RecurringMethod] => 
    [RecurringChargeStartDate] => 
    [RecurringChargeStopDate] => 
    [RecurringChargeMonth] => 
    [RecurringChargeDay] => 
    [RecurringNextChargeDate] => 
    [BaSiteId] => 
    [BaMemberId] => 
    [BaTargetDate] => 
    [BaRequestAcceptEndDate] => 
    [BaTransferReturnDate] => 
    [BaWithdrawalDate] => 
    [BaResultcode] => 
    [PaidCancelAmount] => 
    [PaidCancelTax] => 
    [PaidBuyerID] => 
    [PaidCode] => 
    [PrecaNo] => 
    [PrecaSeq] => 
    [PrecaExpireDate] => 
    [ChargeType] => 
    [QuickID] => 
    [CampaignUrl] => 
    [DocomoAcceptCode] => 
    [PvFrontBillKey] => 
    [PvResultCode] => 
    [PvReceiptDatetime] => 
    [PvReceiptAgencyCode] => 
    [PvBarcode] => 
    [PvCvsCode] => 
    [PvCvsBranchCode] => 
    [PvPaymentAmount] => 
    [RakutenidSubscriptionId] => 
    [RakutenidSettlementSubscriptionId] => 
    [AuAcceptCode] => 
    [SbAcceptCode] => 
    [PaysleResultCode] => 
    [BankCode] => 
    [BankTranDate] => 
    [GanbProcessType] => 
    [GanbRequestAmount] => 
    [GanbExpireDate] => 
    [GanbTradeReason] => 
    [GanbTradeClientName] => 
    [GanbTradeClientMailaddress] => 
    [GanbBankCode] => 
    [GanbBankName] => 
    [GanbBranchCode] => 
    [GanbBranchName] => 
    [GanbAccountType] => 
    [GanbAccountNumber] => 
    [GanbAccountHolderName] => 
    [GanbInSettlementDate] => 
    [GanbInAmount] => 
    [GanbInClientName] => 
    [GanbInRemittingBankName] => 
    [GanbInRemittingBranchName] => 
    [GanbTotalTransferAmount] => 
    [GanbTotalTransferCount] => 
)
 from 210.175.7.20
customer_id = 
/home/oukoku/public_html/shop/user_data/pg_mulpay_recv.php(15): LC_Page_Mdl_PG_MULPAY_Recv->process
/home/oukoku/public_html/shop/data/downloads/module/mdl_pg_mulpay/class/pages/LC_Page_Mdl_PG_MULPAY_Recv.php(44): LC_Page_Mdl_PG_MULPAY_Recv->action
/home/oukoku/public_html/shop/data/downloads/module/mdl_pg_mulpay/class/pages/LC_Page_Mdl_PG_MULPAY_Recv.php(54): LC_Page_Mdl_PG_MULPAY_Recv->lfSetPostLog
/home/oukoku/public_html/shop/data/downloads/module/mdl_pg_mulpay/class/pages/LC_Page_Mdl_PG_MULPAY_Recv.php(836): SC_Mdl_PG_MULPAY->printLog
/home/oukoku/public_html/shop/data/downloads/module/mdl_pg_mulpay/class/SC_Mdl_PG_MULPAY.php(268): GC_Utils::gfPrintLog
2019/07/31 16:41:03 [/shop/user_data/pg_mulpay_recv.php] ******* receiveer data end ******* from 210.175.7.20
customer_id = 
/home/oukoku/public_html/shop/user_data/pg_mulpay_recv.php(15): LC_Page_Mdl_PG_MULPAY_Recv->process
/home/oukoku/public_html/shop/data/downloads/module/mdl_pg_mulpay/class/pages/LC_Page_Mdl_PG_MULPAY_Recv.php(44): LC_Page_Mdl_PG_MULPAY_Recv->action
/home/oukoku/public_html/shop/data/downloads/module/mdl_pg_mulpay/class/pages/LC_Page_Mdl_PG_MULPAY_Recv.php(54): LC_Page_Mdl_PG_MULPAY_Recv->lfSetPostLog
/home/oukoku/public_html/shop/data/downloads/module/mdl_pg_mulpay/class/pages/LC_Page_Mdl_PG_MULPAY_Recv.php(837): SC_Mdl_PG_MULPAY->printLog
/home/oukoku/public_html/shop/data/downloads/module/mdl_pg_mulpay/class/SC_Mdl_PG_MULPAY.php(268): GC_Utils::gfPrintLog
2019/07/31 16:41:03 [/shop/user_data/pg_mulpay_recv.php] pg_mulpay_recv.php set payment data:Array
(
    [ShopID] => 9102288779655
    [AccessID] => e1ef5eeea84a2d8544cd63c3a88b59a0
    [OrderID] => 442-19150354
    [Status] => SALES
    [JobCd] => SALES
    [Amount] => 47304
    [Tax] => 0
    [Currency] => JPN
    [Forward] => 2S49631
    [Method] => 1
    [PayTimes] => 
    [TranID] => 1907191503602257217875130078
    [Approve] => 0523231
    [TranDate] => 20190731164103
    [ErrCode] => 
    [ErrInfo] => 
    [PayType] => 0
    [CvsCode] => 
    [CvsConfNo] => 
    [CvsReceiptNo] => 
    [EdyReceiptNo] => 
    [EdyOrderNo] => 
    [SuicaReceiptNo] => 
    [SuicaOrderNo] => 
    [CustID] => 
    [BkCode] => 
    [ConfNo] => 
    [PaymentTerm] => 
    [EncryptReceiptNo] => 
    [FinishDate] => 
    [ReceiptDate] => 
    [WebMoneyManagementNo] => 
    [WebMoneySettleCode] => 
    [AuPayInfoNo] => 
    [AuPayMethod] => 
    [AuCancelAmount] => 
    [AuCancelTax] => 
    [DocomoSettlementCode] => 
    [DocomoCancelAmount] => 
    [DocomoCancelTax] => 
    [pay_status] => 12
)
 from 210.175.7.20
customer_id = 
/home/oukoku/public_html/shop/user_data/pg_mulpay_recv.php(15): LC_Page_Mdl_PG_MULPAY_Recv->process
/home/oukoku/public_html/shop/data/downloads/module/mdl_pg_mulpay/class/pages/LC_Page_Mdl_PG_MULPAY_Recv.php(44): LC_Page_Mdl_PG_MULPAY_Recv->action
/home/oukoku/public_html/shop/data/downloads/module/mdl_pg_mulpay/class/pages/LC_Page_Mdl_PG_MULPAY_Recv.php(91): LC_Page_Mdl_PG_MULPAY_Recv->lfDoReceive
/home/oukoku/public_html/shop/data/downloads/module/mdl_pg_mulpay/class/pages/LC_Page_Mdl_PG_MULPAY_Recv.php(226): SC_Util_PG_MULPAY->setOrderPayData
/home/oukoku/public_html/shop/data/downloads/module/mdl_pg_mulpay/class/util/SC_Util_PG_MULPAY.php(501): SC_Mdl_PG_MULPAY->printLog
/home/oukoku/public_html/shop/data/downloads/module/mdl_pg_mulpay/class/SC_Mdl_PG_MULPAY.php(268): GC_Utils::gfPrintLog
2019/07/31 16:41:03 [/shop/user_data/pg_mulpay_recv.php] response:true from 210.175.7.20
customer_id = 
/home/oukoku/public_html/shop/user_data/pg_mulpay_recv.php(15): LC_Page_Mdl_PG_MULPAY_Recv->process
/home/oukoku/public_html/shop/data/downloads/module/mdl_pg_mulpay/class/pages/LC_Page_Mdl_PG_MULPAY_Recv.php(44): LC_Page_Mdl_PG_MULPAY_Recv->action
/home/oukoku/public_html/shop/data/downloads/module/mdl_pg_mulpay/class/pages/LC_Page_Mdl_PG_MULPAY_Recv.php(93): LC_Page_Mdl_PG_MULPAY_Recv->lfSendResponse
/home/oukoku/public_html/shop/data/downloads/module/mdl_pg_mulpay/class/pages/LC_Page_Mdl_PG_MULPAY_Recv.php(849): SC_Mdl_PG_MULPAY->printLog
/home/oukoku/public_html/shop/data/downloads/module/mdl_pg_mulpay/class/SC_Mdl_PG_MULPAY.php(268): GC_Utils::gfPrintLog
