2020/06/18 11:07:28 [/shop/user_data/pg_mulpay_recv.php] ******* receiveer data start ******* from 210.175.7.20
2020/06/18 11:07:28 [/shop/user_data/pg_mulpay_recv.php] Array
(
    [ShopID] => 9102288779655
    [ShopPass] => **********
    [AccessID] => a472418abb61c0fd35d0b21e3f2bc89d
    [AccessPass] => ********************************
    [OrderID] => 1707-17184211
    [Status] => PAYSUCCESS
    [Amount] => 5170
    [Tax] => 0
    [Currency] => JPN
    [TranID] => 20061700000233338149
    [TranDate] => 20200618110707
    [ErrCode] => 
    [ErrInfo] => 
    [PayType] => 3
    [CvsCode] => 10002
    [CvsConfNo] => 20020
    [CvsReceiptNo] => 810050146259
    [PaymentTerm] => 20200621235959
    [FinishDate] => 20200618105900
    [ReceiptDate] => 20200617184211
)
 from 210.175.7.20
2020/06/18 11:07:28 [/shop/user_data/pg_mulpay_recv.php] ******* receiveer data end ******* from 210.175.7.20
2020/06/18 11:07:28 [/shop/user_data/pg_mulpay_recv.php] update order status:6 from 210.175.7.20
2020/06/18 11:07:28 [/shop/user_data/pg_mulpay_recv.php] pg_mulpay_recv.php set payment data:Array
(
    [ShopID] => 9102288779655
    [AccessID] => a472418abb61c0fd35d0b21e3f2bc89d
    [OrderID] => 1707-17184211
    [Status] => PAYSUCCESS
    [JobCd] => 
    [Amount] => 5170
    [Tax] => 0
    [Currency] => JPN
    [Forward] => 
    [Method] => 
    [PayTimes] => 
    [TranID] => 20061700000233338149
    [Approve] => 
    [TranDate] => 20200618110707
    [ErrCode] => 
    [ErrInfo] => 
    [PayType] => 3
    [CvsCode] => 10002
    [CvsConfNo] => 20020
    [CvsReceiptNo] => 810050146259
    [EdyReceiptNo] => 
    [EdyOrderNo] => 
    [SuicaReceiptNo] => 
    [SuicaOrderNo] => 
    [CustID] => 
    [BkCode] => 
    [PaymentTerm] => 20200621235959
    [EncryptReceiptNo] => 
    [FinishDate] => 20200618105900
    [ReceiptDate] => 20200617184211
    [WebMoneyManagementNo] => 
    [WebMoneySettleCode] => 
    [AuPayInfoNo] => 
    [AuPayMethod] => 
    [AuCancelAmount] => 
    [AuCancelTax] => 
    [DocomoSettlementCode] => 
    [DocomoCancelAmount] => 
    [DocomoCancelTax] => 
    [pay_status] => 2
)
 from 210.175.7.20
2020/06/18 11:07:28 [/shop/user_data/pg_mulpay_recv.php] response:true from 210.175.7.20
2020/06/18 14:32:47 [/shop/kanri/order/index.php] SendRequest:https://p01.mul-pay.jp/payment/AlterTran.idPass from 220.146.181.208
2020/06/18 14:32:47 [/shop/kanri/order/index.php] Array
(
    [ShopID] => 9102288779655
    [ShopPass] => ******
    [AccessID] => 7804d594754cc56b1917227db8fec7c7
    [AccessPass] => 7e6c85c80a5d7ab99c69562f9e95574d
    [JobCd] => SALES
    [Amount] => 25960
)
 from 220.146.181.208
2020/06/18 14:32:48 [/shop/kanri/order/index.php] AccessID=7804d594754cc56b1917227db8fec7c7&AccessPass=7e6c85c80a5d7ab99c69562f9e95574d&Forward=2a99661&Approve=0167475&TranID=2006141520602257217875120341&TranDate=20200618143248 from 220.146.181.208
2020/06/18 14:32:48 [/shop/kanri/order/index.php] Array
(
    [0] => Array
        (
            [AccessID] => 7804d594754cc56b1917227db8fec7c7
            [AccessPass] => 7e6c85c80a5d7ab99c69562f9e95574d
            [Forward] => 2a99661
            [Approve] => 0167475
            [TranID] => 2006141520602257217875120341
            [TranDate] => 20200618143248
        )

)
 from 220.146.181.208
2020/06/18 14:32:48 [/shop/kanri/order/index.php] index.php set payment data:Array
(
    [AccessID] => 7804d594754cc56b1917227db8fec7c7
    [AccessPass] => 7e6c85c80a5d7ab99c69562f9e95574d
    [Forward] => 2a99661
    [Approve] => 0167475
    [TranID] => 2006141520602257217875120341
    [TranDate] => 20200618143248
    [action_status] => 6
    [pay_status] => 12
)
 from 220.146.181.208
2020/06/18 14:32:48 [/shop/user_data/pg_mulpay_recv.php] ******* receiveer data start ******* from 210.175.7.20
2020/06/18 14:32:48 [/shop/user_data/pg_mulpay_recv.php] Array
(
    [ShopID] => 9102288779655
    [ShopPass] => **********
    [AccessID] => 7804d594754cc56b1917227db8fec7c7
    [AccessPass] => ********************************
    [OrderID] => 1698-14152014
    [Status] => SALES
    [JobCd] => SALES
    [Amount] => 25960
    [Tax] => 0
    [Currency] => JPN
    [Forward] => 2a99661
    [Method] => 1
    [PayTimes] => 
    [TranID] => 2006141520602257217875120341
    [Approve] => 0167475
    [TranDate] => 20200618143248
    [ErrCode] => 
    [ErrInfo] => 
    [PayType] => 0
)
 from 210.175.7.20
2020/06/18 14:32:48 [/shop/user_data/pg_mulpay_recv.php] ******* receiveer data end ******* from 210.175.7.20
2020/06/18 14:32:48 [/shop/user_data/pg_mulpay_recv.php] pg_mulpay_recv.php set payment data:Array
(
    [ShopID] => 9102288779655
    [AccessID] => 7804d594754cc56b1917227db8fec7c7
    [OrderID] => 1698-14152014
    [Status] => SALES
    [JobCd] => SALES
    [Amount] => 25960
    [Tax] => 0
    [Currency] => JPN
    [Forward] => 2a99661
    [Method] => 1
    [PayTimes] => 
    [TranID] => 2006141520602257217875120341
    [Approve] => 0167475
    [TranDate] => 20200618143248
    [ErrCode] => 
    [ErrInfo] => 
    [PayType] => 0
    [CvsCode] => 
    [CvsConfNo] => 
    [CvsReceiptNo] => 
    [EdyReceiptNo] => 
    [EdyOrderNo] => 
    [SuicaReceiptNo] => 
    [SuicaOrderNo] => 
    [CustID] => 
    [BkCode] => 
    [ConfNo] => 
    [PaymentTerm] => 
    [EncryptReceiptNo] => 
    [FinishDate] => 
    [ReceiptDate] => 
    [WebMoneyManagementNo] => 
    [WebMoneySettleCode] => 
    [AuPayInfoNo] => 
    [AuPayMethod] => 
    [AuCancelAmount] => 
    [AuCancelTax] => 
    [DocomoSettlementCode] => 
    [DocomoCancelAmount] => 
    [DocomoCancelTax] => 
    [pay_status] => 12
)
 from 210.175.7.20
2020/06/18 14:32:48 [/shop/user_data/pg_mulpay_recv.php] response:true from 210.175.7.20
2020/06/18 14:32:59 [/shop/kanri/order/index.php] SendRequest:https://p01.mul-pay.jp/payment/AlterTran.idPass from 220.146.181.208
2020/06/18 14:32:59 [/shop/kanri/order/index.php] Array
(
    [ShopID] => 9102288779655
    [ShopPass] => ******
    [AccessID] => 8fad3688e3883c1d4e52cd4d5994c3eb
    [AccessPass] => f0e42a9f5d6d478486cbda12ee115d4e
    [JobCd] => SALES
    [Amount] => 7480
)
 from 220.146.181.208
2020/06/18 14:32:59 [/shop/kanri/order/index.php] AccessID=8fad3688e3883c1d4e52cd4d5994c3eb&AccessPass=f0e42a9f5d6d478486cbda12ee115d4e&Forward=2a99661&Approve=0593212&TranID=2006072213602257217875100030&TranDate=20200618143259 from 220.146.181.208
2020/06/18 14:32:59 [/shop/kanri/order/index.php] Array
(
    [0] => Array
        (
            [AccessID] => 8fad3688e3883c1d4e52cd4d5994c3eb
            [AccessPass] => f0e42a9f5d6d478486cbda12ee115d4e
            [Forward] => 2a99661
            [Approve] => 0593212
            [TranID] => 2006072213602257217875100030
            [TranDate] => 20200618143259
        )

)
 from 220.146.181.208
2020/06/18 14:32:59 [/shop/kanri/order/index.php] index.php set payment data:Array
(
    [AccessID] => 8fad3688e3883c1d4e52cd4d5994c3eb
    [AccessPass] => f0e42a9f5d6d478486cbda12ee115d4e
    [Forward] => 2a99661
    [Approve] => 0593212
    [TranID] => 2006072213602257217875100030
    [TranDate] => 20200618143259
    [action_status] => 6
    [pay_status] => 12
)
 from 220.146.181.208
2020/06/18 14:33:00 [/shop/user_data/pg_mulpay_recv.php] ******* receiveer data start ******* from 210.175.7.20
2020/06/18 14:33:00 [/shop/user_data/pg_mulpay_recv.php] Array
(
    [ShopID] => 9102288779655
    [ShopPass] => **********
    [AccessID] => 8fad3688e3883c1d4e52cd4d5994c3eb
    [AccessPass] => ********************************
    [OrderID] => 1663-07221356
    [Status] => SALES
    [JobCd] => SALES
    [Amount] => 7480
    [Tax] => 0
    [Currency] => JPN
    [Forward] => 2a99661
    [Method] => 1
    [PayTimes] => 
    [TranID] => 2006072213602257217875100030
    [Approve] => 0593212
    [TranDate] => 20200618143259
    [ErrCode] => 
    [ErrInfo] => 
    [PayType] => 0
)
 from 210.175.7.20
2020/06/18 14:33:00 [/shop/user_data/pg_mulpay_recv.php] ******* receiveer data end ******* from 210.175.7.20
2020/06/18 14:33:00 [/shop/user_data/pg_mulpay_recv.php] pg_mulpay_recv.php set payment data:Array
(
    [ShopID] => 9102288779655
    [AccessID] => 8fad3688e3883c1d4e52cd4d5994c3eb
    [OrderID] => 1663-07221356
    [Status] => SALES
    [JobCd] => SALES
    [Amount] => 7480
    [Tax] => 0
    [Currency] => JPN
    [Forward] => 2a99661
    [Method] => 1
    [PayTimes] => 
    [TranID] => 2006072213602257217875100030
    [Approve] => 0593212
    [TranDate] => 20200618143259
    [ErrCode] => 
    [ErrInfo] => 
    [PayType] => 0
    [CvsCode] => 
    [CvsConfNo] => 
    [CvsReceiptNo] => 
    [EdyReceiptNo] => 
    [EdyOrderNo] => 
    [SuicaReceiptNo] => 
    [SuicaOrderNo] => 
    [CustID] => 
    [BkCode] => 
    [ConfNo] => 
    [PaymentTerm] => 
    [EncryptReceiptNo] => 
    [FinishDate] => 
    [ReceiptDate] => 
    [WebMoneyManagementNo] => 
    [WebMoneySettleCode] => 
    [AuPayInfoNo] => 
    [AuPayMethod] => 
    [AuCancelAmount] => 
    [AuCancelTax] => 
    [DocomoSettlementCode] => 
    [DocomoCancelAmount] => 
    [DocomoCancelTax] => 
    [pay_status] => 12
)
 from 210.175.7.20
2020/06/18 14:33:00 [/shop/user_data/pg_mulpay_recv.php] response:true from 210.175.7.20
2020/06/18 14:33:02 [/shop/kanri/order/index.php] SendRequest:https://p01.mul-pay.jp/payment/AlterTran.idPass from 220.146.181.208
2020/06/18 14:33:02 [/shop/kanri/order/index.php] Array
(
    [ShopID] => 9102288779655
    [ShopPass] => ******
    [AccessID] => 0befd70f832591d604a5b3daff9bcf77
    [AccessPass] => 6ee61a30d61d8485a724fa6d080940a7
    [JobCd] => SALES
    [Amount] => 22330
)
 from 220.146.181.208
2020/06/18 14:33:03 [/shop/kanri/order/index.php] AccessID=0befd70f832591d604a5b3daff9bcf77&AccessPass=6ee61a30d61d8485a724fa6d080940a7&Forward=2S49631&Approve=0730305&TranID=2006072102602257217875130305&TranDate=20200618143303 from 220.146.181.208
2020/06/18 14:33:03 [/shop/kanri/order/index.php] Array
(
    [0] => Array
        (
            [AccessID] => 0befd70f832591d604a5b3daff9bcf77
            [AccessPass] => 6ee61a30d61d8485a724fa6d080940a7
            [Forward] => 2S49631
            [Approve] => 0730305
            [TranID] => 2006072102602257217875130305
            [TranDate] => 20200618143303
        )

)
 from 220.146.181.208
2020/06/18 14:33:03 [/shop/kanri/order/index.php] index.php set payment data:Array
(
    [AccessID] => 0befd70f832591d604a5b3daff9bcf77
    [AccessPass] => 6ee61a30d61d8485a724fa6d080940a7
    [Forward] => 2S49631
    [Approve] => 0730305
    [TranID] => 2006072102602257217875130305
    [TranDate] => 20200618143303
    [action_status] => 6
    [pay_status] => 12
)
 from 220.146.181.208
2020/06/18 14:33:03 [/shop/user_data/pg_mulpay_recv.php] ******* receiveer data start ******* from 210.175.7.20
2020/06/18 14:33:03 [/shop/user_data/pg_mulpay_recv.php] Array
(
    [ShopID] => 9102288779655
    [ShopPass] => **********
    [AccessID] => 0befd70f832591d604a5b3daff9bcf77
    [AccessPass] => ********************************
    [OrderID] => 1661-07210217
    [Status] => SALES
    [JobCd] => SALES
    [Amount] => 22330
    [Tax] => 0
    [Currency] => JPN
    [Forward] => 2S49631
    [Method] => 1
    [PayTimes] => 
    [TranID] => 2006072102602257217875130305
    [Approve] => 0730305
    [TranDate] => 20200618143303
    [ErrCode] => 
    [ErrInfo] => 
    [PayType] => 0
)
 from 210.175.7.20
2020/06/18 14:33:03 [/shop/user_data/pg_mulpay_recv.php] ******* receiveer data end ******* from 210.175.7.20
2020/06/18 14:33:03 [/shop/user_data/pg_mulpay_recv.php] pg_mulpay_recv.php set payment data:Array
(
    [ShopID] => 9102288779655
    [AccessID] => 0befd70f832591d604a5b3daff9bcf77
    [OrderID] => 1661-07210217
    [Status] => SALES
    [JobCd] => SALES
    [Amount] => 22330
    [Tax] => 0
    [Currency] => JPN
    [Forward] => 2S49631
    [Method] => 1
    [PayTimes] => 
    [TranID] => 2006072102602257217875130305
    [Approve] => 0730305
    [TranDate] => 20200618143303
    [ErrCode] => 
    [ErrInfo] => 
    [PayType] => 0
    [CvsCode] => 
    [CvsConfNo] => 
    [CvsReceiptNo] => 
    [EdyReceiptNo] => 
    [EdyOrderNo] => 
    [SuicaReceiptNo] => 
    [SuicaOrderNo] => 
    [CustID] => 
    [BkCode] => 
    [ConfNo] => 
    [PaymentTerm] => 
    [EncryptReceiptNo] => 
    [FinishDate] => 
    [ReceiptDate] => 
    [WebMoneyManagementNo] => 
    [WebMoneySettleCode] => 
    [AuPayInfoNo] => 
    [AuPayMethod] => 
    [AuCancelAmount] => 
    [AuCancelTax] => 
    [DocomoSettlementCode] => 
    [DocomoCancelAmount] => 
    [DocomoCancelTax] => 
    [pay_status] => 12
)
 from 210.175.7.20
2020/06/18 14:33:03 [/shop/user_data/pg_mulpay_recv.php] response:true from 210.175.7.20
2020/06/18 14:33:10 [/shop/kanri/order/index.php] SendRequest:https://p01.mul-pay.jp/payment/AlterTran.idPass from 220.146.181.208
2020/06/18 14:33:10 [/shop/kanri/order/index.php] Array
(
    [ShopID] => 9102288779655
    [ShopPass] => ******
    [AccessID] => 36d4dd661618f2ab05058fc813e18fa8
    [AccessPass] => a4a0aaa2cc8f80bbb1d69966edc57b3a
    [JobCd] => SALES
    [Amount] => 27720
)
 from 220.146.181.208
2020/06/18 14:33:10 [/shop/kanri/order/index.php] AccessID=36d4dd661618f2ab05058fc813e18fa8&AccessPass=a4a0aaa2cc8f80bbb1d69966edc57b3a&Forward=2S49631&Approve=0004807&TranID=2006071330602257217875100028&TranDate=20200618143310 from 220.146.181.208
2020/06/18 14:33:10 [/shop/kanri/order/index.php] Array
(
    [0] => Array
        (
            [AccessID] => 36d4dd661618f2ab05058fc813e18fa8
            [AccessPass] => a4a0aaa2cc8f80bbb1d69966edc57b3a
            [Forward] => 2S49631
            [Approve] => 0004807
            [TranID] => 2006071330602257217875100028
            [TranDate] => 20200618143310
        )

)
 from 220.146.181.208
2020/06/18 14:33:10 [/shop/kanri/order/index.php] index.php set payment data:Array
(
    [AccessID] => 36d4dd661618f2ab05058fc813e18fa8
    [AccessPass] => a4a0aaa2cc8f80bbb1d69966edc57b3a
    [Forward] => 2S49631
    [Approve] => 0004807
    [TranID] => 2006071330602257217875100028
    [TranDate] => 20200618143310
    [action_status] => 6
    [pay_status] => 12
)
 from 220.146.181.208
2020/06/18 14:33:11 [/shop/user_data/pg_mulpay_recv.php] ******* receiveer data start ******* from 210.175.7.20
2020/06/18 14:33:11 [/shop/user_data/pg_mulpay_recv.php] Array
(
    [ShopID] => 9102288779655
    [ShopPass] => **********
    [AccessID] => 36d4dd661618f2ab05058fc813e18fa8
    [AccessPass] => ********************************
    [OrderID] => 1656-07133031
    [Status] => SALES
    [JobCd] => SALES
    [Amount] => 27720
    [Tax] => 0
    [Currency] => JPN
    [Forward] => 2S49631
    [Method] => 1
    [PayTimes] => 
    [TranID] => 2006071330602257217875100028
    [Approve] => 0004807
    [TranDate] => 20200618143310
    [ErrCode] => 
    [ErrInfo] => 
    [PayType] => 0
)
 from 210.175.7.20
2020/06/18 14:33:11 [/shop/user_data/pg_mulpay_recv.php] ******* receiveer data end ******* from 210.175.7.20
2020/06/18 14:33:11 [/shop/user_data/pg_mulpay_recv.php] pg_mulpay_recv.php set payment data:Array
(
    [ShopID] => 9102288779655
    [AccessID] => 36d4dd661618f2ab05058fc813e18fa8
    [OrderID] => 1656-07133031
    [Status] => SALES
    [JobCd] => SALES
    [Amount] => 27720
    [Tax] => 0
    [Currency] => JPN
    [Forward] => 2S49631
    [Method] => 1
    [PayTimes] => 
    [TranID] => 2006071330602257217875100028
    [Approve] => 0004807
    [TranDate] => 20200618143310
    [ErrCode] => 
    [ErrInfo] => 
    [PayType] => 0
    [CvsCode] => 
    [CvsConfNo] => 
    [CvsReceiptNo] => 
    [EdyReceiptNo] => 
    [EdyOrderNo] => 
    [SuicaReceiptNo] => 
    [SuicaOrderNo] => 
    [CustID] => 
    [BkCode] => 
    [ConfNo] => 
    [PaymentTerm] => 
    [EncryptReceiptNo] => 
    [FinishDate] => 
    [ReceiptDate] => 
    [WebMoneyManagementNo] => 
    [WebMoneySettleCode] => 
    [AuPayInfoNo] => 
    [AuPayMethod] => 
    [AuCancelAmount] => 
    [AuCancelTax] => 
    [DocomoSettlementCode] => 
    [DocomoCancelAmount] => 
    [DocomoCancelTax] => 
    [pay_status] => 12
)
 from 210.175.7.20
2020/06/18 14:33:11 [/shop/user_data/pg_mulpay_recv.php] response:true from 210.175.7.20
2020/06/18 14:33:12 [/shop/kanri/order/index.php] SendRequest:https://p01.mul-pay.jp/payment/DocomoSales.idPass from 220.146.181.208
2020/06/18 14:33:12 [/shop/kanri/order/index.php] Array
(
    [ShopID] => 9102288779655
    [ShopPass] => ******
    [AccessID] => 2429317ccf57c2d9c33f465f8bab8f5d
    [AccessPass] => 454f4cfbe4eb4e164d3abecd134e9463
    [OrderID] => 1666-08142832
    [Amount] => 11440
)
 from 220.146.181.208
2020/06/18 14:33:13 [/shop/kanri/order/index.php] OrderID=1666-08142832&Status=SALES&Amount=11440&Tax=0 from 220.146.181.208
2020/06/18 14:33:13 [/shop/kanri/order/index.php] Array
(
    [0] => Array
        (
            [OrderID] => 1666-08142832
            [Status] => SALES
            [Amount] => 11440
            [Tax] => 0
        )

)
 from 220.146.181.208
2020/06/18 14:33:13 [/shop/kanri/order/index.php] index.php set payment data:Array
(
    [OrderID] => 1666-08142832
    [Status] => SALES
    [Amount] => 11440
    [Tax] => 0
    [action_status] => 6
    [pay_status] => 12
)
 from 220.146.181.208
2020/06/18 14:33:13 [/shop/user_data/pg_mulpay_recv.php] ******* receiveer data start ******* from 210.175.7.20
2020/06/18 14:33:13 [/shop/user_data/pg_mulpay_recv.php] Array
(
    [ShopID] => 9102288779655
    [ShopPass] => **********
    [AccessID] => 2429317ccf57c2d9c33f465f8bab8f5d
    [AccessPass] => ********************************
    [OrderID] => 1666-08142832
    [Status] => SALES
    [JobCd] => SALES
    [Amount] => 11440
    [Tax] => 0
    [Currency] => 
    [Forward] => 
    [Method] => 
    [PayTimes] => 
    [TranID] => 
    [Approve] => 
    [TranDate] => 20200618143313
    [ErrCode] => 
    [ErrInfo] => 
    [PayType] => 9
    [CvsCode] => 
    [CvsConfNo] => 
    [CvsReceiptNo] => 
    [EdyReceiptNo] => 
    [EdyOrderNo] => 
    [SuicaReceiptNo] => 
    [SuicaOrderNo] => 
    [CustID] => 
    [BkCode] => 
    [ConfNo] => 
    [PaymentTerm] => 
    [EncryptReceiptNo] => 
    [FinishDate] => 
    [ReceiptDate] => 
    [PayeasyPaymentURL] => 
    [WebMoneyManagementNo] => 
    [WebMoneySettleCode] => 
    [AuPayInfoNo] => 
    [AuPayMethod] => 
    [AuCancelAmount] => 
    [AuCancelTax] => 
    [DocomoSettlementCode] => 403590417232
    [DocomoCancelAmount] => 0
    [DocomoCancelTax] => 0
    [DocomoIncreaseAmount] => 0
    [DocomoIncreaseTax] => 0
    [SbTrackingId] => 
    [SbCancelAmount] => 
    [SbCancelTax] => 
    [JibunReceiptNo] => 
    [AuFirstAmount] => 
    [AuFirstTax] => 
    [AuAccountMonth] => 
    [AuContinueAccountId] => 
    [JcbPrecaSalesCode] => 
    [RequestNo] => 
    [AccountNo] => 
    [CenterCode] => 
    [NetCashPayType] => 
    [OrderDate] => 
    [CompletionDate] => 
    [RakutenidCouponFee] => 
    [McpPayInDate] => 
    [McpPayInAmount] => 
    [McpPayOutDate] => 
    [McpPayOutAmount] => 
    [RED_REQ_ID] => 
    [RED_ORD_ID] => 
    [RED_STAT_CD] => 
    [RED_FRAUD_STAT_CD] => 
    [RED_FRAUD_RSP_CD] => 
    [RED_FRAUD_REC_ID] => 
    [ProductName] => 
    [CancelAmount] => 
    [CancelTax] => 
    [PayMethod] => 
    [VaRequestAmount] => 
    [VaExpireDate] => 
    [VaTradeReason] => 
    [VaTradeClientName] => 
    [VaTradeClientMailaddress] => 
    [VaBankCode] => 
    [VaBankName] => 
    [VaBranchCode] => 
    [VaBranchName] => 
    [VaAccountType] => 
    [VaAccountNumber] => 
    [VaInInquiryNumber] => 
    [VaInSettlementDate] => 
    [VaInAmount] => 
    [VaInClientCode] => 
    [VaInClientName] => 
    [VaInSummary] => 
    [VaReserveID] => 
    [VaTradeCode] => 
    [SbStartChargeMonth] => 
    [SbChargeDay] => 
    [RcCustomerId] => 
    [RcUsePoint] => 
    [RcOrderId] => 
    [RcUpdateAuthDay] => 
    [RcUseCoupon] => 
    [RcUseShopCoupon] => 
    [RcContractId] => 
    [RcStartChargeMonth] => 
    [RcChargeDay] => 
    [RecurringID] => 
    [RecurringMethod] => 
    [RecurringChargeStartDate] => 
    [RecurringChargeStopDate] => 
    [RecurringChargeMonth] => 
    [RecurringChargeDay] => 
    [RecurringNextChargeDate] => 
    [BaSiteId] => 
    [BaMemberId] => 
    [BaTargetDate] => 
    [BaRequestAcceptEndDate] => 
    [BaTransferReturnDate] => 
    [BaWithdrawalDate] => 
    [BaResultcode] => 
    [PaidCancelAmount] => 
    [PaidCancelTax] => 
    [PaidBuyerID] => 
    [PaidCode] => 
    [PrecaNo] => 
    [PrecaSeq] => 
    [PrecaExpireDate] => 
    [ChargeType] => 
    [QuickID] => 
    [CampaignUrl] => 
    [DocomoAcceptCode] => 
    [PvFrontBillKey] => 
    [PvResultCode] => 
    [PvReceiptDatetime] => 
    [PvReceiptAgencyCode] => 
    [PvBarcode] => 
    [PvCvsCode] => 
    [PvCvsBranchCode] => 
    [PvPaymentAmount] => 
    [RakutenidSubscriptionId] => 
    [RakutenidSettlementSubscriptionId] => 
    [AuAcceptCode] => 
    [SbAcceptCode] => 
    [PaysleResultCode] => 
    [BankCode] => 
    [BankTranDate] => 
    [GanbProcessType] => 
    [GanbRequestAmount] => 
    [GanbExpireDate] => 
    [GanbTradeReason] => 
    [GanbTradeClientName] => 
    [GanbTradeClientMailaddress] => 
    [GanbBankCode] => 
    [GanbBankName] => 
    [GanbBranchCode] => 
    [GanbBranchName] => 
    [GanbAccountType] => 
    [GanbAccountNumber] => 
    [GanbAccountHolderName] => 
    [GanbInSettlementDate] => 
    [GanbInAmount] => 
    [GanbInClientName] => 
    [GanbInRemittingBankName] => 
    [GanbInRemittingBranchName] => 
    [GanbTotalTransferAmount] => 
    [GanbTotalTransferCount] => 
)
 from 210.175.7.20
2020/06/18 14:33:13 [/shop/user_data/pg_mulpay_recv.php] ******* receiveer data end ******* from 210.175.7.20
2020/06/18 14:33:13 [/shop/user_data/pg_mulpay_recv.php] pg_mulpay_recv.php set payment data:Array
(
    [ShopID] => 9102288779655
    [AccessID] => 2429317ccf57c2d9c33f465f8bab8f5d
    [OrderID] => 1666-08142832
    [Status] => SALES
    [JobCd] => SALES
    [Amount] => 11440
    [Tax] => 0
    [Currency] => 
    [Forward] => 
    [Method] => 
    [PayTimes] => 
    [TranID] => 
    [Approve] => 
    [TranDate] => 20200618143313
    [ErrCode] => 
    [ErrInfo] => 
    [PayType] => 9
    [CvsCode] => 
    [CvsConfNo] => 
    [CvsReceiptNo] => 
    [EdyReceiptNo] => 
    [EdyOrderNo] => 
    [SuicaReceiptNo] => 
    [SuicaOrderNo] => 
    [CustID] => 
    [BkCode] => 
    [ConfNo] => 
    [PaymentTerm] => 
    [EncryptReceiptNo] => 
    [FinishDate] => 
    [ReceiptDate] => 
    [WebMoneyManagementNo] => 
    [WebMoneySettleCode] => 
    [AuPayInfoNo] => 
    [AuPayMethod] => 
    [AuCancelAmount] => 
    [AuCancelTax] => 
    [DocomoSettlementCode] => 403590417232
    [DocomoCancelAmount] => 0
    [DocomoCancelTax] => 0
    [pay_status] => 12
)
 from 210.175.7.20
2020/06/18 14:33:13 [/shop/user_data/pg_mulpay_recv.php] response:true from 210.175.7.20
2020/06/18 14:33:15 [/shop/kanri/order/index.php] SendRequest:https://p01.mul-pay.jp/payment/AlterTran.idPass from 220.146.181.208
2020/06/18 14:33:15 [/shop/kanri/order/index.php] Array
(
    [ShopID] => 9102288779655
    [ShopPass] => ******
    [AccessID] => 1dba3dc7c50639c2740fce56ad41c352
    [AccessPass] => 25fc055442f175464e20c30e4953f419
    [JobCd] => SALES
    [Amount] => 28336
)
 from 220.146.181.208
2020/06/18 14:33:15 [/shop/kanri/order/index.php] AccessID=1dba3dc7c50639c2740fce56ad41c352&AccessPass=25fc055442f175464e20c30e4953f419&Forward=2959876&Approve=4720335&TranID=2006101235602257217875120335&TranDate=20200618143315 from 220.146.181.208
2020/06/18 14:33:15 [/shop/kanri/order/index.php] Array
(
    [0] => Array
        (
            [AccessID] => 1dba3dc7c50639c2740fce56ad41c352
            [AccessPass] => 25fc055442f175464e20c30e4953f419
            [Forward] => 2959876
            [Approve] => 4720335
            [TranID] => 2006101235602257217875120335
            [TranDate] => 20200618143315
        )

)
 from 220.146.181.208
2020/06/18 14:33:15 [/shop/kanri/order/index.php] index.php set payment data:Array
(
    [AccessID] => 1dba3dc7c50639c2740fce56ad41c352
    [AccessPass] => 25fc055442f175464e20c30e4953f419
    [Forward] => 2959876
    [Approve] => 4720335
    [TranID] => 2006101235602257217875120335
    [TranDate] => 20200618143315
    [action_status] => 6
    [pay_status] => 12
)
 from 220.146.181.208
2020/06/18 14:33:15 [/shop/user_data/pg_mulpay_recv.php] ******* receiveer data start ******* from 210.175.7.20
2020/06/18 14:33:15 [/shop/user_data/pg_mulpay_recv.php] Array
(
    [ShopID] => 9102288779655
    [ShopPass] => **********
    [AccessID] => 1dba3dc7c50639c2740fce56ad41c352
    [AccessPass] => ********************************
    [OrderID] => 1676-10123502
    [Status] => SALES
    [JobCd] => SALES
    [Amount] => 28336
    [Tax] => 0
    [Currency] => JPN
    [Forward] => 2959876
    [Method] => 1
    [PayTimes] => 
    [TranID] => 2006101235602257217875120335
    [Approve] => 4720335
    [TranDate] => 20200618143315
    [ErrCode] => 
    [ErrInfo] => 
    [PayType] => 0
)
 from 210.175.7.20
2020/06/18 14:33:15 [/shop/user_data/pg_mulpay_recv.php] ******* receiveer data end ******* from 210.175.7.20
2020/06/18 14:33:15 [/shop/user_data/pg_mulpay_recv.php] pg_mulpay_recv.php set payment data:Array
(
    [ShopID] => 9102288779655
    [AccessID] => 1dba3dc7c50639c2740fce56ad41c352
    [OrderID] => 1676-10123502
    [Status] => SALES
    [JobCd] => SALES
    [Amount] => 28336
    [Tax] => 0
    [Currency] => JPN
    [Forward] => 2959876
    [Method] => 1
    [PayTimes] => 
    [TranID] => 2006101235602257217875120335
    [Approve] => 4720335
    [TranDate] => 20200618143315
    [ErrCode] => 
    [ErrInfo] => 
    [PayType] => 0
    [CvsCode] => 
    [CvsConfNo] => 
    [CvsReceiptNo] => 
    [EdyReceiptNo] => 
    [EdyOrderNo] => 
    [SuicaReceiptNo] => 
    [SuicaOrderNo] => 
    [CustID] => 
    [BkCode] => 
    [ConfNo] => 
    [PaymentTerm] => 
    [EncryptReceiptNo] => 
    [FinishDate] => 
    [ReceiptDate] => 
    [WebMoneyManagementNo] => 
    [WebMoneySettleCode] => 
    [AuPayInfoNo] => 
    [AuPayMethod] => 
    [AuCancelAmount] => 
    [AuCancelTax] => 
    [DocomoSettlementCode] => 
    [DocomoCancelAmount] => 
    [DocomoCancelTax] => 
    [pay_status] => 12
)
 from 210.175.7.20
2020/06/18 14:33:15 [/shop/user_data/pg_mulpay_recv.php] response:true from 210.175.7.20
2020/06/18 14:37:28 [/shop/kanri/order/index.php] SendRequest:https://p01.mul-pay.jp/payment/AlterTran.idPass from 220.146.181.208
2020/06/18 14:37:28 [/shop/kanri/order/index.php] Array
(
    [ShopID] => 9102288779655
    [ShopPass] => ******
    [AccessID] => a83fdac764eb68034e643ac8fb5f350b
    [AccessPass] => 6da5edf2d474488dd886f7311816c8ad
    [JobCd] => SALES
    [Amount] => 23540
)
 from 220.146.181.208
2020/06/18 14:37:28 [/shop/kanri/order/index.php] AccessID=a83fdac764eb68034e643ac8fb5f350b&AccessPass=6da5edf2d474488dd886f7311816c8ad&Forward=2a99660&Approve=0441568&TranID=2006101319602257217875100032&TranDate=20200618143728 from 220.146.181.208
2020/06/18 14:37:28 [/shop/kanri/order/index.php] Array
(
    [0] => Array
        (
            [AccessID] => a83fdac764eb68034e643ac8fb5f350b
            [AccessPass] => 6da5edf2d474488dd886f7311816c8ad
            [Forward] => 2a99660
            [Approve] => 0441568
            [TranID] => 2006101319602257217875100032
            [TranDate] => 20200618143728
        )

)
 from 220.146.181.208
2020/06/18 14:37:28 [/shop/kanri/order/index.php] index.php set payment data:Array
(
    [AccessID] => a83fdac764eb68034e643ac8fb5f350b
    [AccessPass] => 6da5edf2d474488dd886f7311816c8ad
    [Forward] => 2a99660
    [Approve] => 0441568
    [TranID] => 2006101319602257217875100032
    [TranDate] => 20200618143728
    [action_status] => 6
    [pay_status] => 12
)
 from 220.146.181.208
2020/06/18 14:37:29 [/shop/user_data/pg_mulpay_recv.php] ******* receiveer data start ******* from 210.175.7.20
2020/06/18 14:37:29 [/shop/user_data/pg_mulpay_recv.php] Array
(
    [ShopID] => 9102288779655
    [ShopPass] => **********
    [AccessID] => a83fdac764eb68034e643ac8fb5f350b
    [AccessPass] => ********************************
    [OrderID] => 1677-10131945
    [Status] => SALES
    [JobCd] => SALES
    [Amount] => 23540
    [Tax] => 0
    [Currency] => JPN
    [Forward] => 2a99660
    [Method] => 1
    [PayTimes] => 
    [TranID] => 2006101319602257217875100032
    [Approve] => 0441568
    [TranDate] => 20200618143728
    [ErrCode] => 
    [ErrInfo] => 
    [PayType] => 0
)
 from 210.175.7.20
2020/06/18 14:37:29 [/shop/user_data/pg_mulpay_recv.php] ******* receiveer data end ******* from 210.175.7.20
2020/06/18 14:37:29 [/shop/user_data/pg_mulpay_recv.php] pg_mulpay_recv.php set payment data:Array
(
    [ShopID] => 9102288779655
    [AccessID] => a83fdac764eb68034e643ac8fb5f350b
    [OrderID] => 1677-10131945
    [Status] => SALES
    [JobCd] => SALES
    [Amount] => 23540
    [Tax] => 0
    [Currency] => JPN
    [Forward] => 2a99660
    [Method] => 1
    [PayTimes] => 
    [TranID] => 2006101319602257217875100032
    [Approve] => 0441568
    [TranDate] => 20200618143728
    [ErrCode] => 
    [ErrInfo] => 
    [PayType] => 0
    [CvsCode] => 
    [CvsConfNo] => 
    [CvsReceiptNo] => 
    [EdyReceiptNo] => 
    [EdyOrderNo] => 
    [SuicaReceiptNo] => 
    [SuicaOrderNo] => 
    [CustID] => 
    [BkCode] => 
    [ConfNo] => 
    [PaymentTerm] => 
    [EncryptReceiptNo] => 
    [FinishDate] => 
    [ReceiptDate] => 
    [WebMoneyManagementNo] => 
    [WebMoneySettleCode] => 
    [AuPayInfoNo] => 
    [AuPayMethod] => 
    [AuCancelAmount] => 
    [AuCancelTax] => 
    [DocomoSettlementCode] => 
    [DocomoCancelAmount] => 
    [DocomoCancelTax] => 
    [pay_status] => 12
)
 from 210.175.7.20
2020/06/18 14:37:29 [/shop/user_data/pg_mulpay_recv.php] response:true from 210.175.7.20
2020/06/18 14:37:30 [/shop/kanri/order/index.php] SendRequest:https://p01.mul-pay.jp/payment/AlterTran.idPass from 220.146.181.208
2020/06/18 14:37:30 [/shop/kanri/order/index.php] Array
(
    [ShopID] => 9102288779655
    [ShopPass] => ******
    [AccessID] => abb6a6cc42c2cea8d57659e85d1b1aff
    [AccessPass] => f8c1f924ef4f0b3ab46c587d397c7770
    [JobCd] => SALES
    [Amount] => 18348
)
 from 220.146.181.208
2020/06/18 14:37:30 [/shop/kanri/order/index.php] AccessID=abb6a6cc42c2cea8d57659e85d1b1aff&AccessPass=f8c1f924ef4f0b3ab46c587d397c7770&Forward=2a99661&Approve=0102400&TranID=2006092115602257217875120334&TranDate=20200618143730 from 220.146.181.208
2020/06/18 14:37:30 [/shop/kanri/order/index.php] Array
(
    [0] => Array
        (
            [AccessID] => abb6a6cc42c2cea8d57659e85d1b1aff
            [AccessPass] => f8c1f924ef4f0b3ab46c587d397c7770
            [Forward] => 2a99661
            [Approve] => 0102400
            [TranID] => 2006092115602257217875120334
            [TranDate] => 20200618143730
        )

)
 from 220.146.181.208
2020/06/18 14:37:30 [/shop/kanri/order/index.php] index.php set payment data:Array
(
    [AccessID] => abb6a6cc42c2cea8d57659e85d1b1aff
    [AccessPass] => f8c1f924ef4f0b3ab46c587d397c7770
    [Forward] => 2a99661
    [Approve] => 0102400
    [TranID] => 2006092115602257217875120334
    [TranDate] => 20200618143730
    [action_status] => 6
    [pay_status] => 12
)
 from 220.146.181.208
2020/06/18 14:37:31 [/shop/user_data/pg_mulpay_recv.php] ******* receiveer data start ******* from 210.175.7.20
2020/06/18 14:37:31 [/shop/user_data/pg_mulpay_recv.php] Array
(
    [ShopID] => 9102288779655
    [ShopPass] => **********
    [AccessID] => abb6a6cc42c2cea8d57659e85d1b1aff
    [AccessPass] => ********************************
    [OrderID] => 1673-09211503
    [Status] => SALES
    [JobCd] => SALES
    [Amount] => 18348
    [Tax] => 0
    [Currency] => JPN
    [Forward] => 2a99661
    [Method] => 1
    [PayTimes] => 
    [TranID] => 2006092115602257217875120334
    [Approve] => 0102400
    [TranDate] => 20200618143730
    [ErrCode] => 
    [ErrInfo] => 
    [PayType] => 0
)
 from 210.175.7.20
2020/06/18 14:37:31 [/shop/user_data/pg_mulpay_recv.php] ******* receiveer data end ******* from 210.175.7.20
2020/06/18 14:37:31 [/shop/user_data/pg_mulpay_recv.php] pg_mulpay_recv.php set payment data:Array
(
    [ShopID] => 9102288779655
    [AccessID] => abb6a6cc42c2cea8d57659e85d1b1aff
    [OrderID] => 1673-09211503
    [Status] => SALES
    [JobCd] => SALES
    [Amount] => 18348
    [Tax] => 0
    [Currency] => JPN
    [Forward] => 2a99661
    [Method] => 1
    [PayTimes] => 
    [TranID] => 2006092115602257217875120334
    [Approve] => 0102400
    [TranDate] => 20200618143730
    [ErrCode] => 
    [ErrInfo] => 
    [PayType] => 0
    [CvsCode] => 
    [CvsConfNo] => 
    [CvsReceiptNo] => 
    [EdyReceiptNo] => 
    [EdyOrderNo] => 
    [SuicaReceiptNo] => 
    [SuicaOrderNo] => 
    [CustID] => 
    [BkCode] => 
    [ConfNo] => 
    [PaymentTerm] => 
    [EncryptReceiptNo] => 
    [FinishDate] => 
    [ReceiptDate] => 
    [WebMoneyManagementNo] => 
    [WebMoneySettleCode] => 
    [AuPayInfoNo] => 
    [AuPayMethod] => 
    [AuCancelAmount] => 
    [AuCancelTax] => 
    [DocomoSettlementCode] => 
    [DocomoCancelAmount] => 
    [DocomoCancelTax] => 
    [pay_status] => 12
)
 from 210.175.7.20
2020/06/18 14:37:31 [/shop/user_data/pg_mulpay_recv.php] response:true from 210.175.7.20
2020/06/18 14:37:32 [/shop/kanri/order/index.php] SendRequest:https://p01.mul-pay.jp/payment/AlterTran.idPass from 220.146.181.208
2020/06/18 14:37:32 [/shop/kanri/order/index.php] Array
(
    [ShopID] => 9102288779655
    [ShopPass] => ******
    [AccessID] => 1aa20e03d4dff13fdd0ae199b355b504
    [AccessPass] => f46aba401081e7c7f96b364ec3053b43
    [JobCd] => SALES
    [Amount] => 34375
)
 from 220.146.181.208
2020/06/18 14:37:32 [/shop/kanri/order/index.php] AccessID=1aa20e03d4dff13fdd0ae199b355b504&AccessPass=f46aba401081e7c7f96b364ec3053b43&Forward=2S49631&Approve=0730306&TranID=2006082117602257217875130306&TranDate=20200618143732 from 220.146.181.208
2020/06/18 14:37:32 [/shop/kanri/order/index.php] Array
(
    [0] => Array
        (
            [AccessID] => 1aa20e03d4dff13fdd0ae199b355b504
            [AccessPass] => f46aba401081e7c7f96b364ec3053b43
            [Forward] => 2S49631
            [Approve] => 0730306
            [TranID] => 2006082117602257217875130306
            [TranDate] => 20200618143732
        )

)
 from 220.146.181.208
2020/06/18 14:37:32 [/shop/kanri/order/index.php] index.php set payment data:Array
(
    [AccessID] => 1aa20e03d4dff13fdd0ae199b355b504
    [AccessPass] => f46aba401081e7c7f96b364ec3053b43
    [Forward] => 2S49631
    [Approve] => 0730306
    [TranID] => 2006082117602257217875130306
    [TranDate] => 20200618143732
    [action_status] => 6
    [pay_status] => 12
)
 from 220.146.181.208
2020/06/18 14:37:33 [/shop/user_data/pg_mulpay_recv.php] ******* receiveer data start ******* from 210.175.7.20
2020/06/18 14:37:33 [/shop/user_data/pg_mulpay_recv.php] Array
(
    [ShopID] => 9102288779655
    [ShopPass] => **********
    [AccessID] => 1aa20e03d4dff13fdd0ae199b355b504
    [AccessPass] => ********************************
    [OrderID] => 1667-08211742
    [Status] => SALES
    [JobCd] => SALES
    [Amount] => 34375
    [Tax] => 0
    [Currency] => JPN
    [Forward] => 2S49631
    [Method] => 1
    [PayTimes] => 
    [TranID] => 2006082117602257217875130306
    [Approve] => 0730306
    [TranDate] => 20200618143732
    [ErrCode] => 
    [ErrInfo] => 
    [PayType] => 0
)
 from 210.175.7.20
2020/06/18 14:37:33 [/shop/user_data/pg_mulpay_recv.php] ******* receiveer data end ******* from 210.175.7.20
2020/06/18 14:37:33 [/shop/user_data/pg_mulpay_recv.php] pg_mulpay_recv.php set payment data:Array
(
    [ShopID] => 9102288779655
    [AccessID] => 1aa20e03d4dff13fdd0ae199b355b504
    [OrderID] => 1667-08211742
    [Status] => SALES
    [JobCd] => SALES
    [Amount] => 34375
    [Tax] => 0
    [Currency] => JPN
    [Forward] => 2S49631
    [Method] => 1
    [PayTimes] => 
    [TranID] => 2006082117602257217875130306
    [Approve] => 0730306
    [TranDate] => 20200618143732
    [ErrCode] => 
    [ErrInfo] => 
    [PayType] => 0
    [CvsCode] => 
    [CvsConfNo] => 
    [CvsReceiptNo] => 
    [EdyReceiptNo] => 
    [EdyOrderNo] => 
    [SuicaReceiptNo] => 
    [SuicaOrderNo] => 
    [CustID] => 
    [BkCode] => 
    [ConfNo] => 
    [PaymentTerm] => 
    [EncryptReceiptNo] => 
    [FinishDate] => 
    [ReceiptDate] => 
    [WebMoneyManagementNo] => 
    [WebMoneySettleCode] => 
    [AuPayInfoNo] => 
    [AuPayMethod] => 
    [AuCancelAmount] => 
    [AuCancelTax] => 
    [DocomoSettlementCode] => 
    [DocomoCancelAmount] => 
    [DocomoCancelTax] => 
    [pay_status] => 12
)
 from 210.175.7.20
2020/06/18 14:37:33 [/shop/user_data/pg_mulpay_recv.php] response:true from 210.175.7.20
2020/06/18 14:37:34 [/shop/kanri/order/index.php] SendRequest:https://p01.mul-pay.jp/payment/AlterTran.idPass from 220.146.181.208
2020/06/18 14:37:34 [/shop/kanri/order/index.php] Array
(
    [ShopID] => 9102288779655
    [ShopPass] => ******
    [AccessID] => 5d45fac54ace6a8e62e1ce132fb9c003
    [AccessPass] => 2c740d7ce55071d4f5a36e3a864c058e
    [JobCd] => SALES
    [Amount] => 19195
)
 from 220.146.181.208
2020/06/18 14:37:35 [/shop/kanri/order/index.php] AccessID=5d45fac54ace6a8e62e1ce132fb9c003&AccessPass=2c740d7ce55071d4f5a36e3a864c058e&Forward=2S49631&Approve=0004178&TranID=2006101535602257217875120336&TranDate=20200618143735 from 220.146.181.208
2020/06/18 14:37:35 [/shop/kanri/order/index.php] Array
(
    [0] => Array
        (
            [AccessID] => 5d45fac54ace6a8e62e1ce132fb9c003
            [AccessPass] => 2c740d7ce55071d4f5a36e3a864c058e
            [Forward] => 2S49631
            [Approve] => 0004178
            [TranID] => 2006101535602257217875120336
            [TranDate] => 20200618143735
        )

)
 from 220.146.181.208
2020/06/18 14:37:35 [/shop/kanri/order/index.php] index.php set payment data:Array
(
    [AccessID] => 5d45fac54ace6a8e62e1ce132fb9c003
    [AccessPass] => 2c740d7ce55071d4f5a36e3a864c058e
    [Forward] => 2S49631
    [Approve] => 0004178
    [TranID] => 2006101535602257217875120336
    [TranDate] => 20200618143735
    [action_status] => 6
    [pay_status] => 12
)
 from 220.146.181.208
2020/06/18 14:37:35 [/shop/user_data/pg_mulpay_recv.php] ******* receiveer data start ******* from 210.175.7.20
2020/06/18 14:37:35 [/shop/user_data/pg_mulpay_recv.php] Array
(
    [ShopID] => 9102288779655
    [ShopPass] => **********
    [AccessID] => 5d45fac54ace6a8e62e1ce132fb9c003
    [AccessPass] => ********************************
    [OrderID] => 1678-10153520
    [Status] => SALES
    [JobCd] => SALES
    [Amount] => 19195
    [Tax] => 0
    [Currency] => JPN
    [Forward] => 2S49631
    [Method] => 1
    [PayTimes] => 
    [TranID] => 2006101535602257217875120336
    [Approve] => 0004178
    [TranDate] => 20200618143735
    [ErrCode] => 
    [ErrInfo] => 
    [PayType] => 0
)
 from 210.175.7.20
2020/06/18 14:37:35 [/shop/user_data/pg_mulpay_recv.php] ******* receiveer data end ******* from 210.175.7.20
2020/06/18 14:37:35 [/shop/user_data/pg_mulpay_recv.php] pg_mulpay_recv.php set payment data:Array
(
    [ShopID] => 9102288779655
    [AccessID] => 5d45fac54ace6a8e62e1ce132fb9c003
    [OrderID] => 1678-10153520
    [Status] => SALES
    [JobCd] => SALES
    [Amount] => 19195
    [Tax] => 0
    [Currency] => JPN
    [Forward] => 2S49631
    [Method] => 1
    [PayTimes] => 
    [TranID] => 2006101535602257217875120336
    [Approve] => 0004178
    [TranDate] => 20200618143735
    [ErrCode] => 
    [ErrInfo] => 
    [PayType] => 0
    [CvsCode] => 
    [CvsConfNo] => 
    [CvsReceiptNo] => 
    [EdyReceiptNo] => 
    [EdyOrderNo] => 
    [SuicaReceiptNo] => 
    [SuicaOrderNo] => 
    [CustID] => 
    [BkCode] => 
    [ConfNo] => 
    [PaymentTerm] => 
    [EncryptReceiptNo] => 
    [FinishDate] => 
    [ReceiptDate] => 
    [WebMoneyManagementNo] => 
    [WebMoneySettleCode] => 
    [AuPayInfoNo] => 
    [AuPayMethod] => 
    [AuCancelAmount] => 
    [AuCancelTax] => 
    [DocomoSettlementCode] => 
    [DocomoCancelAmount] => 
    [DocomoCancelTax] => 
    [pay_status] => 12
)
 from 210.175.7.20
2020/06/18 14:37:35 [/shop/user_data/pg_mulpay_recv.php] response:true from 210.175.7.20
2020/06/18 14:37:46 [/shop/kanri/order/index.php] SendRequest:https://p01.mul-pay.jp/payment/AlterTran.idPass from 220.146.181.208
2020/06/18 14:37:46 [/shop/kanri/order/index.php] Array
(
    [ShopID] => 9102288779655
    [ShopPass] => ******
    [AccessID] => 4187caa9f5efa4e178b0f149abb48572
    [AccessPass] => b4221851bd444a9f60985f85502a23e5
    [JobCd] => SALES
    [Amount] => 15400
)
 from 220.146.181.208
2020/06/18 14:37:46 [/shop/kanri/order/index.php] AccessID=4187caa9f5efa4e178b0f149abb48572&AccessPass=b4221851bd444a9f60985f85502a23e5&Forward=2S49631&Approve=0003804&TranID=2006091833602257217875130307&TranDate=20200618143746 from 220.146.181.208
2020/06/18 14:37:46 [/shop/kanri/order/index.php] Array
(
    [0] => Array
        (
            [AccessID] => 4187caa9f5efa4e178b0f149abb48572
            [AccessPass] => b4221851bd444a9f60985f85502a23e5
            [Forward] => 2S49631
            [Approve] => 0003804
            [TranID] => 2006091833602257217875130307
            [TranDate] => 20200618143746
        )

)
 from 220.146.181.208
2020/06/18 14:37:46 [/shop/kanri/order/index.php] index.php set payment data:Array
(
    [AccessID] => 4187caa9f5efa4e178b0f149abb48572
    [AccessPass] => b4221851bd444a9f60985f85502a23e5
    [Forward] => 2S49631
    [Approve] => 0003804
    [TranID] => 2006091833602257217875130307
    [TranDate] => 20200618143746
    [action_status] => 6
    [pay_status] => 12
)
 from 220.146.181.208
2020/06/18 14:37:46 [/shop/user_data/pg_mulpay_recv.php] ******* receiveer data start ******* from 210.175.7.20
2020/06/18 14:37:46 [/shop/user_data/pg_mulpay_recv.php] Array
(
    [ShopID] => 9102288779655
    [ShopPass] => **********
    [AccessID] => 4187caa9f5efa4e178b0f149abb48572
    [AccessPass] => ********************************
    [OrderID] => 1671-09183311
    [Status] => SALES
    [JobCd] => SALES
    [Amount] => 15400
    [Tax] => 0
    [Currency] => JPN
    [Forward] => 2S49631
    [Method] => 1
    [PayTimes] => 
    [TranID] => 2006091833602257217875130307
    [Approve] => 0003804
    [TranDate] => 20200618143746
    [ErrCode] => 
    [ErrInfo] => 
    [PayType] => 0
)
 from 210.175.7.20
2020/06/18 14:37:46 [/shop/user_data/pg_mulpay_recv.php] ******* receiveer data end ******* from 210.175.7.20
2020/06/18 14:37:46 [/shop/user_data/pg_mulpay_recv.php] pg_mulpay_recv.php set payment data:Array
(
    [ShopID] => 9102288779655
    [AccessID] => 4187caa9f5efa4e178b0f149abb48572
    [OrderID] => 1671-09183311
    [Status] => SALES
    [JobCd] => SALES
    [Amount] => 15400
    [Tax] => 0
    [Currency] => JPN
    [Forward] => 2S49631
    [Method] => 1
    [PayTimes] => 
    [TranID] => 2006091833602257217875130307
    [Approve] => 0003804
    [TranDate] => 20200618143746
    [ErrCode] => 
    [ErrInfo] => 
    [PayType] => 0
    [CvsCode] => 
    [CvsConfNo] => 
    [CvsReceiptNo] => 
    [EdyReceiptNo] => 
    [EdyOrderNo] => 
    [SuicaReceiptNo] => 
    [SuicaOrderNo] => 
    [CustID] => 
    [BkCode] => 
    [ConfNo] => 
    [PaymentTerm] => 
    [EncryptReceiptNo] => 
    [FinishDate] => 
    [ReceiptDate] => 
    [WebMoneyManagementNo] => 
    [WebMoneySettleCode] => 
    [AuPayInfoNo] => 
    [AuPayMethod] => 
    [AuCancelAmount] => 
    [AuCancelTax] => 
    [DocomoSettlementCode] => 
    [DocomoCancelAmount] => 
    [DocomoCancelTax] => 
    [pay_status] => 12
)
 from 210.175.7.20
2020/06/18 14:37:46 [/shop/user_data/pg_mulpay_recv.php] response:true from 210.175.7.20
2020/06/18 14:39:18 [/shop/kanri/order/index.php] SendRequest:https://p01.mul-pay.jp/payment/AlterTran.idPass from 220.146.181.208
2020/06/18 14:39:18 [/shop/kanri/order/index.php] Array
(
    [ShopID] => 9102288779655
    [ShopPass] => ******
    [AccessID] => e632ae57eefb0d5ace529406c9d48be1
    [AccessPass] => 5e0a3b99673964e1918bcd8d31e1673a
    [JobCd] => SALES
    [Amount] => 49610
)
 from 220.146.181.208
2020/06/18 14:39:18 [/shop/kanri/order/index.php] AccessID=e632ae57eefb0d5ace529406c9d48be1&AccessPass=5e0a3b99673964e1918bcd8d31e1673a&Forward=2S49631&Approve=0313383&TranID=2006081021602257217875100031&TranDate=20200618143918 from 220.146.181.208
2020/06/18 14:39:18 [/shop/kanri/order/index.php] Array
(
    [0] => Array
        (
            [AccessID] => e632ae57eefb0d5ace529406c9d48be1
            [AccessPass] => 5e0a3b99673964e1918bcd8d31e1673a
            [Forward] => 2S49631
            [Approve] => 0313383
            [TranID] => 2006081021602257217875100031
            [TranDate] => 20200618143918
        )

)
 from 220.146.181.208
2020/06/18 14:39:18 [/shop/kanri/order/index.php] index.php set payment data:Array
(
    [AccessID] => e632ae57eefb0d5ace529406c9d48be1
    [AccessPass] => 5e0a3b99673964e1918bcd8d31e1673a
    [Forward] => 2S49631
    [Approve] => 0313383
    [TranID] => 2006081021602257217875100031
    [TranDate] => 20200618143918
    [action_status] => 6
    [pay_status] => 12
)
 from 220.146.181.208
2020/06/18 14:39:19 [/shop/user_data/pg_mulpay_recv.php] ******* receiveer data start ******* from 210.175.7.20
2020/06/18 14:39:19 [/shop/user_data/pg_mulpay_recv.php] Array
(
    [ShopID] => 9102288779655
    [ShopPass] => **********
    [AccessID] => e632ae57eefb0d5ace529406c9d48be1
    [AccessPass] => ********************************
    [OrderID] => 1664-08102144
    [Status] => SALES
    [JobCd] => SALES
    [Amount] => 49610
    [Tax] => 0
    [Currency] => JPN
    [Forward] => 2S49631
    [Method] => 1
    [PayTimes] => 
    [TranID] => 2006081021602257217875100031
    [Approve] => 0313383
    [TranDate] => 20200618143918
    [ErrCode] => 
    [ErrInfo] => 
    [PayType] => 0
)
 from 210.175.7.20
2020/06/18 14:39:19 [/shop/user_data/pg_mulpay_recv.php] ******* receiveer data end ******* from 210.175.7.20
2020/06/18 14:39:19 [/shop/user_data/pg_mulpay_recv.php] pg_mulpay_recv.php set payment data:Array
(
    [ShopID] => 9102288779655
    [AccessID] => e632ae57eefb0d5ace529406c9d48be1
    [OrderID] => 1664-08102144
    [Status] => SALES
    [JobCd] => SALES
    [Amount] => 49610
    [Tax] => 0
    [Currency] => JPN
    [Forward] => 2S49631
    [Method] => 1
    [PayTimes] => 
    [TranID] => 2006081021602257217875100031
    [Approve] => 0313383
    [TranDate] => 20200618143918
    [ErrCode] => 
    [ErrInfo] => 
    [PayType] => 0
    [CvsCode] => 
    [CvsConfNo] => 
    [CvsReceiptNo] => 
    [EdyReceiptNo] => 
    [EdyOrderNo] => 
    [SuicaReceiptNo] => 
    [SuicaOrderNo] => 
    [CustID] => 
    [BkCode] => 
    [ConfNo] => 
    [PaymentTerm] => 
    [EncryptReceiptNo] => 
    [FinishDate] => 
    [ReceiptDate] => 
    [WebMoneyManagementNo] => 
    [WebMoneySettleCode] => 
    [AuPayInfoNo] => 
    [AuPayMethod] => 
    [AuCancelAmount] => 
    [AuCancelTax] => 
    [DocomoSettlementCode] => 
    [DocomoCancelAmount] => 
    [DocomoCancelTax] => 
    [pay_status] => 12
)
 from 210.175.7.20
2020/06/18 14:39:19 [/shop/user_data/pg_mulpay_recv.php] response:true from 210.175.7.20
2020/06/18 14:39:22 [/shop/kanri/order/index.php] SendRequest:https://p01.mul-pay.jp/payment/AlterTran.idPass from 220.146.181.208
2020/06/18 14:39:22 [/shop/kanri/order/index.php] Array
(
    [ShopID] => 9102288779655
    [ShopPass] => ******
    [AccessID] => 558a4d60316c98ca1f061df0bfeaa23e
    [AccessPass] => e49a31baeee8f938d8d947ff01ba04c1
    [JobCd] => SALES
    [Amount] => 33000
)
 from 220.146.181.208
2020/06/18 14:39:22 [/shop/kanri/order/index.php] AccessID=558a4d60316c98ca1f061df0bfeaa23e&AccessPass=e49a31baeee8f938d8d947ff01ba04c1&Forward=2S49631&Approve=0741797&TranID=2006062130602257217875100026&TranDate=20200618143922 from 220.146.181.208
2020/06/18 14:39:22 [/shop/kanri/order/index.php] Array
(
    [0] => Array
        (
            [AccessID] => 558a4d60316c98ca1f061df0bfeaa23e
            [AccessPass] => e49a31baeee8f938d8d947ff01ba04c1
            [Forward] => 2S49631
            [Approve] => 0741797
            [TranID] => 2006062130602257217875100026
            [TranDate] => 20200618143922
        )

)
 from 220.146.181.208
2020/06/18 14:39:22 [/shop/kanri/order/index.php] index.php set payment data:Array
(
    [AccessID] => 558a4d60316c98ca1f061df0bfeaa23e
    [AccessPass] => e49a31baeee8f938d8d947ff01ba04c1
    [Forward] => 2S49631
    [Approve] => 0741797
    [TranID] => 2006062130602257217875100026
    [TranDate] => 20200618143922
    [action_status] => 6
    [pay_status] => 12
)
 from 220.146.181.208
2020/06/18 14:39:22 [/shop/user_data/pg_mulpay_recv.php] ******* receiveer data start ******* from 210.175.7.20
2020/06/18 14:39:22 [/shop/user_data/pg_mulpay_recv.php] Array
(
    [ShopID] => 9102288779655
    [ShopPass] => **********
    [AccessID] => 558a4d60316c98ca1f061df0bfeaa23e
    [AccessPass] => ********************************
    [OrderID] => 1651-06213000
    [Status] => SALES
    [JobCd] => SALES
    [Amount] => 33000
    [Tax] => 0
    [Currency] => JPN
    [Forward] => 2S49631
    [Method] => 1
    [PayTimes] => 
    [TranID] => 2006062130602257217875100026
    [Approve] => 0741797
    [TranDate] => 20200618143922
    [ErrCode] => 
    [ErrInfo] => 
    [PayType] => 0
)
 from 210.175.7.20
2020/06/18 14:39:22 [/shop/user_data/pg_mulpay_recv.php] ******* receiveer data end ******* from 210.175.7.20
2020/06/18 14:39:22 [/shop/user_data/pg_mulpay_recv.php] pg_mulpay_recv.php set payment data:Array
(
    [ShopID] => 9102288779655
    [AccessID] => 558a4d60316c98ca1f061df0bfeaa23e
    [OrderID] => 1651-06213000
    [Status] => SALES
    [JobCd] => SALES
    [Amount] => 33000
    [Tax] => 0
    [Currency] => JPN
    [Forward] => 2S49631
    [Method] => 1
    [PayTimes] => 
    [TranID] => 2006062130602257217875100026
    [Approve] => 0741797
    [TranDate] => 20200618143922
    [ErrCode] => 
    [ErrInfo] => 
    [PayType] => 0
    [CvsCode] => 
    [CvsConfNo] => 
    [CvsReceiptNo] => 
    [EdyReceiptNo] => 
    [EdyOrderNo] => 
    [SuicaReceiptNo] => 
    [SuicaOrderNo] => 
    [CustID] => 
    [BkCode] => 
    [ConfNo] => 
    [PaymentTerm] => 
    [EncryptReceiptNo] => 
    [FinishDate] => 
    [ReceiptDate] => 
    [WebMoneyManagementNo] => 
    [WebMoneySettleCode] => 
    [AuPayInfoNo] => 
    [AuPayMethod] => 
    [AuCancelAmount] => 
    [AuCancelTax] => 
    [DocomoSettlementCode] => 
    [DocomoCancelAmount] => 
    [DocomoCancelTax] => 
    [pay_status] => 12
)
 from 210.175.7.20
2020/06/18 14:39:22 [/shop/user_data/pg_mulpay_recv.php] response:true from 210.175.7.20
2020/06/18 14:39:24 [/shop/kanri/order/index.php] SendRequest:https://p01.mul-pay.jp/payment/AlterTran.idPass from 220.146.181.208
2020/06/18 14:39:24 [/shop/kanri/order/index.php] Array
(
    [ShopID] => 9102288779655
    [ShopPass] => ******
    [AccessID] => bb11be6960c40badd9f82ecf3fef56da
    [AccessPass] => f4a56635c74abd161b6b072f040655cd
    [JobCd] => SALES
    [Amount] => 45760
)
 from 220.146.181.208
2020/06/18 14:39:25 [/shop/kanri/order/index.php] AccessID=bb11be6960c40badd9f82ecf3fef56da&AccessPass=f4a56635c74abd161b6b072f040655cd&Forward=2S49631&Approve=0652172&TranID=2006061620602257217875100025&TranDate=20200618143925 from 220.146.181.208
2020/06/18 14:39:25 [/shop/kanri/order/index.php] Array
(
    [0] => Array
        (
            [AccessID] => bb11be6960c40badd9f82ecf3fef56da
            [AccessPass] => f4a56635c74abd161b6b072f040655cd
            [Forward] => 2S49631
            [Approve] => 0652172
            [TranID] => 2006061620602257217875100025
            [TranDate] => 20200618143925
        )

)
 from 220.146.181.208
2020/06/18 14:39:25 [/shop/kanri/order/index.php] index.php set payment data:Array
(
    [AccessID] => bb11be6960c40badd9f82ecf3fef56da
    [AccessPass] => f4a56635c74abd161b6b072f040655cd
    [Forward] => 2S49631
    [Approve] => 0652172
    [TranID] => 2006061620602257217875100025
    [TranDate] => 20200618143925
    [action_status] => 6
    [pay_status] => 12
)
 from 220.146.181.208
2020/06/18 14:39:25 [/shop/user_data/pg_mulpay_recv.php] ******* receiveer data start ******* from 210.175.7.20
2020/06/18 14:39:25 [/shop/user_data/pg_mulpay_recv.php] Array
(
    [ShopID] => 9102288779655
    [ShopPass] => **********
    [AccessID] => bb11be6960c40badd9f82ecf3fef56da
    [AccessPass] => ********************************
    [OrderID] => 1650-06162050
    [Status] => SALES
    [JobCd] => SALES
    [Amount] => 45760
    [Tax] => 0
    [Currency] => JPN
    [Forward] => 2S49631
    [Method] => 1
    [PayTimes] => 
    [TranID] => 2006061620602257217875100025
    [Approve] => 0652172
    [TranDate] => 20200618143925
    [ErrCode] => 
    [ErrInfo] => 
    [PayType] => 0
)
 from 210.175.7.20
2020/06/18 14:39:25 [/shop/user_data/pg_mulpay_recv.php] ******* receiveer data end ******* from 210.175.7.20
2020/06/18 14:39:25 [/shop/user_data/pg_mulpay_recv.php] pg_mulpay_recv.php set payment data:Array
(
    [ShopID] => 9102288779655
    [AccessID] => bb11be6960c40badd9f82ecf3fef56da
    [OrderID] => 1650-06162050
    [Status] => SALES
    [JobCd] => SALES
    [Amount] => 45760
    [Tax] => 0
    [Currency] => JPN
    [Forward] => 2S49631
    [Method] => 1
    [PayTimes] => 
    [TranID] => 2006061620602257217875100025
    [Approve] => 0652172
    [TranDate] => 20200618143925
    [ErrCode] => 
    [ErrInfo] => 
    [PayType] => 0
    [CvsCode] => 
    [CvsConfNo] => 
    [CvsReceiptNo] => 
    [EdyReceiptNo] => 
    [EdyOrderNo] => 
    [SuicaReceiptNo] => 
    [SuicaOrderNo] => 
    [CustID] => 
    [BkCode] => 
    [ConfNo] => 
    [PaymentTerm] => 
    [EncryptReceiptNo] => 
    [FinishDate] => 
    [ReceiptDate] => 
    [WebMoneyManagementNo] => 
    [WebMoneySettleCode] => 
    [AuPayInfoNo] => 
    [AuPayMethod] => 
    [AuCancelAmount] => 
    [AuCancelTax] => 
    [DocomoSettlementCode] => 
    [DocomoCancelAmount] => 
    [DocomoCancelTax] => 
    [pay_status] => 12
)
 from 210.175.7.20
2020/06/18 14:39:25 [/shop/user_data/pg_mulpay_recv.php] response:true from 210.175.7.20
2020/06/18 14:45:18 [/shop/kanri/order/index.php] SendRequest:https://p01.mul-pay.jp/payment/AlterTran.idPass from 220.146.181.208
2020/06/18 14:45:18 [/shop/kanri/order/index.php] Array
(
    [ShopID] => 9102288779655
    [ShopPass] => ******
    [AccessID] => 96afcaca5f0458d263346ae32c43dff7
    [AccessPass] => 9441bd2ef427e7aa8c5ebee69cb618c2
    [JobCd] => SALES
    [Amount] => 11836
)
 from 220.146.181.208
2020/06/18 14:45:18 [/shop/kanri/order/index.php] AccessID=96afcaca5f0458d263346ae32c43dff7&AccessPass=9441bd2ef427e7aa8c5ebee69cb618c2&Forward=2S49631&Approve=0720340&TranID=2006141354602257217875120340&TranDate=20200618144518 from 220.146.181.208
2020/06/18 14:45:18 [/shop/kanri/order/index.php] Array
(
    [0] => Array
        (
            [AccessID] => 96afcaca5f0458d263346ae32c43dff7
            [AccessPass] => 9441bd2ef427e7aa8c5ebee69cb618c2
            [Forward] => 2S49631
            [Approve] => 0720340
            [TranID] => 2006141354602257217875120340
            [TranDate] => 20200618144518
        )

)
 from 220.146.181.208
2020/06/18 14:45:18 [/shop/kanri/order/index.php] index.php set payment data:Array
(
    [AccessID] => 96afcaca5f0458d263346ae32c43dff7
    [AccessPass] => 9441bd2ef427e7aa8c5ebee69cb618c2
    [Forward] => 2S49631
    [Approve] => 0720340
    [TranID] => 2006141354602257217875120340
    [TranDate] => 20200618144518
    [action_status] => 6
    [pay_status] => 12
)
 from 220.146.181.208
2020/06/18 14:45:19 [/shop/user_data/pg_mulpay_recv.php] ******* receiveer data start ******* from 210.175.7.20
2020/06/18 14:45:19 [/shop/user_data/pg_mulpay_recv.php] Array
(
    [ShopID] => 9102288779655
    [ShopPass] => **********
    [AccessID] => 96afcaca5f0458d263346ae32c43dff7
    [AccessPass] => ********************************
    [OrderID] => 1696-14135400
    [Status] => SALES
    [JobCd] => SALES
    [Amount] => 11836
    [Tax] => 0
    [Currency] => JPN
    [Forward] => 2S49631
    [Method] => 1
    [PayTimes] => 
    [TranID] => 2006141354602257217875120340
    [Approve] => 0720340
    [TranDate] => 20200618144518
    [ErrCode] => 
    [ErrInfo] => 
    [PayType] => 0
)
 from 210.175.7.20
2020/06/18 14:45:19 [/shop/user_data/pg_mulpay_recv.php] ******* receiveer data end ******* from 210.175.7.20
2020/06/18 14:45:19 [/shop/user_data/pg_mulpay_recv.php] pg_mulpay_recv.php set payment data:Array
(
    [ShopID] => 9102288779655
    [AccessID] => 96afcaca5f0458d263346ae32c43dff7
    [OrderID] => 1696-14135400
    [Status] => SALES
    [JobCd] => SALES
    [Amount] => 11836
    [Tax] => 0
    [Currency] => JPN
    [Forward] => 2S49631
    [Method] => 1
    [PayTimes] => 
    [TranID] => 2006141354602257217875120340
    [Approve] => 0720340
    [TranDate] => 20200618144518
    [ErrCode] => 
    [ErrInfo] => 
    [PayType] => 0
    [CvsCode] => 
    [CvsConfNo] => 
    [CvsReceiptNo] => 
    [EdyReceiptNo] => 
    [EdyOrderNo] => 
    [SuicaReceiptNo] => 
    [SuicaOrderNo] => 
    [CustID] => 
    [BkCode] => 
    [ConfNo] => 
    [PaymentTerm] => 
    [EncryptReceiptNo] => 
    [FinishDate] => 
    [ReceiptDate] => 
    [WebMoneyManagementNo] => 
    [WebMoneySettleCode] => 
    [AuPayInfoNo] => 
    [AuPayMethod] => 
    [AuCancelAmount] => 
    [AuCancelTax] => 
    [DocomoSettlementCode] => 
    [DocomoCancelAmount] => 
    [DocomoCancelTax] => 
    [pay_status] => 12
)
 from 210.175.7.20
2020/06/18 14:45:19 [/shop/user_data/pg_mulpay_recv.php] response:true from 210.175.7.20
2020/06/18 14:45:21 [/shop/kanri/order/index.php] SendRequest:https://p01.mul-pay.jp/payment/AlterTran.idPass from 220.146.181.208
2020/06/18 14:45:21 [/shop/kanri/order/index.php] Array
(
    [ShopID] => 9102288779655
    [ShopPass] => ******
    [AccessID] => bf6f78c8fde987c625221ece245d7753
    [AccessPass] => 0c46ad1ae776464e3ccc1112455fb939
    [JobCd] => SALES
    [Amount] => 32010
)
 from 220.146.181.208
2020/06/18 14:45:21 [/shop/kanri/order/index.php] AccessID=bf6f78c8fde987c625221ece245d7753&AccessPass=0c46ad1ae776464e3ccc1112455fb939&Forward=2S49631&Approve=0203996&TranID=2006120042602257217875100034&TranDate=20200618144521 from 220.146.181.208
2020/06/18 14:45:21 [/shop/kanri/order/index.php] Array
(
    [0] => Array
        (
            [AccessID] => bf6f78c8fde987c625221ece245d7753
            [AccessPass] => 0c46ad1ae776464e3ccc1112455fb939
            [Forward] => 2S49631
            [Approve] => 0203996
            [TranID] => 2006120042602257217875100034
            [TranDate] => 20200618144521
        )

)
 from 220.146.181.208
2020/06/18 14:45:21 [/shop/kanri/order/index.php] index.php set payment data:Array
(
    [AccessID] => bf6f78c8fde987c625221ece245d7753
    [AccessPass] => 0c46ad1ae776464e3ccc1112455fb939
    [Forward] => 2S49631
    [Approve] => 0203996
    [TranID] => 2006120042602257217875100034
    [TranDate] => 20200618144521
    [action_status] => 6
    [pay_status] => 12
)
 from 220.146.181.208
2020/06/18 14:45:22 [/shop/user_data/pg_mulpay_recv.php] ******* receiveer data start ******* from 210.175.7.20
2020/06/18 14:45:22 [/shop/user_data/pg_mulpay_recv.php] Array
(
    [ShopID] => 9102288779655
    [ShopPass] => **********
    [AccessID] => bf6f78c8fde987c625221ece245d7753
    [AccessPass] => ********************************
    [OrderID] => 1688-12004227
    [Status] => SALES
    [JobCd] => SALES
    [Amount] => 32010
    [Tax] => 0
    [Currency] => JPN
    [Forward] => 2S49631
    [Method] => 1
    [PayTimes] => 
    [TranID] => 2006120042602257217875100034
    [Approve] => 0203996
    [TranDate] => 20200618144521
    [ErrCode] => 
    [ErrInfo] => 
    [PayType] => 0
)
 from 210.175.7.20
2020/06/18 14:45:22 [/shop/user_data/pg_mulpay_recv.php] ******* receiveer data end ******* from 210.175.7.20
2020/06/18 14:45:22 [/shop/user_data/pg_mulpay_recv.php] pg_mulpay_recv.php set payment data:Array
(
    [ShopID] => 9102288779655
    [AccessID] => bf6f78c8fde987c625221ece245d7753
    [OrderID] => 1688-12004227
    [Status] => SALES
    [JobCd] => SALES
    [Amount] => 32010
    [Tax] => 0
    [Currency] => JPN
    [Forward] => 2S49631
    [Method] => 1
    [PayTimes] => 
    [TranID] => 2006120042602257217875100034
    [Approve] => 0203996
    [TranDate] => 20200618144521
    [ErrCode] => 
    [ErrInfo] => 
    [PayType] => 0
    [CvsCode] => 
    [CvsConfNo] => 
    [CvsReceiptNo] => 
    [EdyReceiptNo] => 
    [EdyOrderNo] => 
    [SuicaReceiptNo] => 
    [SuicaOrderNo] => 
    [CustID] => 
    [BkCode] => 
    [ConfNo] => 
    [PaymentTerm] => 
    [EncryptReceiptNo] => 
    [FinishDate] => 
    [ReceiptDate] => 
    [WebMoneyManagementNo] => 
    [WebMoneySettleCode] => 
    [AuPayInfoNo] => 
    [AuPayMethod] => 
    [AuCancelAmount] => 
    [AuCancelTax] => 
    [DocomoSettlementCode] => 
    [DocomoCancelAmount] => 
    [DocomoCancelTax] => 
    [pay_status] => 12
)
 from 210.175.7.20
2020/06/18 14:45:22 [/shop/user_data/pg_mulpay_recv.php] response:true from 210.175.7.20
2020/06/18 14:45:25 [/shop/kanri/order/index.php] SendRequest:https://p01.mul-pay.jp/payment/AlterTran.idPass from 220.146.181.208
2020/06/18 14:45:25 [/shop/kanri/order/index.php] Array
(
    [ShopID] => 9102288779655
    [ShopPass] => ******
    [AccessID] => 1a7d96ef32e6be37b3aa9b6e72dbc9ed
    [AccessPass] => 19a071ec6e770ed133f0856db7829f44
    [JobCd] => SALES
    [Amount] => 9680
)
 from 220.146.181.208
2020/06/18 14:45:25 [/shop/kanri/order/index.php] AccessID=1a7d96ef32e6be37b3aa9b6e72dbc9ed&AccessPass=19a071ec6e770ed133f0856db7829f44&Forward=2a99661&Approve=0139554&TranID=2006141145602257217875120339&TranDate=20200618144525 from 220.146.181.208
2020/06/18 14:45:25 [/shop/kanri/order/index.php] Array
(
    [0] => Array
        (
            [AccessID] => 1a7d96ef32e6be37b3aa9b6e72dbc9ed
            [AccessPass] => 19a071ec6e770ed133f0856db7829f44
            [Forward] => 2a99661
            [Approve] => 0139554
            [TranID] => 2006141145602257217875120339
            [TranDate] => 20200618144525
        )

)
 from 220.146.181.208
2020/06/18 14:45:25 [/shop/kanri/order/index.php] index.php set payment data:Array
(
    [AccessID] => 1a7d96ef32e6be37b3aa9b6e72dbc9ed
    [AccessPass] => 19a071ec6e770ed133f0856db7829f44
    [Forward] => 2a99661
    [Approve] => 0139554
    [TranID] => 2006141145602257217875120339
    [TranDate] => 20200618144525
    [action_status] => 6
    [pay_status] => 12
)
 from 220.146.181.208
2020/06/18 14:45:26 [/shop/user_data/pg_mulpay_recv.php] ******* receiveer data start ******* from 210.175.7.20
2020/06/18 14:45:26 [/shop/user_data/pg_mulpay_recv.php] Array
(
    [ShopID] => 9102288779655
    [ShopPass] => **********
    [AccessID] => 1a7d96ef32e6be37b3aa9b6e72dbc9ed
    [AccessPass] => ********************************
    [OrderID] => 1695-14114555
    [Status] => SALES
    [JobCd] => SALES
    [Amount] => 9680
    [Tax] => 0
    [Currency] => JPN
    [Forward] => 2a99661
    [Method] => 1
    [PayTimes] => 
    [TranID] => 2006141145602257217875120339
    [Approve] => 0139554
    [TranDate] => 20200618144525
    [ErrCode] => 
    [ErrInfo] => 
    [PayType] => 0
)
 from 210.175.7.20
2020/06/18 14:45:26 [/shop/user_data/pg_mulpay_recv.php] ******* receiveer data end ******* from 210.175.7.20
2020/06/18 14:45:26 [/shop/user_data/pg_mulpay_recv.php] pg_mulpay_recv.php set payment data:Array
(
    [ShopID] => 9102288779655
    [AccessID] => 1a7d96ef32e6be37b3aa9b6e72dbc9ed
    [OrderID] => 1695-14114555
    [Status] => SALES
    [JobCd] => SALES
    [Amount] => 9680
    [Tax] => 0
    [Currency] => JPN
    [Forward] => 2a99661
    [Method] => 1
    [PayTimes] => 
    [TranID] => 2006141145602257217875120339
    [Approve] => 0139554
    [TranDate] => 20200618144525
    [ErrCode] => 
    [ErrInfo] => 
    [PayType] => 0
    [CvsCode] => 
    [CvsConfNo] => 
    [CvsReceiptNo] => 
    [EdyReceiptNo] => 
    [EdyOrderNo] => 
    [SuicaReceiptNo] => 
    [SuicaOrderNo] => 
    [CustID] => 
    [BkCode] => 
    [ConfNo] => 
    [PaymentTerm] => 
    [EncryptReceiptNo] => 
    [FinishDate] => 
    [ReceiptDate] => 
    [WebMoneyManagementNo] => 
    [WebMoneySettleCode] => 
    [AuPayInfoNo] => 
    [AuPayMethod] => 
    [AuCancelAmount] => 
    [AuCancelTax] => 
    [DocomoSettlementCode] => 
    [DocomoCancelAmount] => 
    [DocomoCancelTax] => 
    [pay_status] => 12
)
 from 210.175.7.20
2020/06/18 14:45:26 [/shop/user_data/pg_mulpay_recv.php] response:true from 210.175.7.20
2020/06/18 14:45:27 [/shop/kanri/order/index.php] SendRequest:https://p01.mul-pay.jp/payment/AlterTran.idPass from 220.146.181.208
2020/06/18 14:45:27 [/shop/kanri/order/index.php] Array
(
    [ShopID] => 9102288779655
    [ShopPass] => ******
    [AccessID] => 212f030df7b80ba4f0186c9b49dfcc71
    [AccessPass] => cbdc78f930935acb8e55f44ae03dbde1
    [JobCd] => SALES
    [Amount] => 4400
)
 from 220.146.181.208
2020/06/18 14:45:28 [/shop/kanri/order/index.php] AccessID=212f030df7b80ba4f0186c9b49dfcc71&AccessPass=cbdc78f930935acb8e55f44ae03dbde1&Forward=2S49631&Approve=0700035&TranID=2006131027602257217875100035&TranDate=20200618144528 from 220.146.181.208
2020/06/18 14:45:28 [/shop/kanri/order/index.php] Array
(
    [0] => Array
        (
            [AccessID] => 212f030df7b80ba4f0186c9b49dfcc71
            [AccessPass] => cbdc78f930935acb8e55f44ae03dbde1
            [Forward] => 2S49631
            [Approve] => 0700035
            [TranID] => 2006131027602257217875100035
            [TranDate] => 20200618144528
        )

)
 from 220.146.181.208
2020/06/18 14:45:28 [/shop/kanri/order/index.php] index.php set payment data:Array
(
    [AccessID] => 212f030df7b80ba4f0186c9b49dfcc71
    [AccessPass] => cbdc78f930935acb8e55f44ae03dbde1
    [Forward] => 2S49631
    [Approve] => 0700035
    [TranID] => 2006131027602257217875100035
    [TranDate] => 20200618144528
    [action_status] => 6
    [pay_status] => 12
)
 from 220.146.181.208
2020/06/18 14:45:28 [/shop/user_data/pg_mulpay_recv.php] ******* receiveer data start ******* from 210.175.7.20
2020/06/18 14:45:28 [/shop/user_data/pg_mulpay_recv.php] Array
(
    [ShopID] => 9102288779655
    [ShopPass] => **********
    [AccessID] => 212f030df7b80ba4f0186c9b49dfcc71
    [AccessPass] => ********************************
    [OrderID] => 1691-13102750
    [Status] => SALES
    [JobCd] => SALES
    [Amount] => 4400
    [Tax] => 0
    [Currency] => JPN
    [Forward] => 2S49631
    [Method] => 1
    [PayTimes] => 
    [TranID] => 2006131027602257217875100035
    [Approve] => 0700035
    [TranDate] => 20200618144528
    [ErrCode] => 
    [ErrInfo] => 
    [PayType] => 0
)
 from 210.175.7.20
2020/06/18 14:45:28 [/shop/user_data/pg_mulpay_recv.php] ******* receiveer data end ******* from 210.175.7.20
2020/06/18 14:45:28 [/shop/user_data/pg_mulpay_recv.php] pg_mulpay_recv.php set payment data:Array
(
    [ShopID] => 9102288779655
    [AccessID] => 212f030df7b80ba4f0186c9b49dfcc71
    [OrderID] => 1691-13102750
    [Status] => SALES
    [JobCd] => SALES
    [Amount] => 4400
    [Tax] => 0
    [Currency] => JPN
    [Forward] => 2S49631
    [Method] => 1
    [PayTimes] => 
    [TranID] => 2006131027602257217875100035
    [Approve] => 0700035
    [TranDate] => 20200618144528
    [ErrCode] => 
    [ErrInfo] => 
    [PayType] => 0
    [CvsCode] => 
    [CvsConfNo] => 
    [CvsReceiptNo] => 
    [EdyReceiptNo] => 
    [EdyOrderNo] => 
    [SuicaReceiptNo] => 
    [SuicaOrderNo] => 
    [CustID] => 
    [BkCode] => 
    [ConfNo] => 
    [PaymentTerm] => 
    [EncryptReceiptNo] => 
    [FinishDate] => 
    [ReceiptDate] => 
    [WebMoneyManagementNo] => 
    [WebMoneySettleCode] => 
    [AuPayInfoNo] => 
    [AuPayMethod] => 
    [AuCancelAmount] => 
    [AuCancelTax] => 
    [DocomoSettlementCode] => 
    [DocomoCancelAmount] => 
    [DocomoCancelTax] => 
    [pay_status] => 12
)
 from 210.175.7.20
2020/06/18 14:45:28 [/shop/user_data/pg_mulpay_recv.php] response:true from 210.175.7.20
2020/06/18 18:03:19 [/shop/shopping/load_payment_module.php] SendRequest:https://p01.mul-pay.jp/payment/EntryTranPayEasy.idPass from 106.128.7.116
2020/06/18 18:03:19 [/shop/shopping/load_payment_module.php] Array
(
    [ShopID] => 9102288779655
    [ShopPass] => ******
    [OrderID] => 1713-18180319
    [Amount] => 9240
)
 from 106.128.7.116
2020/06/18 18:03:19 [/shop/shopping/load_payment_module.php] AccessID=ef46ae96d8032111b1323f179d17de91&AccessPass=ac4086495508fa71a7011a0a11d6d8c8 from 106.128.7.116
2020/06/18 18:03:19 [/shop/shopping/load_payment_module.php] Array
(
    [0] => Array
        (
            [AccessID] => ef46ae96d8032111b1323f179d17de91
            [AccessPass] => ac4086495508fa71a7011a0a11d6d8c8
        )

)
 from 106.128.7.116
2020/06/18 18:03:19 [/shop/shopping/load_payment_module.php] load_payment_module.php set payment data:Array
(
    [AccessID] => ef46ae96d8032111b1323f179d17de91
    [AccessPass] => ac4086495508fa71a7011a0a11d6d8c8
    [OrderID] => 1713-18180319
    [Amount] => 9240
    [action_status] => 1
    [pay_status] => 0
)
 from 106.128.7.116
2020/06/18 18:03:19 [/shop/shopping/load_payment_module.php] SendRequest:https://p01.mul-pay.jp/payment/ExecTranPayEasy.idPass from 106.128.7.116
2020/06/18 18:03:19 [/shop/shopping/load_payment_module.php] Array
(
    [AccessID] => ef46ae96d8032111b1323f179d17de91
    [AccessPass] => ac4086495508fa71a7011a0a11d6d8c8
    [OrderID] => 1713-18180319
    [CustomerName] => ******
    [CustomerKana] => ******
    [TelNo] => 09046298590
    [PaymentTermDay] => 10
    [MailAddress] => ******
    [ShopMailAddress] => oukoku-onlineshop@oukoku.biz
    [RegisterDisp1] => 
    [RegisterDisp2] => 
    [RegisterDisp3] => 
    [RegisterDisp4] => 
    [RegisterDisp5] => 
    [RegisterDisp6] => 
    [RegisterDisp7] => 
    [RegisterDisp8] => 
    [ReceiptsDisp1] => 
    [ReceiptsDisp2] => 
    [ReceiptsDisp3] => 
    [ReceiptsDisp4] => 
    [ReceiptsDisp5] => 
    [ReceiptsDisp6] => 
    [ReceiptsDisp7] => 
    [ReceiptsDisp8] => 
    [ReceiptsDisp9] => 
    [ReceiptsDisp10] => 
    [ReceiptsDisp11] => 株式会社カーテン・じゅうたん王国
    [ReceiptsDisp12] => 0356493000
    [ReceiptsDisp13] => 09:30-18:30
    [ClientField1] => 
    [ClientField2] => 
    [ClientField3] => EC-CUBE4.3.24
    [ClientFieldFlag] => 1
    [PaymentType] => E
)
 from 106.128.7.116
2020/06/18 18:03:21 [/shop/shopping/load_payment_module.php] OrderID=1713-18180319&CustID=2017087262&BkCode=58091&ConfNo=759830&EncryptReceiptNo=&PaymentTerm=20200628235959&TranDate=20200618180320&CheckString=a7424f80122e6b2cab3e2500381825df&ClientField1=&ClientField2=&ClientField3=EC-CUBE4.3.24&PaymentURL=https://www5.econ.ne.jp/pay/p_paymain.aspx?odrno=808675888a767b7f7e84758f897b758603 from 106.128.7.116
2020/06/18 18:03:21 [/shop/shopping/load_payment_module.php] Array
(
    [0] => Array
        (
            [OrderID] => 1713-18180319
            [CustID] => 2017087262
            [BkCode] => 58091
            [ConfNo] => 759830
            [EncryptReceiptNo] => 
            [PaymentTerm] => 20200628235959
            [TranDate] => 20200618180320
            [CheckString] => a7424f80122e6b2cab3e2500381825df
            [ClientField1] => 
            [ClientField2] => 
            [ClientField3] => EC-CUBE4.3.24
            [PaymentURL] => https://www5.econ.ne.jp/pay/p_paymain.aspx?odrno=808675888a767b7f7e84758f897b758603
        )

)
 from 106.128.7.116
2020/06/18 18:03:21 [/shop/shopping/load_payment_module.php] load_payment_module.php set payment data:Array
(
    [CustID] => 2017087262
    [BkCode] => 58091
    [ConfNo] => 759830
    [EncryptReceiptNo] => 
    [PaymentTerm] => 20200628235959
    [TranDate] => 20200618180320
    [CheckString] => a7424f80122e6b2cab3e2500381825df
    [ClientField1] => 
    [ClientField2] => 
    [ClientField3] => EC-CUBE4.3.24
    [PaymentURL] => https://www5.econ.ne.jp/pay/p_paymain.aspx?odrno=808675888a767b7f7e84758f897b758603
    [Amount] => 9240
    [action_status] => 3
    [pay_status] => 1
)
 from 106.128.7.116
2020/06/18 18:03:21 [/shop/user_data/pg_mulpay_recv.php] ******* receiveer data start ******* from 210.175.7.20
2020/06/18 18:03:21 [/shop/user_data/pg_mulpay_recv.php] Array
(
    [ShopID] => 9102288779655
    [ShopPass] => **********
    [AccessID] => ef46ae96d8032111b1323f179d17de91
    [AccessPass] => ********************************
    [OrderID] => 1713-18180319
    [Status] => REQSUCCESS
    [Amount] => 9240
    [Tax] => 0
    [Currency] => JPN
    [TranID] => 20061800000233467001
    [TranDate] => 20200618180320
    [ErrCode] => 
    [ErrInfo] => 
    [PayType] => 4
    [CustID] => 2017087262
    [BkCode] => 58091
    [ConfNo] => 759830
    [PaymentTerm] => 20200628235959
    [EncryptReceiptNo] => 
    [FinishDate] => 
    [ReceiptDate] => 20200618180320
    [PayeasyPaymentURL] => https://www5.econ.ne.jp/pay/p_paymain.aspx?odrno=808675888a767b7f7e84758f897b758603
)
 from 210.175.7.20
2020/06/18 18:03:21 [/shop/user_data/pg_mulpay_recv.php] ******* receiveer data end ******* from 210.175.7.20
2020/06/18 18:03:21 [/shop/user_data/pg_mulpay_recv.php] update order status:2 from 210.175.7.20
2020/06/18 18:03:21 [/shop/user_data/pg_mulpay_recv.php] pg_mulpay_recv.php set payment data:Array
(
    [ShopID] => 9102288779655
    [AccessID] => ef46ae96d8032111b1323f179d17de91
    [OrderID] => 1713-18180319
    [Status] => REQSUCCESS
    [JobCd] => 
    [Amount] => 9240
    [Tax] => 0
    [Currency] => JPN
    [Forward] => 
    [Method] => 
    [PayTimes] => 
    [TranID] => 20061800000233467001
    [Approve] => 
    [TranDate] => 20200618180320
    [ErrCode] => 
    [ErrInfo] => 
    [PayType] => 4
    [CvsCode] => 
    [CvsConfNo] => 
    [CvsReceiptNo] => 
    [EdyReceiptNo] => 
    [EdyOrderNo] => 
    [SuicaReceiptNo] => 
    [SuicaOrderNo] => 
    [CustID] => 2017087262
    [BkCode] => 58091
    [ConfNo] => 759830
    [PaymentTerm] => 20200628235959
    [EncryptReceiptNo] => 
    [FinishDate] => 
    [ReceiptDate] => 20200618180320
    [WebMoneyManagementNo] => 
    [WebMoneySettleCode] => 
    [AuPayInfoNo] => 
    [AuPayMethod] => 
    [AuCancelAmount] => 
    [AuCancelTax] => 
    [DocomoSettlementCode] => 
    [DocomoCancelAmount] => 
    [DocomoCancelTax] => 
    [pay_status] => 1
)
 from 210.175.7.20
2020/06/18 18:03:21 [/shop/user_data/pg_mulpay_recv.php] response:true from 210.175.7.20
2020/06/18 18:13:09 [/shop/shopping/load_payment_module.php] SendRequest:https://p01.mul-pay.jp/payment/SearchMember.idPass from 126.182.43.85
2020/06/18 18:13:09 [/shop/shopping/load_payment_module.php] Array
(
    [SiteID] => mst2000016748
    [SitePass] => ******
    [MemberID] => 733
)
 from 126.182.43.85
2020/06/18 18:13:09 [/shop/shopping/load_payment_module.php] ErrCode=E01&ErrInfo=E01390002 from 126.182.43.85
2020/06/18 18:13:09 [/shop/shopping/load_payment_module.php] Array
(
    [0] => Array
        (
            [ErrCode] => E01
            [ErrInfo] => E01390002
        )

)
 from 126.182.43.85
2020/06/18 18:13:09 [/shop/shopping/load_payment_module.php] SendRequest:https://p01.mul-pay.jp/payment/SearchCard.idPass from 126.182.43.85
2020/06/18 18:13:09 [/shop/shopping/load_payment_module.php] Array
(
    [SiteID] => mst2000016748
    [SitePass] => ******
    [MemberID] => 733
)
 from 126.182.43.85
2020/06/18 18:13:10 [/shop/shopping/load_payment_module.php] ErrCode=E01|E01&ErrInfo=E01390002|E01240002 from 126.182.43.85
2020/06/18 18:13:10 [/shop/shopping/load_payment_module.php] Array
(
    [0] => Array
        (
            [ErrCode] => E01
            [ErrInfo] => E01390002
        )

    [1] => Array
        (
            [ErrCode] => E01
            [ErrInfo] => E01240002
        )

)
 from 126.182.43.85
2020/06/18 18:14:14 [/shop/shopping/load_payment_module.php] SendRequest:https://p01.mul-pay.jp/payment/SearchMember.idPass from 126.182.43.85
2020/06/18 18:14:14 [/shop/shopping/load_payment_module.php] Array
(
    [SiteID] => mst2000016748
    [SitePass] => ******
    [MemberID] => 733
)
 from 126.182.43.85
2020/06/18 18:14:14 [/shop/shopping/load_payment_module.php] ErrCode=E01&ErrInfo=E01390002 from 126.182.43.85
2020/06/18 18:14:14 [/shop/shopping/load_payment_module.php] Array
(
    [0] => Array
        (
            [ErrCode] => E01
            [ErrInfo] => E01390002
        )

)
 from 126.182.43.85
2020/06/18 18:14:14 [/shop/shopping/load_payment_module.php] SendRequest:https://p01.mul-pay.jp/payment/SearchCard.idPass from 126.182.43.85
2020/06/18 18:14:14 [/shop/shopping/load_payment_module.php] Array
(
    [SiteID] => mst2000016748
    [SitePass] => ******
    [MemberID] => 733
)
 from 126.182.43.85
2020/06/18 18:14:14 [/shop/shopping/load_payment_module.php] ErrCode=E01|E01&ErrInfo=E01390002|E01240002 from 126.182.43.85
2020/06/18 18:14:14 [/shop/shopping/load_payment_module.php] Array
(
    [0] => Array
        (
            [ErrCode] => E01
            [ErrInfo] => E01390002
        )

    [1] => Array
        (
            [ErrCode] => E01
            [ErrInfo] => E01240002
        )

)
 from 126.182.43.85
2020/06/18 18:14:14 [/shop/shopping/load_payment_module.php] SendRequest:https://p01.mul-pay.jp/payment/EntryTran.idPass from 126.182.43.85
2020/06/18 18:14:14 [/shop/shopping/load_payment_module.php] Array
(
    [ShopID] => 9102288779655
    [ShopPass] => ******
    [OrderID] => 1714-18181414
    [JobCd] => AUTH
    [Amount] => 8140
    [TdFlag] => 0
    [TdTenantName] => 
)
 from 126.182.43.85
2020/06/18 18:14:14 [/shop/shopping/load_payment_module.php] AccessID=432fd143831bef586e22e36e47978e1d&AccessPass=e81e31508e1da95bc63b5c91de4eeca1 from 126.182.43.85
2020/06/18 18:14:14 [/shop/shopping/load_payment_module.php] Array
(
    [0] => Array
        (
            [AccessID] => 432fd143831bef586e22e36e47978e1d
            [AccessPass] => e81e31508e1da95bc63b5c91de4eeca1
        )

)
 from 126.182.43.85
2020/06/18 18:14:14 [/shop/shopping/load_payment_module.php] load_payment_module.php set payment data:Array
(
    [AccessID] => 432fd143831bef586e22e36e47978e1d
    [AccessPass] => e81e31508e1da95bc63b5c91de4eeca1
    [OrderID] => 1714-18181414
    [Amount] => 8140
    [JobCd] => AUTH
    [action_status] => 1
    [pay_status] => 0
)
 from 126.182.43.85
2020/06/18 18:14:14 [/shop/shopping/load_payment_module.php] SendRequest:https://p01.mul-pay.jp/payment/ExecTran.idPass from 126.182.43.85
2020/06/18 18:14:14 [/shop/shopping/load_payment_module.php] Array
(
    [AccessID] => 432fd143831bef586e22e36e47978e1d
    [AccessPass] => e81e31508e1da95bc63b5c91de4eeca1
    [OrderID] => 1714-18181414
    [Method] => 1
    [Token] => ba5ccbb88a57c0434b967cc552023998b1bed8ff03f677730f84a0bc2a54cb11
    [ClientField1] => 
    [ClientField2] => 
    [ClientField3] => EC-CUBE4.3.24
)
 from 126.182.43.85
2020/06/18 18:14:17 [/shop/shopping/load_payment_module.php] ACS=0&OrderID=1714-18181414&Forward=2959876&Method=1&PayTimes=&Approve=4700040&TranID=2006181814602257217875100040&TranDate=20200618181417&CheckString=0cdc3830306918cb608c7a70b0f807b4 from 126.182.43.85
2020/06/18 18:14:17 [/shop/shopping/load_payment_module.php] Array
(
    [0] => Array
        (
            [ACS] => 0
            [OrderID] => 1714-18181414
            [Forward] => 2959876
            [Method] => 1
            [PayTimes] => 
            [Approve] => 4700040
            [TranID] => 2006181814602257217875100040
            [TranDate] => 20200618181417
            [CheckString] => 0cdc3830306918cb608c7a70b0f807b4
        )

)
 from 126.182.43.85
2020/06/18 18:14:17 [/shop/shopping/load_payment_module.php] load_payment_module.php set payment data:Array
(
    [ACS] => 0
    [Forward] => 2959876
    [Method] => 1
    [PayTimes] => 
    [Approve] => 4700040
    [TranID] => 2006181814602257217875100040
    [TranDate] => 20200618181417
    [CheckString] => 0cdc3830306918cb608c7a70b0f807b4
    [Amount] => 8140
    [JobCd] => AUTH
    [action_status] => 3
    [pay_status] => 11
)
 from 126.182.43.85
2020/06/18 18:14:17 [/shop/shopping/load_payment_module.php] load_payment_module.php set payment data:Array
(
    [register_card] => 1
    [HolderName] => RANTO SEKI
)
 from 126.182.43.85
2020/06/18 18:14:17 [/shop/user_data/pg_mulpay_recv.php] ******* receiveer data start ******* from 210.175.7.20
2020/06/18 18:14:17 [/shop/user_data/pg_mulpay_recv.php] Array
(
    [ShopID] => 9102288779655
    [ShopPass] => **********
    [AccessID] => 432fd143831bef586e22e36e47978e1d
    [AccessPass] => ********************************
    [OrderID] => 1714-18181414
    [Status] => AUTH
    [JobCd] => AUTH
    [Amount] => 8140
    [Tax] => 0
    [Currency] => JPN
    [Forward] => 2959876
    [Method] => 1
    [PayTimes] => 
    [TranID] => 2006181814602257217875100040
    [Approve] => 4700040
    [TranDate] => 20200618181417
    [ErrCode] => 
    [ErrInfo] => 
    [PayType] => 0
)
 from 210.175.7.20
2020/06/18 18:14:17 [/shop/user_data/pg_mulpay_recv.php] ******* receiveer data end ******* from 210.175.7.20
2020/06/18 18:14:17 [/shop/shopping/load_payment_module.php] SendRequest:https://p01.mul-pay.jp/payment/SearchMember.idPass from 126.182.43.85
2020/06/18 18:14:17 [/shop/shopping/load_payment_module.php] Array
(
    [SiteID] => mst2000016748
    [SitePass] => ******
    [MemberID] => 733
)
 from 126.182.43.85
2020/06/18 18:14:18 [/shop/shopping/load_payment_module.php] ErrCode=E01&ErrInfo=E01390002 from 126.182.43.85
2020/06/18 18:14:18 [/shop/shopping/load_payment_module.php] Array
(
    [0] => Array
        (
            [ErrCode] => E01
            [ErrInfo] => E01390002
        )

)
 from 126.182.43.85
2020/06/18 18:14:18 [/shop/shopping/load_payment_module.php] SendRequest:https://p01.mul-pay.jp/payment/SaveMember.idPass from 126.182.43.85
2020/06/18 18:14:18 [/shop/shopping/load_payment_module.php] Array
(
    [SiteID] => mst2000016748
    [SitePass] => ******
    [MemberID] => 733
    [MemberName] => ******
)
 from 126.182.43.85
2020/06/18 18:14:18 [/shop/shopping/load_payment_module.php] MemberID=733 from 126.182.43.85
2020/06/18 18:14:18 [/shop/shopping/load_payment_module.php] Array
(
    [0] => Array
        (
            [MemberID] => 733
        )

)
 from 126.182.43.85
2020/06/18 18:14:18 [/shop/shopping/load_payment_module.php] SendRequest:https://p01.mul-pay.jp/payment/TradedCard.idPass from 126.182.43.85
2020/06/18 18:14:18 [/shop/shopping/load_payment_module.php] Array
(
    [ShopID] => 9102288779655
    [ShopPass] => ******
    [OrderID] => 1714-18181414
    [SiteID] => mst2000016748
    [SitePass] => ******
    [MemberID] => 733
    [DefaultFlag] => 1
    [HolderName] => RANTO SEKI
)
 from 126.182.43.85
2020/06/18 18:14:18 [/shop/shopping/load_payment_module.php] CardSeq=0&CardNo=************1547&Forward=2959876 from 126.182.43.85
2020/06/18 18:14:18 [/shop/shopping/load_payment_module.php] Array
(
    [0] => Array
        (
            [CardSeq] => 0
            [CardNo] => ************1547
            [Forward] => 2959876
        )

)
 from 126.182.43.85
2020/06/18 18:14:22 [/shop/user_data/pg_mulpay_recv.php] update order status:1 order_id=1714 from 210.175.7.20
2020/06/18 18:14:22 [/shop/user_data/pg_mulpay_recv.php] pg_mulpay_recv.php set payment data:Array
(
    [ShopID] => 9102288779655
    [AccessID] => 432fd143831bef586e22e36e47978e1d
    [OrderID] => 1714-18181414
    [Status] => AUTH
    [JobCd] => AUTH
    [Amount] => 8140
    [Tax] => 0
    [Currency] => JPN
    [Forward] => 2959876
    [Method] => 1
    [PayTimes] => 
    [TranID] => 2006181814602257217875100040
    [Approve] => 4700040
    [TranDate] => 20200618181417
    [ErrCode] => 
    [ErrInfo] => 
    [PayType] => 0
    [CvsCode] => 
    [CvsConfNo] => 
    [CvsReceiptNo] => 
    [EdyReceiptNo] => 
    [EdyOrderNo] => 
    [SuicaReceiptNo] => 
    [SuicaOrderNo] => 
    [CustID] => 
    [BkCode] => 
    [ConfNo] => 
    [PaymentTerm] => 
    [EncryptReceiptNo] => 
    [FinishDate] => 
    [ReceiptDate] => 
    [WebMoneyManagementNo] => 
    [WebMoneySettleCode] => 
    [AuPayInfoNo] => 
    [AuPayMethod] => 
    [AuCancelAmount] => 
    [AuCancelTax] => 
    [DocomoSettlementCode] => 
    [DocomoCancelAmount] => 
    [DocomoCancelTax] => 
    [pay_status] => 11
)
 from 210.175.7.20
2020/06/18 18:14:22 [/shop/user_data/pg_mulpay_recv.php] response:true from 210.175.7.20
2020/06/18 20:33:31 [/shop/shopping/load_payment_module.php] SendRequest:https://p01.mul-pay.jp/payment/EntryTran.idPass from 60.99.57.76
2020/06/18 20:33:31 [/shop/shopping/load_payment_module.php] Array
(
    [ShopID] => 9102288779655
    [ShopPass] => ******
    [OrderID] => 1715-18203331
    [JobCd] => AUTH
    [Amount] => 3850
    [TdFlag] => 0
    [TdTenantName] => 
)
 from 60.99.57.76
2020/06/18 20:33:32 [/shop/shopping/load_payment_module.php] AccessID=1b699dc83868c8a6900d853c4a18177f&AccessPass=d1e4bbd167170e604e3567749273113d from 60.99.57.76
2020/06/18 20:33:32 [/shop/shopping/load_payment_module.php] Array
(
    [0] => Array
        (
            [AccessID] => 1b699dc83868c8a6900d853c4a18177f
            [AccessPass] => d1e4bbd167170e604e3567749273113d
        )

)
 from 60.99.57.76
2020/06/18 20:33:32 [/shop/shopping/load_payment_module.php] load_payment_module.php set payment data:Array
(
    [AccessID] => 1b699dc83868c8a6900d853c4a18177f
    [AccessPass] => d1e4bbd167170e604e3567749273113d
    [OrderID] => 1715-18203331
    [Amount] => 3850
    [JobCd] => AUTH
    [action_status] => 1
    [pay_status] => 0
)
 from 60.99.57.76
2020/06/18 20:33:32 [/shop/shopping/load_payment_module.php] SendRequest:https://p01.mul-pay.jp/payment/ExecTran.idPass from 60.99.57.76
2020/06/18 20:33:32 [/shop/shopping/load_payment_module.php] Array
(
    [AccessID] => 1b699dc83868c8a6900d853c4a18177f
    [AccessPass] => d1e4bbd167170e604e3567749273113d
    [OrderID] => 1715-18203331
    [Method] => 1
    [Token] => b8e0f0267f8de78bf304fee66dda86c46d40306de3ff955afc9525738177f9c1
    [ClientField1] => 
    [ClientField2] => 
    [ClientField3] => EC-CUBE4.3.24
)
 from 60.99.57.76
2020/06/18 20:33:33 [/shop/shopping/load_payment_module.php] ACS=0&OrderID=1715-18203331&Forward=2S49631&Method=1&PayTimes=&Approve=0269606&TranID=2006182033602257217875100041&TranDate=20200618203333&CheckString=e95af7d8d0dd3b8f8dc564e24cc0e25c from 60.99.57.76
2020/06/18 20:33:33 [/shop/shopping/load_payment_module.php] Array
(
    [0] => Array
        (
            [ACS] => 0
            [OrderID] => 1715-18203331
            [Forward] => 2S49631
            [Method] => 1
            [PayTimes] => 
            [Approve] => 0269606
            [TranID] => 2006182033602257217875100041
            [TranDate] => 20200618203333
            [CheckString] => e95af7d8d0dd3b8f8dc564e24cc0e25c
        )

)
 from 60.99.57.76
2020/06/18 20:33:33 [/shop/shopping/load_payment_module.php] load_payment_module.php set payment data:Array
(
    [ACS] => 0
    [Forward] => 2S49631
    [Method] => 1
    [PayTimes] => 
    [Approve] => 0269606
    [TranID] => 2006182033602257217875100041
    [TranDate] => 20200618203333
    [CheckString] => e95af7d8d0dd3b8f8dc564e24cc0e25c
    [Amount] => 3850
    [JobCd] => AUTH
    [action_status] => 3
    [pay_status] => 11
)
 from 60.99.57.76
2020/06/18 20:33:34 [/shop/user_data/pg_mulpay_recv.php] ******* receiveer data start ******* from 210.175.7.20
2020/06/18 20:33:34 [/shop/user_data/pg_mulpay_recv.php] Array
(
    [ShopID] => 9102288779655
    [ShopPass] => **********
    [AccessID] => 1b699dc83868c8a6900d853c4a18177f
    [AccessPass] => ********************************
    [OrderID] => 1715-18203331
    [Status] => AUTH
    [JobCd] => AUTH
    [Amount] => 3850
    [Tax] => 0
    [Currency] => JPN
    [Forward] => 2S49631
    [Method] => 1
    [PayTimes] => 
    [TranID] => 2006182033602257217875100041
    [Approve] => 0269606
    [TranDate] => 20200618203333
    [ErrCode] => 
    [ErrInfo] => 
    [PayType] => 0
)
 from 210.175.7.20
2020/06/18 20:33:34 [/shop/user_data/pg_mulpay_recv.php] ******* receiveer data end ******* from 210.175.7.20
2020/06/18 20:33:39 [/shop/user_data/pg_mulpay_recv.php] update order status:1 order_id=1715 from 210.175.7.20
2020/06/18 20:33:39 [/shop/user_data/pg_mulpay_recv.php] pg_mulpay_recv.php set payment data:Array
(
    [ShopID] => 9102288779655
    [AccessID] => 1b699dc83868c8a6900d853c4a18177f
    [OrderID] => 1715-18203331
    [Status] => AUTH
    [JobCd] => AUTH
    [Amount] => 3850
    [Tax] => 0
    [Currency] => JPN
    [Forward] => 2S49631
    [Method] => 1
    [PayTimes] => 
    [TranID] => 2006182033602257217875100041
    [Approve] => 0269606
    [TranDate] => 20200618203333
    [ErrCode] => 
    [ErrInfo] => 
    [PayType] => 0
    [CvsCode] => 
    [CvsConfNo] => 
    [CvsReceiptNo] => 
    [EdyReceiptNo] => 
    [EdyOrderNo] => 
    [SuicaReceiptNo] => 
    [SuicaOrderNo] => 
    [CustID] => 
    [BkCode] => 
    [ConfNo] => 
    [PaymentTerm] => 
    [EncryptReceiptNo] => 
    [FinishDate] => 
    [ReceiptDate] => 
    [WebMoneyManagementNo] => 
    [WebMoneySettleCode] => 
    [AuPayInfoNo] => 
    [AuPayMethod] => 
    [AuCancelAmount] => 
    [AuCancelTax] => 
    [DocomoSettlementCode] => 
    [DocomoCancelAmount] => 
    [DocomoCancelTax] => 
    [pay_status] => 11
)
 from 210.175.7.20
2020/06/18 20:33:39 [/shop/user_data/pg_mulpay_recv.php] response:true from 210.175.7.20
