2020/01/23 13:32:49 [/shop/shopping/load_payment_module.php] SendRequest:https://p01.mul-pay.jp/payment/SearchMember.idPass from 150.249.205.76
customer_id = 470
/home/oukoku/public_html/shop/shopping/load_payment_module.php(29): LC_Page_Shopping_LoadPaymentModule_Ex->process
/home/oukoku/public_html/shop/data/class_extends/page_extends/shopping/LC_Page_Shopping_LoadPaymentModule_Ex.php(54): LC_Page_Shopping_LoadPaymentModule->process
/home/oukoku/public_html/shop/data/class/pages/shopping/LC_Page_Shopping_LoadPaymentModule.php(70): require_once
/home/oukoku/public_html/shop/data/downloads/module/mdl_pg_mulpay/payment.php(16): LC_Page_Mdl_PG_MULPAY_Helper->process
/home/oukoku/public_html/shop/data/downloads/module/mdl_pg_mulpay/class/pages/LC_Page_Mdl_PG_MULPAY_Helper.php(45): LC_Page_Mdl_PG_MULPAY_Helper->action
/home/oukoku/public_html/shop/data/downloads/module/mdl_pg_mulpay/class/pages/LC_Page_Mdl_PG_MULPAY_Helper.php(136): LC_PageHelper_Mdl_PG_MULPAY_Token->modeAction
/home/oukoku/public_html/shop/data/downloads/module/mdl_pg_mulpay/class/pages/helper/LC_PageHelper_Mdl_PG_MULPAY_Token.php(109): SC_Mdl_PG_MULPAY_Client_Member->searchCard
/home/oukoku/public_html/shop/data/downloads/module/mdl_pg_mulpay/class/client/SC_Mdl_PG_MULPAY_Client_Member.php(63): SC_Mdl_PG_MULPAY_Client_Member->checkMember
/home/oukoku/public_html/shop/data/downloads/module/mdl_pg_mulpay/class/client/SC_Mdl_PG_MULPAY_Client_Member.php(24): SC_Mdl_PG_MULPAY_Client_Member->getMember
/home/oukoku/public_html/shop/data/downloads/module/mdl_pg_mulpay/class/client/SC_Mdl_PG_MULPAY_Client_Member.php(280): SC_Mdl_PG_MULPAY_Client_Base->sendRequest
/home/oukoku/public_html/shop/data/downloads/module/mdl_pg_mulpay/class/client/SC_Mdl_PG_MULPAY_Client_Base.php(375): SC_Mdl_PG_MULPAY->printLog
/home/oukoku/public_html/shop/data/downloads/module/mdl_pg_mulpay/class/SC_Mdl_PG_MULPAY.php(268): GC_Utils::gfPrintLog
2020/01/23 13:32:49 [/shop/shopping/load_payment_module.php] Array
(
    [SiteID] => mst2000016748
    [SitePass] => ******
    [MemberID] => 470
)
 from 150.249.205.76
customer_id = 470
/home/oukoku/public_html/shop/shopping/load_payment_module.php(29): LC_Page_Shopping_LoadPaymentModule_Ex->process
/home/oukoku/public_html/shop/data/class_extends/page_extends/shopping/LC_Page_Shopping_LoadPaymentModule_Ex.php(54): LC_Page_Shopping_LoadPaymentModule->process
/home/oukoku/public_html/shop/data/class/pages/shopping/LC_Page_Shopping_LoadPaymentModule.php(70): require_once
/home/oukoku/public_html/shop/data/downloads/module/mdl_pg_mulpay/payment.php(16): LC_Page_Mdl_PG_MULPAY_Helper->process
/home/oukoku/public_html/shop/data/downloads/module/mdl_pg_mulpay/class/pages/LC_Page_Mdl_PG_MULPAY_Helper.php(45): LC_Page_Mdl_PG_MULPAY_Helper->action
/home/oukoku/public_html/shop/data/downloads/module/mdl_pg_mulpay/class/pages/LC_Page_Mdl_PG_MULPAY_Helper.php(136): LC_PageHelper_Mdl_PG_MULPAY_Token->modeAction
/home/oukoku/public_html/shop/data/downloads/module/mdl_pg_mulpay/class/pages/helper/LC_PageHelper_Mdl_PG_MULPAY_Token.php(109): SC_Mdl_PG_MULPAY_Client_Member->searchCard
/home/oukoku/public_html/shop/data/downloads/module/mdl_pg_mulpay/class/client/SC_Mdl_PG_MULPAY_Client_Member.php(63): SC_Mdl_PG_MULPAY_Client_Member->checkMember
/home/oukoku/public_html/shop/data/downloads/module/mdl_pg_mulpay/class/client/SC_Mdl_PG_MULPAY_Client_Member.php(24): SC_Mdl_PG_MULPAY_Client_Member->getMember
/home/oukoku/public_html/shop/data/downloads/module/mdl_pg_mulpay/class/client/SC_Mdl_PG_MULPAY_Client_Member.php(280): SC_Mdl_PG_MULPAY_Client_Base->sendRequest
/home/oukoku/public_html/shop/data/downloads/module/mdl_pg_mulpay/class/client/SC_Mdl_PG_MULPAY_Client_Base.php(376): SC_Mdl_PG_MULPAY->printLog
/home/oukoku/public_html/shop/data/downloads/module/mdl_pg_mulpay/class/SC_Mdl_PG_MULPAY.php(268): GC_Utils::gfPrintLog
2020/01/23 13:32:49 [/shop/shopping/load_payment_module.php] ErrCode=E01&ErrInfo=E01390002 from 150.249.205.76
customer_id = 470
/home/oukoku/public_html/shop/shopping/load_payment_module.php(29): LC_Page_Shopping_LoadPaymentModule_Ex->process
/home/oukoku/public_html/shop/data/class_extends/page_extends/shopping/LC_Page_Shopping_LoadPaymentModule_Ex.php(54): LC_Page_Shopping_LoadPaymentModule->process
/home/oukoku/public_html/shop/data/class/pages/shopping/LC_Page_Shopping_LoadPaymentModule.php(70): require_once
/home/oukoku/public_html/shop/data/downloads/module/mdl_pg_mulpay/payment.php(16): LC_Page_Mdl_PG_MULPAY_Helper->process
/home/oukoku/public_html/shop/data/downloads/module/mdl_pg_mulpay/class/pages/LC_Page_Mdl_PG_MULPAY_Helper.php(45): LC_Page_Mdl_PG_MULPAY_Helper->action
/home/oukoku/public_html/shop/data/downloads/module/mdl_pg_mulpay/class/pages/LC_Page_Mdl_PG_MULPAY_Helper.php(136): LC_PageHelper_Mdl_PG_MULPAY_Token->modeAction
/home/oukoku/public_html/shop/data/downloads/module/mdl_pg_mulpay/class/pages/helper/LC_PageHelper_Mdl_PG_MULPAY_Token.php(109): SC_Mdl_PG_MULPAY_Client_Member->searchCard
/home/oukoku/public_html/shop/data/downloads/module/mdl_pg_mulpay/class/client/SC_Mdl_PG_MULPAY_Client_Member.php(63): SC_Mdl_PG_MULPAY_Client_Member->checkMember
/home/oukoku/public_html/shop/data/downloads/module/mdl_pg_mulpay/class/client/SC_Mdl_PG_MULPAY_Client_Member.php(24): SC_Mdl_PG_MULPAY_Client_Member->getMember
/home/oukoku/public_html/shop/data/downloads/module/mdl_pg_mulpay/class/client/SC_Mdl_PG_MULPAY_Client_Member.php(280): SC_Mdl_PG_MULPAY_Client_Base->sendRequest
/home/oukoku/public_html/shop/data/downloads/module/mdl_pg_mulpay/class/client/SC_Mdl_PG_MULPAY_Client_Base.php(418): SC_Mdl_PG_MULPAY_Client_Base->parseResponse
/home/oukoku/public_html/shop/data/downloads/module/mdl_pg_mulpay/class/client/SC_Mdl_PG_MULPAY_Client_Base.php(446): SC_Mdl_PG_MULPAY->printLog
/home/oukoku/public_html/shop/data/downloads/module/mdl_pg_mulpay/class/SC_Mdl_PG_MULPAY.php(268): GC_Utils::gfPrintLog
2020/01/23 13:32:49 [/shop/shopping/load_payment_module.php] Array
(
    [0] => Array
        (
            [ErrCode] => E01
            [ErrInfo] => E01390002
        )

)
 from 150.249.205.76
customer_id = 470
/home/oukoku/public_html/shop/shopping/load_payment_module.php(29): LC_Page_Shopping_LoadPaymentModule_Ex->process
/home/oukoku/public_html/shop/data/class_extends/page_extends/shopping/LC_Page_Shopping_LoadPaymentModule_Ex.php(54): LC_Page_Shopping_LoadPaymentModule->process
/home/oukoku/public_html/shop/data/class/pages/shopping/LC_Page_Shopping_LoadPaymentModule.php(70): require_once
/home/oukoku/public_html/shop/data/downloads/module/mdl_pg_mulpay/payment.php(16): LC_Page_Mdl_PG_MULPAY_Helper->process
/home/oukoku/public_html/shop/data/downloads/module/mdl_pg_mulpay/class/pages/LC_Page_Mdl_PG_MULPAY_Helper.php(45): LC_Page_Mdl_PG_MULPAY_Helper->action
/home/oukoku/public_html/shop/data/downloads/module/mdl_pg_mulpay/class/pages/LC_Page_Mdl_PG_MULPAY_Helper.php(136): LC_PageHelper_Mdl_PG_MULPAY_Token->modeAction
/home/oukoku/public_html/shop/data/downloads/module/mdl_pg_mulpay/class/pages/helper/LC_PageHelper_Mdl_PG_MULPAY_Token.php(109): SC_Mdl_PG_MULPAY_Client_Member->searchCard
/home/oukoku/public_html/shop/data/downloads/module/mdl_pg_mulpay/class/client/SC_Mdl_PG_MULPAY_Client_Member.php(63): SC_Mdl_PG_MULPAY_Client_Member->checkMember
/home/oukoku/public_html/shop/data/downloads/module/mdl_pg_mulpay/class/client/SC_Mdl_PG_MULPAY_Client_Member.php(24): SC_Mdl_PG_MULPAY_Client_Member->getMember
/home/oukoku/public_html/shop/data/downloads/module/mdl_pg_mulpay/class/client/SC_Mdl_PG_MULPAY_Client_Member.php(280): SC_Mdl_PG_MULPAY_Client_Base->sendRequest
/home/oukoku/public_html/shop/data/downloads/module/mdl_pg_mulpay/class/client/SC_Mdl_PG_MULPAY_Client_Base.php(419): SC_Mdl_PG_MULPAY_Client_Base->setResults
/home/oukoku/public_html/shop/data/downloads/module/mdl_pg_mulpay/class/client/SC_Mdl_PG_MULPAY_Client_Base.php(533): SC_Mdl_PG_MULPAY->printLog
/home/oukoku/public_html/shop/data/downloads/module/mdl_pg_mulpay/class/SC_Mdl_PG_MULPAY.php(268): GC_Utils::gfPrintLog
2020/01/23 13:32:49 [/shop/shopping/load_payment_module.php] SendRequest:https://p01.mul-pay.jp/payment/SearchCard.idPass from 150.249.205.76
customer_id = 470
/home/oukoku/public_html/shop/shopping/load_payment_module.php(29): LC_Page_Shopping_LoadPaymentModule_Ex->process
/home/oukoku/public_html/shop/data/class_extends/page_extends/shopping/LC_Page_Shopping_LoadPaymentModule_Ex.php(54): LC_Page_Shopping_LoadPaymentModule->process
/home/oukoku/public_html/shop/data/class/pages/shopping/LC_Page_Shopping_LoadPaymentModule.php(70): require_once
/home/oukoku/public_html/shop/data/downloads/module/mdl_pg_mulpay/payment.php(16): LC_Page_Mdl_PG_MULPAY_Helper->process
/home/oukoku/public_html/shop/data/downloads/module/mdl_pg_mulpay/class/pages/LC_Page_Mdl_PG_MULPAY_Helper.php(45): LC_Page_Mdl_PG_MULPAY_Helper->action
/home/oukoku/public_html/shop/data/downloads/module/mdl_pg_mulpay/class/pages/LC_Page_Mdl_PG_MULPAY_Helper.php(136): LC_PageHelper_Mdl_PG_MULPAY_Token->modeAction
/home/oukoku/public_html/shop/data/downloads/module/mdl_pg_mulpay/class/pages/helper/LC_PageHelper_Mdl_PG_MULPAY_Token.php(109): SC_Mdl_PG_MULPAY_Client_Member->searchCard
/home/oukoku/public_html/shop/data/downloads/module/mdl_pg_mulpay/class/client/SC_Mdl_PG_MULPAY_Client_Member.php(79): SC_Mdl_PG_MULPAY_Client_Base->sendRequest
/home/oukoku/public_html/shop/data/downloads/module/mdl_pg_mulpay/class/client/SC_Mdl_PG_MULPAY_Client_Base.php(375): SC_Mdl_PG_MULPAY->printLog
/home/oukoku/public_html/shop/data/downloads/module/mdl_pg_mulpay/class/SC_Mdl_PG_MULPAY.php(268): GC_Utils::gfPrintLog
2020/01/23 13:32:49 [/shop/shopping/load_payment_module.php] Array
(
    [SiteID] => mst2000016748
    [SitePass] => ******
    [MemberID] => 470
)
 from 150.249.205.76
customer_id = 470
/home/oukoku/public_html/shop/shopping/load_payment_module.php(29): LC_Page_Shopping_LoadPaymentModule_Ex->process
/home/oukoku/public_html/shop/data/class_extends/page_extends/shopping/LC_Page_Shopping_LoadPaymentModule_Ex.php(54): LC_Page_Shopping_LoadPaymentModule->process
/home/oukoku/public_html/shop/data/class/pages/shopping/LC_Page_Shopping_LoadPaymentModule.php(70): require_once
/home/oukoku/public_html/shop/data/downloads/module/mdl_pg_mulpay/payment.php(16): LC_Page_Mdl_PG_MULPAY_Helper->process
/home/oukoku/public_html/shop/data/downloads/module/mdl_pg_mulpay/class/pages/LC_Page_Mdl_PG_MULPAY_Helper.php(45): LC_Page_Mdl_PG_MULPAY_Helper->action
/home/oukoku/public_html/shop/data/downloads/module/mdl_pg_mulpay/class/pages/LC_Page_Mdl_PG_MULPAY_Helper.php(136): LC_PageHelper_Mdl_PG_MULPAY_Token->modeAction
/home/oukoku/public_html/shop/data/downloads/module/mdl_pg_mulpay/class/pages/helper/LC_PageHelper_Mdl_PG_MULPAY_Token.php(109): SC_Mdl_PG_MULPAY_Client_Member->searchCard
/home/oukoku/public_html/shop/data/downloads/module/mdl_pg_mulpay/class/client/SC_Mdl_PG_MULPAY_Client_Member.php(79): SC_Mdl_PG_MULPAY_Client_Base->sendRequest
/home/oukoku/public_html/shop/data/downloads/module/mdl_pg_mulpay/class/client/SC_Mdl_PG_MULPAY_Client_Base.php(376): SC_Mdl_PG_MULPAY->printLog
/home/oukoku/public_html/shop/data/downloads/module/mdl_pg_mulpay/class/SC_Mdl_PG_MULPAY.php(268): GC_Utils::gfPrintLog
2020/01/23 13:32:50 [/shop/shopping/load_payment_module.php] ErrCode=E01|E01&ErrInfo=E01390002|E01240002 from 150.249.205.76
customer_id = 470
/home/oukoku/public_html/shop/shopping/load_payment_module.php(29): LC_Page_Shopping_LoadPaymentModule_Ex->process
/home/oukoku/public_html/shop/data/class_extends/page_extends/shopping/LC_Page_Shopping_LoadPaymentModule_Ex.php(54): LC_Page_Shopping_LoadPaymentModule->process
/home/oukoku/public_html/shop/data/class/pages/shopping/LC_Page_Shopping_LoadPaymentModule.php(70): require_once
/home/oukoku/public_html/shop/data/downloads/module/mdl_pg_mulpay/payment.php(16): LC_Page_Mdl_PG_MULPAY_Helper->process
/home/oukoku/public_html/shop/data/downloads/module/mdl_pg_mulpay/class/pages/LC_Page_Mdl_PG_MULPAY_Helper.php(45): LC_Page_Mdl_PG_MULPAY_Helper->action
/home/oukoku/public_html/shop/data/downloads/module/mdl_pg_mulpay/class/pages/LC_Page_Mdl_PG_MULPAY_Helper.php(136): LC_PageHelper_Mdl_PG_MULPAY_Token->modeAction
/home/oukoku/public_html/shop/data/downloads/module/mdl_pg_mulpay/class/pages/helper/LC_PageHelper_Mdl_PG_MULPAY_Token.php(109): SC_Mdl_PG_MULPAY_Client_Member->searchCard
/home/oukoku/public_html/shop/data/downloads/module/mdl_pg_mulpay/class/client/SC_Mdl_PG_MULPAY_Client_Member.php(79): SC_Mdl_PG_MULPAY_Client_Base->sendRequest
/home/oukoku/public_html/shop/data/downloads/module/mdl_pg_mulpay/class/client/SC_Mdl_PG_MULPAY_Client_Base.php(418): SC_Mdl_PG_MULPAY_Client_Base->parseResponse
/home/oukoku/public_html/shop/data/downloads/module/mdl_pg_mulpay/class/client/SC_Mdl_PG_MULPAY_Client_Base.php(446): SC_Mdl_PG_MULPAY->printLog
/home/oukoku/public_html/shop/data/downloads/module/mdl_pg_mulpay/class/SC_Mdl_PG_MULPAY.php(268): GC_Utils::gfPrintLog
2020/01/23 13:32:50 [/shop/shopping/load_payment_module.php] Array
(
    [0] => Array
        (
            [ErrCode] => E01
            [ErrInfo] => E01390002
        )

    [1] => Array
        (
            [ErrCode] => E01
            [ErrInfo] => E01240002
        )

)
 from 150.249.205.76
customer_id = 470
/home/oukoku/public_html/shop/shopping/load_payment_module.php(29): LC_Page_Shopping_LoadPaymentModule_Ex->process
/home/oukoku/public_html/shop/data/class_extends/page_extends/shopping/LC_Page_Shopping_LoadPaymentModule_Ex.php(54): LC_Page_Shopping_LoadPaymentModule->process
/home/oukoku/public_html/shop/data/class/pages/shopping/LC_Page_Shopping_LoadPaymentModule.php(70): require_once
/home/oukoku/public_html/shop/data/downloads/module/mdl_pg_mulpay/payment.php(16): LC_Page_Mdl_PG_MULPAY_Helper->process
/home/oukoku/public_html/shop/data/downloads/module/mdl_pg_mulpay/class/pages/LC_Page_Mdl_PG_MULPAY_Helper.php(45): LC_Page_Mdl_PG_MULPAY_Helper->action
/home/oukoku/public_html/shop/data/downloads/module/mdl_pg_mulpay/class/pages/LC_Page_Mdl_PG_MULPAY_Helper.php(136): LC_PageHelper_Mdl_PG_MULPAY_Token->modeAction
/home/oukoku/public_html/shop/data/downloads/module/mdl_pg_mulpay/class/pages/helper/LC_PageHelper_Mdl_PG_MULPAY_Token.php(109): SC_Mdl_PG_MULPAY_Client_Member->searchCard
/home/oukoku/public_html/shop/data/downloads/module/mdl_pg_mulpay/class/client/SC_Mdl_PG_MULPAY_Client_Member.php(79): SC_Mdl_PG_MULPAY_Client_Base->sendRequest
/home/oukoku/public_html/shop/data/downloads/module/mdl_pg_mulpay/class/client/SC_Mdl_PG_MULPAY_Client_Base.php(419): SC_Mdl_PG_MULPAY_Client_Base->setResults
/home/oukoku/public_html/shop/data/downloads/module/mdl_pg_mulpay/class/client/SC_Mdl_PG_MULPAY_Client_Base.php(533): SC_Mdl_PG_MULPAY->printLog
/home/oukoku/public_html/shop/data/downloads/module/mdl_pg_mulpay/class/SC_Mdl_PG_MULPAY.php(268): GC_Utils::gfPrintLog
2020/01/23 13:35:30 [/shop/shopping/load_payment_module.php] SendRequest:https://p01.mul-pay.jp/payment/SearchMember.idPass from 150.249.205.76
customer_id = 470
/home/oukoku/public_html/shop/shopping/load_payment_module.php(29): LC_Page_Shopping_LoadPaymentModule_Ex->process
/home/oukoku/public_html/shop/data/class_extends/page_extends/shopping/LC_Page_Shopping_LoadPaymentModule_Ex.php(54): LC_Page_Shopping_LoadPaymentModule->process
/home/oukoku/public_html/shop/data/class/pages/shopping/LC_Page_Shopping_LoadPaymentModule.php(70): require_once
/home/oukoku/public_html/shop/data/downloads/module/mdl_pg_mulpay/payment.php(16): LC_Page_Mdl_PG_MULPAY_Helper->process
/home/oukoku/public_html/shop/data/downloads/module/mdl_pg_mulpay/class/pages/LC_Page_Mdl_PG_MULPAY_Helper.php(45): LC_Page_Mdl_PG_MULPAY_Helper->action
/home/oukoku/public_html/shop/data/downloads/module/mdl_pg_mulpay/class/pages/LC_Page_Mdl_PG_MULPAY_Helper.php(136): LC_PageHelper_Mdl_PG_MULPAY_Token->modeAction
/home/oukoku/public_html/shop/data/downloads/module/mdl_pg_mulpay/class/pages/helper/LC_PageHelper_Mdl_PG_MULPAY_Token.php(109): SC_Mdl_PG_MULPAY_Client_Member->searchCard
/home/oukoku/public_html/shop/data/downloads/module/mdl_pg_mulpay/class/client/SC_Mdl_PG_MULPAY_Client_Member.php(63): SC_Mdl_PG_MULPAY_Client_Member->checkMember
/home/oukoku/public_html/shop/data/downloads/module/mdl_pg_mulpay/class/client/SC_Mdl_PG_MULPAY_Client_Member.php(24): SC_Mdl_PG_MULPAY_Client_Member->getMember
/home/oukoku/public_html/shop/data/downloads/module/mdl_pg_mulpay/class/client/SC_Mdl_PG_MULPAY_Client_Member.php(280): SC_Mdl_PG_MULPAY_Client_Base->sendRequest
/home/oukoku/public_html/shop/data/downloads/module/mdl_pg_mulpay/class/client/SC_Mdl_PG_MULPAY_Client_Base.php(375): SC_Mdl_PG_MULPAY->printLog
/home/oukoku/public_html/shop/data/downloads/module/mdl_pg_mulpay/class/SC_Mdl_PG_MULPAY.php(268): GC_Utils::gfPrintLog
2020/01/23 13:35:30 [/shop/shopping/load_payment_module.php] Array
(
    [SiteID] => mst2000016748
    [SitePass] => ******
    [MemberID] => 470
)
 from 150.249.205.76
customer_id = 470
/home/oukoku/public_html/shop/shopping/load_payment_module.php(29): LC_Page_Shopping_LoadPaymentModule_Ex->process
/home/oukoku/public_html/shop/data/class_extends/page_extends/shopping/LC_Page_Shopping_LoadPaymentModule_Ex.php(54): LC_Page_Shopping_LoadPaymentModule->process
/home/oukoku/public_html/shop/data/class/pages/shopping/LC_Page_Shopping_LoadPaymentModule.php(70): require_once
/home/oukoku/public_html/shop/data/downloads/module/mdl_pg_mulpay/payment.php(16): LC_Page_Mdl_PG_MULPAY_Helper->process
/home/oukoku/public_html/shop/data/downloads/module/mdl_pg_mulpay/class/pages/LC_Page_Mdl_PG_MULPAY_Helper.php(45): LC_Page_Mdl_PG_MULPAY_Helper->action
/home/oukoku/public_html/shop/data/downloads/module/mdl_pg_mulpay/class/pages/LC_Page_Mdl_PG_MULPAY_Helper.php(136): LC_PageHelper_Mdl_PG_MULPAY_Token->modeAction
/home/oukoku/public_html/shop/data/downloads/module/mdl_pg_mulpay/class/pages/helper/LC_PageHelper_Mdl_PG_MULPAY_Token.php(109): SC_Mdl_PG_MULPAY_Client_Member->searchCard
/home/oukoku/public_html/shop/data/downloads/module/mdl_pg_mulpay/class/client/SC_Mdl_PG_MULPAY_Client_Member.php(63): SC_Mdl_PG_MULPAY_Client_Member->checkMember
/home/oukoku/public_html/shop/data/downloads/module/mdl_pg_mulpay/class/client/SC_Mdl_PG_MULPAY_Client_Member.php(24): SC_Mdl_PG_MULPAY_Client_Member->getMember
/home/oukoku/public_html/shop/data/downloads/module/mdl_pg_mulpay/class/client/SC_Mdl_PG_MULPAY_Client_Member.php(280): SC_Mdl_PG_MULPAY_Client_Base->sendRequest
/home/oukoku/public_html/shop/data/downloads/module/mdl_pg_mulpay/class/client/SC_Mdl_PG_MULPAY_Client_Base.php(376): SC_Mdl_PG_MULPAY->printLog
/home/oukoku/public_html/shop/data/downloads/module/mdl_pg_mulpay/class/SC_Mdl_PG_MULPAY.php(268): GC_Utils::gfPrintLog
2020/01/23 13:35:31 [/shop/shopping/load_payment_module.php] ErrCode=E01&ErrInfo=E01390002 from 150.249.205.76
customer_id = 470
/home/oukoku/public_html/shop/shopping/load_payment_module.php(29): LC_Page_Shopping_LoadPaymentModule_Ex->process
/home/oukoku/public_html/shop/data/class_extends/page_extends/shopping/LC_Page_Shopping_LoadPaymentModule_Ex.php(54): LC_Page_Shopping_LoadPaymentModule->process
/home/oukoku/public_html/shop/data/class/pages/shopping/LC_Page_Shopping_LoadPaymentModule.php(70): require_once
/home/oukoku/public_html/shop/data/downloads/module/mdl_pg_mulpay/payment.php(16): LC_Page_Mdl_PG_MULPAY_Helper->process
/home/oukoku/public_html/shop/data/downloads/module/mdl_pg_mulpay/class/pages/LC_Page_Mdl_PG_MULPAY_Helper.php(45): LC_Page_Mdl_PG_MULPAY_Helper->action
/home/oukoku/public_html/shop/data/downloads/module/mdl_pg_mulpay/class/pages/LC_Page_Mdl_PG_MULPAY_Helper.php(136): LC_PageHelper_Mdl_PG_MULPAY_Token->modeAction
/home/oukoku/public_html/shop/data/downloads/module/mdl_pg_mulpay/class/pages/helper/LC_PageHelper_Mdl_PG_MULPAY_Token.php(109): SC_Mdl_PG_MULPAY_Client_Member->searchCard
/home/oukoku/public_html/shop/data/downloads/module/mdl_pg_mulpay/class/client/SC_Mdl_PG_MULPAY_Client_Member.php(63): SC_Mdl_PG_MULPAY_Client_Member->checkMember
/home/oukoku/public_html/shop/data/downloads/module/mdl_pg_mulpay/class/client/SC_Mdl_PG_MULPAY_Client_Member.php(24): SC_Mdl_PG_MULPAY_Client_Member->getMember
/home/oukoku/public_html/shop/data/downloads/module/mdl_pg_mulpay/class/client/SC_Mdl_PG_MULPAY_Client_Member.php(280): SC_Mdl_PG_MULPAY_Client_Base->sendRequest
/home/oukoku/public_html/shop/data/downloads/module/mdl_pg_mulpay/class/client/SC_Mdl_PG_MULPAY_Client_Base.php(418): SC_Mdl_PG_MULPAY_Client_Base->parseResponse
/home/oukoku/public_html/shop/data/downloads/module/mdl_pg_mulpay/class/client/SC_Mdl_PG_MULPAY_Client_Base.php(446): SC_Mdl_PG_MULPAY->printLog
/home/oukoku/public_html/shop/data/downloads/module/mdl_pg_mulpay/class/SC_Mdl_PG_MULPAY.php(268): GC_Utils::gfPrintLog
2020/01/23 13:35:31 [/shop/shopping/load_payment_module.php] Array
(
    [0] => Array
        (
            [ErrCode] => E01
            [ErrInfo] => E01390002
        )

)
 from 150.249.205.76
customer_id = 470
/home/oukoku/public_html/shop/shopping/load_payment_module.php(29): LC_Page_Shopping_LoadPaymentModule_Ex->process
/home/oukoku/public_html/shop/data/class_extends/page_extends/shopping/LC_Page_Shopping_LoadPaymentModule_Ex.php(54): LC_Page_Shopping_LoadPaymentModule->process
/home/oukoku/public_html/shop/data/class/pages/shopping/LC_Page_Shopping_LoadPaymentModule.php(70): require_once
/home/oukoku/public_html/shop/data/downloads/module/mdl_pg_mulpay/payment.php(16): LC_Page_Mdl_PG_MULPAY_Helper->process
/home/oukoku/public_html/shop/data/downloads/module/mdl_pg_mulpay/class/pages/LC_Page_Mdl_PG_MULPAY_Helper.php(45): LC_Page_Mdl_PG_MULPAY_Helper->action
/home/oukoku/public_html/shop/data/downloads/module/mdl_pg_mulpay/class/pages/LC_Page_Mdl_PG_MULPAY_Helper.php(136): LC_PageHelper_Mdl_PG_MULPAY_Token->modeAction
/home/oukoku/public_html/shop/data/downloads/module/mdl_pg_mulpay/class/pages/helper/LC_PageHelper_Mdl_PG_MULPAY_Token.php(109): SC_Mdl_PG_MULPAY_Client_Member->searchCard
/home/oukoku/public_html/shop/data/downloads/module/mdl_pg_mulpay/class/client/SC_Mdl_PG_MULPAY_Client_Member.php(63): SC_Mdl_PG_MULPAY_Client_Member->checkMember
/home/oukoku/public_html/shop/data/downloads/module/mdl_pg_mulpay/class/client/SC_Mdl_PG_MULPAY_Client_Member.php(24): SC_Mdl_PG_MULPAY_Client_Member->getMember
/home/oukoku/public_html/shop/data/downloads/module/mdl_pg_mulpay/class/client/SC_Mdl_PG_MULPAY_Client_Member.php(280): SC_Mdl_PG_MULPAY_Client_Base->sendRequest
/home/oukoku/public_html/shop/data/downloads/module/mdl_pg_mulpay/class/client/SC_Mdl_PG_MULPAY_Client_Base.php(419): SC_Mdl_PG_MULPAY_Client_Base->setResults
/home/oukoku/public_html/shop/data/downloads/module/mdl_pg_mulpay/class/client/SC_Mdl_PG_MULPAY_Client_Base.php(533): SC_Mdl_PG_MULPAY->printLog
/home/oukoku/public_html/shop/data/downloads/module/mdl_pg_mulpay/class/SC_Mdl_PG_MULPAY.php(268): GC_Utils::gfPrintLog
2020/01/23 13:35:31 [/shop/shopping/load_payment_module.php] SendRequest:https://p01.mul-pay.jp/payment/SearchCard.idPass from 150.249.205.76
customer_id = 470
/home/oukoku/public_html/shop/shopping/load_payment_module.php(29): LC_Page_Shopping_LoadPaymentModule_Ex->process
/home/oukoku/public_html/shop/data/class_extends/page_extends/shopping/LC_Page_Shopping_LoadPaymentModule_Ex.php(54): LC_Page_Shopping_LoadPaymentModule->process
/home/oukoku/public_html/shop/data/class/pages/shopping/LC_Page_Shopping_LoadPaymentModule.php(70): require_once
/home/oukoku/public_html/shop/data/downloads/module/mdl_pg_mulpay/payment.php(16): LC_Page_Mdl_PG_MULPAY_Helper->process
/home/oukoku/public_html/shop/data/downloads/module/mdl_pg_mulpay/class/pages/LC_Page_Mdl_PG_MULPAY_Helper.php(45): LC_Page_Mdl_PG_MULPAY_Helper->action
/home/oukoku/public_html/shop/data/downloads/module/mdl_pg_mulpay/class/pages/LC_Page_Mdl_PG_MULPAY_Helper.php(136): LC_PageHelper_Mdl_PG_MULPAY_Token->modeAction
/home/oukoku/public_html/shop/data/downloads/module/mdl_pg_mulpay/class/pages/helper/LC_PageHelper_Mdl_PG_MULPAY_Token.php(109): SC_Mdl_PG_MULPAY_Client_Member->searchCard
/home/oukoku/public_html/shop/data/downloads/module/mdl_pg_mulpay/class/client/SC_Mdl_PG_MULPAY_Client_Member.php(79): SC_Mdl_PG_MULPAY_Client_Base->sendRequest
/home/oukoku/public_html/shop/data/downloads/module/mdl_pg_mulpay/class/client/SC_Mdl_PG_MULPAY_Client_Base.php(375): SC_Mdl_PG_MULPAY->printLog
/home/oukoku/public_html/shop/data/downloads/module/mdl_pg_mulpay/class/SC_Mdl_PG_MULPAY.php(268): GC_Utils::gfPrintLog
2020/01/23 13:35:31 [/shop/shopping/load_payment_module.php] Array
(
    [SiteID] => mst2000016748
    [SitePass] => ******
    [MemberID] => 470
)
 from 150.249.205.76
customer_id = 470
/home/oukoku/public_html/shop/shopping/load_payment_module.php(29): LC_Page_Shopping_LoadPaymentModule_Ex->process
/home/oukoku/public_html/shop/data/class_extends/page_extends/shopping/LC_Page_Shopping_LoadPaymentModule_Ex.php(54): LC_Page_Shopping_LoadPaymentModule->process
/home/oukoku/public_html/shop/data/class/pages/shopping/LC_Page_Shopping_LoadPaymentModule.php(70): require_once
/home/oukoku/public_html/shop/data/downloads/module/mdl_pg_mulpay/payment.php(16): LC_Page_Mdl_PG_MULPAY_Helper->process
/home/oukoku/public_html/shop/data/downloads/module/mdl_pg_mulpay/class/pages/LC_Page_Mdl_PG_MULPAY_Helper.php(45): LC_Page_Mdl_PG_MULPAY_Helper->action
/home/oukoku/public_html/shop/data/downloads/module/mdl_pg_mulpay/class/pages/LC_Page_Mdl_PG_MULPAY_Helper.php(136): LC_PageHelper_Mdl_PG_MULPAY_Token->modeAction
/home/oukoku/public_html/shop/data/downloads/module/mdl_pg_mulpay/class/pages/helper/LC_PageHelper_Mdl_PG_MULPAY_Token.php(109): SC_Mdl_PG_MULPAY_Client_Member->searchCard
/home/oukoku/public_html/shop/data/downloads/module/mdl_pg_mulpay/class/client/SC_Mdl_PG_MULPAY_Client_Member.php(79): SC_Mdl_PG_MULPAY_Client_Base->sendRequest
/home/oukoku/public_html/shop/data/downloads/module/mdl_pg_mulpay/class/client/SC_Mdl_PG_MULPAY_Client_Base.php(376): SC_Mdl_PG_MULPAY->printLog
/home/oukoku/public_html/shop/data/downloads/module/mdl_pg_mulpay/class/SC_Mdl_PG_MULPAY.php(268): GC_Utils::gfPrintLog
2020/01/23 13:35:31 [/shop/shopping/load_payment_module.php] ErrCode=E01|E01&ErrInfo=E01390002|E01240002 from 150.249.205.76
customer_id = 470
/home/oukoku/public_html/shop/shopping/load_payment_module.php(29): LC_Page_Shopping_LoadPaymentModule_Ex->process
/home/oukoku/public_html/shop/data/class_extends/page_extends/shopping/LC_Page_Shopping_LoadPaymentModule_Ex.php(54): LC_Page_Shopping_LoadPaymentModule->process
/home/oukoku/public_html/shop/data/class/pages/shopping/LC_Page_Shopping_LoadPaymentModule.php(70): require_once
/home/oukoku/public_html/shop/data/downloads/module/mdl_pg_mulpay/payment.php(16): LC_Page_Mdl_PG_MULPAY_Helper->process
/home/oukoku/public_html/shop/data/downloads/module/mdl_pg_mulpay/class/pages/LC_Page_Mdl_PG_MULPAY_Helper.php(45): LC_Page_Mdl_PG_MULPAY_Helper->action
/home/oukoku/public_html/shop/data/downloads/module/mdl_pg_mulpay/class/pages/LC_Page_Mdl_PG_MULPAY_Helper.php(136): LC_PageHelper_Mdl_PG_MULPAY_Token->modeAction
/home/oukoku/public_html/shop/data/downloads/module/mdl_pg_mulpay/class/pages/helper/LC_PageHelper_Mdl_PG_MULPAY_Token.php(109): SC_Mdl_PG_MULPAY_Client_Member->searchCard
/home/oukoku/public_html/shop/data/downloads/module/mdl_pg_mulpay/class/client/SC_Mdl_PG_MULPAY_Client_Member.php(79): SC_Mdl_PG_MULPAY_Client_Base->sendRequest
/home/oukoku/public_html/shop/data/downloads/module/mdl_pg_mulpay/class/client/SC_Mdl_PG_MULPAY_Client_Base.php(418): SC_Mdl_PG_MULPAY_Client_Base->parseResponse
/home/oukoku/public_html/shop/data/downloads/module/mdl_pg_mulpay/class/client/SC_Mdl_PG_MULPAY_Client_Base.php(446): SC_Mdl_PG_MULPAY->printLog
/home/oukoku/public_html/shop/data/downloads/module/mdl_pg_mulpay/class/SC_Mdl_PG_MULPAY.php(268): GC_Utils::gfPrintLog
2020/01/23 13:35:31 [/shop/shopping/load_payment_module.php] Array
(
    [0] => Array
        (
            [ErrCode] => E01
            [ErrInfo] => E01390002
        )

    [1] => Array
        (
            [ErrCode] => E01
            [ErrInfo] => E01240002
        )

)
 from 150.249.205.76
customer_id = 470
/home/oukoku/public_html/shop/shopping/load_payment_module.php(29): LC_Page_Shopping_LoadPaymentModule_Ex->process
/home/oukoku/public_html/shop/data/class_extends/page_extends/shopping/LC_Page_Shopping_LoadPaymentModule_Ex.php(54): LC_Page_Shopping_LoadPaymentModule->process
/home/oukoku/public_html/shop/data/class/pages/shopping/LC_Page_Shopping_LoadPaymentModule.php(70): require_once
/home/oukoku/public_html/shop/data/downloads/module/mdl_pg_mulpay/payment.php(16): LC_Page_Mdl_PG_MULPAY_Helper->process
/home/oukoku/public_html/shop/data/downloads/module/mdl_pg_mulpay/class/pages/LC_Page_Mdl_PG_MULPAY_Helper.php(45): LC_Page_Mdl_PG_MULPAY_Helper->action
/home/oukoku/public_html/shop/data/downloads/module/mdl_pg_mulpay/class/pages/LC_Page_Mdl_PG_MULPAY_Helper.php(136): LC_PageHelper_Mdl_PG_MULPAY_Token->modeAction
/home/oukoku/public_html/shop/data/downloads/module/mdl_pg_mulpay/class/pages/helper/LC_PageHelper_Mdl_PG_MULPAY_Token.php(109): SC_Mdl_PG_MULPAY_Client_Member->searchCard
/home/oukoku/public_html/shop/data/downloads/module/mdl_pg_mulpay/class/client/SC_Mdl_PG_MULPAY_Client_Member.php(79): SC_Mdl_PG_MULPAY_Client_Base->sendRequest
/home/oukoku/public_html/shop/data/downloads/module/mdl_pg_mulpay/class/client/SC_Mdl_PG_MULPAY_Client_Base.php(419): SC_Mdl_PG_MULPAY_Client_Base->setResults
/home/oukoku/public_html/shop/data/downloads/module/mdl_pg_mulpay/class/client/SC_Mdl_PG_MULPAY_Client_Base.php(533): SC_Mdl_PG_MULPAY->printLog
/home/oukoku/public_html/shop/data/downloads/module/mdl_pg_mulpay/class/SC_Mdl_PG_MULPAY.php(268): GC_Utils::gfPrintLog
2020/01/23 13:35:31 [/shop/shopping/load_payment_module.php] SendRequest:https://p01.mul-pay.jp/payment/EntryTran.idPass from 150.249.205.76
customer_id = 470
/home/oukoku/public_html/shop/shopping/load_payment_module.php(29): LC_Page_Shopping_LoadPaymentModule_Ex->process
/home/oukoku/public_html/shop/data/class_extends/page_extends/shopping/LC_Page_Shopping_LoadPaymentModule_Ex.php(54): LC_Page_Shopping_LoadPaymentModule->process
/home/oukoku/public_html/shop/data/class/pages/shopping/LC_Page_Shopping_LoadPaymentModule.php(70): require_once
/home/oukoku/public_html/shop/data/downloads/module/mdl_pg_mulpay/payment.php(16): LC_Page_Mdl_PG_MULPAY_Helper->process
/home/oukoku/public_html/shop/data/downloads/module/mdl_pg_mulpay/class/pages/LC_Page_Mdl_PG_MULPAY_Helper.php(45): LC_Page_Mdl_PG_MULPAY_Helper->action
/home/oukoku/public_html/shop/data/downloads/module/mdl_pg_mulpay/class/pages/LC_Page_Mdl_PG_MULPAY_Helper.php(136): LC_PageHelper_Mdl_PG_MULPAY_Token->modeAction
/home/oukoku/public_html/shop/data/downloads/module/mdl_pg_mulpay/class/pages/helper/LC_PageHelper_Mdl_PG_MULPAY_Token.php(129): SC_Mdl_PG_MULPAY_Client_Token->doPaymentRequest
/home/oukoku/public_html/shop/data/downloads/module/mdl_pg_mulpay/class/client/SC_Mdl_PG_MULPAY_Client_Token.php(105): SC_Mdl_PG_MULPAY_Client_Base->sendOrderRequest
/home/oukoku/public_html/shop/data/downloads/module/mdl_pg_mulpay/class/client/SC_Mdl_PG_MULPAY_Client_Base.php(241): SC_Mdl_PG_MULPAY_Client_Base->sendRequest
/home/oukoku/public_html/shop/data/downloads/module/mdl_pg_mulpay/class/client/SC_Mdl_PG_MULPAY_Client_Base.php(375): SC_Mdl_PG_MULPAY->printLog
/home/oukoku/public_html/shop/data/downloads/module/mdl_pg_mulpay/class/SC_Mdl_PG_MULPAY.php(268): GC_Utils::gfPrintLog
2020/01/23 13:35:31 [/shop/shopping/load_payment_module.php] Array
(
    [ShopID] => 9102288779655
    [ShopPass] => ******
    [OrderID] => 969-23133531
    [JobCd] => AUTH
    [Amount] => 39737
    [TdFlag] => 0
    [TdTenantName] => 
)
 from 150.249.205.76
customer_id = 470
/home/oukoku/public_html/shop/shopping/load_payment_module.php(29): LC_Page_Shopping_LoadPaymentModule_Ex->process
/home/oukoku/public_html/shop/data/class_extends/page_extends/shopping/LC_Page_Shopping_LoadPaymentModule_Ex.php(54): LC_Page_Shopping_LoadPaymentModule->process
/home/oukoku/public_html/shop/data/class/pages/shopping/LC_Page_Shopping_LoadPaymentModule.php(70): require_once
/home/oukoku/public_html/shop/data/downloads/module/mdl_pg_mulpay/payment.php(16): LC_Page_Mdl_PG_MULPAY_Helper->process
/home/oukoku/public_html/shop/data/downloads/module/mdl_pg_mulpay/class/pages/LC_Page_Mdl_PG_MULPAY_Helper.php(45): LC_Page_Mdl_PG_MULPAY_Helper->action
/home/oukoku/public_html/shop/data/downloads/module/mdl_pg_mulpay/class/pages/LC_Page_Mdl_PG_MULPAY_Helper.php(136): LC_PageHelper_Mdl_PG_MULPAY_Token->modeAction
/home/oukoku/public_html/shop/data/downloads/module/mdl_pg_mulpay/class/pages/helper/LC_PageHelper_Mdl_PG_MULPAY_Token.php(129): SC_Mdl_PG_MULPAY_Client_Token->doPaymentRequest
/home/oukoku/public_html/shop/data/downloads/module/mdl_pg_mulpay/class/client/SC_Mdl_PG_MULPAY_Client_Token.php(105): SC_Mdl_PG_MULPAY_Client_Base->sendOrderRequest
/home/oukoku/public_html/shop/data/downloads/module/mdl_pg_mulpay/class/client/SC_Mdl_PG_MULPAY_Client_Base.php(241): SC_Mdl_PG_MULPAY_Client_Base->sendRequest
/home/oukoku/public_html/shop/data/downloads/module/mdl_pg_mulpay/class/client/SC_Mdl_PG_MULPAY_Client_Base.php(376): SC_Mdl_PG_MULPAY->printLog
/home/oukoku/public_html/shop/data/downloads/module/mdl_pg_mulpay/class/SC_Mdl_PG_MULPAY.php(268): GC_Utils::gfPrintLog
2020/01/23 13:35:31 [/shop/shopping/load_payment_module.php] AccessID=e06c914528eb528aa02c3cef8e2e92ed&AccessPass=e2507f08f8834f67468f81620fdef6f3 from 150.249.205.76
customer_id = 470
/home/oukoku/public_html/shop/shopping/load_payment_module.php(29): LC_Page_Shopping_LoadPaymentModule_Ex->process
/home/oukoku/public_html/shop/data/class_extends/page_extends/shopping/LC_Page_Shopping_LoadPaymentModule_Ex.php(54): LC_Page_Shopping_LoadPaymentModule->process
/home/oukoku/public_html/shop/data/class/pages/shopping/LC_Page_Shopping_LoadPaymentModule.php(70): require_once
/home/oukoku/public_html/shop/data/downloads/module/mdl_pg_mulpay/payment.php(16): LC_Page_Mdl_PG_MULPAY_Helper->process
/home/oukoku/public_html/shop/data/downloads/module/mdl_pg_mulpay/class/pages/LC_Page_Mdl_PG_MULPAY_Helper.php(45): LC_Page_Mdl_PG_MULPAY_Helper->action
/home/oukoku/public_html/shop/data/downloads/module/mdl_pg_mulpay/class/pages/LC_Page_Mdl_PG_MULPAY_Helper.php(136): LC_PageHelper_Mdl_PG_MULPAY_Token->modeAction
/home/oukoku/public_html/shop/data/downloads/module/mdl_pg_mulpay/class/pages/helper/LC_PageHelper_Mdl_PG_MULPAY_Token.php(129): SC_Mdl_PG_MULPAY_Client_Token->doPaymentRequest
/home/oukoku/public_html/shop/data/downloads/module/mdl_pg_mulpay/class/client/SC_Mdl_PG_MULPAY_Client_Token.php(105): SC_Mdl_PG_MULPAY_Client_Base->sendOrderRequest
/home/oukoku/public_html/shop/data/downloads/module/mdl_pg_mulpay/class/client/SC_Mdl_PG_MULPAY_Client_Base.php(241): SC_Mdl_PG_MULPAY_Client_Base->sendRequest
/home/oukoku/public_html/shop/data/downloads/module/mdl_pg_mulpay/class/client/SC_Mdl_PG_MULPAY_Client_Base.php(418): SC_Mdl_PG_MULPAY_Client_Base->parseResponse
/home/oukoku/public_html/shop/data/downloads/module/mdl_pg_mulpay/class/client/SC_Mdl_PG_MULPAY_Client_Base.php(446): SC_Mdl_PG_MULPAY->printLog
/home/oukoku/public_html/shop/data/downloads/module/mdl_pg_mulpay/class/SC_Mdl_PG_MULPAY.php(268): GC_Utils::gfPrintLog
2020/01/23 13:35:31 [/shop/shopping/load_payment_module.php] Array
(
    [0] => Array
        (
            [AccessID] => e06c914528eb528aa02c3cef8e2e92ed
            [AccessPass] => e2507f08f8834f67468f81620fdef6f3
        )

)
 from 150.249.205.76
customer_id = 470
/home/oukoku/public_html/shop/shopping/load_payment_module.php(29): LC_Page_Shopping_LoadPaymentModule_Ex->process
/home/oukoku/public_html/shop/data/class_extends/page_extends/shopping/LC_Page_Shopping_LoadPaymentModule_Ex.php(54): LC_Page_Shopping_LoadPaymentModule->process
/home/oukoku/public_html/shop/data/class/pages/shopping/LC_Page_Shopping_LoadPaymentModule.php(70): require_once
/home/oukoku/public_html/shop/data/downloads/module/mdl_pg_mulpay/payment.php(16): LC_Page_Mdl_PG_MULPAY_Helper->process
/home/oukoku/public_html/shop/data/downloads/module/mdl_pg_mulpay/class/pages/LC_Page_Mdl_PG_MULPAY_Helper.php(45): LC_Page_Mdl_PG_MULPAY_Helper->action
/home/oukoku/public_html/shop/data/downloads/module/mdl_pg_mulpay/class/pages/LC_Page_Mdl_PG_MULPAY_Helper.php(136): LC_PageHelper_Mdl_PG_MULPAY_Token->modeAction
/home/oukoku/public_html/shop/data/downloads/module/mdl_pg_mulpay/class/pages/helper/LC_PageHelper_Mdl_PG_MULPAY_Token.php(129): SC_Mdl_PG_MULPAY_Client_Token->doPaymentRequest
/home/oukoku/public_html/shop/data/downloads/module/mdl_pg_mulpay/class/client/SC_Mdl_PG_MULPAY_Client_Token.php(105): SC_Mdl_PG_MULPAY_Client_Base->sendOrderRequest
/home/oukoku/public_html/shop/data/downloads/module/mdl_pg_mulpay/class/client/SC_Mdl_PG_MULPAY_Client_Base.php(241): SC_Mdl_PG_MULPAY_Client_Base->sendRequest
/home/oukoku/public_html/shop/data/downloads/module/mdl_pg_mulpay/class/client/SC_Mdl_PG_MULPAY_Client_Base.php(419): SC_Mdl_PG_MULPAY_Client_Base->setResults
/home/oukoku/public_html/shop/data/downloads/module/mdl_pg_mulpay/class/client/SC_Mdl_PG_MULPAY_Client_Base.php(533): SC_Mdl_PG_MULPAY->printLog
/home/oukoku/public_html/shop/data/downloads/module/mdl_pg_mulpay/class/SC_Mdl_PG_MULPAY.php(268): GC_Utils::gfPrintLog
2020/01/23 13:35:31 [/shop/shopping/load_payment_module.php] load_payment_module.php set payment data:Array
(
    [AccessID] => e06c914528eb528aa02c3cef8e2e92ed
    [AccessPass] => e2507f08f8834f67468f81620fdef6f3
    [OrderID] => 969-23133531
    [Amount] => 39737
    [JobCd] => AUTH
    [action_status] => 1
    [pay_status] => 0
)
 from 150.249.205.76
customer_id = 470
/home/oukoku/public_html/shop/shopping/load_payment_module.php(29): LC_Page_Shopping_LoadPaymentModule_Ex->process
/home/oukoku/public_html/shop/data/class_extends/page_extends/shopping/LC_Page_Shopping_LoadPaymentModule_Ex.php(54): LC_Page_Shopping_LoadPaymentModule->process
/home/oukoku/public_html/shop/data/class/pages/shopping/LC_Page_Shopping_LoadPaymentModule.php(70): require_once
/home/oukoku/public_html/shop/data/downloads/module/mdl_pg_mulpay/payment.php(16): LC_Page_Mdl_PG_MULPAY_Helper->process
/home/oukoku/public_html/shop/data/downloads/module/mdl_pg_mulpay/class/pages/LC_Page_Mdl_PG_MULPAY_Helper.php(45): LC_Page_Mdl_PG_MULPAY_Helper->action
/home/oukoku/public_html/shop/data/downloads/module/mdl_pg_mulpay/class/pages/LC_Page_Mdl_PG_MULPAY_Helper.php(136): LC_PageHelper_Mdl_PG_MULPAY_Token->modeAction
/home/oukoku/public_html/shop/data/downloads/module/mdl_pg_mulpay/class/pages/helper/LC_PageHelper_Mdl_PG_MULPAY_Token.php(129): SC_Mdl_PG_MULPAY_Client_Token->doPaymentRequest
/home/oukoku/public_html/shop/data/downloads/module/mdl_pg_mulpay/class/client/SC_Mdl_PG_MULPAY_Client_Token.php(105): SC_Mdl_PG_MULPAY_Client_Base->sendOrderRequest
/home/oukoku/public_html/shop/data/downloads/module/mdl_pg_mulpay/class/client/SC_Mdl_PG_MULPAY_Client_Base.php(275): SC_Util_PG_MULPAY->setOrderPayData
/home/oukoku/public_html/shop/data/downloads/module/mdl_pg_mulpay/class/util/SC_Util_PG_MULPAY.php(501): SC_Mdl_PG_MULPAY->printLog
/home/oukoku/public_html/shop/data/downloads/module/mdl_pg_mulpay/class/SC_Mdl_PG_MULPAY.php(268): GC_Utils::gfPrintLog
2020/01/23 13:35:31 [/shop/shopping/load_payment_module.php] SendRequest:https://p01.mul-pay.jp/payment/ExecTran.idPass from 150.249.205.76
customer_id = 470
/home/oukoku/public_html/shop/shopping/load_payment_module.php(29): LC_Page_Shopping_LoadPaymentModule_Ex->process
/home/oukoku/public_html/shop/data/class_extends/page_extends/shopping/LC_Page_Shopping_LoadPaymentModule_Ex.php(54): LC_Page_Shopping_LoadPaymentModule->process
/home/oukoku/public_html/shop/data/class/pages/shopping/LC_Page_Shopping_LoadPaymentModule.php(70): require_once
/home/oukoku/public_html/shop/data/downloads/module/mdl_pg_mulpay/payment.php(16): LC_Page_Mdl_PG_MULPAY_Helper->process
/home/oukoku/public_html/shop/data/downloads/module/mdl_pg_mulpay/class/pages/LC_Page_Mdl_PG_MULPAY_Helper.php(45): LC_Page_Mdl_PG_MULPAY_Helper->action
/home/oukoku/public_html/shop/data/downloads/module/mdl_pg_mulpay/class/pages/LC_Page_Mdl_PG_MULPAY_Helper.php(136): LC_PageHelper_Mdl_PG_MULPAY_Token->modeAction
/home/oukoku/public_html/shop/data/downloads/module/mdl_pg_mulpay/class/pages/helper/LC_PageHelper_Mdl_PG_MULPAY_Token.php(129): SC_Mdl_PG_MULPAY_Client_Token->doPaymentRequest
/home/oukoku/public_html/shop/data/downloads/module/mdl_pg_mulpay/class/client/SC_Mdl_PG_MULPAY_Client_Token.php(146): SC_Mdl_PG_MULPAY_Client_Base->sendOrderRequest
/home/oukoku/public_html/shop/data/downloads/module/mdl_pg_mulpay/class/client/SC_Mdl_PG_MULPAY_Client_Base.php(241): SC_Mdl_PG_MULPAY_Client_Base->sendRequest
/home/oukoku/public_html/shop/data/downloads/module/mdl_pg_mulpay/class/client/SC_Mdl_PG_MULPAY_Client_Base.php(375): SC_Mdl_PG_MULPAY->printLog
/home/oukoku/public_html/shop/data/downloads/module/mdl_pg_mulpay/class/SC_Mdl_PG_MULPAY.php(268): GC_Utils::gfPrintLog
2020/01/23 13:35:31 [/shop/shopping/load_payment_module.php] Array
(
    [AccessID] => e06c914528eb528aa02c3cef8e2e92ed
    [AccessPass] => e2507f08f8834f67468f81620fdef6f3
    [OrderID] => 969-23133531
    [Method] => 1
    [Token] => a2e319bdf764517535bf91451f29d245ecf81d78c2e0e2315dc43b57d7cc04d7
    [ClientField1] => 
    [ClientField2] => 
    [ClientField3] => EC-CUBE4.3.24
)
 from 150.249.205.76
customer_id = 470
/home/oukoku/public_html/shop/shopping/load_payment_module.php(29): LC_Page_Shopping_LoadPaymentModule_Ex->process
/home/oukoku/public_html/shop/data/class_extends/page_extends/shopping/LC_Page_Shopping_LoadPaymentModule_Ex.php(54): LC_Page_Shopping_LoadPaymentModule->process
/home/oukoku/public_html/shop/data/class/pages/shopping/LC_Page_Shopping_LoadPaymentModule.php(70): require_once
/home/oukoku/public_html/shop/data/downloads/module/mdl_pg_mulpay/payment.php(16): LC_Page_Mdl_PG_MULPAY_Helper->process
/home/oukoku/public_html/shop/data/downloads/module/mdl_pg_mulpay/class/pages/LC_Page_Mdl_PG_MULPAY_Helper.php(45): LC_Page_Mdl_PG_MULPAY_Helper->action
/home/oukoku/public_html/shop/data/downloads/module/mdl_pg_mulpay/class/pages/LC_Page_Mdl_PG_MULPAY_Helper.php(136): LC_PageHelper_Mdl_PG_MULPAY_Token->modeAction
/home/oukoku/public_html/shop/data/downloads/module/mdl_pg_mulpay/class/pages/helper/LC_PageHelper_Mdl_PG_MULPAY_Token.php(129): SC_Mdl_PG_MULPAY_Client_Token->doPaymentRequest
/home/oukoku/public_html/shop/data/downloads/module/mdl_pg_mulpay/class/client/SC_Mdl_PG_MULPAY_Client_Token.php(146): SC_Mdl_PG_MULPAY_Client_Base->sendOrderRequest
/home/oukoku/public_html/shop/data/downloads/module/mdl_pg_mulpay/class/client/SC_Mdl_PG_MULPAY_Client_Base.php(241): SC_Mdl_PG_MULPAY_Client_Base->sendRequest
/home/oukoku/public_html/shop/data/downloads/module/mdl_pg_mulpay/class/client/SC_Mdl_PG_MULPAY_Client_Base.php(376): SC_Mdl_PG_MULPAY->printLog
/home/oukoku/public_html/shop/data/downloads/module/mdl_pg_mulpay/class/SC_Mdl_PG_MULPAY.php(268): GC_Utils::gfPrintLog
2020/01/23 13:35:32 [/shop/shopping/load_payment_module.php] ACS=0&OrderID=969-23133531&Forward=2S49631&Method=1&PayTimes=&Approve=0003103&TranID=2001231335602257217875110177&TranDate=20200123133532&CheckString=88ddd6670d08dd9f1f818334e229c413 from 150.249.205.76
customer_id = 470
/home/oukoku/public_html/shop/shopping/load_payment_module.php(29): LC_Page_Shopping_LoadPaymentModule_Ex->process
/home/oukoku/public_html/shop/data/class_extends/page_extends/shopping/LC_Page_Shopping_LoadPaymentModule_Ex.php(54): LC_Page_Shopping_LoadPaymentModule->process
/home/oukoku/public_html/shop/data/class/pages/shopping/LC_Page_Shopping_LoadPaymentModule.php(70): require_once
/home/oukoku/public_html/shop/data/downloads/module/mdl_pg_mulpay/payment.php(16): LC_Page_Mdl_PG_MULPAY_Helper->process
/home/oukoku/public_html/shop/data/downloads/module/mdl_pg_mulpay/class/pages/LC_Page_Mdl_PG_MULPAY_Helper.php(45): LC_Page_Mdl_PG_MULPAY_Helper->action
/home/oukoku/public_html/shop/data/downloads/module/mdl_pg_mulpay/class/pages/LC_Page_Mdl_PG_MULPAY_Helper.php(136): LC_PageHelper_Mdl_PG_MULPAY_Token->modeAction
/home/oukoku/public_html/shop/data/downloads/module/mdl_pg_mulpay/class/pages/helper/LC_PageHelper_Mdl_PG_MULPAY_Token.php(129): SC_Mdl_PG_MULPAY_Client_Token->doPaymentRequest
/home/oukoku/public_html/shop/data/downloads/module/mdl_pg_mulpay/class/client/SC_Mdl_PG_MULPAY_Client_Token.php(146): SC_Mdl_PG_MULPAY_Client_Base->sendOrderRequest
/home/oukoku/public_html/shop/data/downloads/module/mdl_pg_mulpay/class/client/SC_Mdl_PG_MULPAY_Client_Base.php(241): SC_Mdl_PG_MULPAY_Client_Base->sendRequest
/home/oukoku/public_html/shop/data/downloads/module/mdl_pg_mulpay/class/client/SC_Mdl_PG_MULPAY_Client_Base.php(418): SC_Mdl_PG_MULPAY_Client_Base->parseResponse
/home/oukoku/public_html/shop/data/downloads/module/mdl_pg_mulpay/class/client/SC_Mdl_PG_MULPAY_Client_Base.php(446): SC_Mdl_PG_MULPAY->printLog
/home/oukoku/public_html/shop/data/downloads/module/mdl_pg_mulpay/class/SC_Mdl_PG_MULPAY.php(268): GC_Utils::gfPrintLog
2020/01/23 13:35:32 [/shop/shopping/load_payment_module.php] Array
(
    [0] => Array
        (
            [ACS] => 0
            [OrderID] => 969-23133531
            [Forward] => 2S49631
            [Method] => 1
            [PayTimes] => 
            [Approve] => 0003103
            [TranID] => 2001231335602257217875110177
            [TranDate] => 20200123133532
            [CheckString] => 88ddd6670d08dd9f1f818334e229c413
        )

)
 from 150.249.205.76
customer_id = 470
/home/oukoku/public_html/shop/shopping/load_payment_module.php(29): LC_Page_Shopping_LoadPaymentModule_Ex->process
/home/oukoku/public_html/shop/data/class_extends/page_extends/shopping/LC_Page_Shopping_LoadPaymentModule_Ex.php(54): LC_Page_Shopping_LoadPaymentModule->process
/home/oukoku/public_html/shop/data/class/pages/shopping/LC_Page_Shopping_LoadPaymentModule.php(70): require_once
/home/oukoku/public_html/shop/data/downloads/module/mdl_pg_mulpay/payment.php(16): LC_Page_Mdl_PG_MULPAY_Helper->process
/home/oukoku/public_html/shop/data/downloads/module/mdl_pg_mulpay/class/pages/LC_Page_Mdl_PG_MULPAY_Helper.php(45): LC_Page_Mdl_PG_MULPAY_Helper->action
/home/oukoku/public_html/shop/data/downloads/module/mdl_pg_mulpay/class/pages/LC_Page_Mdl_PG_MULPAY_Helper.php(136): LC_PageHelper_Mdl_PG_MULPAY_Token->modeAction
/home/oukoku/public_html/shop/data/downloads/module/mdl_pg_mulpay/class/pages/helper/LC_PageHelper_Mdl_PG_MULPAY_Token.php(129): SC_Mdl_PG_MULPAY_Client_Token->doPaymentRequest
/home/oukoku/public_html/shop/data/downloads/module/mdl_pg_mulpay/class/client/SC_Mdl_PG_MULPAY_Client_Token.php(146): SC_Mdl_PG_MULPAY_Client_Base->sendOrderRequest
/home/oukoku/public_html/shop/data/downloads/module/mdl_pg_mulpay/class/client/SC_Mdl_PG_MULPAY_Client_Base.php(241): SC_Mdl_PG_MULPAY_Client_Base->sendRequest
/home/oukoku/public_html/shop/data/downloads/module/mdl_pg_mulpay/class/client/SC_Mdl_PG_MULPAY_Client_Base.php(419): SC_Mdl_PG_MULPAY_Client_Base->setResults
/home/oukoku/public_html/shop/data/downloads/module/mdl_pg_mulpay/class/client/SC_Mdl_PG_MULPAY_Client_Base.php(533): SC_Mdl_PG_MULPAY->printLog
/home/oukoku/public_html/shop/data/downloads/module/mdl_pg_mulpay/class/SC_Mdl_PG_MULPAY.php(268): GC_Utils::gfPrintLog
2020/01/23 13:35:32 [/shop/shopping/load_payment_module.php] load_payment_module.php set payment data:Array
(
    [ACS] => 0
    [Forward] => 2S49631
    [Method] => 1
    [PayTimes] => 
    [Approve] => 0003103
    [TranID] => 2001231335602257217875110177
    [TranDate] => 20200123133532
    [CheckString] => 88ddd6670d08dd9f1f818334e229c413
    [Amount] => 39737
    [JobCd] => AUTH
    [action_status] => 3
    [pay_status] => 11
)
 from 150.249.205.76
customer_id = 470
/home/oukoku/public_html/shop/shopping/load_payment_module.php(29): LC_Page_Shopping_LoadPaymentModule_Ex->process
/home/oukoku/public_html/shop/data/class_extends/page_extends/shopping/LC_Page_Shopping_LoadPaymentModule_Ex.php(54): LC_Page_Shopping_LoadPaymentModule->process
/home/oukoku/public_html/shop/data/class/pages/shopping/LC_Page_Shopping_LoadPaymentModule.php(70): require_once
/home/oukoku/public_html/shop/data/downloads/module/mdl_pg_mulpay/payment.php(16): LC_Page_Mdl_PG_MULPAY_Helper->process
/home/oukoku/public_html/shop/data/downloads/module/mdl_pg_mulpay/class/pages/LC_Page_Mdl_PG_MULPAY_Helper.php(45): LC_Page_Mdl_PG_MULPAY_Helper->action
/home/oukoku/public_html/shop/data/downloads/module/mdl_pg_mulpay/class/pages/LC_Page_Mdl_PG_MULPAY_Helper.php(136): LC_PageHelper_Mdl_PG_MULPAY_Token->modeAction
/home/oukoku/public_html/shop/data/downloads/module/mdl_pg_mulpay/class/pages/helper/LC_PageHelper_Mdl_PG_MULPAY_Token.php(129): SC_Mdl_PG_MULPAY_Client_Token->doPaymentRequest
/home/oukoku/public_html/shop/data/downloads/module/mdl_pg_mulpay/class/client/SC_Mdl_PG_MULPAY_Client_Token.php(146): SC_Mdl_PG_MULPAY_Client_Base->sendOrderRequest
/home/oukoku/public_html/shop/data/downloads/module/mdl_pg_mulpay/class/client/SC_Mdl_PG_MULPAY_Client_Base.php(275): SC_Util_PG_MULPAY->setOrderPayData
/home/oukoku/public_html/shop/data/downloads/module/mdl_pg_mulpay/class/util/SC_Util_PG_MULPAY.php(501): SC_Mdl_PG_MULPAY->printLog
/home/oukoku/public_html/shop/data/downloads/module/mdl_pg_mulpay/class/SC_Mdl_PG_MULPAY.php(268): GC_Utils::gfPrintLog
2020/01/23 13:35:33 [/shop/user_data/pg_mulpay_recv.php] ******* receiveer data start ******* from 210.175.7.20
customer_id = 
/home/oukoku/public_html/shop/user_data/pg_mulpay_recv.php(15): LC_Page_Mdl_PG_MULPAY_Recv->process
/home/oukoku/public_html/shop/data/downloads/module/mdl_pg_mulpay/class/pages/LC_Page_Mdl_PG_MULPAY_Recv.php(44): LC_Page_Mdl_PG_MULPAY_Recv->action
/home/oukoku/public_html/shop/data/downloads/module/mdl_pg_mulpay/class/pages/LC_Page_Mdl_PG_MULPAY_Recv.php(54): LC_Page_Mdl_PG_MULPAY_Recv->lfSetPostLog
/home/oukoku/public_html/shop/data/downloads/module/mdl_pg_mulpay/class/pages/LC_Page_Mdl_PG_MULPAY_Recv.php(832): SC_Mdl_PG_MULPAY->printLog
/home/oukoku/public_html/shop/data/downloads/module/mdl_pg_mulpay/class/SC_Mdl_PG_MULPAY.php(268): GC_Utils::gfPrintLog
2020/01/23 13:35:33 [/shop/user_data/pg_mulpay_recv.php] Array
(
    [ShopID] => 9102288779655
    [ShopPass] => **********
    [AccessID] => e06c914528eb528aa02c3cef8e2e92ed
    [AccessPass] => ********************************
    [OrderID] => 969-23133531
    [Status] => AUTH
    [JobCd] => AUTH
    [Amount] => 39737
    [Tax] => 0
    [Currency] => JPN
    [Forward] => 2S49631
    [Method] => 1
    [PayTimes] => 
    [TranID] => 2001231335602257217875110177
    [Approve] => 0003103
    [TranDate] => 20200123133532
    [ErrCode] => 
    [ErrInfo] => 
    [PayType] => 0
)
 from 210.175.7.20
customer_id = 
/home/oukoku/public_html/shop/user_data/pg_mulpay_recv.php(15): LC_Page_Mdl_PG_MULPAY_Recv->process
/home/oukoku/public_html/shop/data/downloads/module/mdl_pg_mulpay/class/pages/LC_Page_Mdl_PG_MULPAY_Recv.php(44): LC_Page_Mdl_PG_MULPAY_Recv->action
/home/oukoku/public_html/shop/data/downloads/module/mdl_pg_mulpay/class/pages/LC_Page_Mdl_PG_MULPAY_Recv.php(54): LC_Page_Mdl_PG_MULPAY_Recv->lfSetPostLog
/home/oukoku/public_html/shop/data/downloads/module/mdl_pg_mulpay/class/pages/LC_Page_Mdl_PG_MULPAY_Recv.php(836): SC_Mdl_PG_MULPAY->printLog
/home/oukoku/public_html/shop/data/downloads/module/mdl_pg_mulpay/class/SC_Mdl_PG_MULPAY.php(268): GC_Utils::gfPrintLog
2020/01/23 13:35:33 [/shop/user_data/pg_mulpay_recv.php] ******* receiveer data end ******* from 210.175.7.20
customer_id = 
/home/oukoku/public_html/shop/user_data/pg_mulpay_recv.php(15): LC_Page_Mdl_PG_MULPAY_Recv->process
/home/oukoku/public_html/shop/data/downloads/module/mdl_pg_mulpay/class/pages/LC_Page_Mdl_PG_MULPAY_Recv.php(44): LC_Page_Mdl_PG_MULPAY_Recv->action
/home/oukoku/public_html/shop/data/downloads/module/mdl_pg_mulpay/class/pages/LC_Page_Mdl_PG_MULPAY_Recv.php(54): LC_Page_Mdl_PG_MULPAY_Recv->lfSetPostLog
/home/oukoku/public_html/shop/data/downloads/module/mdl_pg_mulpay/class/pages/LC_Page_Mdl_PG_MULPAY_Recv.php(837): SC_Mdl_PG_MULPAY->printLog
/home/oukoku/public_html/shop/data/downloads/module/mdl_pg_mulpay/class/SC_Mdl_PG_MULPAY.php(268): GC_Utils::gfPrintLog
2020/01/23 13:35:38 [/shop/user_data/pg_mulpay_recv.php] update order status:1 order_id=969 from 210.175.7.20
customer_id = 
/home/oukoku/public_html/shop/user_data/pg_mulpay_recv.php(15): LC_Page_Mdl_PG_MULPAY_Recv->process
/home/oukoku/public_html/shop/data/downloads/module/mdl_pg_mulpay/class/pages/LC_Page_Mdl_PG_MULPAY_Recv.php(44): LC_Page_Mdl_PG_MULPAY_Recv->action
/home/oukoku/public_html/shop/data/downloads/module/mdl_pg_mulpay/class/pages/LC_Page_Mdl_PG_MULPAY_Recv.php(91): LC_Page_Mdl_PG_MULPAY_Recv->lfDoReceive
/home/oukoku/public_html/shop/data/downloads/module/mdl_pg_mulpay/class/pages/LC_Page_Mdl_PG_MULPAY_Recv.php(219): LC_Page_Mdl_PG_MULPAY_Recv->lfDoRecvCredit
/home/oukoku/public_html/shop/data/downloads/module/mdl_pg_mulpay/class/pages/LC_Page_Mdl_PG_MULPAY_Recv.php(717): SC_Mdl_PG_MULPAY->printLog
/home/oukoku/public_html/shop/data/downloads/module/mdl_pg_mulpay/class/SC_Mdl_PG_MULPAY.php(268): GC_Utils::gfPrintLog
2020/01/23 13:35:38 [/shop/user_data/pg_mulpay_recv.php] pg_mulpay_recv.php set payment data:Array
(
    [ShopID] => 9102288779655
    [AccessID] => e06c914528eb528aa02c3cef8e2e92ed
    [OrderID] => 969-23133531
    [Status] => AUTH
    [JobCd] => AUTH
    [Amount] => 39737
    [Tax] => 0
    [Currency] => JPN
    [Forward] => 2S49631
    [Method] => 1
    [PayTimes] => 
    [TranID] => 2001231335602257217875110177
    [Approve] => 0003103
    [TranDate] => 20200123133532
    [ErrCode] => 
    [ErrInfo] => 
    [PayType] => 0
    [CvsCode] => 
    [CvsConfNo] => 
    [CvsReceiptNo] => 
    [EdyReceiptNo] => 
    [EdyOrderNo] => 
    [SuicaReceiptNo] => 
    [SuicaOrderNo] => 
    [CustID] => 
    [BkCode] => 
    [ConfNo] => 
    [PaymentTerm] => 
    [EncryptReceiptNo] => 
    [FinishDate] => 
    [ReceiptDate] => 
    [WebMoneyManagementNo] => 
    [WebMoneySettleCode] => 
    [AuPayInfoNo] => 
    [AuPayMethod] => 
    [AuCancelAmount] => 
    [AuCancelTax] => 
    [DocomoSettlementCode] => 
    [DocomoCancelAmount] => 
    [DocomoCancelTax] => 
    [pay_status] => 11
)
 from 210.175.7.20
customer_id = 
/home/oukoku/public_html/shop/user_data/pg_mulpay_recv.php(15): LC_Page_Mdl_PG_MULPAY_Recv->process
/home/oukoku/public_html/shop/data/downloads/module/mdl_pg_mulpay/class/pages/LC_Page_Mdl_PG_MULPAY_Recv.php(44): LC_Page_Mdl_PG_MULPAY_Recv->action
/home/oukoku/public_html/shop/data/downloads/module/mdl_pg_mulpay/class/pages/LC_Page_Mdl_PG_MULPAY_Recv.php(91): LC_Page_Mdl_PG_MULPAY_Recv->lfDoReceive
/home/oukoku/public_html/shop/data/downloads/module/mdl_pg_mulpay/class/pages/LC_Page_Mdl_PG_MULPAY_Recv.php(226): SC_Util_PG_MULPAY->setOrderPayData
/home/oukoku/public_html/shop/data/downloads/module/mdl_pg_mulpay/class/util/SC_Util_PG_MULPAY.php(501): SC_Mdl_PG_MULPAY->printLog
/home/oukoku/public_html/shop/data/downloads/module/mdl_pg_mulpay/class/SC_Mdl_PG_MULPAY.php(268): GC_Utils::gfPrintLog
2020/01/23 13:35:38 [/shop/user_data/pg_mulpay_recv.php] response:true from 210.175.7.20
customer_id = 
/home/oukoku/public_html/shop/user_data/pg_mulpay_recv.php(15): LC_Page_Mdl_PG_MULPAY_Recv->process
/home/oukoku/public_html/shop/data/downloads/module/mdl_pg_mulpay/class/pages/LC_Page_Mdl_PG_MULPAY_Recv.php(44): LC_Page_Mdl_PG_MULPAY_Recv->action
/home/oukoku/public_html/shop/data/downloads/module/mdl_pg_mulpay/class/pages/LC_Page_Mdl_PG_MULPAY_Recv.php(93): LC_Page_Mdl_PG_MULPAY_Recv->lfSendResponse
/home/oukoku/public_html/shop/data/downloads/module/mdl_pg_mulpay/class/pages/LC_Page_Mdl_PG_MULPAY_Recv.php(849): SC_Mdl_PG_MULPAY->printLog
/home/oukoku/public_html/shop/data/downloads/module/mdl_pg_mulpay/class/SC_Mdl_PG_MULPAY.php(268): GC_Utils::gfPrintLog
2020/01/23 15:55:25 [/shop/kanri/order/edit.php] SendRequest:https://p01.mul-pay.jp/payment/AlterTran.idPass from 218.229.143.114
login_id = oukokuadmin(0)[lqlak9cnaf3ddtffshiplp3226]
/home/oukoku/public_html/shop/kanri/order/edit.php(28): LC_Page_Admin_Order_Edit_Ex->init
/home/oukoku/public_html/shop/data/class_extends/page_extends/admin/order/LC_Page_Admin_Order_Edit_Ex.php(44): LC_Page_Admin_Order_Edit->init
/home/oukoku/public_html/shop/data/class/pages/admin/order/LC_Page_Admin_Order_Edit.php(93): LC_Page_Admin_Order_Ex->init
/home/oukoku/public_html/shop/data/class_extends/page_extends/admin/order/LC_Page_Admin_Order_Ex.php(44): LC_Page_Admin_Order->init
/home/oukoku/public_html/shop/data/class/pages/admin/order/LC_Page_Admin_Order.php(42): LC_Page_Admin->init
/home/oukoku/public_html/shop/data/class/pages/admin/LC_Page_Admin.php(78): SC_Helper_Plugin->doAction
/home/oukoku/public_html/shop/data/class/helper/SC_Helper_Plugin.php(145): call_user_func_array
(): PgMulpayUtils->hookActionBefore
/home/oukoku/public_html/shop/data/downloads/plugin/PgMulpayUtils/PgMulpayUtils.php(143): PgMulpayUtils->callHookAction
/home/oukoku/public_html/shop/data/downloads/plugin/PgMulpayUtils/PgMulpayUtils.php(157): LC_PgMulpayUtils->actionHook
/home/oukoku/public_html/shop/data/downloads/module/mdl_pg_mulpay/class/plugin/LC_PgMulpayUtils.php(155): LC_PgMulpayUtils->lfDoAdminOrderEditBefore
/home/oukoku/public_html/shop/data/downloads/module/mdl_pg_mulpay/class/plugin/LC_PgMulpayUtils.php(385): SC_Mdl_PG_MULPAY_Client_Util->commitOrder
/home/oukoku/public_html/shop/data/downloads/module/mdl_pg_mulpay/class/client/SC_Mdl_PG_MULPAY_Client_Util.php(318): SC_Mdl_PG_MULPAY_Client_Base->sendRequest
/home/oukoku/public_html/shop/data/downloads/module/mdl_pg_mulpay/class/client/SC_Mdl_PG_MULPAY_Client_Base.php(375): SC_Mdl_PG_MULPAY->printLog
/home/oukoku/public_html/shop/data/downloads/module/mdl_pg_mulpay/class/SC_Mdl_PG_MULPAY.php(268): GC_Utils::gfPrintLog
2020/01/23 15:55:25 [/shop/kanri/order/edit.php] Array
(
    [ShopID] => 9102288779655
    [ShopPass] => ******
    [AccessID] => 1c2377848a4d0aeb6bd08b07b7a5835d
    [AccessPass] => aec68cc55210690427f333d5a88e9747
    [JobCd] => SALES
    [Amount] => 8800
)
 from 218.229.143.114
login_id = oukokuadmin(0)[lqlak9cnaf3ddtffshiplp3226]
/home/oukoku/public_html/shop/kanri/order/edit.php(28): LC_Page_Admin_Order_Edit_Ex->init
/home/oukoku/public_html/shop/data/class_extends/page_extends/admin/order/LC_Page_Admin_Order_Edit_Ex.php(44): LC_Page_Admin_Order_Edit->init
/home/oukoku/public_html/shop/data/class/pages/admin/order/LC_Page_Admin_Order_Edit.php(93): LC_Page_Admin_Order_Ex->init
/home/oukoku/public_html/shop/data/class_extends/page_extends/admin/order/LC_Page_Admin_Order_Ex.php(44): LC_Page_Admin_Order->init
/home/oukoku/public_html/shop/data/class/pages/admin/order/LC_Page_Admin_Order.php(42): LC_Page_Admin->init
/home/oukoku/public_html/shop/data/class/pages/admin/LC_Page_Admin.php(78): SC_Helper_Plugin->doAction
/home/oukoku/public_html/shop/data/class/helper/SC_Helper_Plugin.php(145): call_user_func_array
(): PgMulpayUtils->hookActionBefore
/home/oukoku/public_html/shop/data/downloads/plugin/PgMulpayUtils/PgMulpayUtils.php(143): PgMulpayUtils->callHookAction
/home/oukoku/public_html/shop/data/downloads/plugin/PgMulpayUtils/PgMulpayUtils.php(157): LC_PgMulpayUtils->actionHook
/home/oukoku/public_html/shop/data/downloads/module/mdl_pg_mulpay/class/plugin/LC_PgMulpayUtils.php(155): LC_PgMulpayUtils->lfDoAdminOrderEditBefore
/home/oukoku/public_html/shop/data/downloads/module/mdl_pg_mulpay/class/plugin/LC_PgMulpayUtils.php(385): SC_Mdl_PG_MULPAY_Client_Util->commitOrder
/home/oukoku/public_html/shop/data/downloads/module/mdl_pg_mulpay/class/client/SC_Mdl_PG_MULPAY_Client_Util.php(318): SC_Mdl_PG_MULPAY_Client_Base->sendRequest
/home/oukoku/public_html/shop/data/downloads/module/mdl_pg_mulpay/class/client/SC_Mdl_PG_MULPAY_Client_Base.php(376): SC_Mdl_PG_MULPAY->printLog
/home/oukoku/public_html/shop/data/downloads/module/mdl_pg_mulpay/class/SC_Mdl_PG_MULPAY.php(268): GC_Utils::gfPrintLog
2020/01/23 15:55:25 [/shop/kanri/order/edit.php] AccessID=1c2377848a4d0aeb6bd08b07b7a5835d&AccessPass=aec68cc55210690427f333d5a88e9747&Forward=2a99661&Approve=0097508&TranID=2001142329602257217875110169&TranDate=20200123155525 from 218.229.143.114
login_id = oukokuadmin(0)[lqlak9cnaf3ddtffshiplp3226]
/home/oukoku/public_html/shop/kanri/order/edit.php(28): LC_Page_Admin_Order_Edit_Ex->init
/home/oukoku/public_html/shop/data/class_extends/page_extends/admin/order/LC_Page_Admin_Order_Edit_Ex.php(44): LC_Page_Admin_Order_Edit->init
/home/oukoku/public_html/shop/data/class/pages/admin/order/LC_Page_Admin_Order_Edit.php(93): LC_Page_Admin_Order_Ex->init
/home/oukoku/public_html/shop/data/class_extends/page_extends/admin/order/LC_Page_Admin_Order_Ex.php(44): LC_Page_Admin_Order->init
/home/oukoku/public_html/shop/data/class/pages/admin/order/LC_Page_Admin_Order.php(42): LC_Page_Admin->init
/home/oukoku/public_html/shop/data/class/pages/admin/LC_Page_Admin.php(78): SC_Helper_Plugin->doAction
/home/oukoku/public_html/shop/data/class/helper/SC_Helper_Plugin.php(145): call_user_func_array
(): PgMulpayUtils->hookActionBefore
/home/oukoku/public_html/shop/data/downloads/plugin/PgMulpayUtils/PgMulpayUtils.php(143): PgMulpayUtils->callHookAction
/home/oukoku/public_html/shop/data/downloads/plugin/PgMulpayUtils/PgMulpayUtils.php(157): LC_PgMulpayUtils->actionHook
/home/oukoku/public_html/shop/data/downloads/module/mdl_pg_mulpay/class/plugin/LC_PgMulpayUtils.php(155): LC_PgMulpayUtils->lfDoAdminOrderEditBefore
/home/oukoku/public_html/shop/data/downloads/module/mdl_pg_mulpay/class/plugin/LC_PgMulpayUtils.php(385): SC_Mdl_PG_MULPAY_Client_Util->commitOrder
/home/oukoku/public_html/shop/data/downloads/module/mdl_pg_mulpay/class/client/SC_Mdl_PG_MULPAY_Client_Util.php(318): SC_Mdl_PG_MULPAY_Client_Base->sendRequest
/home/oukoku/public_html/shop/data/downloads/module/mdl_pg_mulpay/class/client/SC_Mdl_PG_MULPAY_Client_Base.php(418): SC_Mdl_PG_MULPAY_Client_Base->parseResponse
/home/oukoku/public_html/shop/data/downloads/module/mdl_pg_mulpay/class/client/SC_Mdl_PG_MULPAY_Client_Base.php(446): SC_Mdl_PG_MULPAY->printLog
/home/oukoku/public_html/shop/data/downloads/module/mdl_pg_mulpay/class/SC_Mdl_PG_MULPAY.php(268): GC_Utils::gfPrintLog
2020/01/23 15:55:25 [/shop/kanri/order/edit.php] Array
(
    [0] => Array
        (
            [AccessID] => 1c2377848a4d0aeb6bd08b07b7a5835d
            [AccessPass] => aec68cc55210690427f333d5a88e9747
            [Forward] => 2a99661
            [Approve] => 0097508
            [TranID] => 2001142329602257217875110169
            [TranDate] => 20200123155525
        )

)
 from 218.229.143.114
login_id = oukokuadmin(0)[lqlak9cnaf3ddtffshiplp3226]
/home/oukoku/public_html/shop/kanri/order/edit.php(28): LC_Page_Admin_Order_Edit_Ex->init
/home/oukoku/public_html/shop/data/class_extends/page_extends/admin/order/LC_Page_Admin_Order_Edit_Ex.php(44): LC_Page_Admin_Order_Edit->init
/home/oukoku/public_html/shop/data/class/pages/admin/order/LC_Page_Admin_Order_Edit.php(93): LC_Page_Admin_Order_Ex->init
/home/oukoku/public_html/shop/data/class_extends/page_extends/admin/order/LC_Page_Admin_Order_Ex.php(44): LC_Page_Admin_Order->init
/home/oukoku/public_html/shop/data/class/pages/admin/order/LC_Page_Admin_Order.php(42): LC_Page_Admin->init
/home/oukoku/public_html/shop/data/class/pages/admin/LC_Page_Admin.php(78): SC_Helper_Plugin->doAction
/home/oukoku/public_html/shop/data/class/helper/SC_Helper_Plugin.php(145): call_user_func_array
(): PgMulpayUtils->hookActionBefore
/home/oukoku/public_html/shop/data/downloads/plugin/PgMulpayUtils/PgMulpayUtils.php(143): PgMulpayUtils->callHookAction
/home/oukoku/public_html/shop/data/downloads/plugin/PgMulpayUtils/PgMulpayUtils.php(157): LC_PgMulpayUtils->actionHook
/home/oukoku/public_html/shop/data/downloads/module/mdl_pg_mulpay/class/plugin/LC_PgMulpayUtils.php(155): LC_PgMulpayUtils->lfDoAdminOrderEditBefore
/home/oukoku/public_html/shop/data/downloads/module/mdl_pg_mulpay/class/plugin/LC_PgMulpayUtils.php(385): SC_Mdl_PG_MULPAY_Client_Util->commitOrder
/home/oukoku/public_html/shop/data/downloads/module/mdl_pg_mulpay/class/client/SC_Mdl_PG_MULPAY_Client_Util.php(318): SC_Mdl_PG_MULPAY_Client_Base->sendRequest
/home/oukoku/public_html/shop/data/downloads/module/mdl_pg_mulpay/class/client/SC_Mdl_PG_MULPAY_Client_Base.php(419): SC_Mdl_PG_MULPAY_Client_Base->setResults
/home/oukoku/public_html/shop/data/downloads/module/mdl_pg_mulpay/class/client/SC_Mdl_PG_MULPAY_Client_Base.php(533): SC_Mdl_PG_MULPAY->printLog
/home/oukoku/public_html/shop/data/downloads/module/mdl_pg_mulpay/class/SC_Mdl_PG_MULPAY.php(268): GC_Utils::gfPrintLog
2020/01/23 15:55:25 [/shop/kanri/order/edit.php] edit.php set payment data:Array
(
    [AccessID] => 1c2377848a4d0aeb6bd08b07b7a5835d
    [AccessPass] => aec68cc55210690427f333d5a88e9747
    [Forward] => 2a99661
    [Approve] => 0097508
    [TranID] => 2001142329602257217875110169
    [TranDate] => 20200123155525
    [action_status] => 6
    [pay_status] => 12
)
 from 218.229.143.114
login_id = oukokuadmin(0)[lqlak9cnaf3ddtffshiplp3226]
/home/oukoku/public_html/shop/kanri/order/edit.php(28): LC_Page_Admin_Order_Edit_Ex->init
/home/oukoku/public_html/shop/data/class_extends/page_extends/admin/order/LC_Page_Admin_Order_Edit_Ex.php(44): LC_Page_Admin_Order_Edit->init
/home/oukoku/public_html/shop/data/class/pages/admin/order/LC_Page_Admin_Order_Edit.php(93): LC_Page_Admin_Order_Ex->init
/home/oukoku/public_html/shop/data/class_extends/page_extends/admin/order/LC_Page_Admin_Order_Ex.php(44): LC_Page_Admin_Order->init
/home/oukoku/public_html/shop/data/class/pages/admin/order/LC_Page_Admin_Order.php(42): LC_Page_Admin->init
/home/oukoku/public_html/shop/data/class/pages/admin/LC_Page_Admin.php(78): SC_Helper_Plugin->doAction
/home/oukoku/public_html/shop/data/class/helper/SC_Helper_Plugin.php(145): call_user_func_array
(): PgMulpayUtils->hookActionBefore
/home/oukoku/public_html/shop/data/downloads/plugin/PgMulpayUtils/PgMulpayUtils.php(143): PgMulpayUtils->callHookAction
/home/oukoku/public_html/shop/data/downloads/plugin/PgMulpayUtils/PgMulpayUtils.php(157): LC_PgMulpayUtils->actionHook
/home/oukoku/public_html/shop/data/downloads/module/mdl_pg_mulpay/class/plugin/LC_PgMulpayUtils.php(155): LC_PgMulpayUtils->lfDoAdminOrderEditBefore
/home/oukoku/public_html/shop/data/downloads/module/mdl_pg_mulpay/class/plugin/LC_PgMulpayUtils.php(385): SC_Mdl_PG_MULPAY_Client_Util->commitOrder
/home/oukoku/public_html/shop/data/downloads/module/mdl_pg_mulpay/class/client/SC_Mdl_PG_MULPAY_Client_Util.php(332): SC_Util_PG_MULPAY->setOrderPayData
/home/oukoku/public_html/shop/data/downloads/module/mdl_pg_mulpay/class/util/SC_Util_PG_MULPAY.php(501): SC_Mdl_PG_MULPAY->printLog
/home/oukoku/public_html/shop/data/downloads/module/mdl_pg_mulpay/class/SC_Mdl_PG_MULPAY.php(268): GC_Utils::gfPrintLog
2020/01/23 15:55:25 [/shop/user_data/pg_mulpay_recv.php] ******* receiveer data start ******* from 210.175.7.20
customer_id = 
/home/oukoku/public_html/shop/user_data/pg_mulpay_recv.php(15): LC_Page_Mdl_PG_MULPAY_Recv->process
/home/oukoku/public_html/shop/data/downloads/module/mdl_pg_mulpay/class/pages/LC_Page_Mdl_PG_MULPAY_Recv.php(44): LC_Page_Mdl_PG_MULPAY_Recv->action
/home/oukoku/public_html/shop/data/downloads/module/mdl_pg_mulpay/class/pages/LC_Page_Mdl_PG_MULPAY_Recv.php(54): LC_Page_Mdl_PG_MULPAY_Recv->lfSetPostLog
/home/oukoku/public_html/shop/data/downloads/module/mdl_pg_mulpay/class/pages/LC_Page_Mdl_PG_MULPAY_Recv.php(832): SC_Mdl_PG_MULPAY->printLog
/home/oukoku/public_html/shop/data/downloads/module/mdl_pg_mulpay/class/SC_Mdl_PG_MULPAY.php(268): GC_Utils::gfPrintLog
2020/01/23 15:55:25 [/shop/user_data/pg_mulpay_recv.php] Array
(
    [ShopID] => 9102288779655
    [ShopPass] => **********
    [AccessID] => 1c2377848a4d0aeb6bd08b07b7a5835d
    [AccessPass] => ********************************
    [OrderID] => 947-14232924
    [Status] => SALES
    [JobCd] => SALES
    [Amount] => 8800
    [Tax] => 0
    [Currency] => JPN
    [Forward] => 2a99661
    [Method] => 1
    [PayTimes] => 
    [TranID] => 2001142329602257217875110169
    [Approve] => 0097508
    [TranDate] => 20200123155525
    [ErrCode] => 
    [ErrInfo] => 
    [PayType] => 0
)
 from 210.175.7.20
customer_id = 
/home/oukoku/public_html/shop/user_data/pg_mulpay_recv.php(15): LC_Page_Mdl_PG_MULPAY_Recv->process
/home/oukoku/public_html/shop/data/downloads/module/mdl_pg_mulpay/class/pages/LC_Page_Mdl_PG_MULPAY_Recv.php(44): LC_Page_Mdl_PG_MULPAY_Recv->action
/home/oukoku/public_html/shop/data/downloads/module/mdl_pg_mulpay/class/pages/LC_Page_Mdl_PG_MULPAY_Recv.php(54): LC_Page_Mdl_PG_MULPAY_Recv->lfSetPostLog
/home/oukoku/public_html/shop/data/downloads/module/mdl_pg_mulpay/class/pages/LC_Page_Mdl_PG_MULPAY_Recv.php(836): SC_Mdl_PG_MULPAY->printLog
/home/oukoku/public_html/shop/data/downloads/module/mdl_pg_mulpay/class/SC_Mdl_PG_MULPAY.php(268): GC_Utils::gfPrintLog
2020/01/23 15:55:25 [/shop/user_data/pg_mulpay_recv.php] ******* receiveer data end ******* from 210.175.7.20
customer_id = 
/home/oukoku/public_html/shop/user_data/pg_mulpay_recv.php(15): LC_Page_Mdl_PG_MULPAY_Recv->process
/home/oukoku/public_html/shop/data/downloads/module/mdl_pg_mulpay/class/pages/LC_Page_Mdl_PG_MULPAY_Recv.php(44): LC_Page_Mdl_PG_MULPAY_Recv->action
/home/oukoku/public_html/shop/data/downloads/module/mdl_pg_mulpay/class/pages/LC_Page_Mdl_PG_MULPAY_Recv.php(54): LC_Page_Mdl_PG_MULPAY_Recv->lfSetPostLog
/home/oukoku/public_html/shop/data/downloads/module/mdl_pg_mulpay/class/pages/LC_Page_Mdl_PG_MULPAY_Recv.php(837): SC_Mdl_PG_MULPAY->printLog
/home/oukoku/public_html/shop/data/downloads/module/mdl_pg_mulpay/class/SC_Mdl_PG_MULPAY.php(268): GC_Utils::gfPrintLog
2020/01/23 15:55:25 [/shop/user_data/pg_mulpay_recv.php] pg_mulpay_recv.php set payment data:Array
(
    [ShopID] => 9102288779655
    [AccessID] => 1c2377848a4d0aeb6bd08b07b7a5835d
    [OrderID] => 947-14232924
    [Status] => SALES
    [JobCd] => SALES
    [Amount] => 8800
    [Tax] => 0
    [Currency] => JPN
    [Forward] => 2a99661
    [Method] => 1
    [PayTimes] => 
    [TranID] => 2001142329602257217875110169
    [Approve] => 0097508
    [TranDate] => 20200123155525
    [ErrCode] => 
    [ErrInfo] => 
    [PayType] => 0
    [CvsCode] => 
    [CvsConfNo] => 
    [CvsReceiptNo] => 
    [EdyReceiptNo] => 
    [EdyOrderNo] => 
    [SuicaReceiptNo] => 
    [SuicaOrderNo] => 
    [CustID] => 
    [BkCode] => 
    [ConfNo] => 
    [PaymentTerm] => 
    [EncryptReceiptNo] => 
    [FinishDate] => 
    [ReceiptDate] => 
    [WebMoneyManagementNo] => 
    [WebMoneySettleCode] => 
    [AuPayInfoNo] => 
    [AuPayMethod] => 
    [AuCancelAmount] => 
    [AuCancelTax] => 
    [DocomoSettlementCode] => 
    [DocomoCancelAmount] => 
    [DocomoCancelTax] => 
    [pay_status] => 12
)
 from 210.175.7.20
customer_id = 
/home/oukoku/public_html/shop/user_data/pg_mulpay_recv.php(15): LC_Page_Mdl_PG_MULPAY_Recv->process
/home/oukoku/public_html/shop/data/downloads/module/mdl_pg_mulpay/class/pages/LC_Page_Mdl_PG_MULPAY_Recv.php(44): LC_Page_Mdl_PG_MULPAY_Recv->action
/home/oukoku/public_html/shop/data/downloads/module/mdl_pg_mulpay/class/pages/LC_Page_Mdl_PG_MULPAY_Recv.php(91): LC_Page_Mdl_PG_MULPAY_Recv->lfDoReceive
/home/oukoku/public_html/shop/data/downloads/module/mdl_pg_mulpay/class/pages/LC_Page_Mdl_PG_MULPAY_Recv.php(226): SC_Util_PG_MULPAY->setOrderPayData
/home/oukoku/public_html/shop/data/downloads/module/mdl_pg_mulpay/class/util/SC_Util_PG_MULPAY.php(501): SC_Mdl_PG_MULPAY->printLog
/home/oukoku/public_html/shop/data/downloads/module/mdl_pg_mulpay/class/SC_Mdl_PG_MULPAY.php(268): GC_Utils::gfPrintLog
2020/01/23 15:55:25 [/shop/user_data/pg_mulpay_recv.php] response:true from 210.175.7.20
customer_id = 
/home/oukoku/public_html/shop/user_data/pg_mulpay_recv.php(15): LC_Page_Mdl_PG_MULPAY_Recv->process
/home/oukoku/public_html/shop/data/downloads/module/mdl_pg_mulpay/class/pages/LC_Page_Mdl_PG_MULPAY_Recv.php(44): LC_Page_Mdl_PG_MULPAY_Recv->action
/home/oukoku/public_html/shop/data/downloads/module/mdl_pg_mulpay/class/pages/LC_Page_Mdl_PG_MULPAY_Recv.php(93): LC_Page_Mdl_PG_MULPAY_Recv->lfSendResponse
/home/oukoku/public_html/shop/data/downloads/module/mdl_pg_mulpay/class/pages/LC_Page_Mdl_PG_MULPAY_Recv.php(849): SC_Mdl_PG_MULPAY->printLog
/home/oukoku/public_html/shop/data/downloads/module/mdl_pg_mulpay/class/SC_Mdl_PG_MULPAY.php(268): GC_Utils::gfPrintLog
2020/01/23 16:38:07 [/shop/shopping/load_payment_module.php] SendRequest:https://p01.mul-pay.jp/payment/EntryTran.idPass from 210.196.95.97
customer_id = 
/home/oukoku/public_html/shop/shopping/load_payment_module.php(29): LC_Page_Shopping_LoadPaymentModule_Ex->process
/home/oukoku/public_html/shop/data/class_extends/page_extends/shopping/LC_Page_Shopping_LoadPaymentModule_Ex.php(54): LC_Page_Shopping_LoadPaymentModule->process
/home/oukoku/public_html/shop/data/class/pages/shopping/LC_Page_Shopping_LoadPaymentModule.php(70): require_once
/home/oukoku/public_html/shop/data/downloads/module/mdl_pg_mulpay/payment.php(16): LC_Page_Mdl_PG_MULPAY_Helper->process
/home/oukoku/public_html/shop/data/downloads/module/mdl_pg_mulpay/class/pages/LC_Page_Mdl_PG_MULPAY_Helper.php(45): LC_Page_Mdl_PG_MULPAY_Helper->action
/home/oukoku/public_html/shop/data/downloads/module/mdl_pg_mulpay/class/pages/LC_Page_Mdl_PG_MULPAY_Helper.php(136): LC_PageHelper_Mdl_PG_MULPAY_Token->modeAction
/home/oukoku/public_html/shop/data/downloads/module/mdl_pg_mulpay/class/pages/helper/LC_PageHelper_Mdl_PG_MULPAY_Token.php(129): SC_Mdl_PG_MULPAY_Client_Token->doPaymentRequest
/home/oukoku/public_html/shop/data/downloads/module/mdl_pg_mulpay/class/client/SC_Mdl_PG_MULPAY_Client_Token.php(105): SC_Mdl_PG_MULPAY_Client_Base->sendOrderRequest
/home/oukoku/public_html/shop/data/downloads/module/mdl_pg_mulpay/class/client/SC_Mdl_PG_MULPAY_Client_Base.php(241): SC_Mdl_PG_MULPAY_Client_Base->sendRequest
/home/oukoku/public_html/shop/data/downloads/module/mdl_pg_mulpay/class/client/SC_Mdl_PG_MULPAY_Client_Base.php(375): SC_Mdl_PG_MULPAY->printLog
/home/oukoku/public_html/shop/data/downloads/module/mdl_pg_mulpay/class/SC_Mdl_PG_MULPAY.php(268): GC_Utils::gfPrintLog
2020/01/23 16:38:07 [/shop/shopping/load_payment_module.php] Array
(
    [ShopID] => 9102288779655
    [ShopPass] => ******
    [OrderID] => 970-23163807
    [JobCd] => AUTH
    [Amount] => 9636
    [TdFlag] => 0
    [TdTenantName] => 
)
 from 210.196.95.97
customer_id = 
/home/oukoku/public_html/shop/shopping/load_payment_module.php(29): LC_Page_Shopping_LoadPaymentModule_Ex->process
/home/oukoku/public_html/shop/data/class_extends/page_extends/shopping/LC_Page_Shopping_LoadPaymentModule_Ex.php(54): LC_Page_Shopping_LoadPaymentModule->process
/home/oukoku/public_html/shop/data/class/pages/shopping/LC_Page_Shopping_LoadPaymentModule.php(70): require_once
/home/oukoku/public_html/shop/data/downloads/module/mdl_pg_mulpay/payment.php(16): LC_Page_Mdl_PG_MULPAY_Helper->process
/home/oukoku/public_html/shop/data/downloads/module/mdl_pg_mulpay/class/pages/LC_Page_Mdl_PG_MULPAY_Helper.php(45): LC_Page_Mdl_PG_MULPAY_Helper->action
/home/oukoku/public_html/shop/data/downloads/module/mdl_pg_mulpay/class/pages/LC_Page_Mdl_PG_MULPAY_Helper.php(136): LC_PageHelper_Mdl_PG_MULPAY_Token->modeAction
/home/oukoku/public_html/shop/data/downloads/module/mdl_pg_mulpay/class/pages/helper/LC_PageHelper_Mdl_PG_MULPAY_Token.php(129): SC_Mdl_PG_MULPAY_Client_Token->doPaymentRequest
/home/oukoku/public_html/shop/data/downloads/module/mdl_pg_mulpay/class/client/SC_Mdl_PG_MULPAY_Client_Token.php(105): SC_Mdl_PG_MULPAY_Client_Base->sendOrderRequest
/home/oukoku/public_html/shop/data/downloads/module/mdl_pg_mulpay/class/client/SC_Mdl_PG_MULPAY_Client_Base.php(241): SC_Mdl_PG_MULPAY_Client_Base->sendRequest
/home/oukoku/public_html/shop/data/downloads/module/mdl_pg_mulpay/class/client/SC_Mdl_PG_MULPAY_Client_Base.php(376): SC_Mdl_PG_MULPAY->printLog
/home/oukoku/public_html/shop/data/downloads/module/mdl_pg_mulpay/class/SC_Mdl_PG_MULPAY.php(268): GC_Utils::gfPrintLog
2020/01/23 16:38:08 [/shop/shopping/load_payment_module.php] AccessID=2c6fd5bf79f058b076fdf697a314021a&AccessPass=b133b5a137ec2aaf0745aa185305976d from 210.196.95.97
customer_id = 
/home/oukoku/public_html/shop/shopping/load_payment_module.php(29): LC_Page_Shopping_LoadPaymentModule_Ex->process
/home/oukoku/public_html/shop/data/class_extends/page_extends/shopping/LC_Page_Shopping_LoadPaymentModule_Ex.php(54): LC_Page_Shopping_LoadPaymentModule->process
/home/oukoku/public_html/shop/data/class/pages/shopping/LC_Page_Shopping_LoadPaymentModule.php(70): require_once
/home/oukoku/public_html/shop/data/downloads/module/mdl_pg_mulpay/payment.php(16): LC_Page_Mdl_PG_MULPAY_Helper->process
/home/oukoku/public_html/shop/data/downloads/module/mdl_pg_mulpay/class/pages/LC_Page_Mdl_PG_MULPAY_Helper.php(45): LC_Page_Mdl_PG_MULPAY_Helper->action
/home/oukoku/public_html/shop/data/downloads/module/mdl_pg_mulpay/class/pages/LC_Page_Mdl_PG_MULPAY_Helper.php(136): LC_PageHelper_Mdl_PG_MULPAY_Token->modeAction
/home/oukoku/public_html/shop/data/downloads/module/mdl_pg_mulpay/class/pages/helper/LC_PageHelper_Mdl_PG_MULPAY_Token.php(129): SC_Mdl_PG_MULPAY_Client_Token->doPaymentRequest
/home/oukoku/public_html/shop/data/downloads/module/mdl_pg_mulpay/class/client/SC_Mdl_PG_MULPAY_Client_Token.php(105): SC_Mdl_PG_MULPAY_Client_Base->sendOrderRequest
/home/oukoku/public_html/shop/data/downloads/module/mdl_pg_mulpay/class/client/SC_Mdl_PG_MULPAY_Client_Base.php(241): SC_Mdl_PG_MULPAY_Client_Base->sendRequest
/home/oukoku/public_html/shop/data/downloads/module/mdl_pg_mulpay/class/client/SC_Mdl_PG_MULPAY_Client_Base.php(418): SC_Mdl_PG_MULPAY_Client_Base->parseResponse
/home/oukoku/public_html/shop/data/downloads/module/mdl_pg_mulpay/class/client/SC_Mdl_PG_MULPAY_Client_Base.php(446): SC_Mdl_PG_MULPAY->printLog
/home/oukoku/public_html/shop/data/downloads/module/mdl_pg_mulpay/class/SC_Mdl_PG_MULPAY.php(268): GC_Utils::gfPrintLog
2020/01/23 16:38:08 [/shop/shopping/load_payment_module.php] Array
(
    [0] => Array
        (
            [AccessID] => 2c6fd5bf79f058b076fdf697a314021a
            [AccessPass] => b133b5a137ec2aaf0745aa185305976d
        )

)
 from 210.196.95.97
customer_id = 
/home/oukoku/public_html/shop/shopping/load_payment_module.php(29): LC_Page_Shopping_LoadPaymentModule_Ex->process
/home/oukoku/public_html/shop/data/class_extends/page_extends/shopping/LC_Page_Shopping_LoadPaymentModule_Ex.php(54): LC_Page_Shopping_LoadPaymentModule->process
/home/oukoku/public_html/shop/data/class/pages/shopping/LC_Page_Shopping_LoadPaymentModule.php(70): require_once
/home/oukoku/public_html/shop/data/downloads/module/mdl_pg_mulpay/payment.php(16): LC_Page_Mdl_PG_MULPAY_Helper->process
/home/oukoku/public_html/shop/data/downloads/module/mdl_pg_mulpay/class/pages/LC_Page_Mdl_PG_MULPAY_Helper.php(45): LC_Page_Mdl_PG_MULPAY_Helper->action
/home/oukoku/public_html/shop/data/downloads/module/mdl_pg_mulpay/class/pages/LC_Page_Mdl_PG_MULPAY_Helper.php(136): LC_PageHelper_Mdl_PG_MULPAY_Token->modeAction
/home/oukoku/public_html/shop/data/downloads/module/mdl_pg_mulpay/class/pages/helper/LC_PageHelper_Mdl_PG_MULPAY_Token.php(129): SC_Mdl_PG_MULPAY_Client_Token->doPaymentRequest
/home/oukoku/public_html/shop/data/downloads/module/mdl_pg_mulpay/class/client/SC_Mdl_PG_MULPAY_Client_Token.php(105): SC_Mdl_PG_MULPAY_Client_Base->sendOrderRequest
/home/oukoku/public_html/shop/data/downloads/module/mdl_pg_mulpay/class/client/SC_Mdl_PG_MULPAY_Client_Base.php(241): SC_Mdl_PG_MULPAY_Client_Base->sendRequest
/home/oukoku/public_html/shop/data/downloads/module/mdl_pg_mulpay/class/client/SC_Mdl_PG_MULPAY_Client_Base.php(419): SC_Mdl_PG_MULPAY_Client_Base->setResults
/home/oukoku/public_html/shop/data/downloads/module/mdl_pg_mulpay/class/client/SC_Mdl_PG_MULPAY_Client_Base.php(533): SC_Mdl_PG_MULPAY->printLog
/home/oukoku/public_html/shop/data/downloads/module/mdl_pg_mulpay/class/SC_Mdl_PG_MULPAY.php(268): GC_Utils::gfPrintLog
2020/01/23 16:38:08 [/shop/shopping/load_payment_module.php] load_payment_module.php set payment data:Array
(
    [AccessID] => 2c6fd5bf79f058b076fdf697a314021a
    [AccessPass] => b133b5a137ec2aaf0745aa185305976d
    [OrderID] => 970-23163807
    [Amount] => 9636
    [JobCd] => AUTH
    [action_status] => 1
    [pay_status] => 0
)
 from 210.196.95.97
customer_id = 
/home/oukoku/public_html/shop/shopping/load_payment_module.php(29): LC_Page_Shopping_LoadPaymentModule_Ex->process
/home/oukoku/public_html/shop/data/class_extends/page_extends/shopping/LC_Page_Shopping_LoadPaymentModule_Ex.php(54): LC_Page_Shopping_LoadPaymentModule->process
/home/oukoku/public_html/shop/data/class/pages/shopping/LC_Page_Shopping_LoadPaymentModule.php(70): require_once
/home/oukoku/public_html/shop/data/downloads/module/mdl_pg_mulpay/payment.php(16): LC_Page_Mdl_PG_MULPAY_Helper->process
/home/oukoku/public_html/shop/data/downloads/module/mdl_pg_mulpay/class/pages/LC_Page_Mdl_PG_MULPAY_Helper.php(45): LC_Page_Mdl_PG_MULPAY_Helper->action
/home/oukoku/public_html/shop/data/downloads/module/mdl_pg_mulpay/class/pages/LC_Page_Mdl_PG_MULPAY_Helper.php(136): LC_PageHelper_Mdl_PG_MULPAY_Token->modeAction
/home/oukoku/public_html/shop/data/downloads/module/mdl_pg_mulpay/class/pages/helper/LC_PageHelper_Mdl_PG_MULPAY_Token.php(129): SC_Mdl_PG_MULPAY_Client_Token->doPaymentRequest
/home/oukoku/public_html/shop/data/downloads/module/mdl_pg_mulpay/class/client/SC_Mdl_PG_MULPAY_Client_Token.php(105): SC_Mdl_PG_MULPAY_Client_Base->sendOrderRequest
/home/oukoku/public_html/shop/data/downloads/module/mdl_pg_mulpay/class/client/SC_Mdl_PG_MULPAY_Client_Base.php(275): SC_Util_PG_MULPAY->setOrderPayData
/home/oukoku/public_html/shop/data/downloads/module/mdl_pg_mulpay/class/util/SC_Util_PG_MULPAY.php(501): SC_Mdl_PG_MULPAY->printLog
/home/oukoku/public_html/shop/data/downloads/module/mdl_pg_mulpay/class/SC_Mdl_PG_MULPAY.php(268): GC_Utils::gfPrintLog
2020/01/23 16:38:08 [/shop/shopping/load_payment_module.php] SendRequest:https://p01.mul-pay.jp/payment/ExecTran.idPass from 210.196.95.97
customer_id = 
/home/oukoku/public_html/shop/shopping/load_payment_module.php(29): LC_Page_Shopping_LoadPaymentModule_Ex->process
/home/oukoku/public_html/shop/data/class_extends/page_extends/shopping/LC_Page_Shopping_LoadPaymentModule_Ex.php(54): LC_Page_Shopping_LoadPaymentModule->process
/home/oukoku/public_html/shop/data/class/pages/shopping/LC_Page_Shopping_LoadPaymentModule.php(70): require_once
/home/oukoku/public_html/shop/data/downloads/module/mdl_pg_mulpay/payment.php(16): LC_Page_Mdl_PG_MULPAY_Helper->process
/home/oukoku/public_html/shop/data/downloads/module/mdl_pg_mulpay/class/pages/LC_Page_Mdl_PG_MULPAY_Helper.php(45): LC_Page_Mdl_PG_MULPAY_Helper->action
/home/oukoku/public_html/shop/data/downloads/module/mdl_pg_mulpay/class/pages/LC_Page_Mdl_PG_MULPAY_Helper.php(136): LC_PageHelper_Mdl_PG_MULPAY_Token->modeAction
/home/oukoku/public_html/shop/data/downloads/module/mdl_pg_mulpay/class/pages/helper/LC_PageHelper_Mdl_PG_MULPAY_Token.php(129): SC_Mdl_PG_MULPAY_Client_Token->doPaymentRequest
/home/oukoku/public_html/shop/data/downloads/module/mdl_pg_mulpay/class/client/SC_Mdl_PG_MULPAY_Client_Token.php(146): SC_Mdl_PG_MULPAY_Client_Base->sendOrderRequest
/home/oukoku/public_html/shop/data/downloads/module/mdl_pg_mulpay/class/client/SC_Mdl_PG_MULPAY_Client_Base.php(241): SC_Mdl_PG_MULPAY_Client_Base->sendRequest
/home/oukoku/public_html/shop/data/downloads/module/mdl_pg_mulpay/class/client/SC_Mdl_PG_MULPAY_Client_Base.php(375): SC_Mdl_PG_MULPAY->printLog
/home/oukoku/public_html/shop/data/downloads/module/mdl_pg_mulpay/class/SC_Mdl_PG_MULPAY.php(268): GC_Utils::gfPrintLog
2020/01/23 16:38:08 [/shop/shopping/load_payment_module.php] Array
(
    [AccessID] => 2c6fd5bf79f058b076fdf697a314021a
    [AccessPass] => b133b5a137ec2aaf0745aa185305976d
    [OrderID] => 970-23163807
    [Method] => 1
    [Token] => 7c14aba52d7ce9d8e9e9dbd632db5c7fb8ab47fa57b56e74eb1ee6828f091142
    [ClientField1] => 
    [ClientField2] => 
    [ClientField3] => EC-CUBE4.3.24
)
 from 210.196.95.97
customer_id = 
/home/oukoku/public_html/shop/shopping/load_payment_module.php(29): LC_Page_Shopping_LoadPaymentModule_Ex->process
/home/oukoku/public_html/shop/data/class_extends/page_extends/shopping/LC_Page_Shopping_LoadPaymentModule_Ex.php(54): LC_Page_Shopping_LoadPaymentModule->process
/home/oukoku/public_html/shop/data/class/pages/shopping/LC_Page_Shopping_LoadPaymentModule.php(70): require_once
/home/oukoku/public_html/shop/data/downloads/module/mdl_pg_mulpay/payment.php(16): LC_Page_Mdl_PG_MULPAY_Helper->process
/home/oukoku/public_html/shop/data/downloads/module/mdl_pg_mulpay/class/pages/LC_Page_Mdl_PG_MULPAY_Helper.php(45): LC_Page_Mdl_PG_MULPAY_Helper->action
/home/oukoku/public_html/shop/data/downloads/module/mdl_pg_mulpay/class/pages/LC_Page_Mdl_PG_MULPAY_Helper.php(136): LC_PageHelper_Mdl_PG_MULPAY_Token->modeAction
/home/oukoku/public_html/shop/data/downloads/module/mdl_pg_mulpay/class/pages/helper/LC_PageHelper_Mdl_PG_MULPAY_Token.php(129): SC_Mdl_PG_MULPAY_Client_Token->doPaymentRequest
/home/oukoku/public_html/shop/data/downloads/module/mdl_pg_mulpay/class/client/SC_Mdl_PG_MULPAY_Client_Token.php(146): SC_Mdl_PG_MULPAY_Client_Base->sendOrderRequest
/home/oukoku/public_html/shop/data/downloads/module/mdl_pg_mulpay/class/client/SC_Mdl_PG_MULPAY_Client_Base.php(241): SC_Mdl_PG_MULPAY_Client_Base->sendRequest
/home/oukoku/public_html/shop/data/downloads/module/mdl_pg_mulpay/class/client/SC_Mdl_PG_MULPAY_Client_Base.php(376): SC_Mdl_PG_MULPAY->printLog
/home/oukoku/public_html/shop/data/downloads/module/mdl_pg_mulpay/class/SC_Mdl_PG_MULPAY.php(268): GC_Utils::gfPrintLog
2020/01/23 16:38:09 [/shop/shopping/load_payment_module.php] ACS=0&OrderID=970-23163807&Forward=2959876&Method=1&PayTimes=&Approve=0751936&TranID=2001231638602257217875110178&TranDate=20200123163809&CheckString=a9bea4baf4187968b91b29ec936938b1 from 210.196.95.97
customer_id = 
/home/oukoku/public_html/shop/shopping/load_payment_module.php(29): LC_Page_Shopping_LoadPaymentModule_Ex->process
/home/oukoku/public_html/shop/data/class_extends/page_extends/shopping/LC_Page_Shopping_LoadPaymentModule_Ex.php(54): LC_Page_Shopping_LoadPaymentModule->process
/home/oukoku/public_html/shop/data/class/pages/shopping/LC_Page_Shopping_LoadPaymentModule.php(70): require_once
/home/oukoku/public_html/shop/data/downloads/module/mdl_pg_mulpay/payment.php(16): LC_Page_Mdl_PG_MULPAY_Helper->process
/home/oukoku/public_html/shop/data/downloads/module/mdl_pg_mulpay/class/pages/LC_Page_Mdl_PG_MULPAY_Helper.php(45): LC_Page_Mdl_PG_MULPAY_Helper->action
/home/oukoku/public_html/shop/data/downloads/module/mdl_pg_mulpay/class/pages/LC_Page_Mdl_PG_MULPAY_Helper.php(136): LC_PageHelper_Mdl_PG_MULPAY_Token->modeAction
/home/oukoku/public_html/shop/data/downloads/module/mdl_pg_mulpay/class/pages/helper/LC_PageHelper_Mdl_PG_MULPAY_Token.php(129): SC_Mdl_PG_MULPAY_Client_Token->doPaymentRequest
/home/oukoku/public_html/shop/data/downloads/module/mdl_pg_mulpay/class/client/SC_Mdl_PG_MULPAY_Client_Token.php(146): SC_Mdl_PG_MULPAY_Client_Base->sendOrderRequest
/home/oukoku/public_html/shop/data/downloads/module/mdl_pg_mulpay/class/client/SC_Mdl_PG_MULPAY_Client_Base.php(241): SC_Mdl_PG_MULPAY_Client_Base->sendRequest
/home/oukoku/public_html/shop/data/downloads/module/mdl_pg_mulpay/class/client/SC_Mdl_PG_MULPAY_Client_Base.php(418): SC_Mdl_PG_MULPAY_Client_Base->parseResponse
/home/oukoku/public_html/shop/data/downloads/module/mdl_pg_mulpay/class/client/SC_Mdl_PG_MULPAY_Client_Base.php(446): SC_Mdl_PG_MULPAY->printLog
/home/oukoku/public_html/shop/data/downloads/module/mdl_pg_mulpay/class/SC_Mdl_PG_MULPAY.php(268): GC_Utils::gfPrintLog
2020/01/23 16:38:09 [/shop/shopping/load_payment_module.php] Array
(
    [0] => Array
        (
            [ACS] => 0
            [OrderID] => 970-23163807
            [Forward] => 2959876
            [Method] => 1
            [PayTimes] => 
            [Approve] => 0751936
            [TranID] => 2001231638602257217875110178
            [TranDate] => 20200123163809
            [CheckString] => a9bea4baf4187968b91b29ec936938b1
        )

)
 from 210.196.95.97
customer_id = 
/home/oukoku/public_html/shop/shopping/load_payment_module.php(29): LC_Page_Shopping_LoadPaymentModule_Ex->process
/home/oukoku/public_html/shop/data/class_extends/page_extends/shopping/LC_Page_Shopping_LoadPaymentModule_Ex.php(54): LC_Page_Shopping_LoadPaymentModule->process
/home/oukoku/public_html/shop/data/class/pages/shopping/LC_Page_Shopping_LoadPaymentModule.php(70): require_once
/home/oukoku/public_html/shop/data/downloads/module/mdl_pg_mulpay/payment.php(16): LC_Page_Mdl_PG_MULPAY_Helper->process
/home/oukoku/public_html/shop/data/downloads/module/mdl_pg_mulpay/class/pages/LC_Page_Mdl_PG_MULPAY_Helper.php(45): LC_Page_Mdl_PG_MULPAY_Helper->action
/home/oukoku/public_html/shop/data/downloads/module/mdl_pg_mulpay/class/pages/LC_Page_Mdl_PG_MULPAY_Helper.php(136): LC_PageHelper_Mdl_PG_MULPAY_Token->modeAction
/home/oukoku/public_html/shop/data/downloads/module/mdl_pg_mulpay/class/pages/helper/LC_PageHelper_Mdl_PG_MULPAY_Token.php(129): SC_Mdl_PG_MULPAY_Client_Token->doPaymentRequest
/home/oukoku/public_html/shop/data/downloads/module/mdl_pg_mulpay/class/client/SC_Mdl_PG_MULPAY_Client_Token.php(146): SC_Mdl_PG_MULPAY_Client_Base->sendOrderRequest
/home/oukoku/public_html/shop/data/downloads/module/mdl_pg_mulpay/class/client/SC_Mdl_PG_MULPAY_Client_Base.php(241): SC_Mdl_PG_MULPAY_Client_Base->sendRequest
/home/oukoku/public_html/shop/data/downloads/module/mdl_pg_mulpay/class/client/SC_Mdl_PG_MULPAY_Client_Base.php(419): SC_Mdl_PG_MULPAY_Client_Base->setResults
/home/oukoku/public_html/shop/data/downloads/module/mdl_pg_mulpay/class/client/SC_Mdl_PG_MULPAY_Client_Base.php(533): SC_Mdl_PG_MULPAY->printLog
/home/oukoku/public_html/shop/data/downloads/module/mdl_pg_mulpay/class/SC_Mdl_PG_MULPAY.php(268): GC_Utils::gfPrintLog
2020/01/23 16:38:09 [/shop/shopping/load_payment_module.php] load_payment_module.php set payment data:Array
(
    [ACS] => 0
    [Forward] => 2959876
    [Method] => 1
    [PayTimes] => 
    [Approve] => 0751936
    [TranID] => 2001231638602257217875110178
    [TranDate] => 20200123163809
    [CheckString] => a9bea4baf4187968b91b29ec936938b1
    [Amount] => 9636
    [JobCd] => AUTH
    [action_status] => 3
    [pay_status] => 11
)
 from 210.196.95.97
customer_id = 
/home/oukoku/public_html/shop/shopping/load_payment_module.php(29): LC_Page_Shopping_LoadPaymentModule_Ex->process
/home/oukoku/public_html/shop/data/class_extends/page_extends/shopping/LC_Page_Shopping_LoadPaymentModule_Ex.php(54): LC_Page_Shopping_LoadPaymentModule->process
/home/oukoku/public_html/shop/data/class/pages/shopping/LC_Page_Shopping_LoadPaymentModule.php(70): require_once
/home/oukoku/public_html/shop/data/downloads/module/mdl_pg_mulpay/payment.php(16): LC_Page_Mdl_PG_MULPAY_Helper->process
/home/oukoku/public_html/shop/data/downloads/module/mdl_pg_mulpay/class/pages/LC_Page_Mdl_PG_MULPAY_Helper.php(45): LC_Page_Mdl_PG_MULPAY_Helper->action
/home/oukoku/public_html/shop/data/downloads/module/mdl_pg_mulpay/class/pages/LC_Page_Mdl_PG_MULPAY_Helper.php(136): LC_PageHelper_Mdl_PG_MULPAY_Token->modeAction
/home/oukoku/public_html/shop/data/downloads/module/mdl_pg_mulpay/class/pages/helper/LC_PageHelper_Mdl_PG_MULPAY_Token.php(129): SC_Mdl_PG_MULPAY_Client_Token->doPaymentRequest
/home/oukoku/public_html/shop/data/downloads/module/mdl_pg_mulpay/class/client/SC_Mdl_PG_MULPAY_Client_Token.php(146): SC_Mdl_PG_MULPAY_Client_Base->sendOrderRequest
/home/oukoku/public_html/shop/data/downloads/module/mdl_pg_mulpay/class/client/SC_Mdl_PG_MULPAY_Client_Base.php(275): SC_Util_PG_MULPAY->setOrderPayData
/home/oukoku/public_html/shop/data/downloads/module/mdl_pg_mulpay/class/util/SC_Util_PG_MULPAY.php(501): SC_Mdl_PG_MULPAY->printLog
/home/oukoku/public_html/shop/data/downloads/module/mdl_pg_mulpay/class/SC_Mdl_PG_MULPAY.php(268): GC_Utils::gfPrintLog
2020/01/23 16:38:09 [/shop/user_data/pg_mulpay_recv.php] ******* receiveer data start ******* from 210.175.7.20
customer_id = 
/home/oukoku/public_html/shop/user_data/pg_mulpay_recv.php(15): LC_Page_Mdl_PG_MULPAY_Recv->process
/home/oukoku/public_html/shop/data/downloads/module/mdl_pg_mulpay/class/pages/LC_Page_Mdl_PG_MULPAY_Recv.php(44): LC_Page_Mdl_PG_MULPAY_Recv->action
/home/oukoku/public_html/shop/data/downloads/module/mdl_pg_mulpay/class/pages/LC_Page_Mdl_PG_MULPAY_Recv.php(54): LC_Page_Mdl_PG_MULPAY_Recv->lfSetPostLog
/home/oukoku/public_html/shop/data/downloads/module/mdl_pg_mulpay/class/pages/LC_Page_Mdl_PG_MULPAY_Recv.php(832): SC_Mdl_PG_MULPAY->printLog
/home/oukoku/public_html/shop/data/downloads/module/mdl_pg_mulpay/class/SC_Mdl_PG_MULPAY.php(268): GC_Utils::gfPrintLog
2020/01/23 16:38:09 [/shop/user_data/pg_mulpay_recv.php] Array
(
    [ShopID] => 9102288779655
    [ShopPass] => **********
    [AccessID] => 2c6fd5bf79f058b076fdf697a314021a
    [AccessPass] => ********************************
    [OrderID] => 970-23163807
    [Status] => AUTH
    [JobCd] => AUTH
    [Amount] => 9636
    [Tax] => 0
    [Currency] => JPN
    [Forward] => 2959876
    [Method] => 1
    [PayTimes] => 
    [TranID] => 2001231638602257217875110178
    [Approve] => 0751936
    [TranDate] => 20200123163809
    [ErrCode] => 
    [ErrInfo] => 
    [PayType] => 0
)
 from 210.175.7.20
customer_id = 
/home/oukoku/public_html/shop/user_data/pg_mulpay_recv.php(15): LC_Page_Mdl_PG_MULPAY_Recv->process
/home/oukoku/public_html/shop/data/downloads/module/mdl_pg_mulpay/class/pages/LC_Page_Mdl_PG_MULPAY_Recv.php(44): LC_Page_Mdl_PG_MULPAY_Recv->action
/home/oukoku/public_html/shop/data/downloads/module/mdl_pg_mulpay/class/pages/LC_Page_Mdl_PG_MULPAY_Recv.php(54): LC_Page_Mdl_PG_MULPAY_Recv->lfSetPostLog
/home/oukoku/public_html/shop/data/downloads/module/mdl_pg_mulpay/class/pages/LC_Page_Mdl_PG_MULPAY_Recv.php(836): SC_Mdl_PG_MULPAY->printLog
/home/oukoku/public_html/shop/data/downloads/module/mdl_pg_mulpay/class/SC_Mdl_PG_MULPAY.php(268): GC_Utils::gfPrintLog
2020/01/23 16:38:09 [/shop/user_data/pg_mulpay_recv.php] ******* receiveer data end ******* from 210.175.7.20
customer_id = 
/home/oukoku/public_html/shop/user_data/pg_mulpay_recv.php(15): LC_Page_Mdl_PG_MULPAY_Recv->process
/home/oukoku/public_html/shop/data/downloads/module/mdl_pg_mulpay/class/pages/LC_Page_Mdl_PG_MULPAY_Recv.php(44): LC_Page_Mdl_PG_MULPAY_Recv->action
/home/oukoku/public_html/shop/data/downloads/module/mdl_pg_mulpay/class/pages/LC_Page_Mdl_PG_MULPAY_Recv.php(54): LC_Page_Mdl_PG_MULPAY_Recv->lfSetPostLog
/home/oukoku/public_html/shop/data/downloads/module/mdl_pg_mulpay/class/pages/LC_Page_Mdl_PG_MULPAY_Recv.php(837): SC_Mdl_PG_MULPAY->printLog
/home/oukoku/public_html/shop/data/downloads/module/mdl_pg_mulpay/class/SC_Mdl_PG_MULPAY.php(268): GC_Utils::gfPrintLog
2020/01/23 16:38:14 [/shop/user_data/pg_mulpay_recv.php] update order status:1 order_id=970 from 210.175.7.20
customer_id = 
/home/oukoku/public_html/shop/user_data/pg_mulpay_recv.php(15): LC_Page_Mdl_PG_MULPAY_Recv->process
/home/oukoku/public_html/shop/data/downloads/module/mdl_pg_mulpay/class/pages/LC_Page_Mdl_PG_MULPAY_Recv.php(44): LC_Page_Mdl_PG_MULPAY_Recv->action
/home/oukoku/public_html/shop/data/downloads/module/mdl_pg_mulpay/class/pages/LC_Page_Mdl_PG_MULPAY_Recv.php(91): LC_Page_Mdl_PG_MULPAY_Recv->lfDoReceive
/home/oukoku/public_html/shop/data/downloads/module/mdl_pg_mulpay/class/pages/LC_Page_Mdl_PG_MULPAY_Recv.php(219): LC_Page_Mdl_PG_MULPAY_Recv->lfDoRecvCredit
/home/oukoku/public_html/shop/data/downloads/module/mdl_pg_mulpay/class/pages/LC_Page_Mdl_PG_MULPAY_Recv.php(717): SC_Mdl_PG_MULPAY->printLog
/home/oukoku/public_html/shop/data/downloads/module/mdl_pg_mulpay/class/SC_Mdl_PG_MULPAY.php(268): GC_Utils::gfPrintLog
2020/01/23 16:38:14 [/shop/user_data/pg_mulpay_recv.php] pg_mulpay_recv.php set payment data:Array
(
    [ShopID] => 9102288779655
    [AccessID] => 2c6fd5bf79f058b076fdf697a314021a
    [OrderID] => 970-23163807
    [Status] => AUTH
    [JobCd] => AUTH
    [Amount] => 9636
    [Tax] => 0
    [Currency] => JPN
    [Forward] => 2959876
    [Method] => 1
    [PayTimes] => 
    [TranID] => 2001231638602257217875110178
    [Approve] => 0751936
    [TranDate] => 20200123163809
    [ErrCode] => 
    [ErrInfo] => 
    [PayType] => 0
    [CvsCode] => 
    [CvsConfNo] => 
    [CvsReceiptNo] => 
    [EdyReceiptNo] => 
    [EdyOrderNo] => 
    [SuicaReceiptNo] => 
    [SuicaOrderNo] => 
    [CustID] => 
    [BkCode] => 
    [ConfNo] => 
    [PaymentTerm] => 
    [EncryptReceiptNo] => 
    [FinishDate] => 
    [ReceiptDate] => 
    [WebMoneyManagementNo] => 
    [WebMoneySettleCode] => 
    [AuPayInfoNo] => 
    [AuPayMethod] => 
    [AuCancelAmount] => 
    [AuCancelTax] => 
    [DocomoSettlementCode] => 
    [DocomoCancelAmount] => 
    [DocomoCancelTax] => 
    [pay_status] => 11
)
 from 210.175.7.20
customer_id = 
/home/oukoku/public_html/shop/user_data/pg_mulpay_recv.php(15): LC_Page_Mdl_PG_MULPAY_Recv->process
/home/oukoku/public_html/shop/data/downloads/module/mdl_pg_mulpay/class/pages/LC_Page_Mdl_PG_MULPAY_Recv.php(44): LC_Page_Mdl_PG_MULPAY_Recv->action
/home/oukoku/public_html/shop/data/downloads/module/mdl_pg_mulpay/class/pages/LC_Page_Mdl_PG_MULPAY_Recv.php(91): LC_Page_Mdl_PG_MULPAY_Recv->lfDoReceive
/home/oukoku/public_html/shop/data/downloads/module/mdl_pg_mulpay/class/pages/LC_Page_Mdl_PG_MULPAY_Recv.php(226): SC_Util_PG_MULPAY->setOrderPayData
/home/oukoku/public_html/shop/data/downloads/module/mdl_pg_mulpay/class/util/SC_Util_PG_MULPAY.php(501): SC_Mdl_PG_MULPAY->printLog
/home/oukoku/public_html/shop/data/downloads/module/mdl_pg_mulpay/class/SC_Mdl_PG_MULPAY.php(268): GC_Utils::gfPrintLog
2020/01/23 16:38:14 [/shop/user_data/pg_mulpay_recv.php] response:true from 210.175.7.20
customer_id = 
/home/oukoku/public_html/shop/user_data/pg_mulpay_recv.php(15): LC_Page_Mdl_PG_MULPAY_Recv->process
/home/oukoku/public_html/shop/data/downloads/module/mdl_pg_mulpay/class/pages/LC_Page_Mdl_PG_MULPAY_Recv.php(44): LC_Page_Mdl_PG_MULPAY_Recv->action
/home/oukoku/public_html/shop/data/downloads/module/mdl_pg_mulpay/class/pages/LC_Page_Mdl_PG_MULPAY_Recv.php(93): LC_Page_Mdl_PG_MULPAY_Recv->lfSendResponse
/home/oukoku/public_html/shop/data/downloads/module/mdl_pg_mulpay/class/pages/LC_Page_Mdl_PG_MULPAY_Recv.php(849): SC_Mdl_PG_MULPAY->printLog
/home/oukoku/public_html/shop/data/downloads/module/mdl_pg_mulpay/class/SC_Mdl_PG_MULPAY.php(268): GC_Utils::gfPrintLog
