2020/03/14 08:07:16 [/shop/user_data/pg_mulpay_recv.php] ******* receiveer data start ******* from 210.175.7.20
2020/03/14 08:07:16 [/shop/user_data/pg_mulpay_recv.php] Array
(
    [ShopID] => 9102288779655
    [ShopPass] => **********
    [AccessID] => 5feec115a05d4f36e1be87f6a3623347
    [AccessPass] => ********************************
    [OrderID] => 1118-09100619
    [Status] => EXPIRED
    [Amount] => 14960
    [Tax] => 0
    [Currency] => JPN
    [TranID] => 20030900000217037689
    [TranDate] => 20200314080156
    [ErrCode] => 
    [ErrInfo] => 
    [PayType] => 3
    [CvsCode] => 10001
    [CvsConfNo] => 9536
    [CvsReceiptNo] => 92006945192037
    [PaymentTerm] => 20200313235959
    [FinishDate] => 
    [ReceiptDate] => 20200309100620
)
 from 210.175.7.20
2020/03/14 08:07:16 [/shop/user_data/pg_mulpay_recv.php] ******* receiveer data end ******* from 210.175.7.20
2020/03/14 08:07:16 [/shop/user_data/pg_mulpay_recv.php] update order status:3 from 210.175.7.20
2020/03/14 08:07:16 [/shop/user_data/pg_mulpay_recv.php] pg_mulpay_recv.php set payment data:Array
(
    [ShopID] => 9102288779655
    [AccessID] => 5feec115a05d4f36e1be87f6a3623347
    [OrderID] => 1118-09100619
    [Status] => EXPIRED
    [JobCd] => 
    [Amount] => 14960
    [Tax] => 0
    [Currency] => JPN
    [Forward] => 
    [Method] => 
    [PayTimes] => 
    [TranID] => 20030900000217037689
    [Approve] => 
    [TranDate] => 20200314080156
    [ErrCode] => 
    [ErrInfo] => 
    [PayType] => 3
    [CvsCode] => 10001
    [CvsConfNo] => 9536
    [CvsReceiptNo] => 92006945192037
    [EdyReceiptNo] => 
    [EdyOrderNo] => 
    [SuicaReceiptNo] => 
    [SuicaOrderNo] => 
    [CustID] => 
    [BkCode] => 
    [PaymentTerm] => 20200313235959
    [EncryptReceiptNo] => 
    [FinishDate] => 
    [ReceiptDate] => 20200309100620
    [WebMoneyManagementNo] => 
    [WebMoneySettleCode] => 
    [AuPayInfoNo] => 
    [AuPayMethod] => 
    [AuCancelAmount] => 
    [AuCancelTax] => 
    [DocomoSettlementCode] => 
    [DocomoCancelAmount] => 
    [DocomoCancelTax] => 
    [pay_status] => 3
)
 from 210.175.7.20
2020/03/14 08:07:16 [/shop/user_data/pg_mulpay_recv.php] response:true from 210.175.7.20
2020/03/14 13:51:59 [/shop/shopping/load_payment_module.php] SendRequest:https://p01.mul-pay.jp/payment/SearchMember.idPass from 217.178.67.237
2020/03/14 13:51:59 [/shop/shopping/load_payment_module.php] Array
(
    [SiteID] => mst2000016748
    [SitePass] => ******
    [MemberID] => 550
)
 from 217.178.67.237
2020/03/14 13:51:59 [/shop/shopping/load_payment_module.php] ErrCode=E01&ErrInfo=E01390002 from 217.178.67.237
2020/03/14 13:51:59 [/shop/shopping/load_payment_module.php] Array
(
    [0] => Array
        (
            [ErrCode] => E01
            [ErrInfo] => E01390002
        )

)
 from 217.178.67.237
2020/03/14 13:51:59 [/shop/shopping/load_payment_module.php] SendRequest:https://p01.mul-pay.jp/payment/SearchCard.idPass from 217.178.67.237
2020/03/14 13:51:59 [/shop/shopping/load_payment_module.php] Array
(
    [SiteID] => mst2000016748
    [SitePass] => ******
    [MemberID] => 550
)
 from 217.178.67.237
2020/03/14 13:52:00 [/shop/shopping/load_payment_module.php] ErrCode=E01|E01&ErrInfo=E01390002|E01240002 from 217.178.67.237
2020/03/14 13:52:00 [/shop/shopping/load_payment_module.php] Array
(
    [0] => Array
        (
            [ErrCode] => E01
            [ErrInfo] => E01390002
        )

    [1] => Array
        (
            [ErrCode] => E01
            [ErrInfo] => E01240002
        )

)
 from 217.178.67.237
2020/03/14 13:52:47 [/shop/shopping/load_payment_module.php] SendRequest:https://p01.mul-pay.jp/payment/SearchMember.idPass from 217.178.67.237
2020/03/14 13:52:47 [/shop/shopping/load_payment_module.php] Array
(
    [SiteID] => mst2000016748
    [SitePass] => ******
    [MemberID] => 550
)
 from 217.178.67.237
2020/03/14 13:52:47 [/shop/shopping/load_payment_module.php] ErrCode=E01&ErrInfo=E01390002 from 217.178.67.237
2020/03/14 13:52:47 [/shop/shopping/load_payment_module.php] Array
(
    [0] => Array
        (
            [ErrCode] => E01
            [ErrInfo] => E01390002
        )

)
 from 217.178.67.237
2020/03/14 13:52:47 [/shop/shopping/load_payment_module.php] SendRequest:https://p01.mul-pay.jp/payment/SearchCard.idPass from 217.178.67.237
2020/03/14 13:52:47 [/shop/shopping/load_payment_module.php] Array
(
    [SiteID] => mst2000016748
    [SitePass] => ******
    [MemberID] => 550
)
 from 217.178.67.237
2020/03/14 13:52:47 [/shop/shopping/load_payment_module.php] ErrCode=E01|E01&ErrInfo=E01390002|E01240002 from 217.178.67.237
2020/03/14 13:52:47 [/shop/shopping/load_payment_module.php] Array
(
    [0] => Array
        (
            [ErrCode] => E01
            [ErrInfo] => E01390002
        )

    [1] => Array
        (
            [ErrCode] => E01
            [ErrInfo] => E01240002
        )

)
 from 217.178.67.237
2020/03/14 13:52:47 [/shop/shopping/load_payment_module.php] SendRequest:https://p01.mul-pay.jp/payment/EntryTran.idPass from 217.178.67.237
2020/03/14 13:52:47 [/shop/shopping/load_payment_module.php] Array
(
    [ShopID] => 9102288779655
    [ShopPass] => ******
    [OrderID] => 1134-14135247
    [JobCd] => AUTH
    [Amount] => 9460
    [TdFlag] => 0
    [TdTenantName] => 
)
 from 217.178.67.237
2020/03/14 13:52:48 [/shop/shopping/load_payment_module.php] AccessID=687525999117648d595f99a21d327fa4&AccessPass=062d93d67ef6cf9c7407073907f5c336 from 217.178.67.237
2020/03/14 13:52:48 [/shop/shopping/load_payment_module.php] Array
(
    [0] => Array
        (
            [AccessID] => 687525999117648d595f99a21d327fa4
            [AccessPass] => 062d93d67ef6cf9c7407073907f5c336
        )

)
 from 217.178.67.237
2020/03/14 13:52:48 [/shop/shopping/load_payment_module.php] load_payment_module.php set payment data:Array
(
    [AccessID] => 687525999117648d595f99a21d327fa4
    [AccessPass] => 062d93d67ef6cf9c7407073907f5c336
    [OrderID] => 1134-14135247
    [Amount] => 9460
    [JobCd] => AUTH
    [action_status] => 1
    [pay_status] => 0
)
 from 217.178.67.237
2020/03/14 13:52:48 [/shop/shopping/load_payment_module.php] SendRequest:https://p01.mul-pay.jp/payment/ExecTran.idPass from 217.178.67.237
2020/03/14 13:52:48 [/shop/shopping/load_payment_module.php] Array
(
    [AccessID] => 687525999117648d595f99a21d327fa4
    [AccessPass] => 062d93d67ef6cf9c7407073907f5c336
    [OrderID] => 1134-14135247
    [Method] => 1
    [Token] => f00edfe12a587a3d6cf5fc81f03edc4d4e850b837699608225d71bab1771ef6a
    [ClientField1] => 
    [ClientField2] => 
    [ClientField3] => EC-CUBE4.3.24
)
 from 217.178.67.237
2020/03/14 13:52:48 [/shop/shopping/load_payment_module.php] ACS=0&OrderID=1134-14135247&Forward=2a99661&Method=1&PayTimes=&Approve=0230179&TranID=2003141352602257217875130193&TranDate=20200314135248&CheckString=346c85404aa698c1170c8b899f3a5aa8 from 217.178.67.237
2020/03/14 13:52:48 [/shop/shopping/load_payment_module.php] Array
(
    [0] => Array
        (
            [ACS] => 0
            [OrderID] => 1134-14135247
            [Forward] => 2a99661
            [Method] => 1
            [PayTimes] => 
            [Approve] => 0230179
            [TranID] => 2003141352602257217875130193
            [TranDate] => 20200314135248
            [CheckString] => 346c85404aa698c1170c8b899f3a5aa8
        )

)
 from 217.178.67.237
2020/03/14 13:52:48 [/shop/shopping/load_payment_module.php] load_payment_module.php set payment data:Array
(
    [ACS] => 0
    [Forward] => 2a99661
    [Method] => 1
    [PayTimes] => 
    [Approve] => 0230179
    [TranID] => 2003141352602257217875130193
    [TranDate] => 20200314135248
    [CheckString] => 346c85404aa698c1170c8b899f3a5aa8
    [Amount] => 9460
    [JobCd] => AUTH
    [action_status] => 3
    [pay_status] => 11
)
 from 217.178.67.237
2020/03/14 13:52:49 [/shop/user_data/pg_mulpay_recv.php] ******* receiveer data start ******* from 210.175.7.20
2020/03/14 13:52:49 [/shop/user_data/pg_mulpay_recv.php] Array
(
    [ShopID] => 9102288779655
    [ShopPass] => **********
    [AccessID] => 687525999117648d595f99a21d327fa4
    [AccessPass] => ********************************
    [OrderID] => 1134-14135247
    [Status] => AUTH
    [JobCd] => AUTH
    [Amount] => 9460
    [Tax] => 0
    [Currency] => JPN
    [Forward] => 2a99661
    [Method] => 1
    [PayTimes] => 
    [TranID] => 2003141352602257217875130193
    [Approve] => 0230179
    [TranDate] => 20200314135248
    [ErrCode] => 
    [ErrInfo] => 
    [PayType] => 0
)
 from 210.175.7.20
2020/03/14 13:52:49 [/shop/user_data/pg_mulpay_recv.php] ******* receiveer data end ******* from 210.175.7.20
2020/03/14 13:52:54 [/shop/user_data/pg_mulpay_recv.php] update order status:1 order_id=1134 from 210.175.7.20
2020/03/14 13:52:54 [/shop/user_data/pg_mulpay_recv.php] pg_mulpay_recv.php set payment data:Array
(
    [ShopID] => 9102288779655
    [AccessID] => 687525999117648d595f99a21d327fa4
    [OrderID] => 1134-14135247
    [Status] => AUTH
    [JobCd] => AUTH
    [Amount] => 9460
    [Tax] => 0
    [Currency] => JPN
    [Forward] => 2a99661
    [Method] => 1
    [PayTimes] => 
    [TranID] => 2003141352602257217875130193
    [Approve] => 0230179
    [TranDate] => 20200314135248
    [ErrCode] => 
    [ErrInfo] => 
    [PayType] => 0
    [CvsCode] => 
    [CvsConfNo] => 
    [CvsReceiptNo] => 
    [EdyReceiptNo] => 
    [EdyOrderNo] => 
    [SuicaReceiptNo] => 
    [SuicaOrderNo] => 
    [CustID] => 
    [BkCode] => 
    [ConfNo] => 
    [PaymentTerm] => 
    [EncryptReceiptNo] => 
    [FinishDate] => 
    [ReceiptDate] => 
    [WebMoneyManagementNo] => 
    [WebMoneySettleCode] => 
    [AuPayInfoNo] => 
    [AuPayMethod] => 
    [AuCancelAmount] => 
    [AuCancelTax] => 
    [DocomoSettlementCode] => 
    [DocomoCancelAmount] => 
    [DocomoCancelTax] => 
    [pay_status] => 11
)
 from 210.175.7.20
2020/03/14 13:52:54 [/shop/user_data/pg_mulpay_recv.php] response:true from 210.175.7.20
2020/03/14 21:20:32 [/shop/shopping/load_payment_module.php] SendRequest:https://p01.mul-pay.jp/payment/EntryTran.idPass from 59.84.206.39
2020/03/14 21:20:32 [/shop/shopping/load_payment_module.php] Array
(
    [ShopID] => 9102288779655
    [ShopPass] => ******
    [OrderID] => 1135-14212032
    [JobCd] => AUTH
    [Amount] => 197560
    [TdFlag] => 0
    [TdTenantName] => 
)
 from 59.84.206.39
2020/03/14 21:20:32 [/shop/shopping/load_payment_module.php] AccessID=fe4f179a8ee55d912965420ba3c0fb2c&AccessPass=3d9bafae50f07de3914f66cd7eba4524 from 59.84.206.39
2020/03/14 21:20:32 [/shop/shopping/load_payment_module.php] Array
(
    [0] => Array
        (
            [AccessID] => fe4f179a8ee55d912965420ba3c0fb2c
            [AccessPass] => 3d9bafae50f07de3914f66cd7eba4524
        )

)
 from 59.84.206.39
2020/03/14 21:20:32 [/shop/shopping/load_payment_module.php] load_payment_module.php set payment data:Array
(
    [AccessID] => fe4f179a8ee55d912965420ba3c0fb2c
    [AccessPass] => 3d9bafae50f07de3914f66cd7eba4524
    [OrderID] => 1135-14212032
    [Amount] => 197560
    [JobCd] => AUTH
    [action_status] => 1
    [pay_status] => 0
)
 from 59.84.206.39
2020/03/14 21:20:32 [/shop/shopping/load_payment_module.php] SendRequest:https://p01.mul-pay.jp/payment/ExecTran.idPass from 59.84.206.39
2020/03/14 21:20:32 [/shop/shopping/load_payment_module.php] Array
(
    [AccessID] => fe4f179a8ee55d912965420ba3c0fb2c
    [AccessPass] => 3d9bafae50f07de3914f66cd7eba4524
    [OrderID] => 1135-14212032
    [Method] => 1
    [Token] => 5b6e94702ed929d3187af2da57db241c9a8524b8e7fb5a8899e270eb3d677347
    [ClientField1] => 
    [ClientField2] => 
    [ClientField3] => EC-CUBE4.3.24
)
 from 59.84.206.39
2020/03/14 21:20:33 [/shop/shopping/load_payment_module.php] ACS=0&OrderID=1135-14212032&Forward=2959876&Method=1&PayTimes=&Approve=0001578&TranID=2003142120602257217875110206&TranDate=20200314212033&CheckString=d04388e9c4fde3602917688804703f25 from 59.84.206.39
2020/03/14 21:20:33 [/shop/shopping/load_payment_module.php] Array
(
    [0] => Array
        (
            [ACS] => 0
            [OrderID] => 1135-14212032
            [Forward] => 2959876
            [Method] => 1
            [PayTimes] => 
            [Approve] => 0001578
            [TranID] => 2003142120602257217875110206
            [TranDate] => 20200314212033
            [CheckString] => d04388e9c4fde3602917688804703f25
        )

)
 from 59.84.206.39
2020/03/14 21:20:33 [/shop/shopping/load_payment_module.php] load_payment_module.php set payment data:Array
(
    [ACS] => 0
    [Forward] => 2959876
    [Method] => 1
    [PayTimes] => 
    [Approve] => 0001578
    [TranID] => 2003142120602257217875110206
    [TranDate] => 20200314212033
    [CheckString] => d04388e9c4fde3602917688804703f25
    [Amount] => 197560
    [JobCd] => AUTH
    [action_status] => 3
    [pay_status] => 11
)
 from 59.84.206.39
2020/03/14 21:20:34 [/shop/user_data/pg_mulpay_recv.php] ******* receiveer data start ******* from 210.175.7.20
2020/03/14 21:20:34 [/shop/user_data/pg_mulpay_recv.php] Array
(
    [ShopID] => 9102288779655
    [ShopPass] => **********
    [AccessID] => fe4f179a8ee55d912965420ba3c0fb2c
    [AccessPass] => ********************************
    [OrderID] => 1135-14212032
    [Status] => AUTH
    [JobCd] => AUTH
    [Amount] => 197560
    [Tax] => 0
    [Currency] => JPN
    [Forward] => 2959876
    [Method] => 1
    [PayTimes] => 
    [TranID] => 2003142120602257217875110206
    [Approve] => 0001578
    [TranDate] => 20200314212033
    [ErrCode] => 
    [ErrInfo] => 
    [PayType] => 0
)
 from 210.175.7.20
2020/03/14 21:20:34 [/shop/user_data/pg_mulpay_recv.php] ******* receiveer data end ******* from 210.175.7.20
2020/03/14 21:20:39 [/shop/user_data/pg_mulpay_recv.php] update order status:1 order_id=1135 from 210.175.7.20
2020/03/14 21:20:39 [/shop/user_data/pg_mulpay_recv.php] pg_mulpay_recv.php set payment data:Array
(
    [ShopID] => 9102288779655
    [AccessID] => fe4f179a8ee55d912965420ba3c0fb2c
    [OrderID] => 1135-14212032
    [Status] => AUTH
    [JobCd] => AUTH
    [Amount] => 197560
    [Tax] => 0
    [Currency] => JPN
    [Forward] => 2959876
    [Method] => 1
    [PayTimes] => 
    [TranID] => 2003142120602257217875110206
    [Approve] => 0001578
    [TranDate] => 20200314212033
    [ErrCode] => 
    [ErrInfo] => 
    [PayType] => 0
    [CvsCode] => 
    [CvsConfNo] => 
    [CvsReceiptNo] => 
    [EdyReceiptNo] => 
    [EdyOrderNo] => 
    [SuicaReceiptNo] => 
    [SuicaOrderNo] => 
    [CustID] => 
    [BkCode] => 
    [ConfNo] => 
    [PaymentTerm] => 
    [EncryptReceiptNo] => 
    [FinishDate] => 
    [ReceiptDate] => 
    [WebMoneyManagementNo] => 
    [WebMoneySettleCode] => 
    [AuPayInfoNo] => 
    [AuPayMethod] => 
    [AuCancelAmount] => 
    [AuCancelTax] => 
    [DocomoSettlementCode] => 
    [DocomoCancelAmount] => 
    [DocomoCancelTax] => 
    [pay_status] => 11
)
 from 210.175.7.20
2020/03/14 21:20:39 [/shop/user_data/pg_mulpay_recv.php] response:true from 210.175.7.20
2020/03/14 22:10:58 [/shop/shopping/load_payment_module.php] SendRequest:https://p01.mul-pay.jp/payment/EntryTran.idPass from 58.188.128.243
2020/03/14 22:10:58 [/shop/shopping/load_payment_module.php] Array
(
    [ShopID] => 9102288779655
    [ShopPass] => ******
    [OrderID] => 1136-14221058
    [JobCd] => AUTH
    [Amount] => 21340
    [TdFlag] => 0
    [TdTenantName] => 
)
 from 58.188.128.243
2020/03/14 22:10:58 [/shop/shopping/load_payment_module.php] AccessID=80dec81ad2c2b7738131f5db2b53912b&AccessPass=7a0b2315c9f128dbd1aea11b2e2b8569 from 58.188.128.243
2020/03/14 22:10:58 [/shop/shopping/load_payment_module.php] Array
(
    [0] => Array
        (
            [AccessID] => 80dec81ad2c2b7738131f5db2b53912b
            [AccessPass] => 7a0b2315c9f128dbd1aea11b2e2b8569
        )

)
 from 58.188.128.243
2020/03/14 22:10:58 [/shop/shopping/load_payment_module.php] load_payment_module.php set payment data:Array
(
    [AccessID] => 80dec81ad2c2b7738131f5db2b53912b
    [AccessPass] => 7a0b2315c9f128dbd1aea11b2e2b8569
    [OrderID] => 1136-14221058
    [Amount] => 21340
    [JobCd] => AUTH
    [action_status] => 1
    [pay_status] => 0
)
 from 58.188.128.243
2020/03/14 22:10:58 [/shop/shopping/load_payment_module.php] SendRequest:https://p01.mul-pay.jp/payment/ExecTran.idPass from 58.188.128.243
2020/03/14 22:10:58 [/shop/shopping/load_payment_module.php] Array
(
    [AccessID] => 80dec81ad2c2b7738131f5db2b53912b
    [AccessPass] => 7a0b2315c9f128dbd1aea11b2e2b8569
    [OrderID] => 1136-14221058
    [Method] => 1
    [Token] => 2d22f4e383f36f9f3dcbcd88397934b97ea3f4f886d2f8bae9f965b889870451
    [ClientField1] => 
    [ClientField2] => 
    [ClientField3] => EC-CUBE4.3.24
)
 from 58.188.128.243
2020/03/14 22:10:59 [/shop/shopping/load_payment_module.php] ACS=0&OrderID=1136-14221058&Forward=2S49631&Method=1&PayTimes=&Approve=0175315&TranID=2003142210602257217875130194&TranDate=20200314221059&CheckString=87f8efae8f83f8de4f03717cc075fcfe from 58.188.128.243
2020/03/14 22:10:59 [/shop/shopping/load_payment_module.php] Array
(
    [0] => Array
        (
            [ACS] => 0
            [OrderID] => 1136-14221058
            [Forward] => 2S49631
            [Method] => 1
            [PayTimes] => 
            [Approve] => 0175315
            [TranID] => 2003142210602257217875130194
            [TranDate] => 20200314221059
            [CheckString] => 87f8efae8f83f8de4f03717cc075fcfe
        )

)
 from 58.188.128.243
2020/03/14 22:10:59 [/shop/shopping/load_payment_module.php] load_payment_module.php set payment data:Array
(
    [ACS] => 0
    [Forward] => 2S49631
    [Method] => 1
    [PayTimes] => 
    [Approve] => 0175315
    [TranID] => 2003142210602257217875130194
    [TranDate] => 20200314221059
    [CheckString] => 87f8efae8f83f8de4f03717cc075fcfe
    [Amount] => 21340
    [JobCd] => AUTH
    [action_status] => 3
    [pay_status] => 11
)
 from 58.188.128.243
2020/03/14 22:10:59 [/shop/user_data/pg_mulpay_recv.php] ******* receiveer data start ******* from 210.175.7.20
2020/03/14 22:10:59 [/shop/user_data/pg_mulpay_recv.php] Array
(
    [ShopID] => 9102288779655
    [ShopPass] => **********
    [AccessID] => 80dec81ad2c2b7738131f5db2b53912b
    [AccessPass] => ********************************
    [OrderID] => 1136-14221058
    [Status] => AUTH
    [JobCd] => AUTH
    [Amount] => 21340
    [Tax] => 0
    [Currency] => JPN
    [Forward] => 2S49631
    [Method] => 1
    [PayTimes] => 
    [TranID] => 2003142210602257217875130194
    [Approve] => 0175315
    [TranDate] => 20200314221059
    [ErrCode] => 
    [ErrInfo] => 
    [PayType] => 0
)
 from 210.175.7.20
2020/03/14 22:10:59 [/shop/user_data/pg_mulpay_recv.php] ******* receiveer data end ******* from 210.175.7.20
2020/03/14 22:11:04 [/shop/user_data/pg_mulpay_recv.php] update order status:1 order_id=1136 from 210.175.7.20
2020/03/14 22:11:04 [/shop/user_data/pg_mulpay_recv.php] pg_mulpay_recv.php set payment data:Array
(
    [ShopID] => 9102288779655
    [AccessID] => 80dec81ad2c2b7738131f5db2b53912b
    [OrderID] => 1136-14221058
    [Status] => AUTH
    [JobCd] => AUTH
    [Amount] => 21340
    [Tax] => 0
    [Currency] => JPN
    [Forward] => 2S49631
    [Method] => 1
    [PayTimes] => 
    [TranID] => 2003142210602257217875130194
    [Approve] => 0175315
    [TranDate] => 20200314221059
    [ErrCode] => 
    [ErrInfo] => 
    [PayType] => 0
    [CvsCode] => 
    [CvsConfNo] => 
    [CvsReceiptNo] => 
    [EdyReceiptNo] => 
    [EdyOrderNo] => 
    [SuicaReceiptNo] => 
    [SuicaOrderNo] => 
    [CustID] => 
    [BkCode] => 
    [ConfNo] => 
    [PaymentTerm] => 
    [EncryptReceiptNo] => 
    [FinishDate] => 
    [ReceiptDate] => 
    [WebMoneyManagementNo] => 
    [WebMoneySettleCode] => 
    [AuPayInfoNo] => 
    [AuPayMethod] => 
    [AuCancelAmount] => 
    [AuCancelTax] => 
    [DocomoSettlementCode] => 
    [DocomoCancelAmount] => 
    [DocomoCancelTax] => 
    [pay_status] => 11
)
 from 210.175.7.20
2020/03/14 22:11:04 [/shop/user_data/pg_mulpay_recv.php] response:true from 210.175.7.20
2020/03/14 22:37:30 [/shop/shopping/load_payment_module.php] SendRequest:https://p01.mul-pay.jp/payment/EntryTranCvs.idPass from 211.124.91.195
2020/03/14 22:37:30 [/shop/shopping/load_payment_module.php] Array
(
    [ShopID] => 9102288779655
    [ShopPass] => ******
    [OrderID] => 1137-14223730
    [Amount] => 12760
)
 from 211.124.91.195
2020/03/14 22:37:31 [/shop/shopping/load_payment_module.php] AccessID=54a9929008ec6d218a62bdd350aee6de&AccessPass=312f0fd675057074c168f2df607b7912 from 211.124.91.195
2020/03/14 22:37:31 [/shop/shopping/load_payment_module.php] Array
(
    [0] => Array
        (
            [AccessID] => 54a9929008ec6d218a62bdd350aee6de
            [AccessPass] => 312f0fd675057074c168f2df607b7912
        )

)
 from 211.124.91.195
2020/03/14 22:37:31 [/shop/shopping/load_payment_module.php] load_payment_module.php set payment data:Array
(
    [AccessID] => 54a9929008ec6d218a62bdd350aee6de
    [AccessPass] => 312f0fd675057074c168f2df607b7912
    [OrderID] => 1137-14223730
    [Amount] => 12760
    [action_status] => 1
    [pay_status] => 0
)
 from 211.124.91.195
2020/03/14 22:37:31 [/shop/shopping/load_payment_module.php] SendRequest:https://p01.mul-pay.jp/payment/ExecTranCvs.idPass from 211.124.91.195
2020/03/14 22:37:31 [/shop/shopping/load_payment_module.php] Array
(
    [AccessID] => 54a9929008ec6d218a62bdd350aee6de
    [AccessPass] => 312f0fd675057074c168f2df607b7912
    [OrderID] => 1137-14223730
    [Convenience] => 10001
    [CustomerName] => ******
    [CustomerKana] => ******
    [TelNo] => 0784413704
    [PaymentTermDay] => 
    [MailAddress] => ******
    [ShopMailAddress] => oukoku-onlineshop@oukoku.biz
    [ReserveNo] => 1137
    [MemberNo] => 
    [RegisterDisp1] => 
    [RegisterDisp2] => 
    [RegisterDisp3] => 
    [RegisterDisp4] => 
    [RegisterDisp5] => 
    [RegisterDisp6] => 
    [RegisterDisp7] => 
    [RegisterDisp8] => 
    [ReceiptsDisp1] => 
    [ReceiptsDisp2] => 
    [ReceiptsDisp3] => 
    [ReceiptsDisp4] => 
    [ReceiptsDisp5] => 
    [ReceiptsDisp6] => 
    [ReceiptsDisp7] => 
    [ReceiptsDisp8] => 
    [ReceiptsDisp9] => 
    [ReceiptsDisp10] => 
    [ReceiptsDisp11] => 株式会社カーテン・じゅうたん王国
    [ReceiptsDisp12] => 0356493000
    [ReceiptsDisp13] => 09:30-18:30
    [ClientField1] => 
    [ClientField2] => 
    [ClientField3] => EC-CUBE4.3.24
    [ClientFieldFlag] => 1
)
 from 211.124.91.195
2020/03/14 22:37:32 [/shop/shopping/load_payment_module.php] OrderID=1137-14223730&Convenience=10001&ConfNo=8820&ReceiptNo=92007447633998&PaymentTerm=20200318235959&TranDate=20200314223731&CheckString=27b27afd80eb95f4864e81942a15492e&ClientField1=&ClientField2=&ClientField3=EC-CUBE4.3.24 from 211.124.91.195
2020/03/14 22:37:32 [/shop/shopping/load_payment_module.php] Array
(
    [0] => Array
        (
            [OrderID] => 1137-14223730
            [Convenience] => 10001
            [ConfNo] => 8820
            [ReceiptNo] => 92007447633998
            [PaymentTerm] => 20200318235959
            [TranDate] => 20200314223731
            [CheckString] => 27b27afd80eb95f4864e81942a15492e
            [ClientField1] => 
            [ClientField2] => 
            [ClientField3] => EC-CUBE4.3.24
        )

)
 from 211.124.91.195
2020/03/14 22:37:32 [/shop/shopping/load_payment_module.php] load_payment_module.php set payment data:Array
(
    [Convenience] => 00001
    [ConfNo] => 8820
    [ReceiptNo] => 92007447633998
    [PaymentTerm] => 20200318235959
    [TranDate] => 20200314223731
    [CheckString] => 27b27afd80eb95f4864e81942a15492e
    [ClientField1] => 
    [ClientField2] => 
    [ClientField3] => EC-CUBE4.3.24
    [Amount] => 12760
    [action_status] => 3
    [pay_status] => 1
)
 from 211.124.91.195
2020/03/14 22:37:32 [/shop/user_data/pg_mulpay_recv.php] ******* receiveer data start ******* from 210.175.7.20
2020/03/14 22:37:32 [/shop/user_data/pg_mulpay_recv.php] Array
(
    [ShopID] => 9102288779655
    [ShopPass] => **********
    [AccessID] => 54a9929008ec6d218a62bdd350aee6de
    [AccessPass] => ********************************
    [OrderID] => 1137-14223730
    [Status] => REQSUCCESS
    [Amount] => 12760
    [Tax] => 0
    [Currency] => JPN
    [TranID] => 20031400000217888244
    [TranDate] => 20200314223731
    [ErrCode] => 
    [ErrInfo] => 
    [PayType] => 3
    [CvsCode] => 10001
    [CvsConfNo] => 8820
    [CvsReceiptNo] => 92007447633998
    [PaymentTerm] => 20200318235959
    [FinishDate] => 
    [ReceiptDate] => 20200314223731
)
 from 210.175.7.20
2020/03/14 22:37:32 [/shop/user_data/pg_mulpay_recv.php] ******* receiveer data end ******* from 210.175.7.20
2020/03/14 22:37:32 [/shop/user_data/pg_mulpay_recv.php] update order status:2 from 210.175.7.20
2020/03/14 22:37:32 [/shop/user_data/pg_mulpay_recv.php] pg_mulpay_recv.php set payment data:Array
(
    [ShopID] => 9102288779655
    [AccessID] => 54a9929008ec6d218a62bdd350aee6de
    [OrderID] => 1137-14223730
    [Status] => REQSUCCESS
    [JobCd] => 
    [Amount] => 12760
    [Tax] => 0
    [Currency] => JPN
    [Forward] => 
    [Method] => 
    [PayTimes] => 
    [TranID] => 20031400000217888244
    [Approve] => 
    [TranDate] => 20200314223731
    [ErrCode] => 
    [ErrInfo] => 
    [PayType] => 3
    [CvsCode] => 10001
    [CvsConfNo] => 8820
    [CvsReceiptNo] => 92007447633998
    [EdyReceiptNo] => 
    [EdyOrderNo] => 
    [SuicaReceiptNo] => 
    [SuicaOrderNo] => 
    [CustID] => 
    [BkCode] => 
    [PaymentTerm] => 20200318235959
    [EncryptReceiptNo] => 
    [FinishDate] => 
    [ReceiptDate] => 20200314223731
    [WebMoneyManagementNo] => 
    [WebMoneySettleCode] => 
    [AuPayInfoNo] => 
    [AuPayMethod] => 
    [AuCancelAmount] => 
    [AuCancelTax] => 
    [DocomoSettlementCode] => 
    [DocomoCancelAmount] => 
    [DocomoCancelTax] => 
    [pay_status] => 1
)
 from 210.175.7.20
2020/03/14 22:37:32 [/shop/user_data/pg_mulpay_recv.php] response:true from 210.175.7.20
