2018/11/17 15:43:21 [/shop/shopping/load_payment_module.php] SendRequest:https://p01.mul-pay.jp/payment/EntryTran.idPass from 59.129.53.89
customer_id = 
/home/oukoku/public_html/shop/shopping/load_payment_module.php(29): LC_Page_Shopping_LoadPaymentModule_Ex->process
/home/oukoku/public_html/shop/data/class_extends/page_extends/shopping/LC_Page_Shopping_LoadPaymentModule_Ex.php(54): LC_Page_Shopping_LoadPaymentModule->process
/home/oukoku/public_html/shop/data/class/pages/shopping/LC_Page_Shopping_LoadPaymentModule.php(70): require_once
/home/oukoku/public_html/shop/data/downloads/module/mdl_pg_mulpay/payment.php(16): LC_Page_Mdl_PG_MULPAY_Helper->process
/home/oukoku/public_html/shop/data/downloads/module/mdl_pg_mulpay/class/pages/LC_Page_Mdl_PG_MULPAY_Helper.php(45): LC_Page_Mdl_PG_MULPAY_Helper->action
/home/oukoku/public_html/shop/data/downloads/module/mdl_pg_mulpay/class/pages/LC_Page_Mdl_PG_MULPAY_Helper.php(136): LC_PageHelper_Mdl_PG_MULPAY_Token->modeAction
/home/oukoku/public_html/shop/data/downloads/module/mdl_pg_mulpay/class/pages/helper/LC_PageHelper_Mdl_PG_MULPAY_Token.php(129): SC_Mdl_PG_MULPAY_Client_Token->doPaymentRequest
/home/oukoku/public_html/shop/data/downloads/module/mdl_pg_mulpay/class/client/SC_Mdl_PG_MULPAY_Client_Token.php(105): SC_Mdl_PG_MULPAY_Client_Base->sendOrderRequest
/home/oukoku/public_html/shop/data/downloads/module/mdl_pg_mulpay/class/client/SC_Mdl_PG_MULPAY_Client_Base.php(241): SC_Mdl_PG_MULPAY_Client_Base->sendRequest
/home/oukoku/public_html/shop/data/downloads/module/mdl_pg_mulpay/class/client/SC_Mdl_PG_MULPAY_Client_Base.php(375): SC_Mdl_PG_MULPAY->printLog
/home/oukoku/public_html/shop/data/downloads/module/mdl_pg_mulpay/class/SC_Mdl_PG_MULPAY.php(268): GC_Utils::gfPrintLog
2018/11/17 15:43:21 [/shop/shopping/load_payment_module.php] Array
(
    [ShopID] => 9102288779655
    [ShopPass] => ******
    [OrderID] => 172-17154321
    [JobCd] => AUTH
    [Amount] => 12528
    [TdFlag] => 0
    [TdTenantName] => 
)
 from 59.129.53.89
customer_id = 
/home/oukoku/public_html/shop/shopping/load_payment_module.php(29): LC_Page_Shopping_LoadPaymentModule_Ex->process
/home/oukoku/public_html/shop/data/class_extends/page_extends/shopping/LC_Page_Shopping_LoadPaymentModule_Ex.php(54): LC_Page_Shopping_LoadPaymentModule->process
/home/oukoku/public_html/shop/data/class/pages/shopping/LC_Page_Shopping_LoadPaymentModule.php(70): require_once
/home/oukoku/public_html/shop/data/downloads/module/mdl_pg_mulpay/payment.php(16): LC_Page_Mdl_PG_MULPAY_Helper->process
/home/oukoku/public_html/shop/data/downloads/module/mdl_pg_mulpay/class/pages/LC_Page_Mdl_PG_MULPAY_Helper.php(45): LC_Page_Mdl_PG_MULPAY_Helper->action
/home/oukoku/public_html/shop/data/downloads/module/mdl_pg_mulpay/class/pages/LC_Page_Mdl_PG_MULPAY_Helper.php(136): LC_PageHelper_Mdl_PG_MULPAY_Token->modeAction
/home/oukoku/public_html/shop/data/downloads/module/mdl_pg_mulpay/class/pages/helper/LC_PageHelper_Mdl_PG_MULPAY_Token.php(129): SC_Mdl_PG_MULPAY_Client_Token->doPaymentRequest
/home/oukoku/public_html/shop/data/downloads/module/mdl_pg_mulpay/class/client/SC_Mdl_PG_MULPAY_Client_Token.php(105): SC_Mdl_PG_MULPAY_Client_Base->sendOrderRequest
/home/oukoku/public_html/shop/data/downloads/module/mdl_pg_mulpay/class/client/SC_Mdl_PG_MULPAY_Client_Base.php(241): SC_Mdl_PG_MULPAY_Client_Base->sendRequest
/home/oukoku/public_html/shop/data/downloads/module/mdl_pg_mulpay/class/client/SC_Mdl_PG_MULPAY_Client_Base.php(376): SC_Mdl_PG_MULPAY->printLog
/home/oukoku/public_html/shop/data/downloads/module/mdl_pg_mulpay/class/SC_Mdl_PG_MULPAY.php(268): GC_Utils::gfPrintLog
2018/11/17 15:43:21 [/shop/shopping/load_payment_module.php] AccessID=e968fec0edc4178121395aa91fe4f812&AccessPass=57255af56d27767d61a0166777991de9 from 59.129.53.89
customer_id = 
/home/oukoku/public_html/shop/shopping/load_payment_module.php(29): LC_Page_Shopping_LoadPaymentModule_Ex->process
/home/oukoku/public_html/shop/data/class_extends/page_extends/shopping/LC_Page_Shopping_LoadPaymentModule_Ex.php(54): LC_Page_Shopping_LoadPaymentModule->process
/home/oukoku/public_html/shop/data/class/pages/shopping/LC_Page_Shopping_LoadPaymentModule.php(70): require_once
/home/oukoku/public_html/shop/data/downloads/module/mdl_pg_mulpay/payment.php(16): LC_Page_Mdl_PG_MULPAY_Helper->process
/home/oukoku/public_html/shop/data/downloads/module/mdl_pg_mulpay/class/pages/LC_Page_Mdl_PG_MULPAY_Helper.php(45): LC_Page_Mdl_PG_MULPAY_Helper->action
/home/oukoku/public_html/shop/data/downloads/module/mdl_pg_mulpay/class/pages/LC_Page_Mdl_PG_MULPAY_Helper.php(136): LC_PageHelper_Mdl_PG_MULPAY_Token->modeAction
/home/oukoku/public_html/shop/data/downloads/module/mdl_pg_mulpay/class/pages/helper/LC_PageHelper_Mdl_PG_MULPAY_Token.php(129): SC_Mdl_PG_MULPAY_Client_Token->doPaymentRequest
/home/oukoku/public_html/shop/data/downloads/module/mdl_pg_mulpay/class/client/SC_Mdl_PG_MULPAY_Client_Token.php(105): SC_Mdl_PG_MULPAY_Client_Base->sendOrderRequest
/home/oukoku/public_html/shop/data/downloads/module/mdl_pg_mulpay/class/client/SC_Mdl_PG_MULPAY_Client_Base.php(241): SC_Mdl_PG_MULPAY_Client_Base->sendRequest
/home/oukoku/public_html/shop/data/downloads/module/mdl_pg_mulpay/class/client/SC_Mdl_PG_MULPAY_Client_Base.php(418): SC_Mdl_PG_MULPAY_Client_Base->parseResponse
/home/oukoku/public_html/shop/data/downloads/module/mdl_pg_mulpay/class/client/SC_Mdl_PG_MULPAY_Client_Base.php(446): SC_Mdl_PG_MULPAY->printLog
/home/oukoku/public_html/shop/data/downloads/module/mdl_pg_mulpay/class/SC_Mdl_PG_MULPAY.php(268): GC_Utils::gfPrintLog
2018/11/17 15:43:21 [/shop/shopping/load_payment_module.php] Array
(
    [0] => Array
        (
            [AccessID] => e968fec0edc4178121395aa91fe4f812
            [AccessPass] => 57255af56d27767d61a0166777991de9
        )

)
 from 59.129.53.89
customer_id = 
/home/oukoku/public_html/shop/shopping/load_payment_module.php(29): LC_Page_Shopping_LoadPaymentModule_Ex->process
/home/oukoku/public_html/shop/data/class_extends/page_extends/shopping/LC_Page_Shopping_LoadPaymentModule_Ex.php(54): LC_Page_Shopping_LoadPaymentModule->process
/home/oukoku/public_html/shop/data/class/pages/shopping/LC_Page_Shopping_LoadPaymentModule.php(70): require_once
/home/oukoku/public_html/shop/data/downloads/module/mdl_pg_mulpay/payment.php(16): LC_Page_Mdl_PG_MULPAY_Helper->process
/home/oukoku/public_html/shop/data/downloads/module/mdl_pg_mulpay/class/pages/LC_Page_Mdl_PG_MULPAY_Helper.php(45): LC_Page_Mdl_PG_MULPAY_Helper->action
/home/oukoku/public_html/shop/data/downloads/module/mdl_pg_mulpay/class/pages/LC_Page_Mdl_PG_MULPAY_Helper.php(136): LC_PageHelper_Mdl_PG_MULPAY_Token->modeAction
/home/oukoku/public_html/shop/data/downloads/module/mdl_pg_mulpay/class/pages/helper/LC_PageHelper_Mdl_PG_MULPAY_Token.php(129): SC_Mdl_PG_MULPAY_Client_Token->doPaymentRequest
/home/oukoku/public_html/shop/data/downloads/module/mdl_pg_mulpay/class/client/SC_Mdl_PG_MULPAY_Client_Token.php(105): SC_Mdl_PG_MULPAY_Client_Base->sendOrderRequest
/home/oukoku/public_html/shop/data/downloads/module/mdl_pg_mulpay/class/client/SC_Mdl_PG_MULPAY_Client_Base.php(241): SC_Mdl_PG_MULPAY_Client_Base->sendRequest
/home/oukoku/public_html/shop/data/downloads/module/mdl_pg_mulpay/class/client/SC_Mdl_PG_MULPAY_Client_Base.php(419): SC_Mdl_PG_MULPAY_Client_Base->setResults
/home/oukoku/public_html/shop/data/downloads/module/mdl_pg_mulpay/class/client/SC_Mdl_PG_MULPAY_Client_Base.php(533): SC_Mdl_PG_MULPAY->printLog
/home/oukoku/public_html/shop/data/downloads/module/mdl_pg_mulpay/class/SC_Mdl_PG_MULPAY.php(268): GC_Utils::gfPrintLog
2018/11/17 15:43:21 [/shop/shopping/load_payment_module.php] load_payment_module.php set payment data:Array
(
    [AccessID] => e968fec0edc4178121395aa91fe4f812
    [AccessPass] => 57255af56d27767d61a0166777991de9
    [OrderID] => 172-17154321
    [Amount] => 12528
    [JobCd] => AUTH
    [action_status] => 1
    [pay_status] => 0
)
 from 59.129.53.89
customer_id = 
/home/oukoku/public_html/shop/shopping/load_payment_module.php(29): LC_Page_Shopping_LoadPaymentModule_Ex->process
/home/oukoku/public_html/shop/data/class_extends/page_extends/shopping/LC_Page_Shopping_LoadPaymentModule_Ex.php(54): LC_Page_Shopping_LoadPaymentModule->process
/home/oukoku/public_html/shop/data/class/pages/shopping/LC_Page_Shopping_LoadPaymentModule.php(70): require_once
/home/oukoku/public_html/shop/data/downloads/module/mdl_pg_mulpay/payment.php(16): LC_Page_Mdl_PG_MULPAY_Helper->process
/home/oukoku/public_html/shop/data/downloads/module/mdl_pg_mulpay/class/pages/LC_Page_Mdl_PG_MULPAY_Helper.php(45): LC_Page_Mdl_PG_MULPAY_Helper->action
/home/oukoku/public_html/shop/data/downloads/module/mdl_pg_mulpay/class/pages/LC_Page_Mdl_PG_MULPAY_Helper.php(136): LC_PageHelper_Mdl_PG_MULPAY_Token->modeAction
/home/oukoku/public_html/shop/data/downloads/module/mdl_pg_mulpay/class/pages/helper/LC_PageHelper_Mdl_PG_MULPAY_Token.php(129): SC_Mdl_PG_MULPAY_Client_Token->doPaymentRequest
/home/oukoku/public_html/shop/data/downloads/module/mdl_pg_mulpay/class/client/SC_Mdl_PG_MULPAY_Client_Token.php(105): SC_Mdl_PG_MULPAY_Client_Base->sendOrderRequest
/home/oukoku/public_html/shop/data/downloads/module/mdl_pg_mulpay/class/client/SC_Mdl_PG_MULPAY_Client_Base.php(275): SC_Util_PG_MULPAY->setOrderPayData
/home/oukoku/public_html/shop/data/downloads/module/mdl_pg_mulpay/class/util/SC_Util_PG_MULPAY.php(501): SC_Mdl_PG_MULPAY->printLog
/home/oukoku/public_html/shop/data/downloads/module/mdl_pg_mulpay/class/SC_Mdl_PG_MULPAY.php(268): GC_Utils::gfPrintLog
2018/11/17 15:43:21 [/shop/shopping/load_payment_module.php] SendRequest:https://p01.mul-pay.jp/payment/ExecTran.idPass from 59.129.53.89
customer_id = 
/home/oukoku/public_html/shop/shopping/load_payment_module.php(29): LC_Page_Shopping_LoadPaymentModule_Ex->process
/home/oukoku/public_html/shop/data/class_extends/page_extends/shopping/LC_Page_Shopping_LoadPaymentModule_Ex.php(54): LC_Page_Shopping_LoadPaymentModule->process
/home/oukoku/public_html/shop/data/class/pages/shopping/LC_Page_Shopping_LoadPaymentModule.php(70): require_once
/home/oukoku/public_html/shop/data/downloads/module/mdl_pg_mulpay/payment.php(16): LC_Page_Mdl_PG_MULPAY_Helper->process
/home/oukoku/public_html/shop/data/downloads/module/mdl_pg_mulpay/class/pages/LC_Page_Mdl_PG_MULPAY_Helper.php(45): LC_Page_Mdl_PG_MULPAY_Helper->action
/home/oukoku/public_html/shop/data/downloads/module/mdl_pg_mulpay/class/pages/LC_Page_Mdl_PG_MULPAY_Helper.php(136): LC_PageHelper_Mdl_PG_MULPAY_Token->modeAction
/home/oukoku/public_html/shop/data/downloads/module/mdl_pg_mulpay/class/pages/helper/LC_PageHelper_Mdl_PG_MULPAY_Token.php(129): SC_Mdl_PG_MULPAY_Client_Token->doPaymentRequest
/home/oukoku/public_html/shop/data/downloads/module/mdl_pg_mulpay/class/client/SC_Mdl_PG_MULPAY_Client_Token.php(146): SC_Mdl_PG_MULPAY_Client_Base->sendOrderRequest
/home/oukoku/public_html/shop/data/downloads/module/mdl_pg_mulpay/class/client/SC_Mdl_PG_MULPAY_Client_Base.php(241): SC_Mdl_PG_MULPAY_Client_Base->sendRequest
/home/oukoku/public_html/shop/data/downloads/module/mdl_pg_mulpay/class/client/SC_Mdl_PG_MULPAY_Client_Base.php(375): SC_Mdl_PG_MULPAY->printLog
/home/oukoku/public_html/shop/data/downloads/module/mdl_pg_mulpay/class/SC_Mdl_PG_MULPAY.php(268): GC_Utils::gfPrintLog
2018/11/17 15:43:21 [/shop/shopping/load_payment_module.php] Array
(
    [AccessID] => e968fec0edc4178121395aa91fe4f812
    [AccessPass] => 57255af56d27767d61a0166777991de9
    [OrderID] => 172-17154321
    [Method] => 1
    [Token] => 1c9f0bc81f7822b4aed8470e6e16bd28976b2a43e3f4d5c74dc6b87b81a6a4bf
    [ClientField1] => 
    [ClientField2] => 
    [ClientField3] => EC-CUBE4.3.24
)
 from 59.129.53.89
customer_id = 
/home/oukoku/public_html/shop/shopping/load_payment_module.php(29): LC_Page_Shopping_LoadPaymentModule_Ex->process
/home/oukoku/public_html/shop/data/class_extends/page_extends/shopping/LC_Page_Shopping_LoadPaymentModule_Ex.php(54): LC_Page_Shopping_LoadPaymentModule->process
/home/oukoku/public_html/shop/data/class/pages/shopping/LC_Page_Shopping_LoadPaymentModule.php(70): require_once
/home/oukoku/public_html/shop/data/downloads/module/mdl_pg_mulpay/payment.php(16): LC_Page_Mdl_PG_MULPAY_Helper->process
/home/oukoku/public_html/shop/data/downloads/module/mdl_pg_mulpay/class/pages/LC_Page_Mdl_PG_MULPAY_Helper.php(45): LC_Page_Mdl_PG_MULPAY_Helper->action
/home/oukoku/public_html/shop/data/downloads/module/mdl_pg_mulpay/class/pages/LC_Page_Mdl_PG_MULPAY_Helper.php(136): LC_PageHelper_Mdl_PG_MULPAY_Token->modeAction
/home/oukoku/public_html/shop/data/downloads/module/mdl_pg_mulpay/class/pages/helper/LC_PageHelper_Mdl_PG_MULPAY_Token.php(129): SC_Mdl_PG_MULPAY_Client_Token->doPaymentRequest
/home/oukoku/public_html/shop/data/downloads/module/mdl_pg_mulpay/class/client/SC_Mdl_PG_MULPAY_Client_Token.php(146): SC_Mdl_PG_MULPAY_Client_Base->sendOrderRequest
/home/oukoku/public_html/shop/data/downloads/module/mdl_pg_mulpay/class/client/SC_Mdl_PG_MULPAY_Client_Base.php(241): SC_Mdl_PG_MULPAY_Client_Base->sendRequest
/home/oukoku/public_html/shop/data/downloads/module/mdl_pg_mulpay/class/client/SC_Mdl_PG_MULPAY_Client_Base.php(376): SC_Mdl_PG_MULPAY->printLog
/home/oukoku/public_html/shop/data/downloads/module/mdl_pg_mulpay/class/SC_Mdl_PG_MULPAY.php(268): GC_Utils::gfPrintLog
2018/11/17 15:43:22 [/shop/shopping/load_payment_module.php] ACS=0&OrderID=172-17154321&Forward=2S49631&Method=1&PayTimes=&Approve=0777262&TranID=1811171543602257217875120013&TranDate=20181117154322&CheckString=d65b9119d99d4ba345f75f98ca8ffe3a from 59.129.53.89
customer_id = 
/home/oukoku/public_html/shop/shopping/load_payment_module.php(29): LC_Page_Shopping_LoadPaymentModule_Ex->process
/home/oukoku/public_html/shop/data/class_extends/page_extends/shopping/LC_Page_Shopping_LoadPaymentModule_Ex.php(54): LC_Page_Shopping_LoadPaymentModule->process
/home/oukoku/public_html/shop/data/class/pages/shopping/LC_Page_Shopping_LoadPaymentModule.php(70): require_once
/home/oukoku/public_html/shop/data/downloads/module/mdl_pg_mulpay/payment.php(16): LC_Page_Mdl_PG_MULPAY_Helper->process
/home/oukoku/public_html/shop/data/downloads/module/mdl_pg_mulpay/class/pages/LC_Page_Mdl_PG_MULPAY_Helper.php(45): LC_Page_Mdl_PG_MULPAY_Helper->action
/home/oukoku/public_html/shop/data/downloads/module/mdl_pg_mulpay/class/pages/LC_Page_Mdl_PG_MULPAY_Helper.php(136): LC_PageHelper_Mdl_PG_MULPAY_Token->modeAction
/home/oukoku/public_html/shop/data/downloads/module/mdl_pg_mulpay/class/pages/helper/LC_PageHelper_Mdl_PG_MULPAY_Token.php(129): SC_Mdl_PG_MULPAY_Client_Token->doPaymentRequest
/home/oukoku/public_html/shop/data/downloads/module/mdl_pg_mulpay/class/client/SC_Mdl_PG_MULPAY_Client_Token.php(146): SC_Mdl_PG_MULPAY_Client_Base->sendOrderRequest
/home/oukoku/public_html/shop/data/downloads/module/mdl_pg_mulpay/class/client/SC_Mdl_PG_MULPAY_Client_Base.php(241): SC_Mdl_PG_MULPAY_Client_Base->sendRequest
/home/oukoku/public_html/shop/data/downloads/module/mdl_pg_mulpay/class/client/SC_Mdl_PG_MULPAY_Client_Base.php(418): SC_Mdl_PG_MULPAY_Client_Base->parseResponse
/home/oukoku/public_html/shop/data/downloads/module/mdl_pg_mulpay/class/client/SC_Mdl_PG_MULPAY_Client_Base.php(446): SC_Mdl_PG_MULPAY->printLog
/home/oukoku/public_html/shop/data/downloads/module/mdl_pg_mulpay/class/SC_Mdl_PG_MULPAY.php(268): GC_Utils::gfPrintLog
2018/11/17 15:43:22 [/shop/shopping/load_payment_module.php] Array
(
    [0] => Array
        (
            [ACS] => 0
            [OrderID] => 172-17154321
            [Forward] => 2S49631
            [Method] => 1
            [PayTimes] => 
            [Approve] => 0777262
            [TranID] => 1811171543602257217875120013
            [TranDate] => 20181117154322
            [CheckString] => d65b9119d99d4ba345f75f98ca8ffe3a
        )

)
 from 59.129.53.89
customer_id = 
/home/oukoku/public_html/shop/shopping/load_payment_module.php(29): LC_Page_Shopping_LoadPaymentModule_Ex->process
/home/oukoku/public_html/shop/data/class_extends/page_extends/shopping/LC_Page_Shopping_LoadPaymentModule_Ex.php(54): LC_Page_Shopping_LoadPaymentModule->process
/home/oukoku/public_html/shop/data/class/pages/shopping/LC_Page_Shopping_LoadPaymentModule.php(70): require_once
/home/oukoku/public_html/shop/data/downloads/module/mdl_pg_mulpay/payment.php(16): LC_Page_Mdl_PG_MULPAY_Helper->process
/home/oukoku/public_html/shop/data/downloads/module/mdl_pg_mulpay/class/pages/LC_Page_Mdl_PG_MULPAY_Helper.php(45): LC_Page_Mdl_PG_MULPAY_Helper->action
/home/oukoku/public_html/shop/data/downloads/module/mdl_pg_mulpay/class/pages/LC_Page_Mdl_PG_MULPAY_Helper.php(136): LC_PageHelper_Mdl_PG_MULPAY_Token->modeAction
/home/oukoku/public_html/shop/data/downloads/module/mdl_pg_mulpay/class/pages/helper/LC_PageHelper_Mdl_PG_MULPAY_Token.php(129): SC_Mdl_PG_MULPAY_Client_Token->doPaymentRequest
/home/oukoku/public_html/shop/data/downloads/module/mdl_pg_mulpay/class/client/SC_Mdl_PG_MULPAY_Client_Token.php(146): SC_Mdl_PG_MULPAY_Client_Base->sendOrderRequest
/home/oukoku/public_html/shop/data/downloads/module/mdl_pg_mulpay/class/client/SC_Mdl_PG_MULPAY_Client_Base.php(241): SC_Mdl_PG_MULPAY_Client_Base->sendRequest
/home/oukoku/public_html/shop/data/downloads/module/mdl_pg_mulpay/class/client/SC_Mdl_PG_MULPAY_Client_Base.php(419): SC_Mdl_PG_MULPAY_Client_Base->setResults
/home/oukoku/public_html/shop/data/downloads/module/mdl_pg_mulpay/class/client/SC_Mdl_PG_MULPAY_Client_Base.php(533): SC_Mdl_PG_MULPAY->printLog
/home/oukoku/public_html/shop/data/downloads/module/mdl_pg_mulpay/class/SC_Mdl_PG_MULPAY.php(268): GC_Utils::gfPrintLog
2018/11/17 15:43:22 [/shop/shopping/load_payment_module.php] load_payment_module.php set payment data:Array
(
    [ACS] => 0
    [Forward] => 2S49631
    [Method] => 1
    [PayTimes] => 
    [Approve] => 0777262
    [TranID] => 1811171543602257217875120013
    [TranDate] => 20181117154322
    [CheckString] => d65b9119d99d4ba345f75f98ca8ffe3a
    [Amount] => 12528
    [JobCd] => AUTH
    [action_status] => 3
    [pay_status] => 11
)
 from 59.129.53.89
customer_id = 
/home/oukoku/public_html/shop/shopping/load_payment_module.php(29): LC_Page_Shopping_LoadPaymentModule_Ex->process
/home/oukoku/public_html/shop/data/class_extends/page_extends/shopping/LC_Page_Shopping_LoadPaymentModule_Ex.php(54): LC_Page_Shopping_LoadPaymentModule->process
/home/oukoku/public_html/shop/data/class/pages/shopping/LC_Page_Shopping_LoadPaymentModule.php(70): require_once
/home/oukoku/public_html/shop/data/downloads/module/mdl_pg_mulpay/payment.php(16): LC_Page_Mdl_PG_MULPAY_Helper->process
/home/oukoku/public_html/shop/data/downloads/module/mdl_pg_mulpay/class/pages/LC_Page_Mdl_PG_MULPAY_Helper.php(45): LC_Page_Mdl_PG_MULPAY_Helper->action
/home/oukoku/public_html/shop/data/downloads/module/mdl_pg_mulpay/class/pages/LC_Page_Mdl_PG_MULPAY_Helper.php(136): LC_PageHelper_Mdl_PG_MULPAY_Token->modeAction
/home/oukoku/public_html/shop/data/downloads/module/mdl_pg_mulpay/class/pages/helper/LC_PageHelper_Mdl_PG_MULPAY_Token.php(129): SC_Mdl_PG_MULPAY_Client_Token->doPaymentRequest
/home/oukoku/public_html/shop/data/downloads/module/mdl_pg_mulpay/class/client/SC_Mdl_PG_MULPAY_Client_Token.php(146): SC_Mdl_PG_MULPAY_Client_Base->sendOrderRequest
/home/oukoku/public_html/shop/data/downloads/module/mdl_pg_mulpay/class/client/SC_Mdl_PG_MULPAY_Client_Base.php(275): SC_Util_PG_MULPAY->setOrderPayData
/home/oukoku/public_html/shop/data/downloads/module/mdl_pg_mulpay/class/util/SC_Util_PG_MULPAY.php(501): SC_Mdl_PG_MULPAY->printLog
/home/oukoku/public_html/shop/data/downloads/module/mdl_pg_mulpay/class/SC_Mdl_PG_MULPAY.php(268): GC_Utils::gfPrintLog
2018/11/17 15:43:22 [/shop/user_data/pg_mulpay_recv.php] ******* receiveer data start ******* from 210.175.7.20
customer_id = 
/home/oukoku/public_html/shop/user_data/pg_mulpay_recv.php(15): LC_Page_Mdl_PG_MULPAY_Recv->process
/home/oukoku/public_html/shop/data/downloads/module/mdl_pg_mulpay/class/pages/LC_Page_Mdl_PG_MULPAY_Recv.php(44): LC_Page_Mdl_PG_MULPAY_Recv->action
/home/oukoku/public_html/shop/data/downloads/module/mdl_pg_mulpay/class/pages/LC_Page_Mdl_PG_MULPAY_Recv.php(54): LC_Page_Mdl_PG_MULPAY_Recv->lfSetPostLog
/home/oukoku/public_html/shop/data/downloads/module/mdl_pg_mulpay/class/pages/LC_Page_Mdl_PG_MULPAY_Recv.php(832): SC_Mdl_PG_MULPAY->printLog
/home/oukoku/public_html/shop/data/downloads/module/mdl_pg_mulpay/class/SC_Mdl_PG_MULPAY.php(268): GC_Utils::gfPrintLog
2018/11/17 15:43:22 [/shop/user_data/pg_mulpay_recv.php] Array
(
    [ShopID] => 9102288779655
    [ShopPass] => **********
    [AccessID] => e968fec0edc4178121395aa91fe4f812
    [AccessPass] => ********************************
    [OrderID] => 172-17154321
    [Status] => AUTH
    [JobCd] => AUTH
    [Amount] => 12528
    [Tax] => 0
    [Currency] => JPN
    [Forward] => 2S49631
    [Method] => 1
    [PayTimes] => 
    [TranID] => 1811171543602257217875120013
    [Approve] => 0777262
    [TranDate] => 20181117154322
    [ErrCode] => 
    [ErrInfo] => 
    [PayType] => 0
    [CvsCode] => 
    [CvsConfNo] => 
    [CvsReceiptNo] => 
    [EdyReceiptNo] => 
    [EdyOrderNo] => 
    [SuicaReceiptNo] => 
    [SuicaOrderNo] => 
    [CustID] => 
    [BkCode] => 
    [ConfNo] => 
    [PaymentTerm] => 
    [EncryptReceiptNo] => 
    [FinishDate] => 
    [ReceiptDate] => 
    [PayeasyPaymentURL] => 
    [WebMoneyManagementNo] => 
    [WebMoneySettleCode] => 
    [AuPayInfoNo] => 
    [AuPayMethod] => 
    [AuCancelAmount] => 
    [AuCancelTax] => 
    [DocomoSettlementCode] => 
    [DocomoCancelAmount] => 
    [DocomoCancelTax] => 
    [DocomoIncreaseAmount] => 
    [DocomoIncreaseTax] => 
    [SbTrackingId] => 
    [SbCancelAmount] => 
    [SbCancelTax] => 
    [JibunReceiptNo] => 
    [AuFirstAmount] => 
    [AuFirstTax] => 
    [AuAccountMonth] => 
    [AuContinueAccountId] => 
    [JcbPrecaSalesCode] => 
    [RequestNo] => 
    [AccountNo] => 
    [CenterCode] => 
    [NetCashPayType] => 
    [OrderDate] => 
    [CompletionDate] => 
    [RakutenidCouponFee] => 
    [McpPayInDate] => 
    [McpPayInAmount] => 
    [McpPayOutDate] => 
    [McpPayOutAmount] => 
    [RED_REQ_ID] => 
    [RED_ORD_ID] => 
    [RED_STAT_CD] => 
    [RED_FRAUD_STAT_CD] => 
    [RED_FRAUD_RSP_CD] => 
    [RED_FRAUD_REC_ID] => 
    [ProductName] => 
    [CancelAmount] => 
    [CancelTax] => 
    [PayMethod] => 
    [VaRequestAmount] => 
    [VaExpireDate] => 
    [VaTradeReason] => 
    [VaTradeClientName] => 
    [VaTradeClientMailaddress] => 
    [VaBankCode] => 
    [VaBankName] => 
    [VaBranchCode] => 
    [VaBranchName] => 
    [VaAccountType] => 
    [VaAccountNumber] => 
    [VaInInquiryNumber] => 
    [VaInSettlementDate] => 
    [VaInAmount] => 
    [VaInClientCode] => 
    [VaInClientName] => 
    [VaInSummary] => 
    [VaReserveID] => 
    [VaTradeCode] => 
    [SbStartChargeMonth] => 
    [SbChargeDay] => 
    [RcCustomerId] => 
    [RcUsePoint] => 
    [RcOrderId] => 
    [RcUpdateAuthDay] => 
    [RcUseCoupon] => 
    [RcUseShopCoupon] => 
    [RcContractId] => 
    [RcStartChargeMonth] => 
    [RcChargeDay] => 
    [RecurringID] => 
    [RecurringMethod] => 
    [RecurringChargeStartDate] => 
    [RecurringChargeStopDate] => 
    [RecurringChargeMonth] => 
    [RecurringChargeDay] => 
    [RecurringNextChargeDate] => 
    [BaSiteId] => 
    [BaMemberId] => 
    [BaTargetDate] => 
    [BaRequestAcceptEndDate] => 
    [BaTransferReturnDate] => 
    [BaWithdrawalDate] => 
    [BaResultcode] => 
    [PaidCancelAmount] => 
    [PaidCancelTax] => 
    [PaidBuyerID] => 
    [PaidCode] => 
    [PrecaNo] => 
    [PrecaSeq] => 
    [PrecaExpireDate] => 
    [ChargeType] => 
    [QuickID] => 
    [CampaignUrl] => 
    [DocomoAcceptCode] => 
    [PvFrontBillKey] => 
    [PvResultCode] => 
    [PvReceiptDatetime] => 
    [PvReceiptAgencyCode] => 
    [PvBarcode] => 
    [PvCvsCode] => 
    [PvCvsBranchCode] => 
    [PvPaymentAmount] => 
    [RakutenidSubscriptionId] => 
    [RakutenidSettlementSubscriptionId] => 
    [AuAcceptCode] => 
    [SbAcceptCode] => 
    [PaysleResultCode] => 
    [BankCode] => 
    [BankTranDate] => 
    [GanbProcessType] => 
    [GanbRequestAmount] => 
    [GanbExpireDate] => 
    [GanbTradeReason] => 
    [GanbTradeClientName] => 
    [GanbTradeClientMailaddress] => 
    [GanbBankCode] => 
    [GanbBankName] => 
    [GanbBranchCode] => 
    [GanbBranchName] => 
    [GanbAccountType] => 
    [GanbAccountNumber] => 
    [GanbAccountHolderName] => 
    [GanbInSettlementDate] => 
    [GanbInAmount] => 
    [GanbInClientName] => 
    [GanbInRemittingBankName] => 
    [GanbInRemittingBranchName] => 
    [GanbTotalTransferAmount] => 
    [GanbTotalTransferCount] => 
)
 from 210.175.7.20
customer_id = 
/home/oukoku/public_html/shop/user_data/pg_mulpay_recv.php(15): LC_Page_Mdl_PG_MULPAY_Recv->process
/home/oukoku/public_html/shop/data/downloads/module/mdl_pg_mulpay/class/pages/LC_Page_Mdl_PG_MULPAY_Recv.php(44): LC_Page_Mdl_PG_MULPAY_Recv->action
/home/oukoku/public_html/shop/data/downloads/module/mdl_pg_mulpay/class/pages/LC_Page_Mdl_PG_MULPAY_Recv.php(54): LC_Page_Mdl_PG_MULPAY_Recv->lfSetPostLog
/home/oukoku/public_html/shop/data/downloads/module/mdl_pg_mulpay/class/pages/LC_Page_Mdl_PG_MULPAY_Recv.php(836): SC_Mdl_PG_MULPAY->printLog
/home/oukoku/public_html/shop/data/downloads/module/mdl_pg_mulpay/class/SC_Mdl_PG_MULPAY.php(268): GC_Utils::gfPrintLog
2018/11/17 15:43:22 [/shop/user_data/pg_mulpay_recv.php] ******* receiveer data end ******* from 210.175.7.20
customer_id = 
/home/oukoku/public_html/shop/user_data/pg_mulpay_recv.php(15): LC_Page_Mdl_PG_MULPAY_Recv->process
/home/oukoku/public_html/shop/data/downloads/module/mdl_pg_mulpay/class/pages/LC_Page_Mdl_PG_MULPAY_Recv.php(44): LC_Page_Mdl_PG_MULPAY_Recv->action
/home/oukoku/public_html/shop/data/downloads/module/mdl_pg_mulpay/class/pages/LC_Page_Mdl_PG_MULPAY_Recv.php(54): LC_Page_Mdl_PG_MULPAY_Recv->lfSetPostLog
/home/oukoku/public_html/shop/data/downloads/module/mdl_pg_mulpay/class/pages/LC_Page_Mdl_PG_MULPAY_Recv.php(837): SC_Mdl_PG_MULPAY->printLog
/home/oukoku/public_html/shop/data/downloads/module/mdl_pg_mulpay/class/SC_Mdl_PG_MULPAY.php(268): GC_Utils::gfPrintLog
2018/11/17 15:43:27 [/shop/user_data/pg_mulpay_recv.php] update order status:1 order_id=172 from 210.175.7.20
customer_id = 
/home/oukoku/public_html/shop/user_data/pg_mulpay_recv.php(15): LC_Page_Mdl_PG_MULPAY_Recv->process
/home/oukoku/public_html/shop/data/downloads/module/mdl_pg_mulpay/class/pages/LC_Page_Mdl_PG_MULPAY_Recv.php(44): LC_Page_Mdl_PG_MULPAY_Recv->action
/home/oukoku/public_html/shop/data/downloads/module/mdl_pg_mulpay/class/pages/LC_Page_Mdl_PG_MULPAY_Recv.php(91): LC_Page_Mdl_PG_MULPAY_Recv->lfDoReceive
/home/oukoku/public_html/shop/data/downloads/module/mdl_pg_mulpay/class/pages/LC_Page_Mdl_PG_MULPAY_Recv.php(219): LC_Page_Mdl_PG_MULPAY_Recv->lfDoRecvCredit
/home/oukoku/public_html/shop/data/downloads/module/mdl_pg_mulpay/class/pages/LC_Page_Mdl_PG_MULPAY_Recv.php(717): SC_Mdl_PG_MULPAY->printLog
/home/oukoku/public_html/shop/data/downloads/module/mdl_pg_mulpay/class/SC_Mdl_PG_MULPAY.php(268): GC_Utils::gfPrintLog
2018/11/17 15:43:27 [/shop/user_data/pg_mulpay_recv.php] pg_mulpay_recv.php set payment data:Array
(
    [ShopID] => 9102288779655
    [AccessID] => e968fec0edc4178121395aa91fe4f812
    [OrderID] => 172-17154321
    [Status] => AUTH
    [JobCd] => AUTH
    [Amount] => 12528
    [Tax] => 0
    [Currency] => JPN
    [Forward] => 2S49631
    [Method] => 1
    [PayTimes] => 
    [TranID] => 1811171543602257217875120013
    [Approve] => 0777262
    [TranDate] => 20181117154322
    [ErrCode] => 
    [ErrInfo] => 
    [PayType] => 0
    [CvsCode] => 
    [CvsConfNo] => 
    [CvsReceiptNo] => 
    [EdyReceiptNo] => 
    [EdyOrderNo] => 
    [SuicaReceiptNo] => 
    [SuicaOrderNo] => 
    [CustID] => 
    [BkCode] => 
    [ConfNo] => 
    [PaymentTerm] => 
    [EncryptReceiptNo] => 
    [FinishDate] => 
    [ReceiptDate] => 
    [WebMoneyManagementNo] => 
    [WebMoneySettleCode] => 
    [AuPayInfoNo] => 
    [AuPayMethod] => 
    [AuCancelAmount] => 
    [AuCancelTax] => 
    [DocomoSettlementCode] => 
    [DocomoCancelAmount] => 
    [DocomoCancelTax] => 
    [pay_status] => 11
)
 from 210.175.7.20
customer_id = 
/home/oukoku/public_html/shop/user_data/pg_mulpay_recv.php(15): LC_Page_Mdl_PG_MULPAY_Recv->process
/home/oukoku/public_html/shop/data/downloads/module/mdl_pg_mulpay/class/pages/LC_Page_Mdl_PG_MULPAY_Recv.php(44): LC_Page_Mdl_PG_MULPAY_Recv->action
/home/oukoku/public_html/shop/data/downloads/module/mdl_pg_mulpay/class/pages/LC_Page_Mdl_PG_MULPAY_Recv.php(91): LC_Page_Mdl_PG_MULPAY_Recv->lfDoReceive
/home/oukoku/public_html/shop/data/downloads/module/mdl_pg_mulpay/class/pages/LC_Page_Mdl_PG_MULPAY_Recv.php(226): SC_Util_PG_MULPAY->setOrderPayData
/home/oukoku/public_html/shop/data/downloads/module/mdl_pg_mulpay/class/util/SC_Util_PG_MULPAY.php(501): SC_Mdl_PG_MULPAY->printLog
/home/oukoku/public_html/shop/data/downloads/module/mdl_pg_mulpay/class/SC_Mdl_PG_MULPAY.php(268): GC_Utils::gfPrintLog
2018/11/17 15:43:27 [/shop/user_data/pg_mulpay_recv.php] response:true from 210.175.7.20
customer_id = 
/home/oukoku/public_html/shop/user_data/pg_mulpay_recv.php(15): LC_Page_Mdl_PG_MULPAY_Recv->process
/home/oukoku/public_html/shop/data/downloads/module/mdl_pg_mulpay/class/pages/LC_Page_Mdl_PG_MULPAY_Recv.php(44): LC_Page_Mdl_PG_MULPAY_Recv->action
/home/oukoku/public_html/shop/data/downloads/module/mdl_pg_mulpay/class/pages/LC_Page_Mdl_PG_MULPAY_Recv.php(93): LC_Page_Mdl_PG_MULPAY_Recv->lfSendResponse
/home/oukoku/public_html/shop/data/downloads/module/mdl_pg_mulpay/class/pages/LC_Page_Mdl_PG_MULPAY_Recv.php(849): SC_Mdl_PG_MULPAY->printLog
/home/oukoku/public_html/shop/data/downloads/module/mdl_pg_mulpay/class/SC_Mdl_PG_MULPAY.php(268): GC_Utils::gfPrintLog
