2019/06/03 08:37:11 [/shop/user_data/pg_mulpay_recv.php] ******* receiveer data start ******* from 210.175.7.20
customer_id = 
/home/oukoku/public_html/shop/user_data/pg_mulpay_recv.php(15): LC_Page_Mdl_PG_MULPAY_Recv->process
/home/oukoku/public_html/shop/data/downloads/module/mdl_pg_mulpay/class/pages/LC_Page_Mdl_PG_MULPAY_Recv.php(44): LC_Page_Mdl_PG_MULPAY_Recv->action
/home/oukoku/public_html/shop/data/downloads/module/mdl_pg_mulpay/class/pages/LC_Page_Mdl_PG_MULPAY_Recv.php(54): LC_Page_Mdl_PG_MULPAY_Recv->lfSetPostLog
/home/oukoku/public_html/shop/data/downloads/module/mdl_pg_mulpay/class/pages/LC_Page_Mdl_PG_MULPAY_Recv.php(832): SC_Mdl_PG_MULPAY->printLog
/home/oukoku/public_html/shop/data/downloads/module/mdl_pg_mulpay/class/SC_Mdl_PG_MULPAY.php(268): GC_Utils::gfPrintLog
2019/06/03 08:37:11 [/shop/user_data/pg_mulpay_recv.php] Array
(
    [ShopID] => 9102288779655
    [ShopPass] => **********
    [AccessID] => 3f5cd511a6fbfad451a1b532cdc2fa94
    [AccessPass] => ********************************
    [OrderID] => 358-01201442
    [Status] => PAYSUCCESS
    [JobCd] => 
    [Amount] => 11270
    [Tax] => 0
    [Currency] => JPN
    [Forward] => 
    [Method] => 
    [PayTimes] => 
    [TranID] => 19060100000177409655
    [Approve] => 
    [TranDate] => 20190603083711
    [ErrCode] => 
    [ErrInfo] => 
    [PayType] => 3
    [CvsCode] => 10002
    [CvsConfNo] => 20020
    [CvsReceiptNo] => 810038550865
    [EdyReceiptNo] => 
    [EdyOrderNo] => 
    [SuicaReceiptNo] => 
    [SuicaOrderNo] => 
    [CustID] => 
    [BkCode] => 
    [ConfNo] => 
    [PaymentTerm] => 20190611235959
    [EncryptReceiptNo] => 
    [FinishDate] => 20190603083100
    [ReceiptDate] => 20190601201443
    [PayeasyPaymentURL] => 
    [WebMoneyManagementNo] => 
    [WebMoneySettleCode] => 
    [AuPayInfoNo] => 
    [AuPayMethod] => 
    [AuCancelAmount] => 
    [AuCancelTax] => 
    [DocomoSettlementCode] => 
    [DocomoCancelAmount] => 
    [DocomoCancelTax] => 
    [DocomoIncreaseAmount] => 
    [DocomoIncreaseTax] => 
    [SbTrackingId] => 
    [SbCancelAmount] => 
    [SbCancelTax] => 
    [JibunReceiptNo] => 
    [AuFirstAmount] => 
    [AuFirstTax] => 
    [AuAccountMonth] => 
    [AuContinueAccountId] => 
    [JcbPrecaSalesCode] => 
    [RequestNo] => 
    [AccountNo] => 
    [CenterCode] => 
    [NetCashPayType] => 
    [OrderDate] => 
    [CompletionDate] => 
    [RakutenidCouponFee] => 
    [McpPayInDate] => 
    [McpPayInAmount] => 
    [McpPayOutDate] => 
    [McpPayOutAmount] => 
    [RED_REQ_ID] => 
    [RED_ORD_ID] => 
    [RED_STAT_CD] => 
    [RED_FRAUD_STAT_CD] => 
    [RED_FRAUD_RSP_CD] => 
    [RED_FRAUD_REC_ID] => 
    [ProductName] => 
    [CancelAmount] => 
    [CancelTax] => 
    [PayMethod] => 
    [VaRequestAmount] => 
    [VaExpireDate] => 
    [VaTradeReason] => 
    [VaTradeClientName] => 
    [VaTradeClientMailaddress] => 
    [VaBankCode] => 
    [VaBankName] => 
    [VaBranchCode] => 
    [VaBranchName] => 
    [VaAccountType] => 
    [VaAccountNumber] => 
    [VaInInquiryNumber] => 
    [VaInSettlementDate] => 
    [VaInAmount] => 
    [VaInClientCode] => 
    [VaInClientName] => 
    [VaInSummary] => 
    [VaReserveID] => 
    [VaTradeCode] => 
    [SbStartChargeMonth] => 
    [SbChargeDay] => 
    [RcCustomerId] => 
    [RcUsePoint] => 
    [RcOrderId] => 
    [RcUpdateAuthDay] => 
    [RcUseCoupon] => 
    [RcUseShopCoupon] => 
    [RcContractId] => 
    [RcStartChargeMonth] => 
    [RcChargeDay] => 
    [RecurringID] => 
    [RecurringMethod] => 
    [RecurringChargeStartDate] => 
    [RecurringChargeStopDate] => 
    [RecurringChargeMonth] => 
    [RecurringChargeDay] => 
    [RecurringNextChargeDate] => 
    [BaSiteId] => 
    [BaMemberId] => 
    [BaTargetDate] => 
    [BaRequestAcceptEndDate] => 
    [BaTransferReturnDate] => 
    [BaWithdrawalDate] => 
    [BaResultcode] => 
    [PaidCancelAmount] => 
    [PaidCancelTax] => 
    [PaidBuyerID] => 
    [PaidCode] => 
    [PrecaNo] => 
    [PrecaSeq] => 
    [PrecaExpireDate] => 
    [ChargeType] => 
    [QuickID] => 
    [CampaignUrl] => 
    [DocomoAcceptCode] => 
    [PvFrontBillKey] => 
    [PvResultCode] => 
    [PvReceiptDatetime] => 
    [PvReceiptAgencyCode] => 
    [PvBarcode] => 
    [PvCvsCode] => 
    [PvCvsBranchCode] => 
    [PvPaymentAmount] => 
)
 from 210.175.7.20
customer_id = 
/home/oukoku/public_html/shop/user_data/pg_mulpay_recv.php(15): LC_Page_Mdl_PG_MULPAY_Recv->process
/home/oukoku/public_html/shop/data/downloads/module/mdl_pg_mulpay/class/pages/LC_Page_Mdl_PG_MULPAY_Recv.php(44): LC_Page_Mdl_PG_MULPAY_Recv->action
/home/oukoku/public_html/shop/data/downloads/module/mdl_pg_mulpay/class/pages/LC_Page_Mdl_PG_MULPAY_Recv.php(54): LC_Page_Mdl_PG_MULPAY_Recv->lfSetPostLog
/home/oukoku/public_html/shop/data/downloads/module/mdl_pg_mulpay/class/pages/LC_Page_Mdl_PG_MULPAY_Recv.php(836): SC_Mdl_PG_MULPAY->printLog
/home/oukoku/public_html/shop/data/downloads/module/mdl_pg_mulpay/class/SC_Mdl_PG_MULPAY.php(268): GC_Utils::gfPrintLog
2019/06/03 08:37:11 [/shop/user_data/pg_mulpay_recv.php] ******* receiveer data end ******* from 210.175.7.20
customer_id = 
/home/oukoku/public_html/shop/user_data/pg_mulpay_recv.php(15): LC_Page_Mdl_PG_MULPAY_Recv->process
/home/oukoku/public_html/shop/data/downloads/module/mdl_pg_mulpay/class/pages/LC_Page_Mdl_PG_MULPAY_Recv.php(44): LC_Page_Mdl_PG_MULPAY_Recv->action
/home/oukoku/public_html/shop/data/downloads/module/mdl_pg_mulpay/class/pages/LC_Page_Mdl_PG_MULPAY_Recv.php(54): LC_Page_Mdl_PG_MULPAY_Recv->lfSetPostLog
/home/oukoku/public_html/shop/data/downloads/module/mdl_pg_mulpay/class/pages/LC_Page_Mdl_PG_MULPAY_Recv.php(837): SC_Mdl_PG_MULPAY->printLog
/home/oukoku/public_html/shop/data/downloads/module/mdl_pg_mulpay/class/SC_Mdl_PG_MULPAY.php(268): GC_Utils::gfPrintLog
2019/06/03 08:37:11 [/shop/user_data/pg_mulpay_recv.php] update order status:6 from 210.175.7.20
customer_id = 
/home/oukoku/public_html/shop/user_data/pg_mulpay_recv.php(15): LC_Page_Mdl_PG_MULPAY_Recv->process
/home/oukoku/public_html/shop/data/downloads/module/mdl_pg_mulpay/class/pages/LC_Page_Mdl_PG_MULPAY_Recv.php(44): LC_Page_Mdl_PG_MULPAY_Recv->action
/home/oukoku/public_html/shop/data/downloads/module/mdl_pg_mulpay/class/pages/LC_Page_Mdl_PG_MULPAY_Recv.php(91): LC_Page_Mdl_PG_MULPAY_Recv->lfDoReceive
/home/oukoku/public_html/shop/data/downloads/module/mdl_pg_mulpay/class/pages/LC_Page_Mdl_PG_MULPAY_Recv.php(132): LC_Page_Mdl_PG_MULPAY_Recv->lfDoRecvCvs
/home/oukoku/public_html/shop/data/downloads/module/mdl_pg_mulpay/class/pages/LC_Page_Mdl_PG_MULPAY_Recv.php(285): LC_Page_Mdl_PG_MULPAY_Recv->lfDoRecvDefault
/home/oukoku/public_html/shop/data/downloads/module/mdl_pg_mulpay/class/pages/LC_Page_Mdl_PG_MULPAY_Recv.php(263): SC_Mdl_PG_MULPAY->printLog
/home/oukoku/public_html/shop/data/downloads/module/mdl_pg_mulpay/class/SC_Mdl_PG_MULPAY.php(268): GC_Utils::gfPrintLog
2019/06/03 08:37:11 [/shop/user_data/pg_mulpay_recv.php] pg_mulpay_recv.php set payment data:Array
(
    [ShopID] => 9102288779655
    [AccessID] => 3f5cd511a6fbfad451a1b532cdc2fa94
    [OrderID] => 358-01201442
    [Status] => PAYSUCCESS
    [JobCd] => 
    [Amount] => 11270
    [Tax] => 0
    [Currency] => JPN
    [Forward] => 
    [Method] => 
    [PayTimes] => 
    [TranID] => 19060100000177409655
    [Approve] => 
    [TranDate] => 20190603083711
    [ErrCode] => 
    [ErrInfo] => 
    [PayType] => 3
    [CvsCode] => 10002
    [CvsConfNo] => 20020
    [CvsReceiptNo] => 810038550865
    [EdyReceiptNo] => 
    [EdyOrderNo] => 
    [SuicaReceiptNo] => 
    [SuicaOrderNo] => 
    [CustID] => 
    [BkCode] => 
    [PaymentTerm] => 20190611235959
    [EncryptReceiptNo] => 
    [FinishDate] => 20190603083100
    [ReceiptDate] => 20190601201443
    [WebMoneyManagementNo] => 
    [WebMoneySettleCode] => 
    [AuPayInfoNo] => 
    [AuPayMethod] => 
    [AuCancelAmount] => 
    [AuCancelTax] => 
    [DocomoSettlementCode] => 
    [DocomoCancelAmount] => 
    [DocomoCancelTax] => 
    [pay_status] => 2
)
 from 210.175.7.20
customer_id = 
/home/oukoku/public_html/shop/user_data/pg_mulpay_recv.php(15): LC_Page_Mdl_PG_MULPAY_Recv->process
/home/oukoku/public_html/shop/data/downloads/module/mdl_pg_mulpay/class/pages/LC_Page_Mdl_PG_MULPAY_Recv.php(44): LC_Page_Mdl_PG_MULPAY_Recv->action
/home/oukoku/public_html/shop/data/downloads/module/mdl_pg_mulpay/class/pages/LC_Page_Mdl_PG_MULPAY_Recv.php(91): LC_Page_Mdl_PG_MULPAY_Recv->lfDoReceive
/home/oukoku/public_html/shop/data/downloads/module/mdl_pg_mulpay/class/pages/LC_Page_Mdl_PG_MULPAY_Recv.php(226): SC_Util_PG_MULPAY->setOrderPayData
/home/oukoku/public_html/shop/data/downloads/module/mdl_pg_mulpay/class/util/SC_Util_PG_MULPAY.php(501): SC_Mdl_PG_MULPAY->printLog
/home/oukoku/public_html/shop/data/downloads/module/mdl_pg_mulpay/class/SC_Mdl_PG_MULPAY.php(268): GC_Utils::gfPrintLog
2019/06/03 08:37:11 [/shop/user_data/pg_mulpay_recv.php] response:true from 210.175.7.20
customer_id = 
/home/oukoku/public_html/shop/user_data/pg_mulpay_recv.php(15): LC_Page_Mdl_PG_MULPAY_Recv->process
/home/oukoku/public_html/shop/data/downloads/module/mdl_pg_mulpay/class/pages/LC_Page_Mdl_PG_MULPAY_Recv.php(44): LC_Page_Mdl_PG_MULPAY_Recv->action
/home/oukoku/public_html/shop/data/downloads/module/mdl_pg_mulpay/class/pages/LC_Page_Mdl_PG_MULPAY_Recv.php(93): LC_Page_Mdl_PG_MULPAY_Recv->lfSendResponse
/home/oukoku/public_html/shop/data/downloads/module/mdl_pg_mulpay/class/pages/LC_Page_Mdl_PG_MULPAY_Recv.php(849): SC_Mdl_PG_MULPAY->printLog
/home/oukoku/public_html/shop/data/downloads/module/mdl_pg_mulpay/class/SC_Mdl_PG_MULPAY.php(268): GC_Utils::gfPrintLog
2019/06/03 21:54:26 [/shop/shopping/load_payment_module.php] SendRequest:https://p01.mul-pay.jp/payment/SearchMember.idPass from 14.10.65.160
customer_id = 257
/home/oukoku/public_html/shop/shopping/load_payment_module.php(29): LC_Page_Shopping_LoadPaymentModule_Ex->process
/home/oukoku/public_html/shop/data/class_extends/page_extends/shopping/LC_Page_Shopping_LoadPaymentModule_Ex.php(54): LC_Page_Shopping_LoadPaymentModule->process
/home/oukoku/public_html/shop/data/class/pages/shopping/LC_Page_Shopping_LoadPaymentModule.php(70): require_once
/home/oukoku/public_html/shop/data/downloads/module/mdl_pg_mulpay/payment.php(16): LC_Page_Mdl_PG_MULPAY_Helper->process
/home/oukoku/public_html/shop/data/downloads/module/mdl_pg_mulpay/class/pages/LC_Page_Mdl_PG_MULPAY_Helper.php(45): LC_Page_Mdl_PG_MULPAY_Helper->action
/home/oukoku/public_html/shop/data/downloads/module/mdl_pg_mulpay/class/pages/LC_Page_Mdl_PG_MULPAY_Helper.php(136): LC_PageHelper_Mdl_PG_MULPAY_Token->modeAction
/home/oukoku/public_html/shop/data/downloads/module/mdl_pg_mulpay/class/pages/helper/LC_PageHelper_Mdl_PG_MULPAY_Token.php(109): SC_Mdl_PG_MULPAY_Client_Member->searchCard
/home/oukoku/public_html/shop/data/downloads/module/mdl_pg_mulpay/class/client/SC_Mdl_PG_MULPAY_Client_Member.php(63): SC_Mdl_PG_MULPAY_Client_Member->checkMember
/home/oukoku/public_html/shop/data/downloads/module/mdl_pg_mulpay/class/client/SC_Mdl_PG_MULPAY_Client_Member.php(24): SC_Mdl_PG_MULPAY_Client_Member->getMember
/home/oukoku/public_html/shop/data/downloads/module/mdl_pg_mulpay/class/client/SC_Mdl_PG_MULPAY_Client_Member.php(280): SC_Mdl_PG_MULPAY_Client_Base->sendRequest
/home/oukoku/public_html/shop/data/downloads/module/mdl_pg_mulpay/class/client/SC_Mdl_PG_MULPAY_Client_Base.php(375): SC_Mdl_PG_MULPAY->printLog
/home/oukoku/public_html/shop/data/downloads/module/mdl_pg_mulpay/class/SC_Mdl_PG_MULPAY.php(268): GC_Utils::gfPrintLog
2019/06/03 21:54:26 [/shop/shopping/load_payment_module.php] Array
(
    [SiteID] => mst2000016748
    [SitePass] => ******
    [MemberID] => 257
)
 from 14.10.65.160
customer_id = 257
/home/oukoku/public_html/shop/shopping/load_payment_module.php(29): LC_Page_Shopping_LoadPaymentModule_Ex->process
/home/oukoku/public_html/shop/data/class_extends/page_extends/shopping/LC_Page_Shopping_LoadPaymentModule_Ex.php(54): LC_Page_Shopping_LoadPaymentModule->process
/home/oukoku/public_html/shop/data/class/pages/shopping/LC_Page_Shopping_LoadPaymentModule.php(70): require_once
/home/oukoku/public_html/shop/data/downloads/module/mdl_pg_mulpay/payment.php(16): LC_Page_Mdl_PG_MULPAY_Helper->process
/home/oukoku/public_html/shop/data/downloads/module/mdl_pg_mulpay/class/pages/LC_Page_Mdl_PG_MULPAY_Helper.php(45): LC_Page_Mdl_PG_MULPAY_Helper->action
/home/oukoku/public_html/shop/data/downloads/module/mdl_pg_mulpay/class/pages/LC_Page_Mdl_PG_MULPAY_Helper.php(136): LC_PageHelper_Mdl_PG_MULPAY_Token->modeAction
/home/oukoku/public_html/shop/data/downloads/module/mdl_pg_mulpay/class/pages/helper/LC_PageHelper_Mdl_PG_MULPAY_Token.php(109): SC_Mdl_PG_MULPAY_Client_Member->searchCard
/home/oukoku/public_html/shop/data/downloads/module/mdl_pg_mulpay/class/client/SC_Mdl_PG_MULPAY_Client_Member.php(63): SC_Mdl_PG_MULPAY_Client_Member->checkMember
/home/oukoku/public_html/shop/data/downloads/module/mdl_pg_mulpay/class/client/SC_Mdl_PG_MULPAY_Client_Member.php(24): SC_Mdl_PG_MULPAY_Client_Member->getMember
/home/oukoku/public_html/shop/data/downloads/module/mdl_pg_mulpay/class/client/SC_Mdl_PG_MULPAY_Client_Member.php(280): SC_Mdl_PG_MULPAY_Client_Base->sendRequest
/home/oukoku/public_html/shop/data/downloads/module/mdl_pg_mulpay/class/client/SC_Mdl_PG_MULPAY_Client_Base.php(376): SC_Mdl_PG_MULPAY->printLog
/home/oukoku/public_html/shop/data/downloads/module/mdl_pg_mulpay/class/SC_Mdl_PG_MULPAY.php(268): GC_Utils::gfPrintLog
2019/06/03 21:54:27 [/shop/shopping/load_payment_module.php] ErrCode=E01&ErrInfo=E01390002 from 14.10.65.160
customer_id = 257
/home/oukoku/public_html/shop/shopping/load_payment_module.php(29): LC_Page_Shopping_LoadPaymentModule_Ex->process
/home/oukoku/public_html/shop/data/class_extends/page_extends/shopping/LC_Page_Shopping_LoadPaymentModule_Ex.php(54): LC_Page_Shopping_LoadPaymentModule->process
/home/oukoku/public_html/shop/data/class/pages/shopping/LC_Page_Shopping_LoadPaymentModule.php(70): require_once
/home/oukoku/public_html/shop/data/downloads/module/mdl_pg_mulpay/payment.php(16): LC_Page_Mdl_PG_MULPAY_Helper->process
/home/oukoku/public_html/shop/data/downloads/module/mdl_pg_mulpay/class/pages/LC_Page_Mdl_PG_MULPAY_Helper.php(45): LC_Page_Mdl_PG_MULPAY_Helper->action
/home/oukoku/public_html/shop/data/downloads/module/mdl_pg_mulpay/class/pages/LC_Page_Mdl_PG_MULPAY_Helper.php(136): LC_PageHelper_Mdl_PG_MULPAY_Token->modeAction
/home/oukoku/public_html/shop/data/downloads/module/mdl_pg_mulpay/class/pages/helper/LC_PageHelper_Mdl_PG_MULPAY_Token.php(109): SC_Mdl_PG_MULPAY_Client_Member->searchCard
/home/oukoku/public_html/shop/data/downloads/module/mdl_pg_mulpay/class/client/SC_Mdl_PG_MULPAY_Client_Member.php(63): SC_Mdl_PG_MULPAY_Client_Member->checkMember
/home/oukoku/public_html/shop/data/downloads/module/mdl_pg_mulpay/class/client/SC_Mdl_PG_MULPAY_Client_Member.php(24): SC_Mdl_PG_MULPAY_Client_Member->getMember
/home/oukoku/public_html/shop/data/downloads/module/mdl_pg_mulpay/class/client/SC_Mdl_PG_MULPAY_Client_Member.php(280): SC_Mdl_PG_MULPAY_Client_Base->sendRequest
/home/oukoku/public_html/shop/data/downloads/module/mdl_pg_mulpay/class/client/SC_Mdl_PG_MULPAY_Client_Base.php(418): SC_Mdl_PG_MULPAY_Client_Base->parseResponse
/home/oukoku/public_html/shop/data/downloads/module/mdl_pg_mulpay/class/client/SC_Mdl_PG_MULPAY_Client_Base.php(446): SC_Mdl_PG_MULPAY->printLog
/home/oukoku/public_html/shop/data/downloads/module/mdl_pg_mulpay/class/SC_Mdl_PG_MULPAY.php(268): GC_Utils::gfPrintLog
2019/06/03 21:54:27 [/shop/shopping/load_payment_module.php] Array
(
    [0] => Array
        (
            [ErrCode] => E01
            [ErrInfo] => E01390002
        )

)
 from 14.10.65.160
customer_id = 257
/home/oukoku/public_html/shop/shopping/load_payment_module.php(29): LC_Page_Shopping_LoadPaymentModule_Ex->process
/home/oukoku/public_html/shop/data/class_extends/page_extends/shopping/LC_Page_Shopping_LoadPaymentModule_Ex.php(54): LC_Page_Shopping_LoadPaymentModule->process
/home/oukoku/public_html/shop/data/class/pages/shopping/LC_Page_Shopping_LoadPaymentModule.php(70): require_once
/home/oukoku/public_html/shop/data/downloads/module/mdl_pg_mulpay/payment.php(16): LC_Page_Mdl_PG_MULPAY_Helper->process
/home/oukoku/public_html/shop/data/downloads/module/mdl_pg_mulpay/class/pages/LC_Page_Mdl_PG_MULPAY_Helper.php(45): LC_Page_Mdl_PG_MULPAY_Helper->action
/home/oukoku/public_html/shop/data/downloads/module/mdl_pg_mulpay/class/pages/LC_Page_Mdl_PG_MULPAY_Helper.php(136): LC_PageHelper_Mdl_PG_MULPAY_Token->modeAction
/home/oukoku/public_html/shop/data/downloads/module/mdl_pg_mulpay/class/pages/helper/LC_PageHelper_Mdl_PG_MULPAY_Token.php(109): SC_Mdl_PG_MULPAY_Client_Member->searchCard
/home/oukoku/public_html/shop/data/downloads/module/mdl_pg_mulpay/class/client/SC_Mdl_PG_MULPAY_Client_Member.php(63): SC_Mdl_PG_MULPAY_Client_Member->checkMember
/home/oukoku/public_html/shop/data/downloads/module/mdl_pg_mulpay/class/client/SC_Mdl_PG_MULPAY_Client_Member.php(24): SC_Mdl_PG_MULPAY_Client_Member->getMember
/home/oukoku/public_html/shop/data/downloads/module/mdl_pg_mulpay/class/client/SC_Mdl_PG_MULPAY_Client_Member.php(280): SC_Mdl_PG_MULPAY_Client_Base->sendRequest
/home/oukoku/public_html/shop/data/downloads/module/mdl_pg_mulpay/class/client/SC_Mdl_PG_MULPAY_Client_Base.php(419): SC_Mdl_PG_MULPAY_Client_Base->setResults
/home/oukoku/public_html/shop/data/downloads/module/mdl_pg_mulpay/class/client/SC_Mdl_PG_MULPAY_Client_Base.php(533): SC_Mdl_PG_MULPAY->printLog
/home/oukoku/public_html/shop/data/downloads/module/mdl_pg_mulpay/class/SC_Mdl_PG_MULPAY.php(268): GC_Utils::gfPrintLog
2019/06/03 21:54:27 [/shop/shopping/load_payment_module.php] SendRequest:https://p01.mul-pay.jp/payment/SearchCard.idPass from 14.10.65.160
customer_id = 257
/home/oukoku/public_html/shop/shopping/load_payment_module.php(29): LC_Page_Shopping_LoadPaymentModule_Ex->process
/home/oukoku/public_html/shop/data/class_extends/page_extends/shopping/LC_Page_Shopping_LoadPaymentModule_Ex.php(54): LC_Page_Shopping_LoadPaymentModule->process
/home/oukoku/public_html/shop/data/class/pages/shopping/LC_Page_Shopping_LoadPaymentModule.php(70): require_once
/home/oukoku/public_html/shop/data/downloads/module/mdl_pg_mulpay/payment.php(16): LC_Page_Mdl_PG_MULPAY_Helper->process
/home/oukoku/public_html/shop/data/downloads/module/mdl_pg_mulpay/class/pages/LC_Page_Mdl_PG_MULPAY_Helper.php(45): LC_Page_Mdl_PG_MULPAY_Helper->action
/home/oukoku/public_html/shop/data/downloads/module/mdl_pg_mulpay/class/pages/LC_Page_Mdl_PG_MULPAY_Helper.php(136): LC_PageHelper_Mdl_PG_MULPAY_Token->modeAction
/home/oukoku/public_html/shop/data/downloads/module/mdl_pg_mulpay/class/pages/helper/LC_PageHelper_Mdl_PG_MULPAY_Token.php(109): SC_Mdl_PG_MULPAY_Client_Member->searchCard
/home/oukoku/public_html/shop/data/downloads/module/mdl_pg_mulpay/class/client/SC_Mdl_PG_MULPAY_Client_Member.php(79): SC_Mdl_PG_MULPAY_Client_Base->sendRequest
/home/oukoku/public_html/shop/data/downloads/module/mdl_pg_mulpay/class/client/SC_Mdl_PG_MULPAY_Client_Base.php(375): SC_Mdl_PG_MULPAY->printLog
/home/oukoku/public_html/shop/data/downloads/module/mdl_pg_mulpay/class/SC_Mdl_PG_MULPAY.php(268): GC_Utils::gfPrintLog
2019/06/03 21:54:27 [/shop/shopping/load_payment_module.php] Array
(
    [SiteID] => mst2000016748
    [SitePass] => ******
    [MemberID] => 257
)
 from 14.10.65.160
customer_id = 257
/home/oukoku/public_html/shop/shopping/load_payment_module.php(29): LC_Page_Shopping_LoadPaymentModule_Ex->process
/home/oukoku/public_html/shop/data/class_extends/page_extends/shopping/LC_Page_Shopping_LoadPaymentModule_Ex.php(54): LC_Page_Shopping_LoadPaymentModule->process
/home/oukoku/public_html/shop/data/class/pages/shopping/LC_Page_Shopping_LoadPaymentModule.php(70): require_once
/home/oukoku/public_html/shop/data/downloads/module/mdl_pg_mulpay/payment.php(16): LC_Page_Mdl_PG_MULPAY_Helper->process
/home/oukoku/public_html/shop/data/downloads/module/mdl_pg_mulpay/class/pages/LC_Page_Mdl_PG_MULPAY_Helper.php(45): LC_Page_Mdl_PG_MULPAY_Helper->action
/home/oukoku/public_html/shop/data/downloads/module/mdl_pg_mulpay/class/pages/LC_Page_Mdl_PG_MULPAY_Helper.php(136): LC_PageHelper_Mdl_PG_MULPAY_Token->modeAction
/home/oukoku/public_html/shop/data/downloads/module/mdl_pg_mulpay/class/pages/helper/LC_PageHelper_Mdl_PG_MULPAY_Token.php(109): SC_Mdl_PG_MULPAY_Client_Member->searchCard
/home/oukoku/public_html/shop/data/downloads/module/mdl_pg_mulpay/class/client/SC_Mdl_PG_MULPAY_Client_Member.php(79): SC_Mdl_PG_MULPAY_Client_Base->sendRequest
/home/oukoku/public_html/shop/data/downloads/module/mdl_pg_mulpay/class/client/SC_Mdl_PG_MULPAY_Client_Base.php(376): SC_Mdl_PG_MULPAY->printLog
/home/oukoku/public_html/shop/data/downloads/module/mdl_pg_mulpay/class/SC_Mdl_PG_MULPAY.php(268): GC_Utils::gfPrintLog
2019/06/03 21:54:27 [/shop/shopping/load_payment_module.php] ErrCode=E01|E01&ErrInfo=E01390002|E01240002 from 14.10.65.160
customer_id = 257
/home/oukoku/public_html/shop/shopping/load_payment_module.php(29): LC_Page_Shopping_LoadPaymentModule_Ex->process
/home/oukoku/public_html/shop/data/class_extends/page_extends/shopping/LC_Page_Shopping_LoadPaymentModule_Ex.php(54): LC_Page_Shopping_LoadPaymentModule->process
/home/oukoku/public_html/shop/data/class/pages/shopping/LC_Page_Shopping_LoadPaymentModule.php(70): require_once
/home/oukoku/public_html/shop/data/downloads/module/mdl_pg_mulpay/payment.php(16): LC_Page_Mdl_PG_MULPAY_Helper->process
/home/oukoku/public_html/shop/data/downloads/module/mdl_pg_mulpay/class/pages/LC_Page_Mdl_PG_MULPAY_Helper.php(45): LC_Page_Mdl_PG_MULPAY_Helper->action
/home/oukoku/public_html/shop/data/downloads/module/mdl_pg_mulpay/class/pages/LC_Page_Mdl_PG_MULPAY_Helper.php(136): LC_PageHelper_Mdl_PG_MULPAY_Token->modeAction
/home/oukoku/public_html/shop/data/downloads/module/mdl_pg_mulpay/class/pages/helper/LC_PageHelper_Mdl_PG_MULPAY_Token.php(109): SC_Mdl_PG_MULPAY_Client_Member->searchCard
/home/oukoku/public_html/shop/data/downloads/module/mdl_pg_mulpay/class/client/SC_Mdl_PG_MULPAY_Client_Member.php(79): SC_Mdl_PG_MULPAY_Client_Base->sendRequest
/home/oukoku/public_html/shop/data/downloads/module/mdl_pg_mulpay/class/client/SC_Mdl_PG_MULPAY_Client_Base.php(418): SC_Mdl_PG_MULPAY_Client_Base->parseResponse
/home/oukoku/public_html/shop/data/downloads/module/mdl_pg_mulpay/class/client/SC_Mdl_PG_MULPAY_Client_Base.php(446): SC_Mdl_PG_MULPAY->printLog
/home/oukoku/public_html/shop/data/downloads/module/mdl_pg_mulpay/class/SC_Mdl_PG_MULPAY.php(268): GC_Utils::gfPrintLog
2019/06/03 21:54:27 [/shop/shopping/load_payment_module.php] Array
(
    [0] => Array
        (
            [ErrCode] => E01
            [ErrInfo] => E01390002
        )

    [1] => Array
        (
            [ErrCode] => E01
            [ErrInfo] => E01240002
        )

)
 from 14.10.65.160
customer_id = 257
/home/oukoku/public_html/shop/shopping/load_payment_module.php(29): LC_Page_Shopping_LoadPaymentModule_Ex->process
/home/oukoku/public_html/shop/data/class_extends/page_extends/shopping/LC_Page_Shopping_LoadPaymentModule_Ex.php(54): LC_Page_Shopping_LoadPaymentModule->process
/home/oukoku/public_html/shop/data/class/pages/shopping/LC_Page_Shopping_LoadPaymentModule.php(70): require_once
/home/oukoku/public_html/shop/data/downloads/module/mdl_pg_mulpay/payment.php(16): LC_Page_Mdl_PG_MULPAY_Helper->process
/home/oukoku/public_html/shop/data/downloads/module/mdl_pg_mulpay/class/pages/LC_Page_Mdl_PG_MULPAY_Helper.php(45): LC_Page_Mdl_PG_MULPAY_Helper->action
/home/oukoku/public_html/shop/data/downloads/module/mdl_pg_mulpay/class/pages/LC_Page_Mdl_PG_MULPAY_Helper.php(136): LC_PageHelper_Mdl_PG_MULPAY_Token->modeAction
/home/oukoku/public_html/shop/data/downloads/module/mdl_pg_mulpay/class/pages/helper/LC_PageHelper_Mdl_PG_MULPAY_Token.php(109): SC_Mdl_PG_MULPAY_Client_Member->searchCard
/home/oukoku/public_html/shop/data/downloads/module/mdl_pg_mulpay/class/client/SC_Mdl_PG_MULPAY_Client_Member.php(79): SC_Mdl_PG_MULPAY_Client_Base->sendRequest
/home/oukoku/public_html/shop/data/downloads/module/mdl_pg_mulpay/class/client/SC_Mdl_PG_MULPAY_Client_Base.php(419): SC_Mdl_PG_MULPAY_Client_Base->setResults
/home/oukoku/public_html/shop/data/downloads/module/mdl_pg_mulpay/class/client/SC_Mdl_PG_MULPAY_Client_Base.php(533): SC_Mdl_PG_MULPAY->printLog
/home/oukoku/public_html/shop/data/downloads/module/mdl_pg_mulpay/class/SC_Mdl_PG_MULPAY.php(268): GC_Utils::gfPrintLog
2019/06/03 21:55:24 [/shop/shopping/load_payment_module.php] SendRequest:https://p01.mul-pay.jp/payment/SearchMember.idPass from 14.10.65.160
customer_id = 257
/home/oukoku/public_html/shop/shopping/load_payment_module.php(29): LC_Page_Shopping_LoadPaymentModule_Ex->process
/home/oukoku/public_html/shop/data/class_extends/page_extends/shopping/LC_Page_Shopping_LoadPaymentModule_Ex.php(54): LC_Page_Shopping_LoadPaymentModule->process
/home/oukoku/public_html/shop/data/class/pages/shopping/LC_Page_Shopping_LoadPaymentModule.php(70): require_once
/home/oukoku/public_html/shop/data/downloads/module/mdl_pg_mulpay/payment.php(16): LC_Page_Mdl_PG_MULPAY_Helper->process
/home/oukoku/public_html/shop/data/downloads/module/mdl_pg_mulpay/class/pages/LC_Page_Mdl_PG_MULPAY_Helper.php(45): LC_Page_Mdl_PG_MULPAY_Helper->action
/home/oukoku/public_html/shop/data/downloads/module/mdl_pg_mulpay/class/pages/LC_Page_Mdl_PG_MULPAY_Helper.php(136): LC_PageHelper_Mdl_PG_MULPAY_Token->modeAction
/home/oukoku/public_html/shop/data/downloads/module/mdl_pg_mulpay/class/pages/helper/LC_PageHelper_Mdl_PG_MULPAY_Token.php(109): SC_Mdl_PG_MULPAY_Client_Member->searchCard
/home/oukoku/public_html/shop/data/downloads/module/mdl_pg_mulpay/class/client/SC_Mdl_PG_MULPAY_Client_Member.php(63): SC_Mdl_PG_MULPAY_Client_Member->checkMember
/home/oukoku/public_html/shop/data/downloads/module/mdl_pg_mulpay/class/client/SC_Mdl_PG_MULPAY_Client_Member.php(24): SC_Mdl_PG_MULPAY_Client_Member->getMember
/home/oukoku/public_html/shop/data/downloads/module/mdl_pg_mulpay/class/client/SC_Mdl_PG_MULPAY_Client_Member.php(280): SC_Mdl_PG_MULPAY_Client_Base->sendRequest
/home/oukoku/public_html/shop/data/downloads/module/mdl_pg_mulpay/class/client/SC_Mdl_PG_MULPAY_Client_Base.php(375): SC_Mdl_PG_MULPAY->printLog
/home/oukoku/public_html/shop/data/downloads/module/mdl_pg_mulpay/class/SC_Mdl_PG_MULPAY.php(268): GC_Utils::gfPrintLog
2019/06/03 21:55:24 [/shop/shopping/load_payment_module.php] Array
(
    [SiteID] => mst2000016748
    [SitePass] => ******
    [MemberID] => 257
)
 from 14.10.65.160
customer_id = 257
/home/oukoku/public_html/shop/shopping/load_payment_module.php(29): LC_Page_Shopping_LoadPaymentModule_Ex->process
/home/oukoku/public_html/shop/data/class_extends/page_extends/shopping/LC_Page_Shopping_LoadPaymentModule_Ex.php(54): LC_Page_Shopping_LoadPaymentModule->process
/home/oukoku/public_html/shop/data/class/pages/shopping/LC_Page_Shopping_LoadPaymentModule.php(70): require_once
/home/oukoku/public_html/shop/data/downloads/module/mdl_pg_mulpay/payment.php(16): LC_Page_Mdl_PG_MULPAY_Helper->process
/home/oukoku/public_html/shop/data/downloads/module/mdl_pg_mulpay/class/pages/LC_Page_Mdl_PG_MULPAY_Helper.php(45): LC_Page_Mdl_PG_MULPAY_Helper->action
/home/oukoku/public_html/shop/data/downloads/module/mdl_pg_mulpay/class/pages/LC_Page_Mdl_PG_MULPAY_Helper.php(136): LC_PageHelper_Mdl_PG_MULPAY_Token->modeAction
/home/oukoku/public_html/shop/data/downloads/module/mdl_pg_mulpay/class/pages/helper/LC_PageHelper_Mdl_PG_MULPAY_Token.php(109): SC_Mdl_PG_MULPAY_Client_Member->searchCard
/home/oukoku/public_html/shop/data/downloads/module/mdl_pg_mulpay/class/client/SC_Mdl_PG_MULPAY_Client_Member.php(63): SC_Mdl_PG_MULPAY_Client_Member->checkMember
/home/oukoku/public_html/shop/data/downloads/module/mdl_pg_mulpay/class/client/SC_Mdl_PG_MULPAY_Client_Member.php(24): SC_Mdl_PG_MULPAY_Client_Member->getMember
/home/oukoku/public_html/shop/data/downloads/module/mdl_pg_mulpay/class/client/SC_Mdl_PG_MULPAY_Client_Member.php(280): SC_Mdl_PG_MULPAY_Client_Base->sendRequest
/home/oukoku/public_html/shop/data/downloads/module/mdl_pg_mulpay/class/client/SC_Mdl_PG_MULPAY_Client_Base.php(376): SC_Mdl_PG_MULPAY->printLog
/home/oukoku/public_html/shop/data/downloads/module/mdl_pg_mulpay/class/SC_Mdl_PG_MULPAY.php(268): GC_Utils::gfPrintLog
2019/06/03 21:55:24 [/shop/shopping/load_payment_module.php] ErrCode=E01&ErrInfo=E01390002 from 14.10.65.160
customer_id = 257
/home/oukoku/public_html/shop/shopping/load_payment_module.php(29): LC_Page_Shopping_LoadPaymentModule_Ex->process
/home/oukoku/public_html/shop/data/class_extends/page_extends/shopping/LC_Page_Shopping_LoadPaymentModule_Ex.php(54): LC_Page_Shopping_LoadPaymentModule->process
/home/oukoku/public_html/shop/data/class/pages/shopping/LC_Page_Shopping_LoadPaymentModule.php(70): require_once
/home/oukoku/public_html/shop/data/downloads/module/mdl_pg_mulpay/payment.php(16): LC_Page_Mdl_PG_MULPAY_Helper->process
/home/oukoku/public_html/shop/data/downloads/module/mdl_pg_mulpay/class/pages/LC_Page_Mdl_PG_MULPAY_Helper.php(45): LC_Page_Mdl_PG_MULPAY_Helper->action
/home/oukoku/public_html/shop/data/downloads/module/mdl_pg_mulpay/class/pages/LC_Page_Mdl_PG_MULPAY_Helper.php(136): LC_PageHelper_Mdl_PG_MULPAY_Token->modeAction
/home/oukoku/public_html/shop/data/downloads/module/mdl_pg_mulpay/class/pages/helper/LC_PageHelper_Mdl_PG_MULPAY_Token.php(109): SC_Mdl_PG_MULPAY_Client_Member->searchCard
/home/oukoku/public_html/shop/data/downloads/module/mdl_pg_mulpay/class/client/SC_Mdl_PG_MULPAY_Client_Member.php(63): SC_Mdl_PG_MULPAY_Client_Member->checkMember
/home/oukoku/public_html/shop/data/downloads/module/mdl_pg_mulpay/class/client/SC_Mdl_PG_MULPAY_Client_Member.php(24): SC_Mdl_PG_MULPAY_Client_Member->getMember
/home/oukoku/public_html/shop/data/downloads/module/mdl_pg_mulpay/class/client/SC_Mdl_PG_MULPAY_Client_Member.php(280): SC_Mdl_PG_MULPAY_Client_Base->sendRequest
/home/oukoku/public_html/shop/data/downloads/module/mdl_pg_mulpay/class/client/SC_Mdl_PG_MULPAY_Client_Base.php(418): SC_Mdl_PG_MULPAY_Client_Base->parseResponse
/home/oukoku/public_html/shop/data/downloads/module/mdl_pg_mulpay/class/client/SC_Mdl_PG_MULPAY_Client_Base.php(446): SC_Mdl_PG_MULPAY->printLog
/home/oukoku/public_html/shop/data/downloads/module/mdl_pg_mulpay/class/SC_Mdl_PG_MULPAY.php(268): GC_Utils::gfPrintLog
2019/06/03 21:55:24 [/shop/shopping/load_payment_module.php] Array
(
    [0] => Array
        (
            [ErrCode] => E01
            [ErrInfo] => E01390002
        )

)
 from 14.10.65.160
customer_id = 257
/home/oukoku/public_html/shop/shopping/load_payment_module.php(29): LC_Page_Shopping_LoadPaymentModule_Ex->process
/home/oukoku/public_html/shop/data/class_extends/page_extends/shopping/LC_Page_Shopping_LoadPaymentModule_Ex.php(54): LC_Page_Shopping_LoadPaymentModule->process
/home/oukoku/public_html/shop/data/class/pages/shopping/LC_Page_Shopping_LoadPaymentModule.php(70): require_once
/home/oukoku/public_html/shop/data/downloads/module/mdl_pg_mulpay/payment.php(16): LC_Page_Mdl_PG_MULPAY_Helper->process
/home/oukoku/public_html/shop/data/downloads/module/mdl_pg_mulpay/class/pages/LC_Page_Mdl_PG_MULPAY_Helper.php(45): LC_Page_Mdl_PG_MULPAY_Helper->action
/home/oukoku/public_html/shop/data/downloads/module/mdl_pg_mulpay/class/pages/LC_Page_Mdl_PG_MULPAY_Helper.php(136): LC_PageHelper_Mdl_PG_MULPAY_Token->modeAction
/home/oukoku/public_html/shop/data/downloads/module/mdl_pg_mulpay/class/pages/helper/LC_PageHelper_Mdl_PG_MULPAY_Token.php(109): SC_Mdl_PG_MULPAY_Client_Member->searchCard
/home/oukoku/public_html/shop/data/downloads/module/mdl_pg_mulpay/class/client/SC_Mdl_PG_MULPAY_Client_Member.php(63): SC_Mdl_PG_MULPAY_Client_Member->checkMember
/home/oukoku/public_html/shop/data/downloads/module/mdl_pg_mulpay/class/client/SC_Mdl_PG_MULPAY_Client_Member.php(24): SC_Mdl_PG_MULPAY_Client_Member->getMember
/home/oukoku/public_html/shop/data/downloads/module/mdl_pg_mulpay/class/client/SC_Mdl_PG_MULPAY_Client_Member.php(280): SC_Mdl_PG_MULPAY_Client_Base->sendRequest
/home/oukoku/public_html/shop/data/downloads/module/mdl_pg_mulpay/class/client/SC_Mdl_PG_MULPAY_Client_Base.php(419): SC_Mdl_PG_MULPAY_Client_Base->setResults
/home/oukoku/public_html/shop/data/downloads/module/mdl_pg_mulpay/class/client/SC_Mdl_PG_MULPAY_Client_Base.php(533): SC_Mdl_PG_MULPAY->printLog
/home/oukoku/public_html/shop/data/downloads/module/mdl_pg_mulpay/class/SC_Mdl_PG_MULPAY.php(268): GC_Utils::gfPrintLog
2019/06/03 21:55:24 [/shop/shopping/load_payment_module.php] SendRequest:https://p01.mul-pay.jp/payment/SearchCard.idPass from 14.10.65.160
customer_id = 257
/home/oukoku/public_html/shop/shopping/load_payment_module.php(29): LC_Page_Shopping_LoadPaymentModule_Ex->process
/home/oukoku/public_html/shop/data/class_extends/page_extends/shopping/LC_Page_Shopping_LoadPaymentModule_Ex.php(54): LC_Page_Shopping_LoadPaymentModule->process
/home/oukoku/public_html/shop/data/class/pages/shopping/LC_Page_Shopping_LoadPaymentModule.php(70): require_once
/home/oukoku/public_html/shop/data/downloads/module/mdl_pg_mulpay/payment.php(16): LC_Page_Mdl_PG_MULPAY_Helper->process
/home/oukoku/public_html/shop/data/downloads/module/mdl_pg_mulpay/class/pages/LC_Page_Mdl_PG_MULPAY_Helper.php(45): LC_Page_Mdl_PG_MULPAY_Helper->action
/home/oukoku/public_html/shop/data/downloads/module/mdl_pg_mulpay/class/pages/LC_Page_Mdl_PG_MULPAY_Helper.php(136): LC_PageHelper_Mdl_PG_MULPAY_Token->modeAction
/home/oukoku/public_html/shop/data/downloads/module/mdl_pg_mulpay/class/pages/helper/LC_PageHelper_Mdl_PG_MULPAY_Token.php(109): SC_Mdl_PG_MULPAY_Client_Member->searchCard
/home/oukoku/public_html/shop/data/downloads/module/mdl_pg_mulpay/class/client/SC_Mdl_PG_MULPAY_Client_Member.php(79): SC_Mdl_PG_MULPAY_Client_Base->sendRequest
/home/oukoku/public_html/shop/data/downloads/module/mdl_pg_mulpay/class/client/SC_Mdl_PG_MULPAY_Client_Base.php(375): SC_Mdl_PG_MULPAY->printLog
/home/oukoku/public_html/shop/data/downloads/module/mdl_pg_mulpay/class/SC_Mdl_PG_MULPAY.php(268): GC_Utils::gfPrintLog
2019/06/03 21:55:24 [/shop/shopping/load_payment_module.php] Array
(
    [SiteID] => mst2000016748
    [SitePass] => ******
    [MemberID] => 257
)
 from 14.10.65.160
customer_id = 257
/home/oukoku/public_html/shop/shopping/load_payment_module.php(29): LC_Page_Shopping_LoadPaymentModule_Ex->process
/home/oukoku/public_html/shop/data/class_extends/page_extends/shopping/LC_Page_Shopping_LoadPaymentModule_Ex.php(54): LC_Page_Shopping_LoadPaymentModule->process
/home/oukoku/public_html/shop/data/class/pages/shopping/LC_Page_Shopping_LoadPaymentModule.php(70): require_once
/home/oukoku/public_html/shop/data/downloads/module/mdl_pg_mulpay/payment.php(16): LC_Page_Mdl_PG_MULPAY_Helper->process
/home/oukoku/public_html/shop/data/downloads/module/mdl_pg_mulpay/class/pages/LC_Page_Mdl_PG_MULPAY_Helper.php(45): LC_Page_Mdl_PG_MULPAY_Helper->action
/home/oukoku/public_html/shop/data/downloads/module/mdl_pg_mulpay/class/pages/LC_Page_Mdl_PG_MULPAY_Helper.php(136): LC_PageHelper_Mdl_PG_MULPAY_Token->modeAction
/home/oukoku/public_html/shop/data/downloads/module/mdl_pg_mulpay/class/pages/helper/LC_PageHelper_Mdl_PG_MULPAY_Token.php(109): SC_Mdl_PG_MULPAY_Client_Member->searchCard
/home/oukoku/public_html/shop/data/downloads/module/mdl_pg_mulpay/class/client/SC_Mdl_PG_MULPAY_Client_Member.php(79): SC_Mdl_PG_MULPAY_Client_Base->sendRequest
/home/oukoku/public_html/shop/data/downloads/module/mdl_pg_mulpay/class/client/SC_Mdl_PG_MULPAY_Client_Base.php(376): SC_Mdl_PG_MULPAY->printLog
/home/oukoku/public_html/shop/data/downloads/module/mdl_pg_mulpay/class/SC_Mdl_PG_MULPAY.php(268): GC_Utils::gfPrintLog
2019/06/03 21:55:24 [/shop/shopping/load_payment_module.php] ErrCode=E01|E01&ErrInfo=E01390002|E01240002 from 14.10.65.160
customer_id = 257
/home/oukoku/public_html/shop/shopping/load_payment_module.php(29): LC_Page_Shopping_LoadPaymentModule_Ex->process
/home/oukoku/public_html/shop/data/class_extends/page_extends/shopping/LC_Page_Shopping_LoadPaymentModule_Ex.php(54): LC_Page_Shopping_LoadPaymentModule->process
/home/oukoku/public_html/shop/data/class/pages/shopping/LC_Page_Shopping_LoadPaymentModule.php(70): require_once
/home/oukoku/public_html/shop/data/downloads/module/mdl_pg_mulpay/payment.php(16): LC_Page_Mdl_PG_MULPAY_Helper->process
/home/oukoku/public_html/shop/data/downloads/module/mdl_pg_mulpay/class/pages/LC_Page_Mdl_PG_MULPAY_Helper.php(45): LC_Page_Mdl_PG_MULPAY_Helper->action
/home/oukoku/public_html/shop/data/downloads/module/mdl_pg_mulpay/class/pages/LC_Page_Mdl_PG_MULPAY_Helper.php(136): LC_PageHelper_Mdl_PG_MULPAY_Token->modeAction
/home/oukoku/public_html/shop/data/downloads/module/mdl_pg_mulpay/class/pages/helper/LC_PageHelper_Mdl_PG_MULPAY_Token.php(109): SC_Mdl_PG_MULPAY_Client_Member->searchCard
/home/oukoku/public_html/shop/data/downloads/module/mdl_pg_mulpay/class/client/SC_Mdl_PG_MULPAY_Client_Member.php(79): SC_Mdl_PG_MULPAY_Client_Base->sendRequest
/home/oukoku/public_html/shop/data/downloads/module/mdl_pg_mulpay/class/client/SC_Mdl_PG_MULPAY_Client_Base.php(418): SC_Mdl_PG_MULPAY_Client_Base->parseResponse
/home/oukoku/public_html/shop/data/downloads/module/mdl_pg_mulpay/class/client/SC_Mdl_PG_MULPAY_Client_Base.php(446): SC_Mdl_PG_MULPAY->printLog
/home/oukoku/public_html/shop/data/downloads/module/mdl_pg_mulpay/class/SC_Mdl_PG_MULPAY.php(268): GC_Utils::gfPrintLog
2019/06/03 21:55:24 [/shop/shopping/load_payment_module.php] Array
(
    [0] => Array
        (
            [ErrCode] => E01
            [ErrInfo] => E01390002
        )

    [1] => Array
        (
            [ErrCode] => E01
            [ErrInfo] => E01240002
        )

)
 from 14.10.65.160
customer_id = 257
/home/oukoku/public_html/shop/shopping/load_payment_module.php(29): LC_Page_Shopping_LoadPaymentModule_Ex->process
/home/oukoku/public_html/shop/data/class_extends/page_extends/shopping/LC_Page_Shopping_LoadPaymentModule_Ex.php(54): LC_Page_Shopping_LoadPaymentModule->process
/home/oukoku/public_html/shop/data/class/pages/shopping/LC_Page_Shopping_LoadPaymentModule.php(70): require_once
/home/oukoku/public_html/shop/data/downloads/module/mdl_pg_mulpay/payment.php(16): LC_Page_Mdl_PG_MULPAY_Helper->process
/home/oukoku/public_html/shop/data/downloads/module/mdl_pg_mulpay/class/pages/LC_Page_Mdl_PG_MULPAY_Helper.php(45): LC_Page_Mdl_PG_MULPAY_Helper->action
/home/oukoku/public_html/shop/data/downloads/module/mdl_pg_mulpay/class/pages/LC_Page_Mdl_PG_MULPAY_Helper.php(136): LC_PageHelper_Mdl_PG_MULPAY_Token->modeAction
/home/oukoku/public_html/shop/data/downloads/module/mdl_pg_mulpay/class/pages/helper/LC_PageHelper_Mdl_PG_MULPAY_Token.php(109): SC_Mdl_PG_MULPAY_Client_Member->searchCard
/home/oukoku/public_html/shop/data/downloads/module/mdl_pg_mulpay/class/client/SC_Mdl_PG_MULPAY_Client_Member.php(79): SC_Mdl_PG_MULPAY_Client_Base->sendRequest
/home/oukoku/public_html/shop/data/downloads/module/mdl_pg_mulpay/class/client/SC_Mdl_PG_MULPAY_Client_Base.php(419): SC_Mdl_PG_MULPAY_Client_Base->setResults
/home/oukoku/public_html/shop/data/downloads/module/mdl_pg_mulpay/class/client/SC_Mdl_PG_MULPAY_Client_Base.php(533): SC_Mdl_PG_MULPAY->printLog
/home/oukoku/public_html/shop/data/downloads/module/mdl_pg_mulpay/class/SC_Mdl_PG_MULPAY.php(268): GC_Utils::gfPrintLog
2019/06/03 21:55:24 [/shop/shopping/load_payment_module.php] SendRequest:https://p01.mul-pay.jp/payment/EntryTran.idPass from 14.10.65.160
customer_id = 257
/home/oukoku/public_html/shop/shopping/load_payment_module.php(29): LC_Page_Shopping_LoadPaymentModule_Ex->process
/home/oukoku/public_html/shop/data/class_extends/page_extends/shopping/LC_Page_Shopping_LoadPaymentModule_Ex.php(54): LC_Page_Shopping_LoadPaymentModule->process
/home/oukoku/public_html/shop/data/class/pages/shopping/LC_Page_Shopping_LoadPaymentModule.php(70): require_once
/home/oukoku/public_html/shop/data/downloads/module/mdl_pg_mulpay/payment.php(16): LC_Page_Mdl_PG_MULPAY_Helper->process
/home/oukoku/public_html/shop/data/downloads/module/mdl_pg_mulpay/class/pages/LC_Page_Mdl_PG_MULPAY_Helper.php(45): LC_Page_Mdl_PG_MULPAY_Helper->action
/home/oukoku/public_html/shop/data/downloads/module/mdl_pg_mulpay/class/pages/LC_Page_Mdl_PG_MULPAY_Helper.php(136): LC_PageHelper_Mdl_PG_MULPAY_Token->modeAction
/home/oukoku/public_html/shop/data/downloads/module/mdl_pg_mulpay/class/pages/helper/LC_PageHelper_Mdl_PG_MULPAY_Token.php(129): SC_Mdl_PG_MULPAY_Client_Token->doPaymentRequest
/home/oukoku/public_html/shop/data/downloads/module/mdl_pg_mulpay/class/client/SC_Mdl_PG_MULPAY_Client_Token.php(105): SC_Mdl_PG_MULPAY_Client_Base->sendOrderRequest
/home/oukoku/public_html/shop/data/downloads/module/mdl_pg_mulpay/class/client/SC_Mdl_PG_MULPAY_Client_Base.php(241): SC_Mdl_PG_MULPAY_Client_Base->sendRequest
/home/oukoku/public_html/shop/data/downloads/module/mdl_pg_mulpay/class/client/SC_Mdl_PG_MULPAY_Client_Base.php(375): SC_Mdl_PG_MULPAY->printLog
/home/oukoku/public_html/shop/data/downloads/module/mdl_pg_mulpay/class/SC_Mdl_PG_MULPAY.php(268): GC_Utils::gfPrintLog
2019/06/03 21:55:24 [/shop/shopping/load_payment_module.php] Array
(
    [ShopID] => 9102288779655
    [ShopPass] => ******
    [OrderID] => 361-03215524
    [JobCd] => AUTH
    [Amount] => 4898
    [TdFlag] => 0
    [TdTenantName] => 
)
 from 14.10.65.160
customer_id = 257
/home/oukoku/public_html/shop/shopping/load_payment_module.php(29): LC_Page_Shopping_LoadPaymentModule_Ex->process
/home/oukoku/public_html/shop/data/class_extends/page_extends/shopping/LC_Page_Shopping_LoadPaymentModule_Ex.php(54): LC_Page_Shopping_LoadPaymentModule->process
/home/oukoku/public_html/shop/data/class/pages/shopping/LC_Page_Shopping_LoadPaymentModule.php(70): require_once
/home/oukoku/public_html/shop/data/downloads/module/mdl_pg_mulpay/payment.php(16): LC_Page_Mdl_PG_MULPAY_Helper->process
/home/oukoku/public_html/shop/data/downloads/module/mdl_pg_mulpay/class/pages/LC_Page_Mdl_PG_MULPAY_Helper.php(45): LC_Page_Mdl_PG_MULPAY_Helper->action
/home/oukoku/public_html/shop/data/downloads/module/mdl_pg_mulpay/class/pages/LC_Page_Mdl_PG_MULPAY_Helper.php(136): LC_PageHelper_Mdl_PG_MULPAY_Token->modeAction
/home/oukoku/public_html/shop/data/downloads/module/mdl_pg_mulpay/class/pages/helper/LC_PageHelper_Mdl_PG_MULPAY_Token.php(129): SC_Mdl_PG_MULPAY_Client_Token->doPaymentRequest
/home/oukoku/public_html/shop/data/downloads/module/mdl_pg_mulpay/class/client/SC_Mdl_PG_MULPAY_Client_Token.php(105): SC_Mdl_PG_MULPAY_Client_Base->sendOrderRequest
/home/oukoku/public_html/shop/data/downloads/module/mdl_pg_mulpay/class/client/SC_Mdl_PG_MULPAY_Client_Base.php(241): SC_Mdl_PG_MULPAY_Client_Base->sendRequest
/home/oukoku/public_html/shop/data/downloads/module/mdl_pg_mulpay/class/client/SC_Mdl_PG_MULPAY_Client_Base.php(376): SC_Mdl_PG_MULPAY->printLog
/home/oukoku/public_html/shop/data/downloads/module/mdl_pg_mulpay/class/SC_Mdl_PG_MULPAY.php(268): GC_Utils::gfPrintLog
2019/06/03 21:55:25 [/shop/shopping/load_payment_module.php] AccessID=515a9cac4c249bd7e33a98faa09f60f4&AccessPass=c9f35c46d6c3011dd9f2e0cc39e211cd from 14.10.65.160
customer_id = 257
/home/oukoku/public_html/shop/shopping/load_payment_module.php(29): LC_Page_Shopping_LoadPaymentModule_Ex->process
/home/oukoku/public_html/shop/data/class_extends/page_extends/shopping/LC_Page_Shopping_LoadPaymentModule_Ex.php(54): LC_Page_Shopping_LoadPaymentModule->process
/home/oukoku/public_html/shop/data/class/pages/shopping/LC_Page_Shopping_LoadPaymentModule.php(70): require_once
/home/oukoku/public_html/shop/data/downloads/module/mdl_pg_mulpay/payment.php(16): LC_Page_Mdl_PG_MULPAY_Helper->process
/home/oukoku/public_html/shop/data/downloads/module/mdl_pg_mulpay/class/pages/LC_Page_Mdl_PG_MULPAY_Helper.php(45): LC_Page_Mdl_PG_MULPAY_Helper->action
/home/oukoku/public_html/shop/data/downloads/module/mdl_pg_mulpay/class/pages/LC_Page_Mdl_PG_MULPAY_Helper.php(136): LC_PageHelper_Mdl_PG_MULPAY_Token->modeAction
/home/oukoku/public_html/shop/data/downloads/module/mdl_pg_mulpay/class/pages/helper/LC_PageHelper_Mdl_PG_MULPAY_Token.php(129): SC_Mdl_PG_MULPAY_Client_Token->doPaymentRequest
/home/oukoku/public_html/shop/data/downloads/module/mdl_pg_mulpay/class/client/SC_Mdl_PG_MULPAY_Client_Token.php(105): SC_Mdl_PG_MULPAY_Client_Base->sendOrderRequest
/home/oukoku/public_html/shop/data/downloads/module/mdl_pg_mulpay/class/client/SC_Mdl_PG_MULPAY_Client_Base.php(241): SC_Mdl_PG_MULPAY_Client_Base->sendRequest
/home/oukoku/public_html/shop/data/downloads/module/mdl_pg_mulpay/class/client/SC_Mdl_PG_MULPAY_Client_Base.php(418): SC_Mdl_PG_MULPAY_Client_Base->parseResponse
/home/oukoku/public_html/shop/data/downloads/module/mdl_pg_mulpay/class/client/SC_Mdl_PG_MULPAY_Client_Base.php(446): SC_Mdl_PG_MULPAY->printLog
/home/oukoku/public_html/shop/data/downloads/module/mdl_pg_mulpay/class/SC_Mdl_PG_MULPAY.php(268): GC_Utils::gfPrintLog
2019/06/03 21:55:25 [/shop/shopping/load_payment_module.php] Array
(
    [0] => Array
        (
            [AccessID] => 515a9cac4c249bd7e33a98faa09f60f4
            [AccessPass] => c9f35c46d6c3011dd9f2e0cc39e211cd
        )

)
 from 14.10.65.160
customer_id = 257
/home/oukoku/public_html/shop/shopping/load_payment_module.php(29): LC_Page_Shopping_LoadPaymentModule_Ex->process
/home/oukoku/public_html/shop/data/class_extends/page_extends/shopping/LC_Page_Shopping_LoadPaymentModule_Ex.php(54): LC_Page_Shopping_LoadPaymentModule->process
/home/oukoku/public_html/shop/data/class/pages/shopping/LC_Page_Shopping_LoadPaymentModule.php(70): require_once
/home/oukoku/public_html/shop/data/downloads/module/mdl_pg_mulpay/payment.php(16): LC_Page_Mdl_PG_MULPAY_Helper->process
/home/oukoku/public_html/shop/data/downloads/module/mdl_pg_mulpay/class/pages/LC_Page_Mdl_PG_MULPAY_Helper.php(45): LC_Page_Mdl_PG_MULPAY_Helper->action
/home/oukoku/public_html/shop/data/downloads/module/mdl_pg_mulpay/class/pages/LC_Page_Mdl_PG_MULPAY_Helper.php(136): LC_PageHelper_Mdl_PG_MULPAY_Token->modeAction
/home/oukoku/public_html/shop/data/downloads/module/mdl_pg_mulpay/class/pages/helper/LC_PageHelper_Mdl_PG_MULPAY_Token.php(129): SC_Mdl_PG_MULPAY_Client_Token->doPaymentRequest
/home/oukoku/public_html/shop/data/downloads/module/mdl_pg_mulpay/class/client/SC_Mdl_PG_MULPAY_Client_Token.php(105): SC_Mdl_PG_MULPAY_Client_Base->sendOrderRequest
/home/oukoku/public_html/shop/data/downloads/module/mdl_pg_mulpay/class/client/SC_Mdl_PG_MULPAY_Client_Base.php(241): SC_Mdl_PG_MULPAY_Client_Base->sendRequest
/home/oukoku/public_html/shop/data/downloads/module/mdl_pg_mulpay/class/client/SC_Mdl_PG_MULPAY_Client_Base.php(419): SC_Mdl_PG_MULPAY_Client_Base->setResults
/home/oukoku/public_html/shop/data/downloads/module/mdl_pg_mulpay/class/client/SC_Mdl_PG_MULPAY_Client_Base.php(533): SC_Mdl_PG_MULPAY->printLog
/home/oukoku/public_html/shop/data/downloads/module/mdl_pg_mulpay/class/SC_Mdl_PG_MULPAY.php(268): GC_Utils::gfPrintLog
2019/06/03 21:55:25 [/shop/shopping/load_payment_module.php] load_payment_module.php set payment data:Array
(
    [AccessID] => 515a9cac4c249bd7e33a98faa09f60f4
    [AccessPass] => c9f35c46d6c3011dd9f2e0cc39e211cd
    [OrderID] => 361-03215524
    [Amount] => 4898
    [JobCd] => AUTH
    [action_status] => 1
    [pay_status] => 0
)
 from 14.10.65.160
customer_id = 257
/home/oukoku/public_html/shop/shopping/load_payment_module.php(29): LC_Page_Shopping_LoadPaymentModule_Ex->process
/home/oukoku/public_html/shop/data/class_extends/page_extends/shopping/LC_Page_Shopping_LoadPaymentModule_Ex.php(54): LC_Page_Shopping_LoadPaymentModule->process
/home/oukoku/public_html/shop/data/class/pages/shopping/LC_Page_Shopping_LoadPaymentModule.php(70): require_once
/home/oukoku/public_html/shop/data/downloads/module/mdl_pg_mulpay/payment.php(16): LC_Page_Mdl_PG_MULPAY_Helper->process
/home/oukoku/public_html/shop/data/downloads/module/mdl_pg_mulpay/class/pages/LC_Page_Mdl_PG_MULPAY_Helper.php(45): LC_Page_Mdl_PG_MULPAY_Helper->action
/home/oukoku/public_html/shop/data/downloads/module/mdl_pg_mulpay/class/pages/LC_Page_Mdl_PG_MULPAY_Helper.php(136): LC_PageHelper_Mdl_PG_MULPAY_Token->modeAction
/home/oukoku/public_html/shop/data/downloads/module/mdl_pg_mulpay/class/pages/helper/LC_PageHelper_Mdl_PG_MULPAY_Token.php(129): SC_Mdl_PG_MULPAY_Client_Token->doPaymentRequest
/home/oukoku/public_html/shop/data/downloads/module/mdl_pg_mulpay/class/client/SC_Mdl_PG_MULPAY_Client_Token.php(105): SC_Mdl_PG_MULPAY_Client_Base->sendOrderRequest
/home/oukoku/public_html/shop/data/downloads/module/mdl_pg_mulpay/class/client/SC_Mdl_PG_MULPAY_Client_Base.php(275): SC_Util_PG_MULPAY->setOrderPayData
/home/oukoku/public_html/shop/data/downloads/module/mdl_pg_mulpay/class/util/SC_Util_PG_MULPAY.php(501): SC_Mdl_PG_MULPAY->printLog
/home/oukoku/public_html/shop/data/downloads/module/mdl_pg_mulpay/class/SC_Mdl_PG_MULPAY.php(268): GC_Utils::gfPrintLog
2019/06/03 21:55:25 [/shop/shopping/load_payment_module.php] SendRequest:https://p01.mul-pay.jp/payment/ExecTran.idPass from 14.10.65.160
customer_id = 257
/home/oukoku/public_html/shop/shopping/load_payment_module.php(29): LC_Page_Shopping_LoadPaymentModule_Ex->process
/home/oukoku/public_html/shop/data/class_extends/page_extends/shopping/LC_Page_Shopping_LoadPaymentModule_Ex.php(54): LC_Page_Shopping_LoadPaymentModule->process
/home/oukoku/public_html/shop/data/class/pages/shopping/LC_Page_Shopping_LoadPaymentModule.php(70): require_once
/home/oukoku/public_html/shop/data/downloads/module/mdl_pg_mulpay/payment.php(16): LC_Page_Mdl_PG_MULPAY_Helper->process
/home/oukoku/public_html/shop/data/downloads/module/mdl_pg_mulpay/class/pages/LC_Page_Mdl_PG_MULPAY_Helper.php(45): LC_Page_Mdl_PG_MULPAY_Helper->action
/home/oukoku/public_html/shop/data/downloads/module/mdl_pg_mulpay/class/pages/LC_Page_Mdl_PG_MULPAY_Helper.php(136): LC_PageHelper_Mdl_PG_MULPAY_Token->modeAction
/home/oukoku/public_html/shop/data/downloads/module/mdl_pg_mulpay/class/pages/helper/LC_PageHelper_Mdl_PG_MULPAY_Token.php(129): SC_Mdl_PG_MULPAY_Client_Token->doPaymentRequest
/home/oukoku/public_html/shop/data/downloads/module/mdl_pg_mulpay/class/client/SC_Mdl_PG_MULPAY_Client_Token.php(146): SC_Mdl_PG_MULPAY_Client_Base->sendOrderRequest
/home/oukoku/public_html/shop/data/downloads/module/mdl_pg_mulpay/class/client/SC_Mdl_PG_MULPAY_Client_Base.php(241): SC_Mdl_PG_MULPAY_Client_Base->sendRequest
/home/oukoku/public_html/shop/data/downloads/module/mdl_pg_mulpay/class/client/SC_Mdl_PG_MULPAY_Client_Base.php(375): SC_Mdl_PG_MULPAY->printLog
/home/oukoku/public_html/shop/data/downloads/module/mdl_pg_mulpay/class/SC_Mdl_PG_MULPAY.php(268): GC_Utils::gfPrintLog
2019/06/03 21:55:25 [/shop/shopping/load_payment_module.php] Array
(
    [AccessID] => 515a9cac4c249bd7e33a98faa09f60f4
    [AccessPass] => c9f35c46d6c3011dd9f2e0cc39e211cd
    [OrderID] => 361-03215524
    [Method] => 1
    [Token] => 43044eed98bab98f3718b709005da3d0f085b525618bdea9c7996348d8cf2ed8
    [ClientField1] => 
    [ClientField2] => 
    [ClientField3] => EC-CUBE4.3.24
)
 from 14.10.65.160
customer_id = 257
/home/oukoku/public_html/shop/shopping/load_payment_module.php(29): LC_Page_Shopping_LoadPaymentModule_Ex->process
/home/oukoku/public_html/shop/data/class_extends/page_extends/shopping/LC_Page_Shopping_LoadPaymentModule_Ex.php(54): LC_Page_Shopping_LoadPaymentModule->process
/home/oukoku/public_html/shop/data/class/pages/shopping/LC_Page_Shopping_LoadPaymentModule.php(70): require_once
/home/oukoku/public_html/shop/data/downloads/module/mdl_pg_mulpay/payment.php(16): LC_Page_Mdl_PG_MULPAY_Helper->process
/home/oukoku/public_html/shop/data/downloads/module/mdl_pg_mulpay/class/pages/LC_Page_Mdl_PG_MULPAY_Helper.php(45): LC_Page_Mdl_PG_MULPAY_Helper->action
/home/oukoku/public_html/shop/data/downloads/module/mdl_pg_mulpay/class/pages/LC_Page_Mdl_PG_MULPAY_Helper.php(136): LC_PageHelper_Mdl_PG_MULPAY_Token->modeAction
/home/oukoku/public_html/shop/data/downloads/module/mdl_pg_mulpay/class/pages/helper/LC_PageHelper_Mdl_PG_MULPAY_Token.php(129): SC_Mdl_PG_MULPAY_Client_Token->doPaymentRequest
/home/oukoku/public_html/shop/data/downloads/module/mdl_pg_mulpay/class/client/SC_Mdl_PG_MULPAY_Client_Token.php(146): SC_Mdl_PG_MULPAY_Client_Base->sendOrderRequest
/home/oukoku/public_html/shop/data/downloads/module/mdl_pg_mulpay/class/client/SC_Mdl_PG_MULPAY_Client_Base.php(241): SC_Mdl_PG_MULPAY_Client_Base->sendRequest
/home/oukoku/public_html/shop/data/downloads/module/mdl_pg_mulpay/class/client/SC_Mdl_PG_MULPAY_Client_Base.php(376): SC_Mdl_PG_MULPAY->printLog
/home/oukoku/public_html/shop/data/downloads/module/mdl_pg_mulpay/class/SC_Mdl_PG_MULPAY.php(268): GC_Utils::gfPrintLog
2019/06/03 21:55:27 [/shop/shopping/load_payment_module.php] ACS=0&OrderID=361-03215524&Forward=2959876&Method=1&PayTimes=&Approve=0001163&TranID=1906032155602257217875130058&TranDate=20190603215527&CheckString=0e7df63befbd57328e59faaa44264f1e from 14.10.65.160
customer_id = 257
/home/oukoku/public_html/shop/shopping/load_payment_module.php(29): LC_Page_Shopping_LoadPaymentModule_Ex->process
/home/oukoku/public_html/shop/data/class_extends/page_extends/shopping/LC_Page_Shopping_LoadPaymentModule_Ex.php(54): LC_Page_Shopping_LoadPaymentModule->process
/home/oukoku/public_html/shop/data/class/pages/shopping/LC_Page_Shopping_LoadPaymentModule.php(70): require_once
/home/oukoku/public_html/shop/data/downloads/module/mdl_pg_mulpay/payment.php(16): LC_Page_Mdl_PG_MULPAY_Helper->process
/home/oukoku/public_html/shop/data/downloads/module/mdl_pg_mulpay/class/pages/LC_Page_Mdl_PG_MULPAY_Helper.php(45): LC_Page_Mdl_PG_MULPAY_Helper->action
/home/oukoku/public_html/shop/data/downloads/module/mdl_pg_mulpay/class/pages/LC_Page_Mdl_PG_MULPAY_Helper.php(136): LC_PageHelper_Mdl_PG_MULPAY_Token->modeAction
/home/oukoku/public_html/shop/data/downloads/module/mdl_pg_mulpay/class/pages/helper/LC_PageHelper_Mdl_PG_MULPAY_Token.php(129): SC_Mdl_PG_MULPAY_Client_Token->doPaymentRequest
/home/oukoku/public_html/shop/data/downloads/module/mdl_pg_mulpay/class/client/SC_Mdl_PG_MULPAY_Client_Token.php(146): SC_Mdl_PG_MULPAY_Client_Base->sendOrderRequest
/home/oukoku/public_html/shop/data/downloads/module/mdl_pg_mulpay/class/client/SC_Mdl_PG_MULPAY_Client_Base.php(241): SC_Mdl_PG_MULPAY_Client_Base->sendRequest
/home/oukoku/public_html/shop/data/downloads/module/mdl_pg_mulpay/class/client/SC_Mdl_PG_MULPAY_Client_Base.php(418): SC_Mdl_PG_MULPAY_Client_Base->parseResponse
/home/oukoku/public_html/shop/data/downloads/module/mdl_pg_mulpay/class/client/SC_Mdl_PG_MULPAY_Client_Base.php(446): SC_Mdl_PG_MULPAY->printLog
/home/oukoku/public_html/shop/data/downloads/module/mdl_pg_mulpay/class/SC_Mdl_PG_MULPAY.php(268): GC_Utils::gfPrintLog
2019/06/03 21:55:27 [/shop/shopping/load_payment_module.php] Array
(
    [0] => Array
        (
            [ACS] => 0
            [OrderID] => 361-03215524
            [Forward] => 2959876
            [Method] => 1
            [PayTimes] => 
            [Approve] => 0001163
            [TranID] => 1906032155602257217875130058
            [TranDate] => 20190603215527
            [CheckString] => 0e7df63befbd57328e59faaa44264f1e
        )

)
 from 14.10.65.160
customer_id = 257
/home/oukoku/public_html/shop/shopping/load_payment_module.php(29): LC_Page_Shopping_LoadPaymentModule_Ex->process
/home/oukoku/public_html/shop/data/class_extends/page_extends/shopping/LC_Page_Shopping_LoadPaymentModule_Ex.php(54): LC_Page_Shopping_LoadPaymentModule->process
/home/oukoku/public_html/shop/data/class/pages/shopping/LC_Page_Shopping_LoadPaymentModule.php(70): require_once
/home/oukoku/public_html/shop/data/downloads/module/mdl_pg_mulpay/payment.php(16): LC_Page_Mdl_PG_MULPAY_Helper->process
/home/oukoku/public_html/shop/data/downloads/module/mdl_pg_mulpay/class/pages/LC_Page_Mdl_PG_MULPAY_Helper.php(45): LC_Page_Mdl_PG_MULPAY_Helper->action
/home/oukoku/public_html/shop/data/downloads/module/mdl_pg_mulpay/class/pages/LC_Page_Mdl_PG_MULPAY_Helper.php(136): LC_PageHelper_Mdl_PG_MULPAY_Token->modeAction
/home/oukoku/public_html/shop/data/downloads/module/mdl_pg_mulpay/class/pages/helper/LC_PageHelper_Mdl_PG_MULPAY_Token.php(129): SC_Mdl_PG_MULPAY_Client_Token->doPaymentRequest
/home/oukoku/public_html/shop/data/downloads/module/mdl_pg_mulpay/class/client/SC_Mdl_PG_MULPAY_Client_Token.php(146): SC_Mdl_PG_MULPAY_Client_Base->sendOrderRequest
/home/oukoku/public_html/shop/data/downloads/module/mdl_pg_mulpay/class/client/SC_Mdl_PG_MULPAY_Client_Base.php(241): SC_Mdl_PG_MULPAY_Client_Base->sendRequest
/home/oukoku/public_html/shop/data/downloads/module/mdl_pg_mulpay/class/client/SC_Mdl_PG_MULPAY_Client_Base.php(419): SC_Mdl_PG_MULPAY_Client_Base->setResults
/home/oukoku/public_html/shop/data/downloads/module/mdl_pg_mulpay/class/client/SC_Mdl_PG_MULPAY_Client_Base.php(533): SC_Mdl_PG_MULPAY->printLog
/home/oukoku/public_html/shop/data/downloads/module/mdl_pg_mulpay/class/SC_Mdl_PG_MULPAY.php(268): GC_Utils::gfPrintLog
2019/06/03 21:55:27 [/shop/shopping/load_payment_module.php] load_payment_module.php set payment data:Array
(
    [ACS] => 0
    [Forward] => 2959876
    [Method] => 1
    [PayTimes] => 
    [Approve] => 0001163
    [TranID] => 1906032155602257217875130058
    [TranDate] => 20190603215527
    [CheckString] => 0e7df63befbd57328e59faaa44264f1e
    [Amount] => 4898
    [JobCd] => AUTH
    [action_status] => 3
    [pay_status] => 11
)
 from 14.10.65.160
customer_id = 257
/home/oukoku/public_html/shop/shopping/load_payment_module.php(29): LC_Page_Shopping_LoadPaymentModule_Ex->process
/home/oukoku/public_html/shop/data/class_extends/page_extends/shopping/LC_Page_Shopping_LoadPaymentModule_Ex.php(54): LC_Page_Shopping_LoadPaymentModule->process
/home/oukoku/public_html/shop/data/class/pages/shopping/LC_Page_Shopping_LoadPaymentModule.php(70): require_once
/home/oukoku/public_html/shop/data/downloads/module/mdl_pg_mulpay/payment.php(16): LC_Page_Mdl_PG_MULPAY_Helper->process
/home/oukoku/public_html/shop/data/downloads/module/mdl_pg_mulpay/class/pages/LC_Page_Mdl_PG_MULPAY_Helper.php(45): LC_Page_Mdl_PG_MULPAY_Helper->action
/home/oukoku/public_html/shop/data/downloads/module/mdl_pg_mulpay/class/pages/LC_Page_Mdl_PG_MULPAY_Helper.php(136): LC_PageHelper_Mdl_PG_MULPAY_Token->modeAction
/home/oukoku/public_html/shop/data/downloads/module/mdl_pg_mulpay/class/pages/helper/LC_PageHelper_Mdl_PG_MULPAY_Token.php(129): SC_Mdl_PG_MULPAY_Client_Token->doPaymentRequest
/home/oukoku/public_html/shop/data/downloads/module/mdl_pg_mulpay/class/client/SC_Mdl_PG_MULPAY_Client_Token.php(146): SC_Mdl_PG_MULPAY_Client_Base->sendOrderRequest
/home/oukoku/public_html/shop/data/downloads/module/mdl_pg_mulpay/class/client/SC_Mdl_PG_MULPAY_Client_Base.php(275): SC_Util_PG_MULPAY->setOrderPayData
/home/oukoku/public_html/shop/data/downloads/module/mdl_pg_mulpay/class/util/SC_Util_PG_MULPAY.php(501): SC_Mdl_PG_MULPAY->printLog
/home/oukoku/public_html/shop/data/downloads/module/mdl_pg_mulpay/class/SC_Mdl_PG_MULPAY.php(268): GC_Utils::gfPrintLog
2019/06/03 21:55:27 [/shop/user_data/pg_mulpay_recv.php] ******* receiveer data start ******* from 210.175.7.20
customer_id = 
/home/oukoku/public_html/shop/user_data/pg_mulpay_recv.php(15): LC_Page_Mdl_PG_MULPAY_Recv->process
/home/oukoku/public_html/shop/data/downloads/module/mdl_pg_mulpay/class/pages/LC_Page_Mdl_PG_MULPAY_Recv.php(44): LC_Page_Mdl_PG_MULPAY_Recv->action
/home/oukoku/public_html/shop/data/downloads/module/mdl_pg_mulpay/class/pages/LC_Page_Mdl_PG_MULPAY_Recv.php(54): LC_Page_Mdl_PG_MULPAY_Recv->lfSetPostLog
/home/oukoku/public_html/shop/data/downloads/module/mdl_pg_mulpay/class/pages/LC_Page_Mdl_PG_MULPAY_Recv.php(832): SC_Mdl_PG_MULPAY->printLog
/home/oukoku/public_html/shop/data/downloads/module/mdl_pg_mulpay/class/SC_Mdl_PG_MULPAY.php(268): GC_Utils::gfPrintLog
2019/06/03 21:55:27 [/shop/user_data/pg_mulpay_recv.php] Array
(
    [ShopID] => 9102288779655
    [ShopPass] => **********
    [AccessID] => 515a9cac4c249bd7e33a98faa09f60f4
    [AccessPass] => ********************************
    [OrderID] => 361-03215524
    [Status] => AUTH
    [JobCd] => AUTH
    [Amount] => 4898
    [Tax] => 0
    [Currency] => JPN
    [Forward] => 2959876
    [Method] => 1
    [PayTimes] => 
    [TranID] => 1906032155602257217875130058
    [Approve] => 0001163
    [TranDate] => 20190603215527
    [ErrCode] => 
    [ErrInfo] => 
    [PayType] => 0
    [CvsCode] => 
    [CvsConfNo] => 
    [CvsReceiptNo] => 
    [EdyReceiptNo] => 
    [EdyOrderNo] => 
    [SuicaReceiptNo] => 
    [SuicaOrderNo] => 
    [CustID] => 
    [BkCode] => 
    [ConfNo] => 
    [PaymentTerm] => 
    [EncryptReceiptNo] => 
    [FinishDate] => 
    [ReceiptDate] => 
    [PayeasyPaymentURL] => 
    [WebMoneyManagementNo] => 
    [WebMoneySettleCode] => 
    [AuPayInfoNo] => 
    [AuPayMethod] => 
    [AuCancelAmount] => 
    [AuCancelTax] => 
    [DocomoSettlementCode] => 
    [DocomoCancelAmount] => 
    [DocomoCancelTax] => 
    [DocomoIncreaseAmount] => 
    [DocomoIncreaseTax] => 
    [SbTrackingId] => 
    [SbCancelAmount] => 
    [SbCancelTax] => 
    [JibunReceiptNo] => 
    [AuFirstAmount] => 
    [AuFirstTax] => 
    [AuAccountMonth] => 
    [AuContinueAccountId] => 
    [JcbPrecaSalesCode] => 
    [RequestNo] => 
    [AccountNo] => 
    [CenterCode] => 
    [NetCashPayType] => 
    [OrderDate] => 
    [CompletionDate] => 
    [RakutenidCouponFee] => 
    [McpPayInDate] => 
    [McpPayInAmount] => 
    [McpPayOutDate] => 
    [McpPayOutAmount] => 
    [RED_REQ_ID] => 
    [RED_ORD_ID] => 
    [RED_STAT_CD] => 
    [RED_FRAUD_STAT_CD] => 
    [RED_FRAUD_RSP_CD] => 
    [RED_FRAUD_REC_ID] => 
    [ProductName] => 
    [CancelAmount] => 
    [CancelTax] => 
    [PayMethod] => 
    [VaRequestAmount] => 
    [VaExpireDate] => 
    [VaTradeReason] => 
    [VaTradeClientName] => 
    [VaTradeClientMailaddress] => 
    [VaBankCode] => 
    [VaBankName] => 
    [VaBranchCode] => 
    [VaBranchName] => 
    [VaAccountType] => 
    [VaAccountNumber] => 
    [VaInInquiryNumber] => 
    [VaInSettlementDate] => 
    [VaInAmount] => 
    [VaInClientCode] => 
    [VaInClientName] => 
    [VaInSummary] => 
    [VaReserveID] => 
    [VaTradeCode] => 
    [SbStartChargeMonth] => 
    [SbChargeDay] => 
    [RcCustomerId] => 
    [RcUsePoint] => 
    [RcOrderId] => 
    [RcUpdateAuthDay] => 
    [RcUseCoupon] => 
    [RcUseShopCoupon] => 
    [RcContractId] => 
    [RcStartChargeMonth] => 
    [RcChargeDay] => 
    [RecurringID] => 
    [RecurringMethod] => 
    [RecurringChargeStartDate] => 
    [RecurringChargeStopDate] => 
    [RecurringChargeMonth] => 
    [RecurringChargeDay] => 
    [RecurringNextChargeDate] => 
    [BaSiteId] => 
    [BaMemberId] => 
    [BaTargetDate] => 
    [BaRequestAcceptEndDate] => 
    [BaTransferReturnDate] => 
    [BaWithdrawalDate] => 
    [BaResultcode] => 
    [PaidCancelAmount] => 
    [PaidCancelTax] => 
    [PaidBuyerID] => 
    [PaidCode] => 
    [PrecaNo] => 
    [PrecaSeq] => 
    [PrecaExpireDate] => 
    [ChargeType] => 
    [QuickID] => 
    [CampaignUrl] => 
    [DocomoAcceptCode] => 
    [PvFrontBillKey] => 
    [PvResultCode] => 
    [PvReceiptDatetime] => 
    [PvReceiptAgencyCode] => 
    [PvBarcode] => 
    [PvCvsCode] => 
    [PvCvsBranchCode] => 
    [PvPaymentAmount] => 
    [RakutenidSubscriptionId] => 
    [RakutenidSettlementSubscriptionId] => 
    [AuAcceptCode] => 
    [SbAcceptCode] => 
    [PaysleResultCode] => 
    [BankCode] => 
    [BankTranDate] => 
    [GanbProcessType] => 
    [GanbRequestAmount] => 
    [GanbExpireDate] => 
    [GanbTradeReason] => 
    [GanbTradeClientName] => 
    [GanbTradeClientMailaddress] => 
    [GanbBankCode] => 
    [GanbBankName] => 
    [GanbBranchCode] => 
    [GanbBranchName] => 
    [GanbAccountType] => 
    [GanbAccountNumber] => 
    [GanbAccountHolderName] => 
    [GanbInSettlementDate] => 
    [GanbInAmount] => 
    [GanbInClientName] => 
    [GanbInRemittingBankName] => 
    [GanbInRemittingBranchName] => 
    [GanbTotalTransferAmount] => 
    [GanbTotalTransferCount] => 
)
 from 210.175.7.20
customer_id = 
/home/oukoku/public_html/shop/user_data/pg_mulpay_recv.php(15): LC_Page_Mdl_PG_MULPAY_Recv->process
/home/oukoku/public_html/shop/data/downloads/module/mdl_pg_mulpay/class/pages/LC_Page_Mdl_PG_MULPAY_Recv.php(44): LC_Page_Mdl_PG_MULPAY_Recv->action
/home/oukoku/public_html/shop/data/downloads/module/mdl_pg_mulpay/class/pages/LC_Page_Mdl_PG_MULPAY_Recv.php(54): LC_Page_Mdl_PG_MULPAY_Recv->lfSetPostLog
/home/oukoku/public_html/shop/data/downloads/module/mdl_pg_mulpay/class/pages/LC_Page_Mdl_PG_MULPAY_Recv.php(836): SC_Mdl_PG_MULPAY->printLog
/home/oukoku/public_html/shop/data/downloads/module/mdl_pg_mulpay/class/SC_Mdl_PG_MULPAY.php(268): GC_Utils::gfPrintLog
2019/06/03 21:55:27 [/shop/user_data/pg_mulpay_recv.php] ******* receiveer data end ******* from 210.175.7.20
customer_id = 
/home/oukoku/public_html/shop/user_data/pg_mulpay_recv.php(15): LC_Page_Mdl_PG_MULPAY_Recv->process
/home/oukoku/public_html/shop/data/downloads/module/mdl_pg_mulpay/class/pages/LC_Page_Mdl_PG_MULPAY_Recv.php(44): LC_Page_Mdl_PG_MULPAY_Recv->action
/home/oukoku/public_html/shop/data/downloads/module/mdl_pg_mulpay/class/pages/LC_Page_Mdl_PG_MULPAY_Recv.php(54): LC_Page_Mdl_PG_MULPAY_Recv->lfSetPostLog
/home/oukoku/public_html/shop/data/downloads/module/mdl_pg_mulpay/class/pages/LC_Page_Mdl_PG_MULPAY_Recv.php(837): SC_Mdl_PG_MULPAY->printLog
/home/oukoku/public_html/shop/data/downloads/module/mdl_pg_mulpay/class/SC_Mdl_PG_MULPAY.php(268): GC_Utils::gfPrintLog
2019/06/03 21:55:32 [/shop/user_data/pg_mulpay_recv.php] update order status:1 order_id=361 from 210.175.7.20
customer_id = 
/home/oukoku/public_html/shop/user_data/pg_mulpay_recv.php(15): LC_Page_Mdl_PG_MULPAY_Recv->process
/home/oukoku/public_html/shop/data/downloads/module/mdl_pg_mulpay/class/pages/LC_Page_Mdl_PG_MULPAY_Recv.php(44): LC_Page_Mdl_PG_MULPAY_Recv->action
/home/oukoku/public_html/shop/data/downloads/module/mdl_pg_mulpay/class/pages/LC_Page_Mdl_PG_MULPAY_Recv.php(91): LC_Page_Mdl_PG_MULPAY_Recv->lfDoReceive
/home/oukoku/public_html/shop/data/downloads/module/mdl_pg_mulpay/class/pages/LC_Page_Mdl_PG_MULPAY_Recv.php(219): LC_Page_Mdl_PG_MULPAY_Recv->lfDoRecvCredit
/home/oukoku/public_html/shop/data/downloads/module/mdl_pg_mulpay/class/pages/LC_Page_Mdl_PG_MULPAY_Recv.php(717): SC_Mdl_PG_MULPAY->printLog
/home/oukoku/public_html/shop/data/downloads/module/mdl_pg_mulpay/class/SC_Mdl_PG_MULPAY.php(268): GC_Utils::gfPrintLog
2019/06/03 21:55:32 [/shop/user_data/pg_mulpay_recv.php] pg_mulpay_recv.php set payment data:Array
(
    [ShopID] => 9102288779655
    [AccessID] => 515a9cac4c249bd7e33a98faa09f60f4
    [OrderID] => 361-03215524
    [Status] => AUTH
    [JobCd] => AUTH
    [Amount] => 4898
    [Tax] => 0
    [Currency] => JPN
    [Forward] => 2959876
    [Method] => 1
    [PayTimes] => 
    [TranID] => 1906032155602257217875130058
    [Approve] => 0001163
    [TranDate] => 20190603215527
    [ErrCode] => 
    [ErrInfo] => 
    [PayType] => 0
    [CvsCode] => 
    [CvsConfNo] => 
    [CvsReceiptNo] => 
    [EdyReceiptNo] => 
    [EdyOrderNo] => 
    [SuicaReceiptNo] => 
    [SuicaOrderNo] => 
    [CustID] => 
    [BkCode] => 
    [ConfNo] => 
    [PaymentTerm] => 
    [EncryptReceiptNo] => 
    [FinishDate] => 
    [ReceiptDate] => 
    [WebMoneyManagementNo] => 
    [WebMoneySettleCode] => 
    [AuPayInfoNo] => 
    [AuPayMethod] => 
    [AuCancelAmount] => 
    [AuCancelTax] => 
    [DocomoSettlementCode] => 
    [DocomoCancelAmount] => 
    [DocomoCancelTax] => 
    [pay_status] => 11
)
 from 210.175.7.20
customer_id = 
/home/oukoku/public_html/shop/user_data/pg_mulpay_recv.php(15): LC_Page_Mdl_PG_MULPAY_Recv->process
/home/oukoku/public_html/shop/data/downloads/module/mdl_pg_mulpay/class/pages/LC_Page_Mdl_PG_MULPAY_Recv.php(44): LC_Page_Mdl_PG_MULPAY_Recv->action
/home/oukoku/public_html/shop/data/downloads/module/mdl_pg_mulpay/class/pages/LC_Page_Mdl_PG_MULPAY_Recv.php(91): LC_Page_Mdl_PG_MULPAY_Recv->lfDoReceive
/home/oukoku/public_html/shop/data/downloads/module/mdl_pg_mulpay/class/pages/LC_Page_Mdl_PG_MULPAY_Recv.php(226): SC_Util_PG_MULPAY->setOrderPayData
/home/oukoku/public_html/shop/data/downloads/module/mdl_pg_mulpay/class/util/SC_Util_PG_MULPAY.php(501): SC_Mdl_PG_MULPAY->printLog
/home/oukoku/public_html/shop/data/downloads/module/mdl_pg_mulpay/class/SC_Mdl_PG_MULPAY.php(268): GC_Utils::gfPrintLog
2019/06/03 21:55:32 [/shop/user_data/pg_mulpay_recv.php] response:true from 210.175.7.20
customer_id = 
/home/oukoku/public_html/shop/user_data/pg_mulpay_recv.php(15): LC_Page_Mdl_PG_MULPAY_Recv->process
/home/oukoku/public_html/shop/data/downloads/module/mdl_pg_mulpay/class/pages/LC_Page_Mdl_PG_MULPAY_Recv.php(44): LC_Page_Mdl_PG_MULPAY_Recv->action
/home/oukoku/public_html/shop/data/downloads/module/mdl_pg_mulpay/class/pages/LC_Page_Mdl_PG_MULPAY_Recv.php(93): LC_Page_Mdl_PG_MULPAY_Recv->lfSendResponse
/home/oukoku/public_html/shop/data/downloads/module/mdl_pg_mulpay/class/pages/LC_Page_Mdl_PG_MULPAY_Recv.php(849): SC_Mdl_PG_MULPAY->printLog
/home/oukoku/public_html/shop/data/downloads/module/mdl_pg_mulpay/class/SC_Mdl_PG_MULPAY.php(268): GC_Utils::gfPrintLog
