2021/01/22 08:26:25 [/shop/user_data/pg_mulpay_recv.php] ******* receiveer data start ******* from 210.175.7.20
2021/01/22 08:26:25 [/shop/user_data/pg_mulpay_recv.php] Array
(
    [ShopID] => 9102288779655
    [ShopPass] => **********
    [AccessID] => 5bac60c154935fbde49edda3f19ca37c
    [AccessPass] => ********************************
    [OrderID] => 2485-19151712
    [Status] => PAYSUCCESS
    [Amount] => 17710
    [Tax] => 0
    [Currency] => JPN
    [TranID] => 21011900000265418571
    [TranDate] => 20210122082625
    [ErrCode] => 
    [ErrInfo] => 
    [PayType] => 3
    [CvsCode] => 10001
    [CvsConfNo] => 6065
    [CvsReceiptNo] => 92101986488856
    [PaymentTerm] => 20210123235959
    [FinishDate] => 20210122082600
    [ReceiptDate] => 20210119151713
)
 from 210.175.7.20
2021/01/22 08:26:25 [/shop/user_data/pg_mulpay_recv.php] ******* receiveer data end ******* from 210.175.7.20
2021/01/22 08:26:25 [/shop/user_data/pg_mulpay_recv.php] update order status:6 from 210.175.7.20
2021/01/22 08:26:26 [/shop/user_data/pg_mulpay_recv.php] pg_mulpay_recv.php set payment data:Array
(
    [ShopID] => 9102288779655
    [AccessID] => 5bac60c154935fbde49edda3f19ca37c
    [OrderID] => 2485-19151712
    [Status] => PAYSUCCESS
    [JobCd] => 
    [Amount] => 17710
    [Tax] => 0
    [Currency] => JPN
    [Forward] => 
    [Method] => 
    [PayTimes] => 
    [TranID] => 21011900000265418571
    [Approve] => 
    [TranDate] => 20210122082625
    [ErrCode] => 
    [ErrInfo] => 
    [PayType] => 3
    [CvsCode] => 10001
    [CvsConfNo] => 6065
    [CvsReceiptNo] => 92101986488856
    [EdyReceiptNo] => 
    [EdyOrderNo] => 
    [SuicaReceiptNo] => 
    [SuicaOrderNo] => 
    [CustID] => 
    [BkCode] => 
    [PaymentTerm] => 20210123235959
    [EncryptReceiptNo] => 
    [FinishDate] => 20210122082600
    [ReceiptDate] => 20210119151713
    [WebMoneyManagementNo] => 
    [WebMoneySettleCode] => 
    [AuPayInfoNo] => 
    [AuPayMethod] => 
    [AuCancelAmount] => 
    [AuCancelTax] => 
    [DocomoSettlementCode] => 
    [DocomoCancelAmount] => 
    [DocomoCancelTax] => 
    [pay_status] => 2
)
 from 210.175.7.20
2021/01/22 08:26:26 [/shop/user_data/pg_mulpay_recv.php] response:true from 210.175.7.20
2021/01/22 13:50:36 [/shop/shopping/load_payment_module.php] SendRequest:https://p01.mul-pay.jp/payment/EntryTranPayEasy.idPass from 160.86.243.35
2021/01/22 13:50:36 [/shop/shopping/load_payment_module.php] Array
(
    [ShopID] => 9102288779655
    [ShopPass] => ******
    [OrderID] => 2493-22135036
    [Amount] => 12056
)
 from 160.86.243.35
2021/01/22 13:50:36 [/shop/shopping/load_payment_module.php] AccessID=05d8a3b4caec8d9e02a519a18c86b198&AccessPass=10bff59b873171eadbb9fef88f62f06e from 160.86.243.35
2021/01/22 13:50:36 [/shop/shopping/load_payment_module.php] Array
(
    [0] => Array
        (
            [AccessID] => 05d8a3b4caec8d9e02a519a18c86b198
            [AccessPass] => 10bff59b873171eadbb9fef88f62f06e
        )

)
 from 160.86.243.35
2021/01/22 13:50:36 [/shop/shopping/load_payment_module.php] load_payment_module.php set payment data:Array
(
    [AccessID] => 05d8a3b4caec8d9e02a519a18c86b198
    [AccessPass] => 10bff59b873171eadbb9fef88f62f06e
    [OrderID] => 2493-22135036
    [Amount] => 12056
    [action_status] => 1
    [pay_status] => 0
)
 from 160.86.243.35
2021/01/22 13:50:36 [/shop/shopping/load_payment_module.php] SendRequest:https://p01.mul-pay.jp/payment/ExecTranPayEasy.idPass from 160.86.243.35
2021/01/22 13:50:36 [/shop/shopping/load_payment_module.php] Array
(
    [AccessID] => 05d8a3b4caec8d9e02a519a18c86b198
    [AccessPass] => 10bff59b873171eadbb9fef88f62f06e
    [OrderID] => 2493-22135036
    [CustomerName] => ******
    [CustomerKana] => ******
    [TelNo] => 0663222587
    [PaymentTermDay] => 10
    [MailAddress] => ******
    [ShopMailAddress] => oukoku-onlineshop@oukoku.biz
    [ReceiptsDisp1] => 
    [ReceiptsDisp2] => 
    [ReceiptsDisp3] => 
    [ReceiptsDisp4] => 
    [ReceiptsDisp5] => 
    [ReceiptsDisp6] => 
    [ReceiptsDisp7] => 
    [ReceiptsDisp8] => 
    [ReceiptsDisp9] => 
    [ReceiptsDisp10] => 
    [ReceiptsDisp11] => 株式会社カーテン・じゅうたん王国
    [ReceiptsDisp12] => 0356493000
    [ReceiptsDisp13] => 09:30-18:30
    [ClientField1] => 
    [ClientField2] => 
    [ClientField3] => EC-CUBE4.3.24
    [ClientFieldFlag] => 1
    [PaymentType] => E
)
 from 160.86.243.35
2021/01/22 13:50:38 [/shop/shopping/load_payment_module.php] OrderID=2493-22135036&CustID=2102214262&BkCode=58091&ConfNo=253956&EncryptReceiptNo=&PaymentTerm=20210201235959&TranDate=20210122135037&CheckString=216bc8911bcd154d7fca7cea4ca3129a&ClientField1=&ClientField2=&ClientField3=EC-CUBE4.3.24&PaymentURL=https://www5.econ.ne.jp/pay/p_paymain.aspx?odrno=8a86767380808675888475798484847506 from 160.86.243.35
2021/01/22 13:50:38 [/shop/shopping/load_payment_module.php] Array
(
    [0] => Array
        (
            [OrderID] => 2493-22135036
            [CustID] => 2102214262
            [BkCode] => 58091
            [ConfNo] => 253956
            [EncryptReceiptNo] => 
            [PaymentTerm] => 20210201235959
            [TranDate] => 20210122135037
            [CheckString] => 216bc8911bcd154d7fca7cea4ca3129a
            [ClientField1] => 
            [ClientField2] => 
            [ClientField3] => EC-CUBE4.3.24
            [PaymentURL] => https://www5.econ.ne.jp/pay/p_paymain.aspx?odrno=8a86767380808675888475798484847506
        )

)
 from 160.86.243.35
2021/01/22 13:50:38 [/shop/shopping/load_payment_module.php] load_payment_module.php set payment data:Array
(
    [CustID] => 2102214262
    [BkCode] => 58091
    [ConfNo] => 253956
    [EncryptReceiptNo] => 
    [PaymentTerm] => 20210201235959
    [TranDate] => 20210122135037
    [CheckString] => 216bc8911bcd154d7fca7cea4ca3129a
    [ClientField1] => 
    [ClientField2] => 
    [ClientField3] => EC-CUBE4.3.24
    [PaymentURL] => https://www5.econ.ne.jp/pay/p_paymain.aspx?odrno=8a86767380808675888475798484847506
    [Amount] => 12056
    [action_status] => 3
    [pay_status] => 1
)
 from 160.86.243.35
2021/01/22 13:50:39 [/shop/user_data/pg_mulpay_recv.php] ******* receiveer data start ******* from 210.175.7.20
2021/01/22 13:50:39 [/shop/user_data/pg_mulpay_recv.php] Array
(
    [ShopID] => 9102288779655
    [ShopPass] => **********
    [AccessID] => 05d8a3b4caec8d9e02a519a18c86b198
    [AccessPass] => ********************************
    [OrderID] => 2493-22135036
    [Status] => REQSUCCESS
    [Amount] => 12056
    [Tax] => 0
    [Currency] => JPN
    [TranID] => 21012200000265861061
    [TranDate] => 20210122135037
    [ErrCode] => 
    [ErrInfo] => 
    [PayType] => 4
    [CustID] => 2102214262
    [BkCode] => 58091
    [ConfNo] => 253956
    [PaymentTerm] => 20210201235959
    [EncryptReceiptNo] => 
    [FinishDate] => 
    [ReceiptDate] => 20210122135037
    [PayeasyPaymentURL] => https://www5.econ.ne.jp/pay/p_paymain.aspx?odrno=8a86767380808675888475798484847506
)
 from 210.175.7.20
2021/01/22 13:50:39 [/shop/user_data/pg_mulpay_recv.php] ******* receiveer data end ******* from 210.175.7.20
2021/01/22 13:50:39 [/shop/user_data/pg_mulpay_recv.php] update order status:2 from 210.175.7.20
2021/01/22 13:50:39 [/shop/user_data/pg_mulpay_recv.php] pg_mulpay_recv.php set payment data:Array
(
    [ShopID] => 9102288779655
    [AccessID] => 05d8a3b4caec8d9e02a519a18c86b198
    [OrderID] => 2493-22135036
    [Status] => REQSUCCESS
    [JobCd] => 
    [Amount] => 12056
    [Tax] => 0
    [Currency] => JPN
    [Forward] => 
    [Method] => 
    [PayTimes] => 
    [TranID] => 21012200000265861061
    [Approve] => 
    [TranDate] => 20210122135037
    [ErrCode] => 
    [ErrInfo] => 
    [PayType] => 4
    [CvsCode] => 
    [CvsConfNo] => 
    [CvsReceiptNo] => 
    [EdyReceiptNo] => 
    [EdyOrderNo] => 
    [SuicaReceiptNo] => 
    [SuicaOrderNo] => 
    [CustID] => 2102214262
    [BkCode] => 58091
    [ConfNo] => 253956
    [PaymentTerm] => 20210201235959
    [EncryptReceiptNo] => 
    [FinishDate] => 
    [ReceiptDate] => 20210122135037
    [WebMoneyManagementNo] => 
    [WebMoneySettleCode] => 
    [AuPayInfoNo] => 
    [AuPayMethod] => 
    [AuCancelAmount] => 
    [AuCancelTax] => 
    [DocomoSettlementCode] => 
    [DocomoCancelAmount] => 
    [DocomoCancelTax] => 
    [pay_status] => 1
)
 from 210.175.7.20
2021/01/22 13:50:39 [/shop/user_data/pg_mulpay_recv.php] response:true from 210.175.7.20
2021/01/22 13:51:56 [/shop/user_data/pg_mulpay_recv.php] ******* receiveer data start ******* from 210.175.7.20
2021/01/22 13:51:56 [/shop/user_data/pg_mulpay_recv.php] Array
(
    [ShopID] => 9102288779655
    [ShopPass] => **********
    [AccessID] => 05d8a3b4caec8d9e02a519a18c86b198
    [AccessPass] => ********************************
    [OrderID] => 2493-22135036
    [Status] => PAYSUCCESS
    [Amount] => 12056
    [Tax] => 0
    [Currency] => JPN
    [TranID] => 21012200000265861061
    [TranDate] => 20210122135155
    [ErrCode] => 
    [ErrInfo] => 
    [PayType] => 4
    [CustID] => 2102214262
    [BkCode] => 58091
    [ConfNo] => 253956
    [PaymentTerm] => 20210201235959
    [EncryptReceiptNo] => 
    [FinishDate] => 20210122135100
    [ReceiptDate] => 20210122135037
    [PayeasyPaymentURL] => https://www5.econ.ne.jp/pay/p_paymain.aspx?odrno=8a86767380808675888475798484847506
)
 from 210.175.7.20
2021/01/22 13:51:56 [/shop/user_data/pg_mulpay_recv.php] ******* receiveer data end ******* from 210.175.7.20
2021/01/22 13:51:56 [/shop/user_data/pg_mulpay_recv.php] update order status:6 from 210.175.7.20
2021/01/22 13:51:56 [/shop/user_data/pg_mulpay_recv.php] pg_mulpay_recv.php set payment data:Array
(
    [ShopID] => 9102288779655
    [AccessID] => 05d8a3b4caec8d9e02a519a18c86b198
    [OrderID] => 2493-22135036
    [Status] => PAYSUCCESS
    [JobCd] => 
    [Amount] => 12056
    [Tax] => 0
    [Currency] => JPN
    [Forward] => 
    [Method] => 
    [PayTimes] => 
    [TranID] => 21012200000265861061
    [Approve] => 
    [TranDate] => 20210122135155
    [ErrCode] => 
    [ErrInfo] => 
    [PayType] => 4
    [CvsCode] => 
    [CvsConfNo] => 
    [CvsReceiptNo] => 
    [EdyReceiptNo] => 
    [EdyOrderNo] => 
    [SuicaReceiptNo] => 
    [SuicaOrderNo] => 
    [CustID] => 2102214262
    [BkCode] => 58091
    [ConfNo] => 253956
    [PaymentTerm] => 20210201235959
    [EncryptReceiptNo] => 
    [FinishDate] => 20210122135100
    [ReceiptDate] => 20210122135037
    [WebMoneyManagementNo] => 
    [WebMoneySettleCode] => 
    [AuPayInfoNo] => 
    [AuPayMethod] => 
    [AuCancelAmount] => 
    [AuCancelTax] => 
    [DocomoSettlementCode] => 
    [DocomoCancelAmount] => 
    [DocomoCancelTax] => 
    [pay_status] => 2
)
 from 210.175.7.20
2021/01/22 13:51:56 [/shop/user_data/pg_mulpay_recv.php] response:true from 210.175.7.20
2021/01/22 14:10:25 [/shop/kanri/order/index.php] SendRequest:https://p01.mul-pay.jp/payment/AlterTran.idPass from 61.124.245.8
2021/01/22 14:10:25 [/shop/kanri/order/index.php] Array
(
    [ShopID] => 9102288779655
    [ShopPass] => ******
    [AccessID] => 72c1d635ad12df11f22f03dcc134ff6f
    [AccessPass] => 4a64ae12839d71eecbfd9f37df57034f
    [JobCd] => SALES
    [Amount] => 7810
)
 from 61.124.245.8
2021/01/22 14:10:26 [/shop/kanri/order/index.php] AccessID=72c1d635ad12df11f22f03dcc134ff6f&AccessPass=4a64ae12839d71eecbfd9f37df57034f&Forward=2S49631&Approve=0013862&TranID=2101141423602257217875110440&TranDate=20210122141026 from 61.124.245.8
2021/01/22 14:10:26 [/shop/kanri/order/index.php] Array
(
    [0] => Array
        (
            [AccessID] => 72c1d635ad12df11f22f03dcc134ff6f
            [AccessPass] => 4a64ae12839d71eecbfd9f37df57034f
            [Forward] => 2S49631
            [Approve] => 0013862
            [TranID] => 2101141423602257217875110440
            [TranDate] => 20210122141026
        )

)
 from 61.124.245.8
2021/01/22 14:10:26 [/shop/kanri/order/index.php] index.php set payment data:Array
(
    [AccessID] => 72c1d635ad12df11f22f03dcc134ff6f
    [AccessPass] => 4a64ae12839d71eecbfd9f37df57034f
    [Forward] => 2S49631
    [Approve] => 0013862
    [TranID] => 2101141423602257217875110440
    [TranDate] => 20210122141026
    [action_status] => 6
    [pay_status] => 12
)
 from 61.124.245.8
2021/01/22 14:10:26 [/shop/user_data/pg_mulpay_recv.php] ******* receiveer data start ******* from 210.175.7.20
2021/01/22 14:10:26 [/shop/user_data/pg_mulpay_recv.php] Array
(
    [ShopID] => 9102288779655
    [ShopPass] => **********
    [AccessID] => 72c1d635ad12df11f22f03dcc134ff6f
    [AccessPass] => ********************************
    [OrderID] => 2470-14142303
    [Status] => SALES
    [JobCd] => SALES
    [Amount] => 7810
    [Tax] => 0
    [Currency] => JPN
    [Forward] => 2S49631
    [Method] => 1
    [PayTimes] => 
    [TranID] => 2101141423602257217875110440
    [Approve] => 0013862
    [TranDate] => 20210122141026
    [ErrCode] => 
    [ErrInfo] => 
    [PayType] => 0
)
 from 210.175.7.20
2021/01/22 14:10:26 [/shop/user_data/pg_mulpay_recv.php] ******* receiveer data end ******* from 210.175.7.20
2021/01/22 14:10:26 [/shop/user_data/pg_mulpay_recv.php] pg_mulpay_recv.php set payment data:Array
(
    [ShopID] => 9102288779655
    [AccessID] => 72c1d635ad12df11f22f03dcc134ff6f
    [OrderID] => 2470-14142303
    [Status] => SALES
    [JobCd] => SALES
    [Amount] => 7810
    [Tax] => 0
    [Currency] => JPN
    [Forward] => 2S49631
    [Method] => 1
    [PayTimes] => 
    [TranID] => 2101141423602257217875110440
    [Approve] => 0013862
    [TranDate] => 20210122141026
    [ErrCode] => 
    [ErrInfo] => 
    [PayType] => 0
    [CvsCode] => 
    [CvsConfNo] => 
    [CvsReceiptNo] => 
    [EdyReceiptNo] => 
    [EdyOrderNo] => 
    [SuicaReceiptNo] => 
    [SuicaOrderNo] => 
    [CustID] => 
    [BkCode] => 
    [ConfNo] => 
    [PaymentTerm] => 
    [EncryptReceiptNo] => 
    [FinishDate] => 
    [ReceiptDate] => 
    [WebMoneyManagementNo] => 
    [WebMoneySettleCode] => 
    [AuPayInfoNo] => 
    [AuPayMethod] => 
    [AuCancelAmount] => 
    [AuCancelTax] => 
    [DocomoSettlementCode] => 
    [DocomoCancelAmount] => 
    [DocomoCancelTax] => 
    [pay_status] => 12
)
 from 210.175.7.20
2021/01/22 14:10:26 [/shop/user_data/pg_mulpay_recv.php] response:true from 210.175.7.20
2021/01/22 14:10:32 [/shop/kanri/order/index.php] SendRequest:https://p01.mul-pay.jp/payment/AlterTran.idPass from 61.124.245.8
2021/01/22 14:10:32 [/shop/kanri/order/index.php] Array
(
    [ShopID] => 9102288779655
    [ShopPass] => ******
    [AccessID] => a9220171dba9d828747758f1681aa9da
    [AccessPass] => 6eb8622d3fd7ada4f3e7fb3e9c252a3b
    [JobCd] => SALES
    [Amount] => 13750
)
 from 61.124.245.8
2021/01/22 14:10:32 [/shop/kanri/order/index.php] AccessID=a9220171dba9d828747758f1681aa9da&AccessPass=6eb8622d3fd7ada4f3e7fb3e9c252a3b&Forward=2S49631&Approve=0730444&TranID=2101131749602257217875130444&TranDate=20210122141032 from 61.124.245.8
2021/01/22 14:10:32 [/shop/kanri/order/index.php] Array
(
    [0] => Array
        (
            [AccessID] => a9220171dba9d828747758f1681aa9da
            [AccessPass] => 6eb8622d3fd7ada4f3e7fb3e9c252a3b
            [Forward] => 2S49631
            [Approve] => 0730444
            [TranID] => 2101131749602257217875130444
            [TranDate] => 20210122141032
        )

)
 from 61.124.245.8
2021/01/22 14:10:32 [/shop/kanri/order/index.php] index.php set payment data:Array
(
    [AccessID] => a9220171dba9d828747758f1681aa9da
    [AccessPass] => 6eb8622d3fd7ada4f3e7fb3e9c252a3b
    [Forward] => 2S49631
    [Approve] => 0730444
    [TranID] => 2101131749602257217875130444
    [TranDate] => 20210122141032
    [action_status] => 6
    [pay_status] => 12
)
 from 61.124.245.8
2021/01/22 14:10:33 [/shop/user_data/pg_mulpay_recv.php] ******* receiveer data start ******* from 210.175.7.20
2021/01/22 14:10:33 [/shop/user_data/pg_mulpay_recv.php] Array
(
    [ShopID] => 9102288779655
    [ShopPass] => **********
    [AccessID] => a9220171dba9d828747758f1681aa9da
    [AccessPass] => ********************************
    [OrderID] => 2466-13174948
    [Status] => SALES
    [JobCd] => SALES
    [Amount] => 13750
    [Tax] => 0
    [Currency] => JPN
    [Forward] => 2S49631
    [Method] => 1
    [PayTimes] => 
    [TranID] => 2101131749602257217875130444
    [Approve] => 0730444
    [TranDate] => 20210122141032
    [ErrCode] => 
    [ErrInfo] => 
    [PayType] => 0
)
 from 210.175.7.20
2021/01/22 14:10:33 [/shop/user_data/pg_mulpay_recv.php] ******* receiveer data end ******* from 210.175.7.20
2021/01/22 14:10:33 [/shop/user_data/pg_mulpay_recv.php] pg_mulpay_recv.php set payment data:Array
(
    [ShopID] => 9102288779655
    [AccessID] => a9220171dba9d828747758f1681aa9da
    [OrderID] => 2466-13174948
    [Status] => SALES
    [JobCd] => SALES
    [Amount] => 13750
    [Tax] => 0
    [Currency] => JPN
    [Forward] => 2S49631
    [Method] => 1
    [PayTimes] => 
    [TranID] => 2101131749602257217875130444
    [Approve] => 0730444
    [TranDate] => 20210122141032
    [ErrCode] => 
    [ErrInfo] => 
    [PayType] => 0
    [CvsCode] => 
    [CvsConfNo] => 
    [CvsReceiptNo] => 
    [EdyReceiptNo] => 
    [EdyOrderNo] => 
    [SuicaReceiptNo] => 
    [SuicaOrderNo] => 
    [CustID] => 
    [BkCode] => 
    [ConfNo] => 
    [PaymentTerm] => 
    [EncryptReceiptNo] => 
    [FinishDate] => 
    [ReceiptDate] => 
    [WebMoneyManagementNo] => 
    [WebMoneySettleCode] => 
    [AuPayInfoNo] => 
    [AuPayMethod] => 
    [AuCancelAmount] => 
    [AuCancelTax] => 
    [DocomoSettlementCode] => 
    [DocomoCancelAmount] => 
    [DocomoCancelTax] => 
    [pay_status] => 12
)
 from 210.175.7.20
2021/01/22 14:10:33 [/shop/user_data/pg_mulpay_recv.php] response:true from 210.175.7.20
2021/01/22 14:10:35 [/shop/kanri/order/index.php] SendRequest:https://p01.mul-pay.jp/payment/DocomoSales.idPass from 61.124.245.8
2021/01/22 14:10:35 [/shop/kanri/order/index.php] Array
(
    [ShopID] => 9102288779655
    [ShopPass] => ******
    [AccessID] => 5d04ca49ceb45387dacc7259898d8cac
    [AccessPass] => e016fbd46dc12bbf9a96859cb4215267
    [OrderID] => 2488-20005201
    [Amount] => 1958
)
 from 61.124.245.8
2021/01/22 14:10:35 [/shop/kanri/order/index.php] OrderID=2488-20005201&Status=SALES&Amount=1958&Tax=0 from 61.124.245.8
2021/01/22 14:10:35 [/shop/kanri/order/index.php] Array
(
    [0] => Array
        (
            [OrderID] => 2488-20005201
            [Status] => SALES
            [Amount] => 1958
            [Tax] => 0
        )

)
 from 61.124.245.8
2021/01/22 14:10:35 [/shop/kanri/order/index.php] index.php set payment data:Array
(
    [OrderID] => 2488-20005201
    [Status] => SALES
    [Amount] => 1958
    [Tax] => 0
    [action_status] => 6
    [pay_status] => 12
)
 from 61.124.245.8
2021/01/22 14:10:36 [/shop/user_data/pg_mulpay_recv.php] ******* receiveer data start ******* from 210.175.7.20
2021/01/22 14:10:36 [/shop/user_data/pg_mulpay_recv.php] Array
(
    [ShopID] => 9102288779655
    [ShopPass] => **********
    [AccessID] => 5d04ca49ceb45387dacc7259898d8cac
    [AccessPass] => ********************************
    [OrderID] => 2488-20005201
    [Status] => SALES
    [JobCd] => SALES
    [Amount] => 1958
    [Tax] => 0
    [Currency] => 
    [Forward] => 
    [Method] => 
    [PayTimes] => 
    [TranID] => 
    [Approve] => 
    [TranDate] => 20210122141035
    [ErrCode] => 
    [ErrInfo] => 
    [PayType] => 9
    [CvsCode] => 
    [CvsConfNo] => 
    [CvsReceiptNo] => 
    [EdyReceiptNo] => 
    [EdyOrderNo] => 
    [SuicaReceiptNo] => 
    [SuicaOrderNo] => 
    [CustID] => 
    [BkCode] => 
    [ConfNo] => 
    [PaymentTerm] => 
    [EncryptReceiptNo] => 
    [FinishDate] => 
    [ReceiptDate] => 
    [PayeasyPaymentURL] => 
    [WebMoneyManagementNo] => 
    [WebMoneySettleCode] => 
    [AuPayInfoNo] => 
    [AuPayMethod] => 
    [AuCancelAmount] => 
    [AuCancelTax] => 
    [DocomoSettlementCode] => 404607461482
    [DocomoCancelAmount] => 0
    [DocomoCancelTax] => 0
    [DocomoIncreaseAmount] => 0
    [DocomoIncreaseTax] => 0
    [SbTrackingId] => 
    [SbCancelAmount] => 
    [SbCancelTax] => 
    [JibunReceiptNo] => 
    [AuFirstAmount] => 
    [AuFirstTax] => 
    [AuAccountMonth] => 
    [AuContinueAccountId] => 
    [JcbPrecaSalesCode] => 
    [RequestNo] => 
    [AccountNo] => 
    [CenterCode] => 
    [NetCashPayType] => 
    [OrderDate] => 
    [CompletionDate] => 
    [RakutenidCouponFee] => 
    [McpPayInDate] => 
    [McpPayInAmount] => 
    [McpPayOutDate] => 
    [McpPayOutAmount] => 
    [RED_REQ_ID] => 
    [RED_ORD_ID] => 
    [RED_STAT_CD] => 
    [RED_FRAUD_STAT_CD] => 
    [RED_FRAUD_RSP_CD] => 
    [RED_FRAUD_REC_ID] => 
    [ProductName] => 
    [CancelAmount] => 
    [CancelTax] => 
    [PayMethod] => 
    [VaRequestAmount] => 
    [VaExpireDate] => 
    [VaTradeReason] => 
    [VaTradeClientName] => 
    [VaTradeClientMailaddress] => 
    [VaBankCode] => 
    [VaBankName] => 
    [VaBranchCode] => 
    [VaBranchName] => 
    [VaAccountType] => 
    [VaAccountNumber] => 
    [VaInInquiryNumber] => 
    [VaInSettlementDate] => 
    [VaInAmount] => 
    [VaInClientCode] => 
    [VaInClientName] => 
    [VaInSummary] => 
    [VaReserveID] => 
    [VaTradeCode] => 
    [SbStartChargeMonth] => 
    [SbChargeDay] => 
    [RcCustomerId] => 
    [RcUsePoint] => 
    [RcOrderId] => 
    [RcUpdateAuthDay] => 
    [RcUseCoupon] => 
    [RcUseShopCoupon] => 
    [RcContractId] => 
    [RcStartChargeMonth] => 
    [RcChargeDay] => 
    [RecurringID] => 
    [RecurringMethod] => 
    [RecurringChargeStartDate] => 
    [RecurringChargeStopDate] => 
    [RecurringChargeMonth] => 
    [RecurringChargeDay] => 
    [RecurringNextChargeDate] => 
    [BaSiteId] => 
    [BaMemberId] => 
    [BaTargetDate] => 
    [BaRequestAcceptEndDate] => 
    [BaTransferReturnDate] => 
    [BaWithdrawalDate] => 
    [BaResultcode] => 
    [PaidCancelAmount] => 
    [PaidCancelTax] => 
    [PaidBuyerID] => 
    [PaidCode] => 
    [PrecaNo] => 
    [PrecaSeq] => 
    [PrecaExpireDate] => 
    [ChargeType] => 
    [QuickID] => 
    [CampaignUrl] => 
    [DocomoAcceptCode] => 
    [PvFrontBillKey] => 
    [PvResultCode] => 
    [PvReceiptDatetime] => 
    [PvReceiptAgencyCode] => 
    [PvBarcode] => 
    [PvCvsCode] => 
    [PvCvsBranchCode] => 
    [PvPaymentAmount] => 
    [RakutenidSubscriptionId] => 
    [RakutenidSettlementSubscriptionId] => 
    [AuAcceptCode] => 
    [SbAcceptCode] => 
    [PaysleResultCode] => 
    [BankCode] => 
    [BankTranDate] => 
    [GanbProcessType] => 
    [GanbRequestAmount] => 
    [GanbExpireDate] => 
    [GanbTradeReason] => 
    [GanbTradeClientName] => 
    [GanbTradeClientMailaddress] => 
    [GanbBankCode] => 
    [GanbBankName] => 
    [GanbBranchCode] => 
    [GanbBranchName] => 
    [GanbAccountType] => 
    [GanbAccountNumber] => 
    [GanbAccountHolderName] => 
    [GanbInSettlementDate] => 
    [GanbInAmount] => 
    [GanbInClientName] => 
    [GanbInRemittingBankName] => 
    [GanbInRemittingBranchName] => 
    [GanbTotalTransferAmount] => 
    [GanbTotalTransferCount] => 
)
 from 210.175.7.20
2021/01/22 14:10:36 [/shop/user_data/pg_mulpay_recv.php] ******* receiveer data end ******* from 210.175.7.20
2021/01/22 14:10:36 [/shop/user_data/pg_mulpay_recv.php] pg_mulpay_recv.php set payment data:Array
(
    [ShopID] => 9102288779655
    [AccessID] => 5d04ca49ceb45387dacc7259898d8cac
    [OrderID] => 2488-20005201
    [Status] => SALES
    [JobCd] => SALES
    [Amount] => 1958
    [Tax] => 0
    [Currency] => 
    [Forward] => 
    [Method] => 
    [PayTimes] => 
    [TranID] => 
    [Approve] => 
    [TranDate] => 20210122141035
    [ErrCode] => 
    [ErrInfo] => 
    [PayType] => 9
    [CvsCode] => 
    [CvsConfNo] => 
    [CvsReceiptNo] => 
    [EdyReceiptNo] => 
    [EdyOrderNo] => 
    [SuicaReceiptNo] => 
    [SuicaOrderNo] => 
    [CustID] => 
    [BkCode] => 
    [ConfNo] => 
    [PaymentTerm] => 
    [EncryptReceiptNo] => 
    [FinishDate] => 
    [ReceiptDate] => 
    [WebMoneyManagementNo] => 
    [WebMoneySettleCode] => 
    [AuPayInfoNo] => 
    [AuPayMethod] => 
    [AuCancelAmount] => 
    [AuCancelTax] => 
    [DocomoSettlementCode] => 404607461482
    [DocomoCancelAmount] => 0
    [DocomoCancelTax] => 0
    [pay_status] => 12
)
 from 210.175.7.20
2021/01/22 14:10:36 [/shop/user_data/pg_mulpay_recv.php] response:true from 210.175.7.20
