2019/07/30 13:33:00 [/shop/user_data/pg_mulpay_recv.php] ******* receiveer data start ******* from 210.175.7.20
customer_id = 
/home/oukoku/public_html/shop/user_data/pg_mulpay_recv.php(15): LC_Page_Mdl_PG_MULPAY_Recv->process
/home/oukoku/public_html/shop/data/downloads/module/mdl_pg_mulpay/class/pages/LC_Page_Mdl_PG_MULPAY_Recv.php(44): LC_Page_Mdl_PG_MULPAY_Recv->action
/home/oukoku/public_html/shop/data/downloads/module/mdl_pg_mulpay/class/pages/LC_Page_Mdl_PG_MULPAY_Recv.php(54): LC_Page_Mdl_PG_MULPAY_Recv->lfSetPostLog
/home/oukoku/public_html/shop/data/downloads/module/mdl_pg_mulpay/class/pages/LC_Page_Mdl_PG_MULPAY_Recv.php(832): SC_Mdl_PG_MULPAY->printLog
/home/oukoku/public_html/shop/data/downloads/module/mdl_pg_mulpay/class/SC_Mdl_PG_MULPAY.php(268): GC_Utils::gfPrintLog
2019/07/30 13:33:00 [/shop/user_data/pg_mulpay_recv.php] Array
(
    [ShopID] => 9102288779655
    [ShopPass] => **********
    [AccessID] => 5860b241ff302be88f37ab918acb59d0
    [AccessPass] => ********************************
    [OrderID] => 452-28113208
    [Status] => PAYSUCCESS
    [JobCd] => 
    [Amount] => 18316
    [Tax] => 0
    [Currency] => JPN
    [Forward] => 
    [Method] => 
    [PayTimes] => 
    [TranID] => 19072800000185134368
    [Approve] => 
    [TranDate] => 20190730133259
    [ErrCode] => 
    [ErrInfo] => 
    [PayType] => 3
    [CvsCode] => 10001
    [CvsConfNo] => 2333
    [CvsReceiptNo] => 91920952788834
    [EdyReceiptNo] => 
    [EdyOrderNo] => 
    [SuicaReceiptNo] => 
    [SuicaOrderNo] => 
    [CustID] => 
    [BkCode] => 
    [ConfNo] => 
    [PaymentTerm] => 20190807235959
    [EncryptReceiptNo] => 
    [FinishDate] => 20190730133200
    [ReceiptDate] => 20190728113208
    [PayeasyPaymentURL] => 
    [WebMoneyManagementNo] => 
    [WebMoneySettleCode] => 
    [AuPayInfoNo] => 
    [AuPayMethod] => 
    [AuCancelAmount] => 
    [AuCancelTax] => 
    [DocomoSettlementCode] => 
    [DocomoCancelAmount] => 
    [DocomoCancelTax] => 
    [DocomoIncreaseAmount] => 
    [DocomoIncreaseTax] => 
    [SbTrackingId] => 
    [SbCancelAmount] => 
    [SbCancelTax] => 
    [JibunReceiptNo] => 
    [AuFirstAmount] => 
    [AuFirstTax] => 
    [AuAccountMonth] => 
    [AuContinueAccountId] => 
    [JcbPrecaSalesCode] => 
    [RequestNo] => 
    [AccountNo] => 
    [CenterCode] => 
    [NetCashPayType] => 
    [OrderDate] => 
    [CompletionDate] => 
    [RakutenidCouponFee] => 
    [McpPayInDate] => 
    [McpPayInAmount] => 
    [McpPayOutDate] => 
    [McpPayOutAmount] => 
    [RED_REQ_ID] => 
    [RED_ORD_ID] => 
    [RED_STAT_CD] => 
    [RED_FRAUD_STAT_CD] => 
    [RED_FRAUD_RSP_CD] => 
    [RED_FRAUD_REC_ID] => 
    [ProductName] => 
    [CancelAmount] => 
    [CancelTax] => 
    [PayMethod] => 
    [VaRequestAmount] => 
    [VaExpireDate] => 
    [VaTradeReason] => 
    [VaTradeClientName] => 
    [VaTradeClientMailaddress] => 
    [VaBankCode] => 
    [VaBankName] => 
    [VaBranchCode] => 
    [VaBranchName] => 
    [VaAccountType] => 
    [VaAccountNumber] => 
    [VaInInquiryNumber] => 
    [VaInSettlementDate] => 
    [VaInAmount] => 
    [VaInClientCode] => 
    [VaInClientName] => 
    [VaInSummary] => 
    [VaReserveID] => 
    [VaTradeCode] => 
    [SbStartChargeMonth] => 
    [SbChargeDay] => 
    [RcCustomerId] => 
    [RcUsePoint] => 
    [RcOrderId] => 
    [RcUpdateAuthDay] => 
    [RcUseCoupon] => 
    [RcUseShopCoupon] => 
    [RcContractId] => 
    [RcStartChargeMonth] => 
    [RcChargeDay] => 
    [RecurringID] => 
    [RecurringMethod] => 
    [RecurringChargeStartDate] => 
    [RecurringChargeStopDate] => 
    [RecurringChargeMonth] => 
    [RecurringChargeDay] => 
    [RecurringNextChargeDate] => 
    [BaSiteId] => 
    [BaMemberId] => 
    [BaTargetDate] => 
    [BaRequestAcceptEndDate] => 
    [BaTransferReturnDate] => 
    [BaWithdrawalDate] => 
    [BaResultcode] => 
    [PaidCancelAmount] => 
    [PaidCancelTax] => 
    [PaidBuyerID] => 
    [PaidCode] => 
    [PrecaNo] => 
    [PrecaSeq] => 
    [PrecaExpireDate] => 
    [ChargeType] => 
    [QuickID] => 
    [CampaignUrl] => 
    [DocomoAcceptCode] => 
    [PvFrontBillKey] => 
    [PvResultCode] => 
    [PvReceiptDatetime] => 
    [PvReceiptAgencyCode] => 
    [PvBarcode] => 
    [PvCvsCode] => 
    [PvCvsBranchCode] => 
    [PvPaymentAmount] => 
    [RakutenidSubscriptionId] => 
    [RakutenidSettlementSubscriptionId] => 
    [AuAcceptCode] => 
    [SbAcceptCode] => 
    [PaysleResultCode] => 
    [BankCode] => 
    [BankTranDate] => 
    [GanbProcessType] => 
    [GanbRequestAmount] => 
    [GanbExpireDate] => 
    [GanbTradeReason] => 
    [GanbTradeClientName] => 
    [GanbTradeClientMailaddress] => 
    [GanbBankCode] => 
    [GanbBankName] => 
    [GanbBranchCode] => 
    [GanbBranchName] => 
    [GanbAccountType] => 
    [GanbAccountNumber] => 
    [GanbAccountHolderName] => 
    [GanbInSettlementDate] => 
    [GanbInAmount] => 
    [GanbInClientName] => 
    [GanbInRemittingBankName] => 
    [GanbInRemittingBranchName] => 
    [GanbTotalTransferAmount] => 
    [GanbTotalTransferCount] => 
)
 from 210.175.7.20
customer_id = 
/home/oukoku/public_html/shop/user_data/pg_mulpay_recv.php(15): LC_Page_Mdl_PG_MULPAY_Recv->process
/home/oukoku/public_html/shop/data/downloads/module/mdl_pg_mulpay/class/pages/LC_Page_Mdl_PG_MULPAY_Recv.php(44): LC_Page_Mdl_PG_MULPAY_Recv->action
/home/oukoku/public_html/shop/data/downloads/module/mdl_pg_mulpay/class/pages/LC_Page_Mdl_PG_MULPAY_Recv.php(54): LC_Page_Mdl_PG_MULPAY_Recv->lfSetPostLog
/home/oukoku/public_html/shop/data/downloads/module/mdl_pg_mulpay/class/pages/LC_Page_Mdl_PG_MULPAY_Recv.php(836): SC_Mdl_PG_MULPAY->printLog
/home/oukoku/public_html/shop/data/downloads/module/mdl_pg_mulpay/class/SC_Mdl_PG_MULPAY.php(268): GC_Utils::gfPrintLog
2019/07/30 13:33:00 [/shop/user_data/pg_mulpay_recv.php] ******* receiveer data end ******* from 210.175.7.20
customer_id = 
/home/oukoku/public_html/shop/user_data/pg_mulpay_recv.php(15): LC_Page_Mdl_PG_MULPAY_Recv->process
/home/oukoku/public_html/shop/data/downloads/module/mdl_pg_mulpay/class/pages/LC_Page_Mdl_PG_MULPAY_Recv.php(44): LC_Page_Mdl_PG_MULPAY_Recv->action
/home/oukoku/public_html/shop/data/downloads/module/mdl_pg_mulpay/class/pages/LC_Page_Mdl_PG_MULPAY_Recv.php(54): LC_Page_Mdl_PG_MULPAY_Recv->lfSetPostLog
/home/oukoku/public_html/shop/data/downloads/module/mdl_pg_mulpay/class/pages/LC_Page_Mdl_PG_MULPAY_Recv.php(837): SC_Mdl_PG_MULPAY->printLog
/home/oukoku/public_html/shop/data/downloads/module/mdl_pg_mulpay/class/SC_Mdl_PG_MULPAY.php(268): GC_Utils::gfPrintLog
2019/07/30 13:33:00 [/shop/user_data/pg_mulpay_recv.php] update order status:6 from 210.175.7.20
customer_id = 
/home/oukoku/public_html/shop/user_data/pg_mulpay_recv.php(15): LC_Page_Mdl_PG_MULPAY_Recv->process
/home/oukoku/public_html/shop/data/downloads/module/mdl_pg_mulpay/class/pages/LC_Page_Mdl_PG_MULPAY_Recv.php(44): LC_Page_Mdl_PG_MULPAY_Recv->action
/home/oukoku/public_html/shop/data/downloads/module/mdl_pg_mulpay/class/pages/LC_Page_Mdl_PG_MULPAY_Recv.php(91): LC_Page_Mdl_PG_MULPAY_Recv->lfDoReceive
/home/oukoku/public_html/shop/data/downloads/module/mdl_pg_mulpay/class/pages/LC_Page_Mdl_PG_MULPAY_Recv.php(132): LC_Page_Mdl_PG_MULPAY_Recv->lfDoRecvCvs
/home/oukoku/public_html/shop/data/downloads/module/mdl_pg_mulpay/class/pages/LC_Page_Mdl_PG_MULPAY_Recv.php(285): LC_Page_Mdl_PG_MULPAY_Recv->lfDoRecvDefault
/home/oukoku/public_html/shop/data/downloads/module/mdl_pg_mulpay/class/pages/LC_Page_Mdl_PG_MULPAY_Recv.php(263): SC_Mdl_PG_MULPAY->printLog
/home/oukoku/public_html/shop/data/downloads/module/mdl_pg_mulpay/class/SC_Mdl_PG_MULPAY.php(268): GC_Utils::gfPrintLog
2019/07/30 13:33:00 [/shop/user_data/pg_mulpay_recv.php] pg_mulpay_recv.php set payment data:Array
(
    [ShopID] => 9102288779655
    [AccessID] => 5860b241ff302be88f37ab918acb59d0
    [OrderID] => 452-28113208
    [Status] => PAYSUCCESS
    [JobCd] => 
    [Amount] => 18316
    [Tax] => 0
    [Currency] => JPN
    [Forward] => 
    [Method] => 
    [PayTimes] => 
    [TranID] => 19072800000185134368
    [Approve] => 
    [TranDate] => 20190730133259
    [ErrCode] => 
    [ErrInfo] => 
    [PayType] => 3
    [CvsCode] => 10001
    [CvsConfNo] => 2333
    [CvsReceiptNo] => 91920952788834
    [EdyReceiptNo] => 
    [EdyOrderNo] => 
    [SuicaReceiptNo] => 
    [SuicaOrderNo] => 
    [CustID] => 
    [BkCode] => 
    [PaymentTerm] => 20190807235959
    [EncryptReceiptNo] => 
    [FinishDate] => 20190730133200
    [ReceiptDate] => 20190728113208
    [WebMoneyManagementNo] => 
    [WebMoneySettleCode] => 
    [AuPayInfoNo] => 
    [AuPayMethod] => 
    [AuCancelAmount] => 
    [AuCancelTax] => 
    [DocomoSettlementCode] => 
    [DocomoCancelAmount] => 
    [DocomoCancelTax] => 
    [pay_status] => 2
)
 from 210.175.7.20
customer_id = 
/home/oukoku/public_html/shop/user_data/pg_mulpay_recv.php(15): LC_Page_Mdl_PG_MULPAY_Recv->process
/home/oukoku/public_html/shop/data/downloads/module/mdl_pg_mulpay/class/pages/LC_Page_Mdl_PG_MULPAY_Recv.php(44): LC_Page_Mdl_PG_MULPAY_Recv->action
/home/oukoku/public_html/shop/data/downloads/module/mdl_pg_mulpay/class/pages/LC_Page_Mdl_PG_MULPAY_Recv.php(91): LC_Page_Mdl_PG_MULPAY_Recv->lfDoReceive
/home/oukoku/public_html/shop/data/downloads/module/mdl_pg_mulpay/class/pages/LC_Page_Mdl_PG_MULPAY_Recv.php(226): SC_Util_PG_MULPAY->setOrderPayData
/home/oukoku/public_html/shop/data/downloads/module/mdl_pg_mulpay/class/util/SC_Util_PG_MULPAY.php(501): SC_Mdl_PG_MULPAY->printLog
/home/oukoku/public_html/shop/data/downloads/module/mdl_pg_mulpay/class/SC_Mdl_PG_MULPAY.php(268): GC_Utils::gfPrintLog
2019/07/30 13:33:00 [/shop/user_data/pg_mulpay_recv.php] response:true from 210.175.7.20
customer_id = 
/home/oukoku/public_html/shop/user_data/pg_mulpay_recv.php(15): LC_Page_Mdl_PG_MULPAY_Recv->process
/home/oukoku/public_html/shop/data/downloads/module/mdl_pg_mulpay/class/pages/LC_Page_Mdl_PG_MULPAY_Recv.php(44): LC_Page_Mdl_PG_MULPAY_Recv->action
/home/oukoku/public_html/shop/data/downloads/module/mdl_pg_mulpay/class/pages/LC_Page_Mdl_PG_MULPAY_Recv.php(93): LC_Page_Mdl_PG_MULPAY_Recv->lfSendResponse
/home/oukoku/public_html/shop/data/downloads/module/mdl_pg_mulpay/class/pages/LC_Page_Mdl_PG_MULPAY_Recv.php(849): SC_Mdl_PG_MULPAY->printLog
/home/oukoku/public_html/shop/data/downloads/module/mdl_pg_mulpay/class/SC_Mdl_PG_MULPAY.php(268): GC_Utils::gfPrintLog
2019/07/30 13:34:00 [/shop/kanri/order/edit.php] SendRequest:https://p01.mul-pay.jp/payment/AlterTran.idPass from 219.116.191.87
login_id = oukokuadmin(0)[p3puk59ntlmf89udj7clpofnm5]
/home/oukoku/public_html/shop/kanri/order/edit.php(28): LC_Page_Admin_Order_Edit_Ex->init
/home/oukoku/public_html/shop/data/class_extends/page_extends/admin/order/LC_Page_Admin_Order_Edit_Ex.php(44): LC_Page_Admin_Order_Edit->init
/home/oukoku/public_html/shop/data/class/pages/admin/order/LC_Page_Admin_Order_Edit.php(93): LC_Page_Admin_Order_Ex->init
/home/oukoku/public_html/shop/data/class_extends/page_extends/admin/order/LC_Page_Admin_Order_Ex.php(44): LC_Page_Admin_Order->init
/home/oukoku/public_html/shop/data/class/pages/admin/order/LC_Page_Admin_Order.php(42): LC_Page_Admin->init
/home/oukoku/public_html/shop/data/class/pages/admin/LC_Page_Admin.php(78): SC_Helper_Plugin->doAction
/home/oukoku/public_html/shop/data/class/helper/SC_Helper_Plugin.php(145): call_user_func_array
(): PgMulpayUtils->hookActionBefore
/home/oukoku/public_html/shop/data/downloads/plugin/PgMulpayUtils/PgMulpayUtils.php(143): PgMulpayUtils->callHookAction
/home/oukoku/public_html/shop/data/downloads/plugin/PgMulpayUtils/PgMulpayUtils.php(157): LC_PgMulpayUtils->actionHook
/home/oukoku/public_html/shop/data/downloads/module/mdl_pg_mulpay/class/plugin/LC_PgMulpayUtils.php(155): LC_PgMulpayUtils->lfDoAdminOrderEditBefore
/home/oukoku/public_html/shop/data/downloads/module/mdl_pg_mulpay/class/plugin/LC_PgMulpayUtils.php(385): SC_Mdl_PG_MULPAY_Client_Util->commitOrder
/home/oukoku/public_html/shop/data/downloads/module/mdl_pg_mulpay/class/client/SC_Mdl_PG_MULPAY_Client_Util.php(318): SC_Mdl_PG_MULPAY_Client_Base->sendRequest
/home/oukoku/public_html/shop/data/downloads/module/mdl_pg_mulpay/class/client/SC_Mdl_PG_MULPAY_Client_Base.php(375): SC_Mdl_PG_MULPAY->printLog
/home/oukoku/public_html/shop/data/downloads/module/mdl_pg_mulpay/class/SC_Mdl_PG_MULPAY.php(268): GC_Utils::gfPrintLog
2019/07/30 13:34:00 [/shop/kanri/order/edit.php] Array
(
    [ShopID] => 9102288779655
    [ShopPass] => ******
    [AccessID] => 73d39ced9fef4f5248c0b8ff7949b434
    [AccessPass] => 49213b9a25b9effcda3e34c11cc8a035
    [JobCd] => SALES
    [Amount] => 33912
)
 from 219.116.191.87
login_id = oukokuadmin(0)[p3puk59ntlmf89udj7clpofnm5]
/home/oukoku/public_html/shop/kanri/order/edit.php(28): LC_Page_Admin_Order_Edit_Ex->init
/home/oukoku/public_html/shop/data/class_extends/page_extends/admin/order/LC_Page_Admin_Order_Edit_Ex.php(44): LC_Page_Admin_Order_Edit->init
/home/oukoku/public_html/shop/data/class/pages/admin/order/LC_Page_Admin_Order_Edit.php(93): LC_Page_Admin_Order_Ex->init
/home/oukoku/public_html/shop/data/class_extends/page_extends/admin/order/LC_Page_Admin_Order_Ex.php(44): LC_Page_Admin_Order->init
/home/oukoku/public_html/shop/data/class/pages/admin/order/LC_Page_Admin_Order.php(42): LC_Page_Admin->init
/home/oukoku/public_html/shop/data/class/pages/admin/LC_Page_Admin.php(78): SC_Helper_Plugin->doAction
/home/oukoku/public_html/shop/data/class/helper/SC_Helper_Plugin.php(145): call_user_func_array
(): PgMulpayUtils->hookActionBefore
/home/oukoku/public_html/shop/data/downloads/plugin/PgMulpayUtils/PgMulpayUtils.php(143): PgMulpayUtils->callHookAction
/home/oukoku/public_html/shop/data/downloads/plugin/PgMulpayUtils/PgMulpayUtils.php(157): LC_PgMulpayUtils->actionHook
/home/oukoku/public_html/shop/data/downloads/module/mdl_pg_mulpay/class/plugin/LC_PgMulpayUtils.php(155): LC_PgMulpayUtils->lfDoAdminOrderEditBefore
/home/oukoku/public_html/shop/data/downloads/module/mdl_pg_mulpay/class/plugin/LC_PgMulpayUtils.php(385): SC_Mdl_PG_MULPAY_Client_Util->commitOrder
/home/oukoku/public_html/shop/data/downloads/module/mdl_pg_mulpay/class/client/SC_Mdl_PG_MULPAY_Client_Util.php(318): SC_Mdl_PG_MULPAY_Client_Base->sendRequest
/home/oukoku/public_html/shop/data/downloads/module/mdl_pg_mulpay/class/client/SC_Mdl_PG_MULPAY_Client_Base.php(376): SC_Mdl_PG_MULPAY->printLog
/home/oukoku/public_html/shop/data/downloads/module/mdl_pg_mulpay/class/SC_Mdl_PG_MULPAY.php(268): GC_Utils::gfPrintLog
2019/07/30 13:34:00 [/shop/kanri/order/edit.php] AccessID=73d39ced9fef4f5248c0b8ff7949b434&AccessPass=49213b9a25b9effcda3e34c11cc8a035&Forward=2959876&Approve=0101035&TranID=1907221233602257217875120078&TranDate=20190730133400 from 219.116.191.87
login_id = oukokuadmin(0)[p3puk59ntlmf89udj7clpofnm5]
/home/oukoku/public_html/shop/kanri/order/edit.php(28): LC_Page_Admin_Order_Edit_Ex->init
/home/oukoku/public_html/shop/data/class_extends/page_extends/admin/order/LC_Page_Admin_Order_Edit_Ex.php(44): LC_Page_Admin_Order_Edit->init
/home/oukoku/public_html/shop/data/class/pages/admin/order/LC_Page_Admin_Order_Edit.php(93): LC_Page_Admin_Order_Ex->init
/home/oukoku/public_html/shop/data/class_extends/page_extends/admin/order/LC_Page_Admin_Order_Ex.php(44): LC_Page_Admin_Order->init
/home/oukoku/public_html/shop/data/class/pages/admin/order/LC_Page_Admin_Order.php(42): LC_Page_Admin->init
/home/oukoku/public_html/shop/data/class/pages/admin/LC_Page_Admin.php(78): SC_Helper_Plugin->doAction
/home/oukoku/public_html/shop/data/class/helper/SC_Helper_Plugin.php(145): call_user_func_array
(): PgMulpayUtils->hookActionBefore
/home/oukoku/public_html/shop/data/downloads/plugin/PgMulpayUtils/PgMulpayUtils.php(143): PgMulpayUtils->callHookAction
/home/oukoku/public_html/shop/data/downloads/plugin/PgMulpayUtils/PgMulpayUtils.php(157): LC_PgMulpayUtils->actionHook
/home/oukoku/public_html/shop/data/downloads/module/mdl_pg_mulpay/class/plugin/LC_PgMulpayUtils.php(155): LC_PgMulpayUtils->lfDoAdminOrderEditBefore
/home/oukoku/public_html/shop/data/downloads/module/mdl_pg_mulpay/class/plugin/LC_PgMulpayUtils.php(385): SC_Mdl_PG_MULPAY_Client_Util->commitOrder
/home/oukoku/public_html/shop/data/downloads/module/mdl_pg_mulpay/class/client/SC_Mdl_PG_MULPAY_Client_Util.php(318): SC_Mdl_PG_MULPAY_Client_Base->sendRequest
/home/oukoku/public_html/shop/data/downloads/module/mdl_pg_mulpay/class/client/SC_Mdl_PG_MULPAY_Client_Base.php(418): SC_Mdl_PG_MULPAY_Client_Base->parseResponse
/home/oukoku/public_html/shop/data/downloads/module/mdl_pg_mulpay/class/client/SC_Mdl_PG_MULPAY_Client_Base.php(446): SC_Mdl_PG_MULPAY->printLog
/home/oukoku/public_html/shop/data/downloads/module/mdl_pg_mulpay/class/SC_Mdl_PG_MULPAY.php(268): GC_Utils::gfPrintLog
2019/07/30 13:34:00 [/shop/kanri/order/edit.php] Array
(
    [0] => Array
        (
            [AccessID] => 73d39ced9fef4f5248c0b8ff7949b434
            [AccessPass] => 49213b9a25b9effcda3e34c11cc8a035
            [Forward] => 2959876
            [Approve] => 0101035
            [TranID] => 1907221233602257217875120078
            [TranDate] => 20190730133400
        )

)
 from 219.116.191.87
login_id = oukokuadmin(0)[p3puk59ntlmf89udj7clpofnm5]
/home/oukoku/public_html/shop/kanri/order/edit.php(28): LC_Page_Admin_Order_Edit_Ex->init
/home/oukoku/public_html/shop/data/class_extends/page_extends/admin/order/LC_Page_Admin_Order_Edit_Ex.php(44): LC_Page_Admin_Order_Edit->init
/home/oukoku/public_html/shop/data/class/pages/admin/order/LC_Page_Admin_Order_Edit.php(93): LC_Page_Admin_Order_Ex->init
/home/oukoku/public_html/shop/data/class_extends/page_extends/admin/order/LC_Page_Admin_Order_Ex.php(44): LC_Page_Admin_Order->init
/home/oukoku/public_html/shop/data/class/pages/admin/order/LC_Page_Admin_Order.php(42): LC_Page_Admin->init
/home/oukoku/public_html/shop/data/class/pages/admin/LC_Page_Admin.php(78): SC_Helper_Plugin->doAction
/home/oukoku/public_html/shop/data/class/helper/SC_Helper_Plugin.php(145): call_user_func_array
(): PgMulpayUtils->hookActionBefore
/home/oukoku/public_html/shop/data/downloads/plugin/PgMulpayUtils/PgMulpayUtils.php(143): PgMulpayUtils->callHookAction
/home/oukoku/public_html/shop/data/downloads/plugin/PgMulpayUtils/PgMulpayUtils.php(157): LC_PgMulpayUtils->actionHook
/home/oukoku/public_html/shop/data/downloads/module/mdl_pg_mulpay/class/plugin/LC_PgMulpayUtils.php(155): LC_PgMulpayUtils->lfDoAdminOrderEditBefore
/home/oukoku/public_html/shop/data/downloads/module/mdl_pg_mulpay/class/plugin/LC_PgMulpayUtils.php(385): SC_Mdl_PG_MULPAY_Client_Util->commitOrder
/home/oukoku/public_html/shop/data/downloads/module/mdl_pg_mulpay/class/client/SC_Mdl_PG_MULPAY_Client_Util.php(318): SC_Mdl_PG_MULPAY_Client_Base->sendRequest
/home/oukoku/public_html/shop/data/downloads/module/mdl_pg_mulpay/class/client/SC_Mdl_PG_MULPAY_Client_Base.php(419): SC_Mdl_PG_MULPAY_Client_Base->setResults
/home/oukoku/public_html/shop/data/downloads/module/mdl_pg_mulpay/class/client/SC_Mdl_PG_MULPAY_Client_Base.php(533): SC_Mdl_PG_MULPAY->printLog
/home/oukoku/public_html/shop/data/downloads/module/mdl_pg_mulpay/class/SC_Mdl_PG_MULPAY.php(268): GC_Utils::gfPrintLog
2019/07/30 13:34:00 [/shop/kanri/order/edit.php] edit.php set payment data:Array
(
    [AccessID] => 73d39ced9fef4f5248c0b8ff7949b434
    [AccessPass] => 49213b9a25b9effcda3e34c11cc8a035
    [Forward] => 2959876
    [Approve] => 0101035
    [TranID] => 1907221233602257217875120078
    [TranDate] => 20190730133400
    [action_status] => 6
    [pay_status] => 12
)
 from 219.116.191.87
login_id = oukokuadmin(0)[p3puk59ntlmf89udj7clpofnm5]
/home/oukoku/public_html/shop/kanri/order/edit.php(28): LC_Page_Admin_Order_Edit_Ex->init
/home/oukoku/public_html/shop/data/class_extends/page_extends/admin/order/LC_Page_Admin_Order_Edit_Ex.php(44): LC_Page_Admin_Order_Edit->init
/home/oukoku/public_html/shop/data/class/pages/admin/order/LC_Page_Admin_Order_Edit.php(93): LC_Page_Admin_Order_Ex->init
/home/oukoku/public_html/shop/data/class_extends/page_extends/admin/order/LC_Page_Admin_Order_Ex.php(44): LC_Page_Admin_Order->init
/home/oukoku/public_html/shop/data/class/pages/admin/order/LC_Page_Admin_Order.php(42): LC_Page_Admin->init
/home/oukoku/public_html/shop/data/class/pages/admin/LC_Page_Admin.php(78): SC_Helper_Plugin->doAction
/home/oukoku/public_html/shop/data/class/helper/SC_Helper_Plugin.php(145): call_user_func_array
(): PgMulpayUtils->hookActionBefore
/home/oukoku/public_html/shop/data/downloads/plugin/PgMulpayUtils/PgMulpayUtils.php(143): PgMulpayUtils->callHookAction
/home/oukoku/public_html/shop/data/downloads/plugin/PgMulpayUtils/PgMulpayUtils.php(157): LC_PgMulpayUtils->actionHook
/home/oukoku/public_html/shop/data/downloads/module/mdl_pg_mulpay/class/plugin/LC_PgMulpayUtils.php(155): LC_PgMulpayUtils->lfDoAdminOrderEditBefore
/home/oukoku/public_html/shop/data/downloads/module/mdl_pg_mulpay/class/plugin/LC_PgMulpayUtils.php(385): SC_Mdl_PG_MULPAY_Client_Util->commitOrder
/home/oukoku/public_html/shop/data/downloads/module/mdl_pg_mulpay/class/client/SC_Mdl_PG_MULPAY_Client_Util.php(332): SC_Util_PG_MULPAY->setOrderPayData
/home/oukoku/public_html/shop/data/downloads/module/mdl_pg_mulpay/class/util/SC_Util_PG_MULPAY.php(501): SC_Mdl_PG_MULPAY->printLog
/home/oukoku/public_html/shop/data/downloads/module/mdl_pg_mulpay/class/SC_Mdl_PG_MULPAY.php(268): GC_Utils::gfPrintLog
2019/07/30 13:34:00 [/shop/user_data/pg_mulpay_recv.php] ******* receiveer data start ******* from 210.175.7.20
customer_id = 
/home/oukoku/public_html/shop/user_data/pg_mulpay_recv.php(15): LC_Page_Mdl_PG_MULPAY_Recv->process
/home/oukoku/public_html/shop/data/downloads/module/mdl_pg_mulpay/class/pages/LC_Page_Mdl_PG_MULPAY_Recv.php(44): LC_Page_Mdl_PG_MULPAY_Recv->action
/home/oukoku/public_html/shop/data/downloads/module/mdl_pg_mulpay/class/pages/LC_Page_Mdl_PG_MULPAY_Recv.php(54): LC_Page_Mdl_PG_MULPAY_Recv->lfSetPostLog
/home/oukoku/public_html/shop/data/downloads/module/mdl_pg_mulpay/class/pages/LC_Page_Mdl_PG_MULPAY_Recv.php(832): SC_Mdl_PG_MULPAY->printLog
/home/oukoku/public_html/shop/data/downloads/module/mdl_pg_mulpay/class/SC_Mdl_PG_MULPAY.php(268): GC_Utils::gfPrintLog
2019/07/30 13:34:00 [/shop/user_data/pg_mulpay_recv.php] Array
(
    [ShopID] => 9102288779655
    [ShopPass] => **********
    [AccessID] => 73d39ced9fef4f5248c0b8ff7949b434
    [AccessPass] => ********************************
    [OrderID] => 445-22112747
    [Status] => SALES
    [JobCd] => SALES
    [Amount] => 33912
    [Tax] => 0
    [Currency] => JPN
    [Forward] => 2959876
    [Method] => 1
    [PayTimes] => 
    [TranID] => 1907221233602257217875120078
    [Approve] => 0101035
    [TranDate] => 20190730133400
    [ErrCode] => 
    [ErrInfo] => 
    [PayType] => 0
    [CvsCode] => 
    [CvsConfNo] => 
    [CvsReceiptNo] => 
    [EdyReceiptNo] => 
    [EdyOrderNo] => 
    [SuicaReceiptNo] => 
    [SuicaOrderNo] => 
    [CustID] => 
    [BkCode] => 
    [ConfNo] => 
    [PaymentTerm] => 
    [EncryptReceiptNo] => 
    [FinishDate] => 
    [ReceiptDate] => 
    [PayeasyPaymentURL] => 
    [WebMoneyManagementNo] => 
    [WebMoneySettleCode] => 
    [AuPayInfoNo] => 
    [AuPayMethod] => 
    [AuCancelAmount] => 
    [AuCancelTax] => 
    [DocomoSettlementCode] => 
    [DocomoCancelAmount] => 
    [DocomoCancelTax] => 
    [DocomoIncreaseAmount] => 
    [DocomoIncreaseTax] => 
    [SbTrackingId] => 
    [SbCancelAmount] => 
    [SbCancelTax] => 
    [JibunReceiptNo] => 
    [AuFirstAmount] => 
    [AuFirstTax] => 
    [AuAccountMonth] => 
    [AuContinueAccountId] => 
    [JcbPrecaSalesCode] => 
    [RequestNo] => 
    [AccountNo] => 
    [CenterCode] => 
    [NetCashPayType] => 
    [OrderDate] => 
    [CompletionDate] => 
    [RakutenidCouponFee] => 
    [McpPayInDate] => 
    [McpPayInAmount] => 
    [McpPayOutDate] => 
    [McpPayOutAmount] => 
    [RED_REQ_ID] => 
    [RED_ORD_ID] => 
    [RED_STAT_CD] => 
    [RED_FRAUD_STAT_CD] => 
    [RED_FRAUD_RSP_CD] => 
    [RED_FRAUD_REC_ID] => 
    [ProductName] => 
    [CancelAmount] => 
    [CancelTax] => 
    [PayMethod] => 
    [VaRequestAmount] => 
    [VaExpireDate] => 
    [VaTradeReason] => 
    [VaTradeClientName] => 
    [VaTradeClientMailaddress] => 
    [VaBankCode] => 
    [VaBankName] => 
    [VaBranchCode] => 
    [VaBranchName] => 
    [VaAccountType] => 
    [VaAccountNumber] => 
    [VaInInquiryNumber] => 
    [VaInSettlementDate] => 
    [VaInAmount] => 
    [VaInClientCode] => 
    [VaInClientName] => 
    [VaInSummary] => 
    [VaReserveID] => 
    [VaTradeCode] => 
    [SbStartChargeMonth] => 
    [SbChargeDay] => 
    [RcCustomerId] => 
    [RcUsePoint] => 
    [RcOrderId] => 
    [RcUpdateAuthDay] => 
    [RcUseCoupon] => 
    [RcUseShopCoupon] => 
    [RcContractId] => 
    [RcStartChargeMonth] => 
    [RcChargeDay] => 
    [RecurringID] => 
    [RecurringMethod] => 
    [RecurringChargeStartDate] => 
    [RecurringChargeStopDate] => 
    [RecurringChargeMonth] => 
    [RecurringChargeDay] => 
    [RecurringNextChargeDate] => 
    [BaSiteId] => 
    [BaMemberId] => 
    [BaTargetDate] => 
    [BaRequestAcceptEndDate] => 
    [BaTransferReturnDate] => 
    [BaWithdrawalDate] => 
    [BaResultcode] => 
    [PaidCancelAmount] => 
    [PaidCancelTax] => 
    [PaidBuyerID] => 
    [PaidCode] => 
    [PrecaNo] => 
    [PrecaSeq] => 
    [PrecaExpireDate] => 
    [ChargeType] => 
    [QuickID] => 
    [CampaignUrl] => 
    [DocomoAcceptCode] => 
    [PvFrontBillKey] => 
    [PvResultCode] => 
    [PvReceiptDatetime] => 
    [PvReceiptAgencyCode] => 
    [PvBarcode] => 
    [PvCvsCode] => 
    [PvCvsBranchCode] => 
    [PvPaymentAmount] => 
    [RakutenidSubscriptionId] => 
    [RakutenidSettlementSubscriptionId] => 
    [AuAcceptCode] => 
    [SbAcceptCode] => 
    [PaysleResultCode] => 
    [BankCode] => 
    [BankTranDate] => 
    [GanbProcessType] => 
    [GanbRequestAmount] => 
    [GanbExpireDate] => 
    [GanbTradeReason] => 
    [GanbTradeClientName] => 
    [GanbTradeClientMailaddress] => 
    [GanbBankCode] => 
    [GanbBankName] => 
    [GanbBranchCode] => 
    [GanbBranchName] => 
    [GanbAccountType] => 
    [GanbAccountNumber] => 
    [GanbAccountHolderName] => 
    [GanbInSettlementDate] => 
    [GanbInAmount] => 
    [GanbInClientName] => 
    [GanbInRemittingBankName] => 
    [GanbInRemittingBranchName] => 
    [GanbTotalTransferAmount] => 
    [GanbTotalTransferCount] => 
)
 from 210.175.7.20
customer_id = 
/home/oukoku/public_html/shop/user_data/pg_mulpay_recv.php(15): LC_Page_Mdl_PG_MULPAY_Recv->process
/home/oukoku/public_html/shop/data/downloads/module/mdl_pg_mulpay/class/pages/LC_Page_Mdl_PG_MULPAY_Recv.php(44): LC_Page_Mdl_PG_MULPAY_Recv->action
/home/oukoku/public_html/shop/data/downloads/module/mdl_pg_mulpay/class/pages/LC_Page_Mdl_PG_MULPAY_Recv.php(54): LC_Page_Mdl_PG_MULPAY_Recv->lfSetPostLog
/home/oukoku/public_html/shop/data/downloads/module/mdl_pg_mulpay/class/pages/LC_Page_Mdl_PG_MULPAY_Recv.php(836): SC_Mdl_PG_MULPAY->printLog
/home/oukoku/public_html/shop/data/downloads/module/mdl_pg_mulpay/class/SC_Mdl_PG_MULPAY.php(268): GC_Utils::gfPrintLog
2019/07/30 13:34:00 [/shop/user_data/pg_mulpay_recv.php] ******* receiveer data end ******* from 210.175.7.20
customer_id = 
/home/oukoku/public_html/shop/user_data/pg_mulpay_recv.php(15): LC_Page_Mdl_PG_MULPAY_Recv->process
/home/oukoku/public_html/shop/data/downloads/module/mdl_pg_mulpay/class/pages/LC_Page_Mdl_PG_MULPAY_Recv.php(44): LC_Page_Mdl_PG_MULPAY_Recv->action
/home/oukoku/public_html/shop/data/downloads/module/mdl_pg_mulpay/class/pages/LC_Page_Mdl_PG_MULPAY_Recv.php(54): LC_Page_Mdl_PG_MULPAY_Recv->lfSetPostLog
/home/oukoku/public_html/shop/data/downloads/module/mdl_pg_mulpay/class/pages/LC_Page_Mdl_PG_MULPAY_Recv.php(837): SC_Mdl_PG_MULPAY->printLog
/home/oukoku/public_html/shop/data/downloads/module/mdl_pg_mulpay/class/SC_Mdl_PG_MULPAY.php(268): GC_Utils::gfPrintLog
2019/07/30 13:34:00 [/shop/user_data/pg_mulpay_recv.php] pg_mulpay_recv.php set payment data:Array
(
    [ShopID] => 9102288779655
    [AccessID] => 73d39ced9fef4f5248c0b8ff7949b434
    [OrderID] => 445-22112747
    [Status] => SALES
    [JobCd] => SALES
    [Amount] => 33912
    [Tax] => 0
    [Currency] => JPN
    [Forward] => 2959876
    [Method] => 1
    [PayTimes] => 
    [TranID] => 1907221233602257217875120078
    [Approve] => 0101035
    [TranDate] => 20190730133400
    [PayType] => 0
    [CvsCode] => 
    [CvsConfNo] => 
    [CvsReceiptNo] => 
    [EdyReceiptNo] => 
    [EdyOrderNo] => 
    [SuicaReceiptNo] => 
    [SuicaOrderNo] => 
    [CustID] => 
    [BkCode] => 
    [ConfNo] => 
    [PaymentTerm] => 
    [EncryptReceiptNo] => 
    [FinishDate] => 
    [ReceiptDate] => 
    [WebMoneyManagementNo] => 
    [WebMoneySettleCode] => 
    [AuPayInfoNo] => 
    [AuPayMethod] => 
    [AuCancelAmount] => 
    [AuCancelTax] => 
    [DocomoSettlementCode] => 
    [DocomoCancelAmount] => 
    [DocomoCancelTax] => 
    [pay_status] => 12
)
 from 210.175.7.20
customer_id = 
/home/oukoku/public_html/shop/user_data/pg_mulpay_recv.php(15): LC_Page_Mdl_PG_MULPAY_Recv->process
/home/oukoku/public_html/shop/data/downloads/module/mdl_pg_mulpay/class/pages/LC_Page_Mdl_PG_MULPAY_Recv.php(44): LC_Page_Mdl_PG_MULPAY_Recv->action
/home/oukoku/public_html/shop/data/downloads/module/mdl_pg_mulpay/class/pages/LC_Page_Mdl_PG_MULPAY_Recv.php(91): LC_Page_Mdl_PG_MULPAY_Recv->lfDoReceive
/home/oukoku/public_html/shop/data/downloads/module/mdl_pg_mulpay/class/pages/LC_Page_Mdl_PG_MULPAY_Recv.php(226): SC_Util_PG_MULPAY->setOrderPayData
/home/oukoku/public_html/shop/data/downloads/module/mdl_pg_mulpay/class/util/SC_Util_PG_MULPAY.php(501): SC_Mdl_PG_MULPAY->printLog
/home/oukoku/public_html/shop/data/downloads/module/mdl_pg_mulpay/class/SC_Mdl_PG_MULPAY.php(268): GC_Utils::gfPrintLog
2019/07/30 13:34:00 [/shop/user_data/pg_mulpay_recv.php] response:true from 210.175.7.20
customer_id = 
/home/oukoku/public_html/shop/user_data/pg_mulpay_recv.php(15): LC_Page_Mdl_PG_MULPAY_Recv->process
/home/oukoku/public_html/shop/data/downloads/module/mdl_pg_mulpay/class/pages/LC_Page_Mdl_PG_MULPAY_Recv.php(44): LC_Page_Mdl_PG_MULPAY_Recv->action
/home/oukoku/public_html/shop/data/downloads/module/mdl_pg_mulpay/class/pages/LC_Page_Mdl_PG_MULPAY_Recv.php(93): LC_Page_Mdl_PG_MULPAY_Recv->lfSendResponse
/home/oukoku/public_html/shop/data/downloads/module/mdl_pg_mulpay/class/pages/LC_Page_Mdl_PG_MULPAY_Recv.php(849): SC_Mdl_PG_MULPAY->printLog
/home/oukoku/public_html/shop/data/downloads/module/mdl_pg_mulpay/class/SC_Mdl_PG_MULPAY.php(268): GC_Utils::gfPrintLog
2019/07/30 17:47:19 [/shop/user_data/pg_mulpay_recv.php] ******* receiveer data start ******* from 210.175.7.20
customer_id = 
/home/oukoku/public_html/shop/user_data/pg_mulpay_recv.php(15): LC_Page_Mdl_PG_MULPAY_Recv->process
/home/oukoku/public_html/shop/data/downloads/module/mdl_pg_mulpay/class/pages/LC_Page_Mdl_PG_MULPAY_Recv.php(44): LC_Page_Mdl_PG_MULPAY_Recv->action
/home/oukoku/public_html/shop/data/downloads/module/mdl_pg_mulpay/class/pages/LC_Page_Mdl_PG_MULPAY_Recv.php(54): LC_Page_Mdl_PG_MULPAY_Recv->lfSetPostLog
/home/oukoku/public_html/shop/data/downloads/module/mdl_pg_mulpay/class/pages/LC_Page_Mdl_PG_MULPAY_Recv.php(832): SC_Mdl_PG_MULPAY->printLog
/home/oukoku/public_html/shop/data/downloads/module/mdl_pg_mulpay/class/SC_Mdl_PG_MULPAY.php(268): GC_Utils::gfPrintLog
2019/07/30 17:47:19 [/shop/user_data/pg_mulpay_recv.php] Array
(
    [ShopID] => 9102288779655
    [ShopPass] => **********
    [AccessID] => a82528715d7b6ff7957bd2e2915fa708
    [AccessPass] => ********************************
    [OrderID] => 455-28192059
    [Status] => PAYSUCCESS
    [JobCd] => 
    [Amount] => 11616
    [Tax] => 0
    [Currency] => JPN
    [Forward] => 
    [Method] => 
    [PayTimes] => 
    [TranID] => 19072800000185195976
    [Approve] => 
    [TranDate] => 20190730174718
    [ErrCode] => 
    [ErrInfo] => 
    [PayType] => 3
    [CvsCode] => 10002
    [CvsConfNo] => 20020
    [CvsReceiptNo] => 810044525716
    [EdyReceiptNo] => 
    [EdyOrderNo] => 
    [SuicaReceiptNo] => 
    [SuicaOrderNo] => 
    [CustID] => 
    [BkCode] => 
    [ConfNo] => 
    [PaymentTerm] => 20190807235959
    [EncryptReceiptNo] => 
    [FinishDate] => 20190730174000
    [ReceiptDate] => 20190728192059
    [PayeasyPaymentURL] => 
    [WebMoneyManagementNo] => 
    [WebMoneySettleCode] => 
    [AuPayInfoNo] => 
    [AuPayMethod] => 
    [AuCancelAmount] => 
    [AuCancelTax] => 
    [DocomoSettlementCode] => 
    [DocomoCancelAmount] => 
    [DocomoCancelTax] => 
    [DocomoIncreaseAmount] => 
    [DocomoIncreaseTax] => 
    [SbTrackingId] => 
    [SbCancelAmount] => 
    [SbCancelTax] => 
    [JibunReceiptNo] => 
    [AuFirstAmount] => 
    [AuFirstTax] => 
    [AuAccountMonth] => 
    [AuContinueAccountId] => 
    [JcbPrecaSalesCode] => 
    [RequestNo] => 
    [AccountNo] => 
    [CenterCode] => 
    [NetCashPayType] => 
    [OrderDate] => 
    [CompletionDate] => 
    [RakutenidCouponFee] => 
    [McpPayInDate] => 
    [McpPayInAmount] => 
    [McpPayOutDate] => 
    [McpPayOutAmount] => 
    [RED_REQ_ID] => 
    [RED_ORD_ID] => 
    [RED_STAT_CD] => 
    [RED_FRAUD_STAT_CD] => 
    [RED_FRAUD_RSP_CD] => 
    [RED_FRAUD_REC_ID] => 
    [ProductName] => 
    [CancelAmount] => 
    [CancelTax] => 
    [PayMethod] => 
    [VaRequestAmount] => 
    [VaExpireDate] => 
    [VaTradeReason] => 
    [VaTradeClientName] => 
    [VaTradeClientMailaddress] => 
    [VaBankCode] => 
    [VaBankName] => 
    [VaBranchCode] => 
    [VaBranchName] => 
    [VaAccountType] => 
    [VaAccountNumber] => 
    [VaInInquiryNumber] => 
    [VaInSettlementDate] => 
    [VaInAmount] => 
    [VaInClientCode] => 
    [VaInClientName] => 
    [VaInSummary] => 
    [VaReserveID] => 
    [VaTradeCode] => 
    [SbStartChargeMonth] => 
    [SbChargeDay] => 
    [RcCustomerId] => 
    [RcUsePoint] => 
    [RcOrderId] => 
    [RcUpdateAuthDay] => 
    [RcUseCoupon] => 
    [RcUseShopCoupon] => 
    [RcContractId] => 
    [RcStartChargeMonth] => 
    [RcChargeDay] => 
    [RecurringID] => 
    [RecurringMethod] => 
    [RecurringChargeStartDate] => 
    [RecurringChargeStopDate] => 
    [RecurringChargeMonth] => 
    [RecurringChargeDay] => 
    [RecurringNextChargeDate] => 
    [BaSiteId] => 
    [BaMemberId] => 
    [BaTargetDate] => 
    [BaRequestAcceptEndDate] => 
    [BaTransferReturnDate] => 
    [BaWithdrawalDate] => 
    [BaResultcode] => 
    [PaidCancelAmount] => 
    [PaidCancelTax] => 
    [PaidBuyerID] => 
    [PaidCode] => 
    [PrecaNo] => 
    [PrecaSeq] => 
    [PrecaExpireDate] => 
    [ChargeType] => 
    [QuickID] => 
    [CampaignUrl] => 
    [DocomoAcceptCode] => 
    [PvFrontBillKey] => 
    [PvResultCode] => 
    [PvReceiptDatetime] => 
    [PvReceiptAgencyCode] => 
    [PvBarcode] => 
    [PvCvsCode] => 
    [PvCvsBranchCode] => 
    [PvPaymentAmount] => 
    [RakutenidSubscriptionId] => 
    [RakutenidSettlementSubscriptionId] => 
    [AuAcceptCode] => 
    [SbAcceptCode] => 
    [PaysleResultCode] => 
    [BankCode] => 
    [BankTranDate] => 
    [GanbProcessType] => 
    [GanbRequestAmount] => 
    [GanbExpireDate] => 
    [GanbTradeReason] => 
    [GanbTradeClientName] => 
    [GanbTradeClientMailaddress] => 
    [GanbBankCode] => 
    [GanbBankName] => 
    [GanbBranchCode] => 
    [GanbBranchName] => 
    [GanbAccountType] => 
    [GanbAccountNumber] => 
    [GanbAccountHolderName] => 
    [GanbInSettlementDate] => 
    [GanbInAmount] => 
    [GanbInClientName] => 
    [GanbInRemittingBankName] => 
    [GanbInRemittingBranchName] => 
    [GanbTotalTransferAmount] => 
    [GanbTotalTransferCount] => 
)
 from 210.175.7.20
customer_id = 
/home/oukoku/public_html/shop/user_data/pg_mulpay_recv.php(15): LC_Page_Mdl_PG_MULPAY_Recv->process
/home/oukoku/public_html/shop/data/downloads/module/mdl_pg_mulpay/class/pages/LC_Page_Mdl_PG_MULPAY_Recv.php(44): LC_Page_Mdl_PG_MULPAY_Recv->action
/home/oukoku/public_html/shop/data/downloads/module/mdl_pg_mulpay/class/pages/LC_Page_Mdl_PG_MULPAY_Recv.php(54): LC_Page_Mdl_PG_MULPAY_Recv->lfSetPostLog
/home/oukoku/public_html/shop/data/downloads/module/mdl_pg_mulpay/class/pages/LC_Page_Mdl_PG_MULPAY_Recv.php(836): SC_Mdl_PG_MULPAY->printLog
/home/oukoku/public_html/shop/data/downloads/module/mdl_pg_mulpay/class/SC_Mdl_PG_MULPAY.php(268): GC_Utils::gfPrintLog
2019/07/30 17:47:19 [/shop/user_data/pg_mulpay_recv.php] ******* receiveer data end ******* from 210.175.7.20
customer_id = 
/home/oukoku/public_html/shop/user_data/pg_mulpay_recv.php(15): LC_Page_Mdl_PG_MULPAY_Recv->process
/home/oukoku/public_html/shop/data/downloads/module/mdl_pg_mulpay/class/pages/LC_Page_Mdl_PG_MULPAY_Recv.php(44): LC_Page_Mdl_PG_MULPAY_Recv->action
/home/oukoku/public_html/shop/data/downloads/module/mdl_pg_mulpay/class/pages/LC_Page_Mdl_PG_MULPAY_Recv.php(54): LC_Page_Mdl_PG_MULPAY_Recv->lfSetPostLog
/home/oukoku/public_html/shop/data/downloads/module/mdl_pg_mulpay/class/pages/LC_Page_Mdl_PG_MULPAY_Recv.php(837): SC_Mdl_PG_MULPAY->printLog
/home/oukoku/public_html/shop/data/downloads/module/mdl_pg_mulpay/class/SC_Mdl_PG_MULPAY.php(268): GC_Utils::gfPrintLog
2019/07/30 17:47:19 [/shop/user_data/pg_mulpay_recv.php] update order status:6 from 210.175.7.20
customer_id = 
/home/oukoku/public_html/shop/user_data/pg_mulpay_recv.php(15): LC_Page_Mdl_PG_MULPAY_Recv->process
/home/oukoku/public_html/shop/data/downloads/module/mdl_pg_mulpay/class/pages/LC_Page_Mdl_PG_MULPAY_Recv.php(44): LC_Page_Mdl_PG_MULPAY_Recv->action
/home/oukoku/public_html/shop/data/downloads/module/mdl_pg_mulpay/class/pages/LC_Page_Mdl_PG_MULPAY_Recv.php(91): LC_Page_Mdl_PG_MULPAY_Recv->lfDoReceive
/home/oukoku/public_html/shop/data/downloads/module/mdl_pg_mulpay/class/pages/LC_Page_Mdl_PG_MULPAY_Recv.php(132): LC_Page_Mdl_PG_MULPAY_Recv->lfDoRecvCvs
/home/oukoku/public_html/shop/data/downloads/module/mdl_pg_mulpay/class/pages/LC_Page_Mdl_PG_MULPAY_Recv.php(285): LC_Page_Mdl_PG_MULPAY_Recv->lfDoRecvDefault
/home/oukoku/public_html/shop/data/downloads/module/mdl_pg_mulpay/class/pages/LC_Page_Mdl_PG_MULPAY_Recv.php(263): SC_Mdl_PG_MULPAY->printLog
/home/oukoku/public_html/shop/data/downloads/module/mdl_pg_mulpay/class/SC_Mdl_PG_MULPAY.php(268): GC_Utils::gfPrintLog
2019/07/30 17:47:19 [/shop/user_data/pg_mulpay_recv.php] pg_mulpay_recv.php set payment data:Array
(
    [ShopID] => 9102288779655
    [AccessID] => a82528715d7b6ff7957bd2e2915fa708
    [OrderID] => 455-28192059
    [Status] => PAYSUCCESS
    [JobCd] => 
    [Amount] => 11616
    [Tax] => 0
    [Currency] => JPN
    [Forward] => 
    [Method] => 
    [PayTimes] => 
    [TranID] => 19072800000185195976
    [Approve] => 
    [TranDate] => 20190730174718
    [ErrCode] => 
    [ErrInfo] => 
    [PayType] => 3
    [CvsCode] => 10002
    [CvsConfNo] => 20020
    [CvsReceiptNo] => 810044525716
    [EdyReceiptNo] => 
    [EdyOrderNo] => 
    [SuicaReceiptNo] => 
    [SuicaOrderNo] => 
    [CustID] => 
    [BkCode] => 
    [PaymentTerm] => 20190807235959
    [EncryptReceiptNo] => 
    [FinishDate] => 20190730174000
    [ReceiptDate] => 20190728192059
    [WebMoneyManagementNo] => 
    [WebMoneySettleCode] => 
    [AuPayInfoNo] => 
    [AuPayMethod] => 
    [AuCancelAmount] => 
    [AuCancelTax] => 
    [DocomoSettlementCode] => 
    [DocomoCancelAmount] => 
    [DocomoCancelTax] => 
    [pay_status] => 2
)
 from 210.175.7.20
customer_id = 
/home/oukoku/public_html/shop/user_data/pg_mulpay_recv.php(15): LC_Page_Mdl_PG_MULPAY_Recv->process
/home/oukoku/public_html/shop/data/downloads/module/mdl_pg_mulpay/class/pages/LC_Page_Mdl_PG_MULPAY_Recv.php(44): LC_Page_Mdl_PG_MULPAY_Recv->action
/home/oukoku/public_html/shop/data/downloads/module/mdl_pg_mulpay/class/pages/LC_Page_Mdl_PG_MULPAY_Recv.php(91): LC_Page_Mdl_PG_MULPAY_Recv->lfDoReceive
/home/oukoku/public_html/shop/data/downloads/module/mdl_pg_mulpay/class/pages/LC_Page_Mdl_PG_MULPAY_Recv.php(226): SC_Util_PG_MULPAY->setOrderPayData
/home/oukoku/public_html/shop/data/downloads/module/mdl_pg_mulpay/class/util/SC_Util_PG_MULPAY.php(501): SC_Mdl_PG_MULPAY->printLog
/home/oukoku/public_html/shop/data/downloads/module/mdl_pg_mulpay/class/SC_Mdl_PG_MULPAY.php(268): GC_Utils::gfPrintLog
2019/07/30 17:47:19 [/shop/user_data/pg_mulpay_recv.php] response:true from 210.175.7.20
customer_id = 
/home/oukoku/public_html/shop/user_data/pg_mulpay_recv.php(15): LC_Page_Mdl_PG_MULPAY_Recv->process
/home/oukoku/public_html/shop/data/downloads/module/mdl_pg_mulpay/class/pages/LC_Page_Mdl_PG_MULPAY_Recv.php(44): LC_Page_Mdl_PG_MULPAY_Recv->action
/home/oukoku/public_html/shop/data/downloads/module/mdl_pg_mulpay/class/pages/LC_Page_Mdl_PG_MULPAY_Recv.php(93): LC_Page_Mdl_PG_MULPAY_Recv->lfSendResponse
/home/oukoku/public_html/shop/data/downloads/module/mdl_pg_mulpay/class/pages/LC_Page_Mdl_PG_MULPAY_Recv.php(849): SC_Mdl_PG_MULPAY->printLog
/home/oukoku/public_html/shop/data/downloads/module/mdl_pg_mulpay/class/SC_Mdl_PG_MULPAY.php(268): GC_Utils::gfPrintLog
2019/07/30 20:10:05 [/shop/user_data/pg_mulpay_recv.php] ******* receiveer data start ******* from 210.175.7.20
customer_id = 
/home/oukoku/public_html/shop/user_data/pg_mulpay_recv.php(15): LC_Page_Mdl_PG_MULPAY_Recv->process
/home/oukoku/public_html/shop/data/downloads/module/mdl_pg_mulpay/class/pages/LC_Page_Mdl_PG_MULPAY_Recv.php(44): LC_Page_Mdl_PG_MULPAY_Recv->action
/home/oukoku/public_html/shop/data/downloads/module/mdl_pg_mulpay/class/pages/LC_Page_Mdl_PG_MULPAY_Recv.php(54): LC_Page_Mdl_PG_MULPAY_Recv->lfSetPostLog
/home/oukoku/public_html/shop/data/downloads/module/mdl_pg_mulpay/class/pages/LC_Page_Mdl_PG_MULPAY_Recv.php(832): SC_Mdl_PG_MULPAY->printLog
/home/oukoku/public_html/shop/data/downloads/module/mdl_pg_mulpay/class/SC_Mdl_PG_MULPAY.php(268): GC_Utils::gfPrintLog
2019/07/30 20:10:05 [/shop/user_data/pg_mulpay_recv.php] Array
(
    [ShopID] => 9102288779655
    [ShopPass] => **********
    [AccessID] => a63168574b61ced3599b6bbc1fa7dcac
    [AccessPass] => ********************************
    [OrderID] => 457-29235807
    [Status] => PAYSUCCESS
    [JobCd] => 
    [Amount] => 25056
    [Tax] => 0
    [Currency] => JPN
    [Forward] => 
    [Method] => 
    [PayTimes] => 
    [TranID] => 19072900000185380699
    [Approve] => 
    [TranDate] => 20190730201005
    [ErrCode] => 
    [ErrInfo] => 
    [PayType] => 3
    [CvsCode] => 10001
    [CvsConfNo] => 2280
    [CvsReceiptNo] => 91921053508468
    [EdyReceiptNo] => 
    [EdyOrderNo] => 
    [SuicaReceiptNo] => 
    [SuicaOrderNo] => 
    [CustID] => 
    [BkCode] => 
    [ConfNo] => 
    [PaymentTerm] => 20190808235959
    [EncryptReceiptNo] => 
    [FinishDate] => 20190730201000
    [ReceiptDate] => 20190729235807
    [PayeasyPaymentURL] => 
    [WebMoneyManagementNo] => 
    [WebMoneySettleCode] => 
    [AuPayInfoNo] => 
    [AuPayMethod] => 
    [AuCancelAmount] => 
    [AuCancelTax] => 
    [DocomoSettlementCode] => 
    [DocomoCancelAmount] => 
    [DocomoCancelTax] => 
    [DocomoIncreaseAmount] => 
    [DocomoIncreaseTax] => 
    [SbTrackingId] => 
    [SbCancelAmount] => 
    [SbCancelTax] => 
    [JibunReceiptNo] => 
    [AuFirstAmount] => 
    [AuFirstTax] => 
    [AuAccountMonth] => 
    [AuContinueAccountId] => 
    [JcbPrecaSalesCode] => 
    [RequestNo] => 
    [AccountNo] => 
    [CenterCode] => 
    [NetCashPayType] => 
    [OrderDate] => 
    [CompletionDate] => 
    [RakutenidCouponFee] => 
    [McpPayInDate] => 
    [McpPayInAmount] => 
    [McpPayOutDate] => 
    [McpPayOutAmount] => 
    [RED_REQ_ID] => 
    [RED_ORD_ID] => 
    [RED_STAT_CD] => 
    [RED_FRAUD_STAT_CD] => 
    [RED_FRAUD_RSP_CD] => 
    [RED_FRAUD_REC_ID] => 
    [ProductName] => 
    [CancelAmount] => 
    [CancelTax] => 
    [PayMethod] => 
    [VaRequestAmount] => 
    [VaExpireDate] => 
    [VaTradeReason] => 
    [VaTradeClientName] => 
    [VaTradeClientMailaddress] => 
    [VaBankCode] => 
    [VaBankName] => 
    [VaBranchCode] => 
    [VaBranchName] => 
    [VaAccountType] => 
    [VaAccountNumber] => 
    [VaInInquiryNumber] => 
    [VaInSettlementDate] => 
    [VaInAmount] => 
    [VaInClientCode] => 
    [VaInClientName] => 
    [VaInSummary] => 
    [VaReserveID] => 
    [VaTradeCode] => 
    [SbStartChargeMonth] => 
    [SbChargeDay] => 
    [RcCustomerId] => 
    [RcUsePoint] => 
    [RcOrderId] => 
    [RcUpdateAuthDay] => 
    [RcUseCoupon] => 
    [RcUseShopCoupon] => 
    [RcContractId] => 
    [RcStartChargeMonth] => 
    [RcChargeDay] => 
    [RecurringID] => 
    [RecurringMethod] => 
    [RecurringChargeStartDate] => 
    [RecurringChargeStopDate] => 
    [RecurringChargeMonth] => 
    [RecurringChargeDay] => 
    [RecurringNextChargeDate] => 
    [BaSiteId] => 
    [BaMemberId] => 
    [BaTargetDate] => 
    [BaRequestAcceptEndDate] => 
    [BaTransferReturnDate] => 
    [BaWithdrawalDate] => 
    [BaResultcode] => 
    [PaidCancelAmount] => 
    [PaidCancelTax] => 
    [PaidBuyerID] => 
    [PaidCode] => 
    [PrecaNo] => 
    [PrecaSeq] => 
    [PrecaExpireDate] => 
    [ChargeType] => 
    [QuickID] => 
    [CampaignUrl] => 
    [DocomoAcceptCode] => 
    [PvFrontBillKey] => 
    [PvResultCode] => 
    [PvReceiptDatetime] => 
    [PvReceiptAgencyCode] => 
    [PvBarcode] => 
    [PvCvsCode] => 
    [PvCvsBranchCode] => 
    [PvPaymentAmount] => 
    [RakutenidSubscriptionId] => 
    [RakutenidSettlementSubscriptionId] => 
    [AuAcceptCode] => 
    [SbAcceptCode] => 
    [PaysleResultCode] => 
    [BankCode] => 
    [BankTranDate] => 
    [GanbProcessType] => 
    [GanbRequestAmount] => 
    [GanbExpireDate] => 
    [GanbTradeReason] => 
    [GanbTradeClientName] => 
    [GanbTradeClientMailaddress] => 
    [GanbBankCode] => 
    [GanbBankName] => 
    [GanbBranchCode] => 
    [GanbBranchName] => 
    [GanbAccountType] => 
    [GanbAccountNumber] => 
    [GanbAccountHolderName] => 
    [GanbInSettlementDate] => 
    [GanbInAmount] => 
    [GanbInClientName] => 
    [GanbInRemittingBankName] => 
    [GanbInRemittingBranchName] => 
    [GanbTotalTransferAmount] => 
    [GanbTotalTransferCount] => 
)
 from 210.175.7.20
customer_id = 
/home/oukoku/public_html/shop/user_data/pg_mulpay_recv.php(15): LC_Page_Mdl_PG_MULPAY_Recv->process
/home/oukoku/public_html/shop/data/downloads/module/mdl_pg_mulpay/class/pages/LC_Page_Mdl_PG_MULPAY_Recv.php(44): LC_Page_Mdl_PG_MULPAY_Recv->action
/home/oukoku/public_html/shop/data/downloads/module/mdl_pg_mulpay/class/pages/LC_Page_Mdl_PG_MULPAY_Recv.php(54): LC_Page_Mdl_PG_MULPAY_Recv->lfSetPostLog
/home/oukoku/public_html/shop/data/downloads/module/mdl_pg_mulpay/class/pages/LC_Page_Mdl_PG_MULPAY_Recv.php(836): SC_Mdl_PG_MULPAY->printLog
/home/oukoku/public_html/shop/data/downloads/module/mdl_pg_mulpay/class/SC_Mdl_PG_MULPAY.php(268): GC_Utils::gfPrintLog
2019/07/30 20:10:05 [/shop/user_data/pg_mulpay_recv.php] ******* receiveer data end ******* from 210.175.7.20
customer_id = 
/home/oukoku/public_html/shop/user_data/pg_mulpay_recv.php(15): LC_Page_Mdl_PG_MULPAY_Recv->process
/home/oukoku/public_html/shop/data/downloads/module/mdl_pg_mulpay/class/pages/LC_Page_Mdl_PG_MULPAY_Recv.php(44): LC_Page_Mdl_PG_MULPAY_Recv->action
/home/oukoku/public_html/shop/data/downloads/module/mdl_pg_mulpay/class/pages/LC_Page_Mdl_PG_MULPAY_Recv.php(54): LC_Page_Mdl_PG_MULPAY_Recv->lfSetPostLog
/home/oukoku/public_html/shop/data/downloads/module/mdl_pg_mulpay/class/pages/LC_Page_Mdl_PG_MULPAY_Recv.php(837): SC_Mdl_PG_MULPAY->printLog
/home/oukoku/public_html/shop/data/downloads/module/mdl_pg_mulpay/class/SC_Mdl_PG_MULPAY.php(268): GC_Utils::gfPrintLog
2019/07/30 20:10:05 [/shop/user_data/pg_mulpay_recv.php] update order status:6 from 210.175.7.20
customer_id = 
/home/oukoku/public_html/shop/user_data/pg_mulpay_recv.php(15): LC_Page_Mdl_PG_MULPAY_Recv->process
/home/oukoku/public_html/shop/data/downloads/module/mdl_pg_mulpay/class/pages/LC_Page_Mdl_PG_MULPAY_Recv.php(44): LC_Page_Mdl_PG_MULPAY_Recv->action
/home/oukoku/public_html/shop/data/downloads/module/mdl_pg_mulpay/class/pages/LC_Page_Mdl_PG_MULPAY_Recv.php(91): LC_Page_Mdl_PG_MULPAY_Recv->lfDoReceive
/home/oukoku/public_html/shop/data/downloads/module/mdl_pg_mulpay/class/pages/LC_Page_Mdl_PG_MULPAY_Recv.php(132): LC_Page_Mdl_PG_MULPAY_Recv->lfDoRecvCvs
/home/oukoku/public_html/shop/data/downloads/module/mdl_pg_mulpay/class/pages/LC_Page_Mdl_PG_MULPAY_Recv.php(285): LC_Page_Mdl_PG_MULPAY_Recv->lfDoRecvDefault
/home/oukoku/public_html/shop/data/downloads/module/mdl_pg_mulpay/class/pages/LC_Page_Mdl_PG_MULPAY_Recv.php(263): SC_Mdl_PG_MULPAY->printLog
/home/oukoku/public_html/shop/data/downloads/module/mdl_pg_mulpay/class/SC_Mdl_PG_MULPAY.php(268): GC_Utils::gfPrintLog
2019/07/30 20:10:05 [/shop/user_data/pg_mulpay_recv.php] pg_mulpay_recv.php set payment data:Array
(
    [ShopID] => 9102288779655
    [AccessID] => a63168574b61ced3599b6bbc1fa7dcac
    [OrderID] => 457-29235807
    [Status] => PAYSUCCESS
    [JobCd] => 
    [Amount] => 25056
    [Tax] => 0
    [Currency] => JPN
    [Forward] => 
    [Method] => 
    [PayTimes] => 
    [TranID] => 19072900000185380699
    [Approve] => 
    [TranDate] => 20190730201005
    [ErrCode] => 
    [ErrInfo] => 
    [PayType] => 3
    [CvsCode] => 10001
    [CvsConfNo] => 2280
    [CvsReceiptNo] => 91921053508468
    [EdyReceiptNo] => 
    [EdyOrderNo] => 
    [SuicaReceiptNo] => 
    [SuicaOrderNo] => 
    [CustID] => 
    [BkCode] => 
    [PaymentTerm] => 20190808235959
    [EncryptReceiptNo] => 
    [FinishDate] => 20190730201000
    [ReceiptDate] => 20190729235807
    [WebMoneyManagementNo] => 
    [WebMoneySettleCode] => 
    [AuPayInfoNo] => 
    [AuPayMethod] => 
    [AuCancelAmount] => 
    [AuCancelTax] => 
    [DocomoSettlementCode] => 
    [DocomoCancelAmount] => 
    [DocomoCancelTax] => 
    [pay_status] => 2
)
 from 210.175.7.20
customer_id = 
/home/oukoku/public_html/shop/user_data/pg_mulpay_recv.php(15): LC_Page_Mdl_PG_MULPAY_Recv->process
/home/oukoku/public_html/shop/data/downloads/module/mdl_pg_mulpay/class/pages/LC_Page_Mdl_PG_MULPAY_Recv.php(44): LC_Page_Mdl_PG_MULPAY_Recv->action
/home/oukoku/public_html/shop/data/downloads/module/mdl_pg_mulpay/class/pages/LC_Page_Mdl_PG_MULPAY_Recv.php(91): LC_Page_Mdl_PG_MULPAY_Recv->lfDoReceive
/home/oukoku/public_html/shop/data/downloads/module/mdl_pg_mulpay/class/pages/LC_Page_Mdl_PG_MULPAY_Recv.php(226): SC_Util_PG_MULPAY->setOrderPayData
/home/oukoku/public_html/shop/data/downloads/module/mdl_pg_mulpay/class/util/SC_Util_PG_MULPAY.php(501): SC_Mdl_PG_MULPAY->printLog
/home/oukoku/public_html/shop/data/downloads/module/mdl_pg_mulpay/class/SC_Mdl_PG_MULPAY.php(268): GC_Utils::gfPrintLog
2019/07/30 20:10:05 [/shop/user_data/pg_mulpay_recv.php] response:true from 210.175.7.20
customer_id = 
/home/oukoku/public_html/shop/user_data/pg_mulpay_recv.php(15): LC_Page_Mdl_PG_MULPAY_Recv->process
/home/oukoku/public_html/shop/data/downloads/module/mdl_pg_mulpay/class/pages/LC_Page_Mdl_PG_MULPAY_Recv.php(44): LC_Page_Mdl_PG_MULPAY_Recv->action
/home/oukoku/public_html/shop/data/downloads/module/mdl_pg_mulpay/class/pages/LC_Page_Mdl_PG_MULPAY_Recv.php(93): LC_Page_Mdl_PG_MULPAY_Recv->lfSendResponse
/home/oukoku/public_html/shop/data/downloads/module/mdl_pg_mulpay/class/pages/LC_Page_Mdl_PG_MULPAY_Recv.php(849): SC_Mdl_PG_MULPAY->printLog
/home/oukoku/public_html/shop/data/downloads/module/mdl_pg_mulpay/class/SC_Mdl_PG_MULPAY.php(268): GC_Utils::gfPrintLog
