2020/12/28 10:54:06 [/shop/kanri/order/index.php] SendRequest:https://p01.mul-pay.jp/payment/AlterTran.idPass from 61.124.245.8
2020/12/28 10:54:06 [/shop/kanri/order/index.php] Array
(
    [ShopID] => 9102288779655
    [ShopPass] => ******
    [AccessID] => 29398d09468c455553769ce4f9e5e306
    [AccessPass] => 9c6e6c112e697f39194b8074fbee2d31
    [JobCd] => SALES
    [Amount] => 18150
)
 from 61.124.245.8
2020/12/28 10:54:07 [/shop/kanri/order/index.php] AccessID=29398d09468c455553769ce4f9e5e306&AccessPass=9c6e6c112e697f39194b8074fbee2d31&Forward=2a99661&Approve=0720462&TranID=2012192105602257217875120462&TranDate=20201228105407 from 61.124.245.8
2020/12/28 10:54:07 [/shop/kanri/order/index.php] Array
(
    [0] => Array
        (
            [AccessID] => 29398d09468c455553769ce4f9e5e306
            [AccessPass] => 9c6e6c112e697f39194b8074fbee2d31
            [Forward] => 2a99661
            [Approve] => 0720462
            [TranID] => 2012192105602257217875120462
            [TranDate] => 20201228105407
        )

)
 from 61.124.245.8
2020/12/28 10:54:07 [/shop/kanri/order/index.php] index.php set payment data:Array
(
    [AccessID] => 29398d09468c455553769ce4f9e5e306
    [AccessPass] => 9c6e6c112e697f39194b8074fbee2d31
    [Forward] => 2a99661
    [Approve] => 0720462
    [TranID] => 2012192105602257217875120462
    [TranDate] => 20201228105407
    [action_status] => 6
    [pay_status] => 12
)
 from 61.124.245.8
2020/12/28 10:54:07 [/shop/user_data/pg_mulpay_recv.php] ******* receiveer data start ******* from 210.175.7.20
2020/12/28 10:54:07 [/shop/user_data/pg_mulpay_recv.php] Array
(
    [ShopID] => 9102288779655
    [ShopPass] => **********
    [AccessID] => 29398d09468c455553769ce4f9e5e306
    [AccessPass] => ********************************
    [OrderID] => 2401-19210548
    [Status] => SALES
    [JobCd] => SALES
    [Amount] => 18150
    [Tax] => 0
    [Currency] => JPN
    [Forward] => 2a99661
    [Method] => 1
    [PayTimes] => 
    [TranID] => 2012192105602257217875120462
    [Approve] => 0720462
    [TranDate] => 20201228105407
    [ErrCode] => 
    [ErrInfo] => 
    [PayType] => 0
)
 from 210.175.7.20
2020/12/28 10:54:07 [/shop/user_data/pg_mulpay_recv.php] ******* receiveer data end ******* from 210.175.7.20
2020/12/28 10:54:07 [/shop/user_data/pg_mulpay_recv.php] pg_mulpay_recv.php set payment data:Array
(
    [ShopID] => 9102288779655
    [AccessID] => 29398d09468c455553769ce4f9e5e306
    [OrderID] => 2401-19210548
    [Status] => SALES
    [JobCd] => SALES
    [Amount] => 18150
    [Tax] => 0
    [Currency] => JPN
    [Forward] => 2a99661
    [Method] => 1
    [PayTimes] => 
    [TranID] => 2012192105602257217875120462
    [Approve] => 0720462
    [TranDate] => 20201228105407
    [ErrCode] => 
    [ErrInfo] => 
    [PayType] => 0
    [CvsCode] => 
    [CvsConfNo] => 
    [CvsReceiptNo] => 
    [EdyReceiptNo] => 
    [EdyOrderNo] => 
    [SuicaReceiptNo] => 
    [SuicaOrderNo] => 
    [CustID] => 
    [BkCode] => 
    [ConfNo] => 
    [PaymentTerm] => 
    [EncryptReceiptNo] => 
    [FinishDate] => 
    [ReceiptDate] => 
    [WebMoneyManagementNo] => 
    [WebMoneySettleCode] => 
    [AuPayInfoNo] => 
    [AuPayMethod] => 
    [AuCancelAmount] => 
    [AuCancelTax] => 
    [DocomoSettlementCode] => 
    [DocomoCancelAmount] => 
    [DocomoCancelTax] => 
    [pay_status] => 12
)
 from 210.175.7.20
2020/12/28 10:54:07 [/shop/user_data/pg_mulpay_recv.php] response:true from 210.175.7.20
2020/12/28 11:17:56 [/shop/shopping/load_payment_module.php] SendRequest:https://p01.mul-pay.jp/payment/EntryTran.idPass from 150.249.111.3
2020/12/28 11:17:56 [/shop/shopping/load_payment_module.php] Array
(
    [ShopID] => 9102288779655
    [ShopPass] => ******
    [OrderID] => 2425-28111756
    [JobCd] => AUTH
    [Amount] => 10560
    [TdFlag] => 0
    [TdTenantName] => 
)
 from 150.249.111.3
2020/12/28 11:17:57 [/shop/shopping/load_payment_module.php] AccessID=6fa1a9144a00e3e70ef5baa6d6647f85&AccessPass=ec4be0780679ebc86431ab8f6744afd3 from 150.249.111.3
2020/12/28 11:17:57 [/shop/shopping/load_payment_module.php] Array
(
    [0] => Array
        (
            [AccessID] => 6fa1a9144a00e3e70ef5baa6d6647f85
            [AccessPass] => ec4be0780679ebc86431ab8f6744afd3
        )

)
 from 150.249.111.3
2020/12/28 11:17:57 [/shop/shopping/load_payment_module.php] load_payment_module.php set payment data:Array
(
    [AccessID] => 6fa1a9144a00e3e70ef5baa6d6647f85
    [AccessPass] => ec4be0780679ebc86431ab8f6744afd3
    [OrderID] => 2425-28111756
    [Amount] => 10560
    [JobCd] => AUTH
    [action_status] => 1
    [pay_status] => 0
)
 from 150.249.111.3
2020/12/28 11:17:57 [/shop/shopping/load_payment_module.php] SendRequest:https://p01.mul-pay.jp/payment/ExecTran.idPass from 150.249.111.3
2020/12/28 11:17:57 [/shop/shopping/load_payment_module.php] Array
(
    [AccessID] => 6fa1a9144a00e3e70ef5baa6d6647f85
    [AccessPass] => ec4be0780679ebc86431ab8f6744afd3
    [OrderID] => 2425-28111756
    [Method] => 1
    [Token] => 338cc6813df7a16f8a2b6bbdbeab0825f40e328584d6b10d81e399aa404e5b6c
    [ClientField1] => 
    [ClientField2] => 
    [ClientField3] => EC-CUBE4.3.24
)
 from 150.249.111.3
2020/12/28 11:17:58 [/shop/shopping/load_payment_module.php] ACS=0&OrderID=2425-28111756&Forward=2S49631&Method=1&PayTimes=&Approve=0720469&TranID=2012281117602257217875120469&TranDate=20201228111758&CheckString=1ef5d67d2f14d5c332b8ec833bbed28a from 150.249.111.3
2020/12/28 11:17:58 [/shop/shopping/load_payment_module.php] Array
(
    [0] => Array
        (
            [ACS] => 0
            [OrderID] => 2425-28111756
            [Forward] => 2S49631
            [Method] => 1
            [PayTimes] => 
            [Approve] => 0720469
            [TranID] => 2012281117602257217875120469
            [TranDate] => 20201228111758
            [CheckString] => 1ef5d67d2f14d5c332b8ec833bbed28a
        )

)
 from 150.249.111.3
2020/12/28 11:17:58 [/shop/shopping/load_payment_module.php] load_payment_module.php set payment data:Array
(
    [ACS] => 0
    [Forward] => 2S49631
    [Method] => 1
    [PayTimes] => 
    [Approve] => 0720469
    [TranID] => 2012281117602257217875120469
    [TranDate] => 20201228111758
    [CheckString] => 1ef5d67d2f14d5c332b8ec833bbed28a
    [Amount] => 10560
    [JobCd] => AUTH
    [action_status] => 3
    [pay_status] => 11
)
 from 150.249.111.3
2020/12/28 11:17:59 [/shop/user_data/pg_mulpay_recv.php] ******* receiveer data start ******* from 210.175.7.20
2020/12/28 11:17:59 [/shop/user_data/pg_mulpay_recv.php] Array
(
    [ShopID] => 9102288779655
    [ShopPass] => **********
    [AccessID] => 6fa1a9144a00e3e70ef5baa6d6647f85
    [AccessPass] => ********************************
    [OrderID] => 2425-28111756
    [Status] => AUTH
    [JobCd] => AUTH
    [Amount] => 10560
    [Tax] => 0
    [Currency] => JPN
    [Forward] => 2S49631
    [Method] => 1
    [PayTimes] => 
    [TranID] => 2012281117602257217875120469
    [Approve] => 0720469
    [TranDate] => 20201228111758
    [ErrCode] => 
    [ErrInfo] => 
    [PayType] => 0
)
 from 210.175.7.20
2020/12/28 11:17:59 [/shop/user_data/pg_mulpay_recv.php] ******* receiveer data end ******* from 210.175.7.20
2020/12/28 11:18:04 [/shop/user_data/pg_mulpay_recv.php] update order status:1 order_id=2425 from 210.175.7.20
2020/12/28 11:18:04 [/shop/user_data/pg_mulpay_recv.php] pg_mulpay_recv.php set payment data:Array
(
    [ShopID] => 9102288779655
    [AccessID] => 6fa1a9144a00e3e70ef5baa6d6647f85
    [OrderID] => 2425-28111756
    [Status] => AUTH
    [JobCd] => AUTH
    [Amount] => 10560
    [Tax] => 0
    [Currency] => JPN
    [Forward] => 2S49631
    [Method] => 1
    [PayTimes] => 
    [TranID] => 2012281117602257217875120469
    [Approve] => 0720469
    [TranDate] => 20201228111758
    [ErrCode] => 
    [ErrInfo] => 
    [PayType] => 0
    [CvsCode] => 
    [CvsConfNo] => 
    [CvsReceiptNo] => 
    [EdyReceiptNo] => 
    [EdyOrderNo] => 
    [SuicaReceiptNo] => 
    [SuicaOrderNo] => 
    [CustID] => 
    [BkCode] => 
    [ConfNo] => 
    [PaymentTerm] => 
    [EncryptReceiptNo] => 
    [FinishDate] => 
    [ReceiptDate] => 
    [WebMoneyManagementNo] => 
    [WebMoneySettleCode] => 
    [AuPayInfoNo] => 
    [AuPayMethod] => 
    [AuCancelAmount] => 
    [AuCancelTax] => 
    [DocomoSettlementCode] => 
    [DocomoCancelAmount] => 
    [DocomoCancelTax] => 
    [pay_status] => 11
)
 from 210.175.7.20
2020/12/28 11:18:04 [/shop/user_data/pg_mulpay_recv.php] response:true from 210.175.7.20
2020/12/28 19:13:09 [/shop/user_data/pg_mulpay_recv.php] ******* receiveer data start ******* from 210.175.7.20
2020/12/28 19:13:09 [/shop/user_data/pg_mulpay_recv.php] Array
(
    [ShopID] => 9102288779655
    [ShopPass] => **********
    [AccessID] => fd85a91b5c8b4f8735bc71ed927c3a1f
    [AccessPass] => ********************************
    [OrderID] => 2416-24123148
    [Status] => PAYSUCCESS
    [Amount] => 14080
    [Tax] => 0
    [Currency] => JPN
    [TranID] => 20122400000261121179
    [TranDate] => 20201228191231
    [ErrCode] => 
    [ErrInfo] => 
    [PayType] => 3
    [CvsCode] => 10002
    [CvsConfNo] => 20020
    [CvsReceiptNo] => 810063859329
    [PaymentTerm] => 20201228235959
    [FinishDate] => 20201228190800
    [ReceiptDate] => 20201224123149
)
 from 210.175.7.20
2020/12/28 19:13:09 [/shop/user_data/pg_mulpay_recv.php] ******* receiveer data end ******* from 210.175.7.20
2020/12/28 19:13:09 [/shop/user_data/pg_mulpay_recv.php] update order status:6 from 210.175.7.20
2020/12/28 19:13:09 [/shop/user_data/pg_mulpay_recv.php] pg_mulpay_recv.php set payment data:Array
(
    [ShopID] => 9102288779655
    [AccessID] => fd85a91b5c8b4f8735bc71ed927c3a1f
    [OrderID] => 2416-24123148
    [Status] => PAYSUCCESS
    [JobCd] => 
    [Amount] => 14080
    [Tax] => 0
    [Currency] => JPN
    [Forward] => 
    [Method] => 
    [PayTimes] => 
    [TranID] => 20122400000261121179
    [Approve] => 
    [TranDate] => 20201228191231
    [ErrCode] => 
    [ErrInfo] => 
    [PayType] => 3
    [CvsCode] => 10002
    [CvsConfNo] => 20020
    [CvsReceiptNo] => 810063859329
    [EdyReceiptNo] => 
    [EdyOrderNo] => 
    [SuicaReceiptNo] => 
    [SuicaOrderNo] => 
    [CustID] => 
    [BkCode] => 
    [PaymentTerm] => 20201228235959
    [EncryptReceiptNo] => 
    [FinishDate] => 20201228190800
    [ReceiptDate] => 20201224123149
    [WebMoneyManagementNo] => 
    [WebMoneySettleCode] => 
    [AuPayInfoNo] => 
    [AuPayMethod] => 
    [AuCancelAmount] => 
    [AuCancelTax] => 
    [DocomoSettlementCode] => 
    [DocomoCancelAmount] => 
    [DocomoCancelTax] => 
    [pay_status] => 2
)
 from 210.175.7.20
2020/12/28 19:13:09 [/shop/user_data/pg_mulpay_recv.php] response:true from 210.175.7.20
