2020/04/04 02:23:39 [/shop/shopping/load_payment_module.php] SendRequest:https://p01.mul-pay.jp/payment/EntryTranCvs.idPass from 106.130.54.222
2020/04/04 02:23:39 [/shop/shopping/load_payment_module.php] Array
(
    [ShopID] => 9102288779655
    [ShopPass] => ******
    [OrderID] => 1219-04022339
    [Amount] => 13530
)
 from 106.130.54.222
2020/04/04 02:23:39 [/shop/shopping/load_payment_module.php] AccessID=0af39b4a543552ef43a7d920fa64c3e0&AccessPass=c9e3b0d1b18fba1e5d710d8ea7ea98cf from 106.130.54.222
2020/04/04 02:23:39 [/shop/shopping/load_payment_module.php] Array
(
    [0] => Array
        (
            [AccessID] => 0af39b4a543552ef43a7d920fa64c3e0
            [AccessPass] => c9e3b0d1b18fba1e5d710d8ea7ea98cf
        )

)
 from 106.130.54.222
2020/04/04 02:23:39 [/shop/shopping/load_payment_module.php] load_payment_module.php set payment data:Array
(
    [AccessID] => 0af39b4a543552ef43a7d920fa64c3e0
    [AccessPass] => c9e3b0d1b18fba1e5d710d8ea7ea98cf
    [OrderID] => 1219-04022339
    [Amount] => 13530
    [action_status] => 1
    [pay_status] => 0
)
 from 106.130.54.222
2020/04/04 02:23:39 [/shop/shopping/load_payment_module.php] SendRequest:https://p01.mul-pay.jp/payment/ExecTranCvs.idPass from 106.130.54.222
2020/04/04 02:23:39 [/shop/shopping/load_payment_module.php] Array
(
    [AccessID] => 0af39b4a543552ef43a7d920fa64c3e0
    [AccessPass] => c9e3b0d1b18fba1e5d710d8ea7ea98cf
    [OrderID] => 1219-04022339
    [Convenience] => 10002
    [CustomerName] => ******
    [CustomerKana] => ******
    [TelNo] => 08010931200
    [PaymentTermDay] => 
    [MailAddress] => ******
    [ShopMailAddress] => oukoku-onlineshop@oukoku.biz
    [ReserveNo] => 1219
    [MemberNo] => 
    [RegisterDisp1] => 
    [RegisterDisp2] => 
    [RegisterDisp3] => 
    [RegisterDisp4] => 
    [RegisterDisp5] => 
    [RegisterDisp6] => 
    [RegisterDisp7] => 
    [RegisterDisp8] => 
    [ReceiptsDisp1] => 
    [ReceiptsDisp2] => 
    [ReceiptsDisp3] => 
    [ReceiptsDisp4] => 
    [ReceiptsDisp5] => 
    [ReceiptsDisp6] => 
    [ReceiptsDisp7] => 
    [ReceiptsDisp8] => 
    [ReceiptsDisp9] => 
    [ReceiptsDisp10] => 
    [ReceiptsDisp11] => 株式会社カーテン・じゅうたん王国
    [ReceiptsDisp12] => 0356493000
    [ReceiptsDisp13] => 09:30-18:30
    [ClientField1] => 
    [ClientField2] => 
    [ClientField3] => EC-CUBE4.3.24
    [ClientFieldFlag] => 1
)
 from 106.130.54.222
2020/04/04 02:23:39 [/shop/shopping/load_payment_module.php] OrderID=1219-04022339&Convenience=10002&ConfNo=20020&ReceiptNo=810056697697&PaymentTerm=20200408235959&TranDate=20200404022339&CheckString=cc06b9e92c160163ab8e39fe4157051b&ClientField1=&ClientField2=&ClientField3=EC-CUBE4.3.24 from 106.130.54.222
2020/04/04 02:23:39 [/shop/shopping/load_payment_module.php] Array
(
    [0] => Array
        (
            [OrderID] => 1219-04022339
            [Convenience] => 10002
            [ConfNo] => 20020
            [ReceiptNo] => 810056697697
            [PaymentTerm] => 20200408235959
            [TranDate] => 20200404022339
            [CheckString] => cc06b9e92c160163ab8e39fe4157051b
            [ClientField1] => 
            [ClientField2] => 
            [ClientField3] => EC-CUBE4.3.24
        )

)
 from 106.130.54.222
2020/04/04 02:23:39 [/shop/shopping/load_payment_module.php] load_payment_module.php set payment data:Array
(
    [Convenience] => 00002
    [ConfNo] => 20020
    [ReceiptNo] => 810056697697
    [PaymentTerm] => 20200408235959
    [TranDate] => 20200404022339
    [CheckString] => cc06b9e92c160163ab8e39fe4157051b
    [ClientField1] => 
    [ClientField2] => 
    [ClientField3] => EC-CUBE4.3.24
    [Amount] => 13530
    [action_status] => 3
    [pay_status] => 1
)
 from 106.130.54.222
2020/04/04 02:23:39 [/shop/user_data/pg_mulpay_recv.php] ******* receiveer data start ******* from 210.175.7.20
2020/04/04 02:23:39 [/shop/user_data/pg_mulpay_recv.php] Array
(
    [ShopID] => 9102288779655
    [ShopPass] => **********
    [AccessID] => 0af39b4a543552ef43a7d920fa64c3e0
    [AccessPass] => ********************************
    [OrderID] => 1219-04022339
    [Status] => REQSUCCESS
    [Amount] => 13530
    [Tax] => 0
    [Currency] => JPN
    [TranID] => 20040400000220892373
    [TranDate] => 20200404022339
    [ErrCode] => 
    [ErrInfo] => 
    [PayType] => 3
    [CvsCode] => 10002
    [CvsConfNo] => 20020
    [CvsReceiptNo] => 810056697697
    [PaymentTerm] => 20200408235959
    [FinishDate] => 
    [ReceiptDate] => 20200404022339
)
 from 210.175.7.20
2020/04/04 02:23:39 [/shop/user_data/pg_mulpay_recv.php] ******* receiveer data end ******* from 210.175.7.20
2020/04/04 02:23:39 [/shop/user_data/pg_mulpay_recv.php] update order status:2 from 210.175.7.20
2020/04/04 02:23:39 [/shop/user_data/pg_mulpay_recv.php] pg_mulpay_recv.php set payment data:Array
(
    [ShopID] => 9102288779655
    [AccessID] => 0af39b4a543552ef43a7d920fa64c3e0
    [OrderID] => 1219-04022339
    [Status] => REQSUCCESS
    [JobCd] => 
    [Amount] => 13530
    [Tax] => 0
    [Currency] => JPN
    [Forward] => 
    [Method] => 
    [PayTimes] => 
    [TranID] => 20040400000220892373
    [Approve] => 
    [TranDate] => 20200404022339
    [ErrCode] => 
    [ErrInfo] => 
    [PayType] => 3
    [CvsCode] => 10002
    [CvsConfNo] => 20020
    [CvsReceiptNo] => 810056697697
    [EdyReceiptNo] => 
    [EdyOrderNo] => 
    [SuicaReceiptNo] => 
    [SuicaOrderNo] => 
    [CustID] => 
    [BkCode] => 
    [PaymentTerm] => 20200408235959
    [EncryptReceiptNo] => 
    [FinishDate] => 
    [ReceiptDate] => 20200404022339
    [WebMoneyManagementNo] => 
    [WebMoneySettleCode] => 
    [AuPayInfoNo] => 
    [AuPayMethod] => 
    [AuCancelAmount] => 
    [AuCancelTax] => 
    [DocomoSettlementCode] => 
    [DocomoCancelAmount] => 
    [DocomoCancelTax] => 
    [pay_status] => 1
)
 from 210.175.7.20
2020/04/04 02:23:39 [/shop/user_data/pg_mulpay_recv.php] response:true from 210.175.7.20
2020/04/04 08:23:48 [/shop/shopping/load_payment_module.php] SendRequest:https://p01.mul-pay.jp/payment/EntryTran.idPass from 133.106.74.112
2020/04/04 08:23:48 [/shop/shopping/load_payment_module.php] Array
(
    [ShopID] => 9102288779655
    [ShopPass] => ******
    [OrderID] => 1220-04082348
    [JobCd] => AUTH
    [Amount] => 11770
    [TdFlag] => 0
    [TdTenantName] => 
)
 from 133.106.74.112
2020/04/04 08:23:48 [/shop/shopping/load_payment_module.php] AccessID=19111b9b3d909d3ca1703567c953d2f3&AccessPass=68238097004461d3814d57d37bc3d51d from 133.106.74.112
2020/04/04 08:23:48 [/shop/shopping/load_payment_module.php] Array
(
    [0] => Array
        (
            [AccessID] => 19111b9b3d909d3ca1703567c953d2f3
            [AccessPass] => 68238097004461d3814d57d37bc3d51d
        )

)
 from 133.106.74.112
2020/04/04 08:23:48 [/shop/shopping/load_payment_module.php] load_payment_module.php set payment data:Array
(
    [AccessID] => 19111b9b3d909d3ca1703567c953d2f3
    [AccessPass] => 68238097004461d3814d57d37bc3d51d
    [OrderID] => 1220-04082348
    [Amount] => 11770
    [JobCd] => AUTH
    [action_status] => 1
    [pay_status] => 0
)
 from 133.106.74.112
2020/04/04 08:23:48 [/shop/shopping/load_payment_module.php] SendRequest:https://p01.mul-pay.jp/payment/ExecTran.idPass from 133.106.74.112
2020/04/04 08:23:48 [/shop/shopping/load_payment_module.php] Array
(
    [AccessID] => 19111b9b3d909d3ca1703567c953d2f3
    [AccessPass] => 68238097004461d3814d57d37bc3d51d
    [OrderID] => 1220-04082348
    [Method] => 1
    [Token] => a857fc03d551bca4729d61164cbf8c86b429639d3630ea82d59024f5b0ffc1fc
    [ClientField1] => 
    [ClientField2] => 
    [ClientField3] => EC-CUBE4.3.24
)
 from 133.106.74.112
2020/04/04 08:23:50 [/shop/shopping/load_payment_module.php] ACS=0&OrderID=1220-04082348&Forward=2S49631&Method=1&PayTimes=&Approve=0710225&TranID=2004040823602257217875110225&TranDate=20200404082350&CheckString=73f0bbbadd459471912dbd63faa2fe47 from 133.106.74.112
2020/04/04 08:23:50 [/shop/shopping/load_payment_module.php] Array
(
    [0] => Array
        (
            [ACS] => 0
            [OrderID] => 1220-04082348
            [Forward] => 2S49631
            [Method] => 1
            [PayTimes] => 
            [Approve] => 0710225
            [TranID] => 2004040823602257217875110225
            [TranDate] => 20200404082350
            [CheckString] => 73f0bbbadd459471912dbd63faa2fe47
        )

)
 from 133.106.74.112
2020/04/04 08:23:50 [/shop/shopping/load_payment_module.php] load_payment_module.php set payment data:Array
(
    [ACS] => 0
    [Forward] => 2S49631
    [Method] => 1
    [PayTimes] => 
    [Approve] => 0710225
    [TranID] => 2004040823602257217875110225
    [TranDate] => 20200404082350
    [CheckString] => 73f0bbbadd459471912dbd63faa2fe47
    [Amount] => 11770
    [JobCd] => AUTH
    [action_status] => 3
    [pay_status] => 11
)
 from 133.106.74.112
2020/04/04 08:23:50 [/shop/user_data/pg_mulpay_recv.php] ******* receiveer data start ******* from 210.175.7.20
2020/04/04 08:23:50 [/shop/user_data/pg_mulpay_recv.php] Array
(
    [ShopID] => 9102288779655
    [ShopPass] => **********
    [AccessID] => 19111b9b3d909d3ca1703567c953d2f3
    [AccessPass] => ********************************
    [OrderID] => 1220-04082348
    [Status] => AUTH
    [JobCd] => AUTH
    [Amount] => 11770
    [Tax] => 0
    [Currency] => JPN
    [Forward] => 2S49631
    [Method] => 1
    [PayTimes] => 
    [TranID] => 2004040823602257217875110225
    [Approve] => 0710225
    [TranDate] => 20200404082350
    [ErrCode] => 
    [ErrInfo] => 
    [PayType] => 0
)
 from 210.175.7.20
2020/04/04 08:23:50 [/shop/user_data/pg_mulpay_recv.php] ******* receiveer data end ******* from 210.175.7.20
2020/04/04 08:23:55 [/shop/user_data/pg_mulpay_recv.php] update order status:1 order_id=1220 from 210.175.7.20
2020/04/04 08:23:55 [/shop/user_data/pg_mulpay_recv.php] pg_mulpay_recv.php set payment data:Array
(
    [ShopID] => 9102288779655
    [AccessID] => 19111b9b3d909d3ca1703567c953d2f3
    [OrderID] => 1220-04082348
    [Status] => AUTH
    [JobCd] => AUTH
    [Amount] => 11770
    [Tax] => 0
    [Currency] => JPN
    [Forward] => 2S49631
    [Method] => 1
    [PayTimes] => 
    [TranID] => 2004040823602257217875110225
    [Approve] => 0710225
    [TranDate] => 20200404082350
    [ErrCode] => 
    [ErrInfo] => 
    [PayType] => 0
    [CvsCode] => 
    [CvsConfNo] => 
    [CvsReceiptNo] => 
    [EdyReceiptNo] => 
    [EdyOrderNo] => 
    [SuicaReceiptNo] => 
    [SuicaOrderNo] => 
    [CustID] => 
    [BkCode] => 
    [ConfNo] => 
    [PaymentTerm] => 
    [EncryptReceiptNo] => 
    [FinishDate] => 
    [ReceiptDate] => 
    [WebMoneyManagementNo] => 
    [WebMoneySettleCode] => 
    [AuPayInfoNo] => 
    [AuPayMethod] => 
    [AuCancelAmount] => 
    [AuCancelTax] => 
    [DocomoSettlementCode] => 
    [DocomoCancelAmount] => 
    [DocomoCancelTax] => 
    [pay_status] => 11
)
 from 210.175.7.20
2020/04/04 08:23:55 [/shop/user_data/pg_mulpay_recv.php] response:true from 210.175.7.20
2020/04/04 11:32:02 [/shop/shopping/load_payment_module.php] SendRequest:https://p01.mul-pay.jp/payment/EntryTranCvs.idPass from 182.165.198.198
2020/04/04 11:32:02 [/shop/shopping/load_payment_module.php] Array
(
    [ShopID] => 9102288779655
    [ShopPass] => ******
    [OrderID] => 1221-04113202
    [Amount] => 14960
)
 from 182.165.198.198
2020/04/04 11:32:02 [/shop/shopping/load_payment_module.php] AccessID=7d59a30b24edc0ffe3af17d1c92cb58f&AccessPass=5cb644d7e793c78769e7eca0d829abd5 from 182.165.198.198
2020/04/04 11:32:02 [/shop/shopping/load_payment_module.php] Array
(
    [0] => Array
        (
            [AccessID] => 7d59a30b24edc0ffe3af17d1c92cb58f
            [AccessPass] => 5cb644d7e793c78769e7eca0d829abd5
        )

)
 from 182.165.198.198
2020/04/04 11:32:02 [/shop/shopping/load_payment_module.php] load_payment_module.php set payment data:Array
(
    [AccessID] => 7d59a30b24edc0ffe3af17d1c92cb58f
    [AccessPass] => 5cb644d7e793c78769e7eca0d829abd5
    [OrderID] => 1221-04113202
    [Amount] => 14960
    [action_status] => 1
    [pay_status] => 0
)
 from 182.165.198.198
2020/04/04 11:32:02 [/shop/shopping/load_payment_module.php] SendRequest:https://p01.mul-pay.jp/payment/ExecTranCvs.idPass from 182.165.198.198
2020/04/04 11:32:02 [/shop/shopping/load_payment_module.php] Array
(
    [AccessID] => 7d59a30b24edc0ffe3af17d1c92cb58f
    [AccessPass] => 5cb644d7e793c78769e7eca0d829abd5
    [OrderID] => 1221-04113202
    [Convenience] => 10002
    [CustomerName] => ******
    [CustomerKana] => ******
    [TelNo] => 0722541772
    [PaymentTermDay] => 
    [MailAddress] => ******
    [ShopMailAddress] => oukoku-onlineshop@oukoku.biz
    [ReserveNo] => 1221
    [MemberNo] => 
    [RegisterDisp1] => 
    [RegisterDisp2] => 
    [RegisterDisp3] => 
    [RegisterDisp4] => 
    [RegisterDisp5] => 
    [RegisterDisp6] => 
    [RegisterDisp7] => 
    [RegisterDisp8] => 
    [ReceiptsDisp1] => 
    [ReceiptsDisp2] => 
    [ReceiptsDisp3] => 
    [ReceiptsDisp4] => 
    [ReceiptsDisp5] => 
    [ReceiptsDisp6] => 
    [ReceiptsDisp7] => 
    [ReceiptsDisp8] => 
    [ReceiptsDisp9] => 
    [ReceiptsDisp10] => 
    [ReceiptsDisp11] => 株式会社カーテン・じゅうたん王国
    [ReceiptsDisp12] => 0356493000
    [ReceiptsDisp13] => 09:30-18:30
    [ClientField1] => 
    [ClientField2] => 
    [ClientField3] => EC-CUBE4.3.24
    [ClientFieldFlag] => 1
)
 from 182.165.198.198
2020/04/04 11:32:04 [/shop/shopping/load_payment_module.php] OrderID=1221-04113202&Convenience=10002&ConfNo=20020&ReceiptNo=810054644813&PaymentTerm=20200408235959&TranDate=20200404113203&CheckString=b1b322fcdbd36f83c7edbd5e7dc4659c&ClientField1=&ClientField2=&ClientField3=EC-CUBE4.3.24 from 182.165.198.198
2020/04/04 11:32:04 [/shop/shopping/load_payment_module.php] Array
(
    [0] => Array
        (
            [OrderID] => 1221-04113202
            [Convenience] => 10002
            [ConfNo] => 20020
            [ReceiptNo] => 810054644813
            [PaymentTerm] => 20200408235959
            [TranDate] => 20200404113203
            [CheckString] => b1b322fcdbd36f83c7edbd5e7dc4659c
            [ClientField1] => 
            [ClientField2] => 
            [ClientField3] => EC-CUBE4.3.24
        )

)
 from 182.165.198.198
2020/04/04 11:32:04 [/shop/shopping/load_payment_module.php] load_payment_module.php set payment data:Array
(
    [Convenience] => 00002
    [ConfNo] => 20020
    [ReceiptNo] => 810054644813
    [PaymentTerm] => 20200408235959
    [TranDate] => 20200404113203
    [CheckString] => b1b322fcdbd36f83c7edbd5e7dc4659c
    [ClientField1] => 
    [ClientField2] => 
    [ClientField3] => EC-CUBE4.3.24
    [Amount] => 14960
    [action_status] => 3
    [pay_status] => 1
)
 from 182.165.198.198
2020/04/04 11:32:04 [/shop/user_data/pg_mulpay_recv.php] ******* receiveer data start ******* from 210.175.7.20
2020/04/04 11:32:04 [/shop/user_data/pg_mulpay_recv.php] Array
(
    [ShopID] => 9102288779655
    [ShopPass] => **********
    [AccessID] => 7d59a30b24edc0ffe3af17d1c92cb58f
    [AccessPass] => ********************************
    [OrderID] => 1221-04113202
    [Status] => REQSUCCESS
    [Amount] => 14960
    [Tax] => 0
    [Currency] => JPN
    [TranID] => 20040400000220920684
    [TranDate] => 20200404113203
    [ErrCode] => 
    [ErrInfo] => 
    [PayType] => 3
    [CvsCode] => 10002
    [CvsConfNo] => 20020
    [CvsReceiptNo] => 810054644813
    [PaymentTerm] => 20200408235959
    [FinishDate] => 
    [ReceiptDate] => 20200404113203
)
 from 210.175.7.20
2020/04/04 11:32:04 [/shop/user_data/pg_mulpay_recv.php] ******* receiveer data end ******* from 210.175.7.20
2020/04/04 11:32:04 [/shop/user_data/pg_mulpay_recv.php] update order status:2 from 210.175.7.20
2020/04/04 11:32:04 [/shop/user_data/pg_mulpay_recv.php] pg_mulpay_recv.php set payment data:Array
(
    [ShopID] => 9102288779655
    [AccessID] => 7d59a30b24edc0ffe3af17d1c92cb58f
    [OrderID] => 1221-04113202
    [Status] => REQSUCCESS
    [JobCd] => 
    [Amount] => 14960
    [Tax] => 0
    [Currency] => JPN
    [Forward] => 
    [Method] => 
    [PayTimes] => 
    [TranID] => 20040400000220920684
    [Approve] => 
    [TranDate] => 20200404113203
    [ErrCode] => 
    [ErrInfo] => 
    [PayType] => 3
    [CvsCode] => 10002
    [CvsConfNo] => 20020
    [CvsReceiptNo] => 810054644813
    [EdyReceiptNo] => 
    [EdyOrderNo] => 
    [SuicaReceiptNo] => 
    [SuicaOrderNo] => 
    [CustID] => 
    [BkCode] => 
    [PaymentTerm] => 20200408235959
    [EncryptReceiptNo] => 
    [FinishDate] => 
    [ReceiptDate] => 20200404113203
    [WebMoneyManagementNo] => 
    [WebMoneySettleCode] => 
    [AuPayInfoNo] => 
    [AuPayMethod] => 
    [AuCancelAmount] => 
    [AuCancelTax] => 
    [DocomoSettlementCode] => 
    [DocomoCancelAmount] => 
    [DocomoCancelTax] => 
    [pay_status] => 1
)
 from 210.175.7.20
2020/04/04 11:32:04 [/shop/user_data/pg_mulpay_recv.php] response:true from 210.175.7.20
2020/04/04 18:18:00 [/shop/user_data/pg_mulpay_recv.php] ******* receiveer data start ******* from 210.175.7.20
2020/04/04 18:18:00 [/shop/user_data/pg_mulpay_recv.php] Array
(
    [ShopID] => 9102288779655
    [ShopPass] => **********
    [AccessID] => 7d59a30b24edc0ffe3af17d1c92cb58f
    [AccessPass] => ********************************
    [OrderID] => 1221-04113202
    [Status] => PAYSUCCESS
    [Amount] => 14960
    [Tax] => 0
    [Currency] => JPN
    [TranID] => 20040400000220920684
    [TranDate] => 20200404181723
    [ErrCode] => 
    [ErrInfo] => 
    [PayType] => 3
    [CvsCode] => 10002
    [CvsConfNo] => 20020
    [CvsReceiptNo] => 810054644813
    [PaymentTerm] => 20200408235959
    [FinishDate] => 20200404181000
    [ReceiptDate] => 20200404113203
)
 from 210.175.7.20
2020/04/04 18:18:00 [/shop/user_data/pg_mulpay_recv.php] ******* receiveer data end ******* from 210.175.7.20
2020/04/04 18:18:00 [/shop/user_data/pg_mulpay_recv.php] update order status:6 from 210.175.7.20
2020/04/04 18:18:00 [/shop/user_data/pg_mulpay_recv.php] pg_mulpay_recv.php set payment data:Array
(
    [ShopID] => 9102288779655
    [AccessID] => 7d59a30b24edc0ffe3af17d1c92cb58f
    [OrderID] => 1221-04113202
    [Status] => PAYSUCCESS
    [JobCd] => 
    [Amount] => 14960
    [Tax] => 0
    [Currency] => JPN
    [Forward] => 
    [Method] => 
    [PayTimes] => 
    [TranID] => 20040400000220920684
    [Approve] => 
    [TranDate] => 20200404181723
    [ErrCode] => 
    [ErrInfo] => 
    [PayType] => 3
    [CvsCode] => 10002
    [CvsConfNo] => 20020
    [CvsReceiptNo] => 810054644813
    [EdyReceiptNo] => 
    [EdyOrderNo] => 
    [SuicaReceiptNo] => 
    [SuicaOrderNo] => 
    [CustID] => 
    [BkCode] => 
    [PaymentTerm] => 20200408235959
    [EncryptReceiptNo] => 
    [FinishDate] => 20200404181000
    [ReceiptDate] => 20200404113203
    [WebMoneyManagementNo] => 
    [WebMoneySettleCode] => 
    [AuPayInfoNo] => 
    [AuPayMethod] => 
    [AuCancelAmount] => 
    [AuCancelTax] => 
    [DocomoSettlementCode] => 
    [DocomoCancelAmount] => 
    [DocomoCancelTax] => 
    [pay_status] => 2
)
 from 210.175.7.20
2020/04/04 18:18:00 [/shop/user_data/pg_mulpay_recv.php] response:true from 210.175.7.20
2020/04/04 20:32:38 [/shop/user_data/pg_mulpay_recv.php] ******* receiveer data start ******* from 210.175.7.20
2020/04/04 20:32:38 [/shop/user_data/pg_mulpay_recv.php] Array
(
    [ShopID] => 9102288779655
    [ShopPass] => **********
    [AccessID] => 35a1c1ebd79666510a3ca75a8547a92d
    [AccessPass] => ********************************
    [OrderID] => 1203-31113945
    [Status] => PAYSUCCESS
    [Amount] => 8800
    [Tax] => 0
    [Currency] => JPN
    [TranID] => 20033100000220214832
    [TranDate] => 20200404203211
    [ErrCode] => 
    [ErrInfo] => 
    [PayType] => 3
    [CvsCode] => 10002
    [CvsConfNo] => 20020
    [CvsReceiptNo] => 810055028574
    [PaymentTerm] => 20200404235959
    [FinishDate] => 20200404202900
    [ReceiptDate] => 20200331113945
)
 from 210.175.7.20
2020/04/04 20:32:38 [/shop/user_data/pg_mulpay_recv.php] ******* receiveer data end ******* from 210.175.7.20
2020/04/04 20:32:38 [/shop/user_data/pg_mulpay_recv.php] update order status:6 from 210.175.7.20
2020/04/04 20:32:38 [/shop/user_data/pg_mulpay_recv.php] pg_mulpay_recv.php set payment data:Array
(
    [ShopID] => 9102288779655
    [AccessID] => 35a1c1ebd79666510a3ca75a8547a92d
    [OrderID] => 1203-31113945
    [Status] => PAYSUCCESS
    [JobCd] => 
    [Amount] => 8800
    [Tax] => 0
    [Currency] => JPN
    [Forward] => 
    [Method] => 
    [PayTimes] => 
    [TranID] => 20033100000220214832
    [Approve] => 
    [TranDate] => 20200404203211
    [ErrCode] => 
    [ErrInfo] => 
    [PayType] => 3
    [CvsCode] => 10002
    [CvsConfNo] => 20020
    [CvsReceiptNo] => 810055028574
    [EdyReceiptNo] => 
    [EdyOrderNo] => 
    [SuicaReceiptNo] => 
    [SuicaOrderNo] => 
    [CustID] => 
    [BkCode] => 
    [PaymentTerm] => 20200404235959
    [EncryptReceiptNo] => 
    [FinishDate] => 20200404202900
    [ReceiptDate] => 20200331113945
    [WebMoneyManagementNo] => 
    [WebMoneySettleCode] => 
    [AuPayInfoNo] => 
    [AuPayMethod] => 
    [AuCancelAmount] => 
    [AuCancelTax] => 
    [DocomoSettlementCode] => 
    [DocomoCancelAmount] => 
    [DocomoCancelTax] => 
    [pay_status] => 2
)
 from 210.175.7.20
2020/04/04 20:32:38 [/shop/user_data/pg_mulpay_recv.php] response:true from 210.175.7.20
2020/04/04 22:51:57 [/shop/shopping/load_payment_module.php] SendRequest:https://p01.mul-pay.jp/payment/EntryTranSb.idPass from 60.104.75.80
2020/04/04 22:51:57 [/shop/shopping/load_payment_module.php] Array
(
    [ShopID] => 9102288779655
    [ShopPass] => ******
    [OrderID] => 1222-04225157
    [JobCd] => AUTH
    [Amount] => 12760
)
 from 60.104.75.80
2020/04/04 22:51:57 [/shop/shopping/load_payment_module.php] AccessID=a3ed88332d14618aac7f8c28ba202af0&AccessPass=17ed816045fd619c821b5ffbfb47e8ca from 60.104.75.80
2020/04/04 22:51:57 [/shop/shopping/load_payment_module.php] Array
(
    [0] => Array
        (
            [AccessID] => a3ed88332d14618aac7f8c28ba202af0
            [AccessPass] => 17ed816045fd619c821b5ffbfb47e8ca
        )

)
 from 60.104.75.80
2020/04/04 22:51:57 [/shop/shopping/load_payment_module.php] load_payment_module.php set payment data:Array
(
    [AccessID] => a3ed88332d14618aac7f8c28ba202af0
    [AccessPass] => 17ed816045fd619c821b5ffbfb47e8ca
    [OrderID] => 1222-04225157
    [Amount] => 12760
    [JobCd] => AUTH
    [action_status] => 1
    [pay_status] => 0
)
 from 60.104.75.80
2020/04/04 22:51:57 [/shop/shopping/load_payment_module.php] SendRequest:https://p01.mul-pay.jp/payment/ExecTranSb.idPass from 60.104.75.80
2020/04/04 22:51:57 [/shop/shopping/load_payment_module.php] Array
(
    [ShopID] => 9102288779655
    [ShopPass] => ******
    [AccessID] => a3ed88332d14618aac7f8c28ba202af0
    [AccessPass] => 17ed816045fd619c821b5ffbfb47e8ca
    [OrderID] => 1222-04225157
    [ClientField1] => 
    [ClientField2] => 
    [ClientField3] => EC-CUBE4.3.24
    [RetURL] => https://www.oukoku.co.jp/shop/shopping/load_payment_module.php?mode=pgreturn&order_id=1222&transactionid=86dbca6e58393aa5583f810e3eaab351609efda0
    [PaymentTermSec] => 
)
 from 60.104.75.80
2020/04/04 22:51:58 [/shop/shopping/load_payment_module.php] AccessID=a3ed88332d14618aac7f8c28ba202af0&Token=kJnE+g2OrwcZBuKJFrkqcvEmDKLCnjOM+6OX9g1ytHCwBS7yYvxSiC0zeMVH+O4F&StartURL=https://p01.mul-pay.jp/payment/SbStart.idPass&StartLimitDate=20200404225357 from 60.104.75.80
2020/04/04 22:51:58 [/shop/shopping/load_payment_module.php] Array
(
    [0] => Array
        (
            [AccessID] => a3ed88332d14618aac7f8c28ba202af0
            [Token] => kJnE+g2OrwcZBuKJFrkqcvEmDKLCnjOM+6OX9g1ytHCwBS7yYvxSiC0zeMVH+O4F
            [StartURL] => https://p01.mul-pay.jp/payment/SbStart.idPass
            [StartLimitDate] => 20200404225357
        )

)
 from 60.104.75.80
2020/04/04 22:51:58 [/shop/shopping/load_payment_module.php] load_payment_module.php set payment data:Array
(
    [AccessID] => a3ed88332d14618aac7f8c28ba202af0
    [Token] => kJnE+g2OrwcZBuKJFrkqcvEmDKLCnjOM+6OX9g1ytHCwBS7yYvxSiC0zeMVH+O4F
    [StartURL] => https://p01.mul-pay.jp/payment/SbStart.idPass
    [StartLimitDate] => 20200404225357
    [Amount] => 12760
    [JobCd] => AUTH
    [action_status] => 3
)
 from 60.104.75.80
2020/04/04 22:51:58 [/shop/user_data/pg_mulpay_recv.php] ******* receiveer data start ******* from 210.175.7.20
2020/04/04 22:51:58 [/shop/user_data/pg_mulpay_recv.php] Array
(
    [ShopID] => 9102288779655
    [ShopPass] => **********
    [AccessID] => a3ed88332d14618aac7f8c28ba202af0
    [AccessPass] => ********************************
    [OrderID] => 1222-04225157
    [Status] => REQSUCCESS
    [JobCd] => AUTH
    [Amount] => 12760
    [Tax] => 0
    [Currency] => 
    [Forward] => 
    [Method] => 
    [PayTimes] => 
    [TranID] => 
    [Approve] => 
    [TranDate] => 20200404225157
    [ErrCode] => 
    [ErrInfo] => 
    [PayType] => 11
    [CvsCode] => 
    [CvsConfNo] => 
    [CvsReceiptNo] => 
    [EdyReceiptNo] => 
    [EdyOrderNo] => 
    [SuicaReceiptNo] => 
    [SuicaOrderNo] => 
    [CustID] => 
    [BkCode] => 
    [ConfNo] => 
    [PaymentTerm] => 
    [EncryptReceiptNo] => 
    [FinishDate] => 
    [ReceiptDate] => 
    [PayeasyPaymentURL] => 
    [WebMoneyManagementNo] => 
    [WebMoneySettleCode] => 
    [AuPayInfoNo] => 
    [AuPayMethod] => 
    [AuCancelAmount] => 
    [AuCancelTax] => 
    [DocomoSettlementCode] => 
    [DocomoCancelAmount] => 
    [DocomoCancelTax] => 
    [DocomoIncreaseAmount] => 
    [DocomoIncreaseTax] => 
    [SbTrackingId] => 
    [SbCancelAmount] => 0
    [SbCancelTax] => 0
    [JibunReceiptNo] => 
    [AuFirstAmount] => 
    [AuFirstTax] => 
    [AuAccountMonth] => 
    [AuContinueAccountId] => 
    [JcbPrecaSalesCode] => 
    [RequestNo] => 
    [AccountNo] => 
    [CenterCode] => 
    [NetCashPayType] => 
    [OrderDate] => 
    [CompletionDate] => 
    [RakutenidCouponFee] => 
    [McpPayInDate] => 
    [McpPayInAmount] => 
    [McpPayOutDate] => 
    [McpPayOutAmount] => 
    [RED_REQ_ID] => 
    [RED_ORD_ID] => 
    [RED_STAT_CD] => 
    [RED_FRAUD_STAT_CD] => 
    [RED_FRAUD_RSP_CD] => 
    [RED_FRAUD_REC_ID] => 
    [ProductName] => 
    [CancelAmount] => 
    [CancelTax] => 
    [PayMethod] => 
    [VaRequestAmount] => 
    [VaExpireDate] => 
    [VaTradeReason] => 
    [VaTradeClientName] => 
    [VaTradeClientMailaddress] => 
    [VaBankCode] => 
    [VaBankName] => 
    [VaBranchCode] => 
    [VaBranchName] => 
    [VaAccountType] => 
    [VaAccountNumber] => 
    [VaInInquiryNumber] => 
    [VaInSettlementDate] => 
    [VaInAmount] => 
    [VaInClientCode] => 
    [VaInClientName] => 
    [VaInSummary] => 
    [VaReserveID] => 
    [VaTradeCode] => 
    [SbStartChargeMonth] => 
    [SbChargeDay] => 
    [RcCustomerId] => 
    [RcUsePoint] => 
    [RcOrderId] => 
    [RcUpdateAuthDay] => 
    [RcUseCoupon] => 
    [RcUseShopCoupon] => 
    [RcContractId] => 
    [RcStartChargeMonth] => 
    [RcChargeDay] => 
    [RecurringID] => 
    [RecurringMethod] => 
    [RecurringChargeStartDate] => 
    [RecurringChargeStopDate] => 
    [RecurringChargeMonth] => 
    [RecurringChargeDay] => 
    [RecurringNextChargeDate] => 
    [BaSiteId] => 
    [BaMemberId] => 
    [BaTargetDate] => 
    [BaRequestAcceptEndDate] => 
    [BaTransferReturnDate] => 
    [BaWithdrawalDate] => 
    [BaResultcode] => 
    [PaidCancelAmount] => 
    [PaidCancelTax] => 
    [PaidBuyerID] => 
    [PaidCode] => 
    [PrecaNo] => 
    [PrecaSeq] => 
    [PrecaExpireDate] => 
    [ChargeType] => 
    [QuickID] => 
    [CampaignUrl] => 
    [DocomoAcceptCode] => 
    [PvFrontBillKey] => 
    [PvResultCode] => 
    [PvReceiptDatetime] => 
    [PvReceiptAgencyCode] => 
    [PvBarcode] => 
    [PvCvsCode] => 
    [PvCvsBranchCode] => 
    [PvPaymentAmount] => 
    [RakutenidSubscriptionId] => 
    [RakutenidSettlementSubscriptionId] => 
    [AuAcceptCode] => 
    [SbAcceptCode] => 
    [PaysleResultCode] => 
    [BankCode] => 
    [BankTranDate] => 
    [GanbProcessType] => 
    [GanbRequestAmount] => 
    [GanbExpireDate] => 
    [GanbTradeReason] => 
    [GanbTradeClientName] => 
    [GanbTradeClientMailaddress] => 
    [GanbBankCode] => 
    [GanbBankName] => 
    [GanbBranchCode] => 
    [GanbBranchName] => 
    [GanbAccountType] => 
    [GanbAccountNumber] => 
    [GanbAccountHolderName] => 
    [GanbInSettlementDate] => 
    [GanbInAmount] => 
    [GanbInClientName] => 
    [GanbInRemittingBankName] => 
    [GanbInRemittingBranchName] => 
    [GanbTotalTransferAmount] => 
    [GanbTotalTransferCount] => 
)
 from 210.175.7.20
2020/04/04 22:51:58 [/shop/user_data/pg_mulpay_recv.php] ******* receiveer data end ******* from 210.175.7.20
2020/04/04 22:51:58 [/shop/user_data/pg_mulpay_recv.php] update order status:7 from 210.175.7.20
2020/04/04 22:51:58 [/shop/user_data/pg_mulpay_recv.php] pg_mulpay_recv.php set payment data:Array
(
    [ShopID] => 9102288779655
    [AccessID] => a3ed88332d14618aac7f8c28ba202af0
    [OrderID] => 1222-04225157
    [Status] => REQSUCCESS
    [JobCd] => AUTH
    [Amount] => 12760
    [Tax] => 0
    [Currency] => 
    [Forward] => 
    [Method] => 
    [PayTimes] => 
    [TranID] => 
    [Approve] => 
    [TranDate] => 20200404225157
    [ErrCode] => 
    [ErrInfo] => 
    [PayType] => 11
    [CvsCode] => 
    [CvsConfNo] => 
    [CvsReceiptNo] => 
    [EdyReceiptNo] => 
    [EdyOrderNo] => 
    [SuicaReceiptNo] => 
    [SuicaOrderNo] => 
    [CustID] => 
    [BkCode] => 
    [ConfNo] => 
    [PaymentTerm] => 
    [EncryptReceiptNo] => 
    [FinishDate] => 
    [ReceiptDate] => 
    [WebMoneyManagementNo] => 
    [WebMoneySettleCode] => 
    [AuPayInfoNo] => 
    [AuPayMethod] => 
    [AuCancelAmount] => 
    [AuCancelTax] => 
    [DocomoSettlementCode] => 
    [DocomoCancelAmount] => 
    [DocomoCancelTax] => 
)
 from 210.175.7.20
2020/04/04 22:51:58 [/shop/user_data/pg_mulpay_recv.php] response:true from 210.175.7.20
2020/04/04 22:52:36 [/shop/user_data/pg_mulpay_recv.php] ******* receiveer data start ******* from 210.175.7.20
2020/04/04 22:52:36 [/shop/user_data/pg_mulpay_recv.php] Array
(
    [ShopID] => 9102288779655
    [ShopPass] => **********
    [AccessID] => a3ed88332d14618aac7f8c28ba202af0
    [AccessPass] => ********************************
    [OrderID] => 1222-04225157
    [Status] => AUTH
    [JobCd] => AUTH
    [Amount] => 12760
    [Tax] => 0
    [Currency] => 
    [Forward] => 
    [Method] => 
    [PayTimes] => 
    [TranID] => 
    [Approve] => 
    [TranDate] => 20200404225236
    [ErrCode] => 
    [ErrInfo] => 
    [PayType] => 11
    [CvsCode] => 
    [CvsConfNo] => 
    [CvsReceiptNo] => 
    [EdyReceiptNo] => 
    [EdyOrderNo] => 
    [SuicaReceiptNo] => 
    [SuicaOrderNo] => 
    [CustID] => 
    [BkCode] => 
    [ConfNo] => 
    [PaymentTerm] => 
    [EncryptReceiptNo] => 
    [FinishDate] => 
    [ReceiptDate] => 
    [PayeasyPaymentURL] => 
    [WebMoneyManagementNo] => 
    [WebMoneySettleCode] => 
    [AuPayInfoNo] => 
    [AuPayMethod] => 
    [AuCancelAmount] => 
    [AuCancelTax] => 
    [DocomoSettlementCode] => 
    [DocomoCancelAmount] => 
    [DocomoCancelTax] => 
    [DocomoIncreaseAmount] => 
    [DocomoIncreaseTax] => 
    [SbTrackingId] => 51300953821759
    [SbCancelAmount] => 0
    [SbCancelTax] => 0
    [JibunReceiptNo] => 
    [AuFirstAmount] => 
    [AuFirstTax] => 
    [AuAccountMonth] => 
    [AuContinueAccountId] => 
    [JcbPrecaSalesCode] => 
    [RequestNo] => 
    [AccountNo] => 
    [CenterCode] => 
    [NetCashPayType] => 
    [OrderDate] => 
    [CompletionDate] => 
    [RakutenidCouponFee] => 
    [McpPayInDate] => 
    [McpPayInAmount] => 
    [McpPayOutDate] => 
    [McpPayOutAmount] => 
    [RED_REQ_ID] => 
    [RED_ORD_ID] => 
    [RED_STAT_CD] => 
    [RED_FRAUD_STAT_CD] => 
    [RED_FRAUD_RSP_CD] => 
    [RED_FRAUD_REC_ID] => 
    [ProductName] => 
    [CancelAmount] => 
    [CancelTax] => 
    [PayMethod] => 
    [VaRequestAmount] => 
    [VaExpireDate] => 
    [VaTradeReason] => 
    [VaTradeClientName] => 
    [VaTradeClientMailaddress] => 
    [VaBankCode] => 
    [VaBankName] => 
    [VaBranchCode] => 
    [VaBranchName] => 
    [VaAccountType] => 
    [VaAccountNumber] => 
    [VaInInquiryNumber] => 
    [VaInSettlementDate] => 
    [VaInAmount] => 
    [VaInClientCode] => 
    [VaInClientName] => 
    [VaInSummary] => 
    [VaReserveID] => 
    [VaTradeCode] => 
    [SbStartChargeMonth] => 
    [SbChargeDay] => 
    [RcCustomerId] => 
    [RcUsePoint] => 
    [RcOrderId] => 
    [RcUpdateAuthDay] => 
    [RcUseCoupon] => 
    [RcUseShopCoupon] => 
    [RcContractId] => 
    [RcStartChargeMonth] => 
    [RcChargeDay] => 
    [RecurringID] => 
    [RecurringMethod] => 
    [RecurringChargeStartDate] => 
    [RecurringChargeStopDate] => 
    [RecurringChargeMonth] => 
    [RecurringChargeDay] => 
    [RecurringNextChargeDate] => 
    [BaSiteId] => 
    [BaMemberId] => 
    [BaTargetDate] => 
    [BaRequestAcceptEndDate] => 
    [BaTransferReturnDate] => 
    [BaWithdrawalDate] => 
    [BaResultcode] => 
    [PaidCancelAmount] => 
    [PaidCancelTax] => 
    [PaidBuyerID] => 
    [PaidCode] => 
    [PrecaNo] => 
    [PrecaSeq] => 
    [PrecaExpireDate] => 
    [ChargeType] => 
    [QuickID] => 
    [CampaignUrl] => 
    [DocomoAcceptCode] => 
    [PvFrontBillKey] => 
    [PvResultCode] => 
    [PvReceiptDatetime] => 
    [PvReceiptAgencyCode] => 
    [PvBarcode] => 
    [PvCvsCode] => 
    [PvCvsBranchCode] => 
    [PvPaymentAmount] => 
    [RakutenidSubscriptionId] => 
    [RakutenidSettlementSubscriptionId] => 
    [AuAcceptCode] => 
    [SbAcceptCode] => 
    [PaysleResultCode] => 
    [BankCode] => 
    [BankTranDate] => 
    [GanbProcessType] => 
    [GanbRequestAmount] => 
    [GanbExpireDate] => 
    [GanbTradeReason] => 
    [GanbTradeClientName] => 
    [GanbTradeClientMailaddress] => 
    [GanbBankCode] => 
    [GanbBankName] => 
    [GanbBranchCode] => 
    [GanbBranchName] => 
    [GanbAccountType] => 
    [GanbAccountNumber] => 
    [GanbAccountHolderName] => 
    [GanbInSettlementDate] => 
    [GanbInAmount] => 
    [GanbInClientName] => 
    [GanbInRemittingBankName] => 
    [GanbInRemittingBranchName] => 
    [GanbTotalTransferAmount] => 
    [GanbTotalTransferCount] => 
)
 from 210.175.7.20
2020/04/04 22:52:36 [/shop/user_data/pg_mulpay_recv.php] ******* receiveer data end ******* from 210.175.7.20
2020/04/04 22:52:41 [/shop/user_data/pg_mulpay_recv.php] update order status:1 from 210.175.7.20
2020/04/04 22:52:41 [/shop/user_data/pg_mulpay_recv.php] send order mail:1222 from 210.175.7.20
2020/04/04 22:52:41 [/shop/user_data/pg_mulpay_recv.php] pg_mulpay_recv.php set payment data:Array
(
    [ShopID] => 9102288779655
    [AccessID] => a3ed88332d14618aac7f8c28ba202af0
    [OrderID] => 1222-04225157
    [Status] => AUTH
    [JobCd] => AUTH
    [Amount] => 12760
    [Tax] => 0
    [Currency] => 
    [Forward] => 
    [Method] => 
    [PayTimes] => 
    [TranID] => 
    [Approve] => 
    [TranDate] => 20200404225236
    [ErrCode] => 
    [ErrInfo] => 
    [PayType] => 11
    [CvsCode] => 
    [CvsConfNo] => 
    [CvsReceiptNo] => 
    [EdyReceiptNo] => 
    [EdyOrderNo] => 
    [SuicaReceiptNo] => 
    [SuicaOrderNo] => 
    [CustID] => 
    [BkCode] => 
    [ConfNo] => 
    [PaymentTerm] => 
    [EncryptReceiptNo] => 
    [FinishDate] => 
    [ReceiptDate] => 
    [WebMoneyManagementNo] => 
    [WebMoneySettleCode] => 
    [AuPayInfoNo] => 
    [AuPayMethod] => 
    [AuCancelAmount] => 
    [AuCancelTax] => 
    [DocomoSettlementCode] => 
    [DocomoCancelAmount] => 
    [DocomoCancelTax] => 
    [pay_status] => 11
)
 from 210.175.7.20
2020/04/04 22:52:41 [/shop/user_data/pg_mulpay_recv.php] response:true from 210.175.7.20
