2019/10/06 21:46:14 [/shop/shopping/load_payment_module.php] SendRequest:https://p01.mul-pay.jp/payment/EntryTranCvs.idPass from 1.66.100.69
customer_id = 
/home/oukoku/public_html/shop/shopping/load_payment_module.php(29): LC_Page_Shopping_LoadPaymentModule_Ex->process
/home/oukoku/public_html/shop/data/class_extends/page_extends/shopping/LC_Page_Shopping_LoadPaymentModule_Ex.php(54): LC_Page_Shopping_LoadPaymentModule->process
/home/oukoku/public_html/shop/data/class/pages/shopping/LC_Page_Shopping_LoadPaymentModule.php(70): require_once
/home/oukoku/public_html/shop/data/downloads/module/mdl_pg_mulpay/payment.php(16): LC_Page_Mdl_PG_MULPAY_Helper->process
/home/oukoku/public_html/shop/data/downloads/module/mdl_pg_mulpay/class/pages/LC_Page_Mdl_PG_MULPAY_Helper.php(45): LC_Page_Mdl_PG_MULPAY_Helper->action
/home/oukoku/public_html/shop/data/downloads/module/mdl_pg_mulpay/class/pages/LC_Page_Mdl_PG_MULPAY_Helper.php(136): LC_PageHelper_Mdl_PG_MULPAY_CVS->modeAction
/home/oukoku/public_html/shop/data/downloads/module/mdl_pg_mulpay/class/pages/helper/LC_PageHelper_Mdl_PG_MULPAY_CVS.php(85): SC_Mdl_PG_MULPAY_Client_CVS->doPaymentRequest
/home/oukoku/public_html/shop/data/downloads/module/mdl_pg_mulpay/class/client/SC_Mdl_PG_MULPAY_Client_CVS.php(42): SC_Mdl_PG_MULPAY_Client_Base->sendOrderRequest
/home/oukoku/public_html/shop/data/downloads/module/mdl_pg_mulpay/class/client/SC_Mdl_PG_MULPAY_Client_Base.php(241): SC_Mdl_PG_MULPAY_Client_Base->sendRequest
/home/oukoku/public_html/shop/data/downloads/module/mdl_pg_mulpay/class/client/SC_Mdl_PG_MULPAY_Client_Base.php(375): SC_Mdl_PG_MULPAY->printLog
/home/oukoku/public_html/shop/data/downloads/module/mdl_pg_mulpay/class/SC_Mdl_PG_MULPAY.php(268): GC_Utils::gfPrintLog
2019/10/06 21:46:14 [/shop/shopping/load_payment_module.php] Array
(
    [ShopID] => 9102288779655
    [ShopPass] => ******
    [OrderID] => 611-06214614
    [Amount] => 9460
)
 from 1.66.100.69
customer_id = 
/home/oukoku/public_html/shop/shopping/load_payment_module.php(29): LC_Page_Shopping_LoadPaymentModule_Ex->process
/home/oukoku/public_html/shop/data/class_extends/page_extends/shopping/LC_Page_Shopping_LoadPaymentModule_Ex.php(54): LC_Page_Shopping_LoadPaymentModule->process
/home/oukoku/public_html/shop/data/class/pages/shopping/LC_Page_Shopping_LoadPaymentModule.php(70): require_once
/home/oukoku/public_html/shop/data/downloads/module/mdl_pg_mulpay/payment.php(16): LC_Page_Mdl_PG_MULPAY_Helper->process
/home/oukoku/public_html/shop/data/downloads/module/mdl_pg_mulpay/class/pages/LC_Page_Mdl_PG_MULPAY_Helper.php(45): LC_Page_Mdl_PG_MULPAY_Helper->action
/home/oukoku/public_html/shop/data/downloads/module/mdl_pg_mulpay/class/pages/LC_Page_Mdl_PG_MULPAY_Helper.php(136): LC_PageHelper_Mdl_PG_MULPAY_CVS->modeAction
/home/oukoku/public_html/shop/data/downloads/module/mdl_pg_mulpay/class/pages/helper/LC_PageHelper_Mdl_PG_MULPAY_CVS.php(85): SC_Mdl_PG_MULPAY_Client_CVS->doPaymentRequest
/home/oukoku/public_html/shop/data/downloads/module/mdl_pg_mulpay/class/client/SC_Mdl_PG_MULPAY_Client_CVS.php(42): SC_Mdl_PG_MULPAY_Client_Base->sendOrderRequest
/home/oukoku/public_html/shop/data/downloads/module/mdl_pg_mulpay/class/client/SC_Mdl_PG_MULPAY_Client_Base.php(241): SC_Mdl_PG_MULPAY_Client_Base->sendRequest
/home/oukoku/public_html/shop/data/downloads/module/mdl_pg_mulpay/class/client/SC_Mdl_PG_MULPAY_Client_Base.php(376): SC_Mdl_PG_MULPAY->printLog
/home/oukoku/public_html/shop/data/downloads/module/mdl_pg_mulpay/class/SC_Mdl_PG_MULPAY.php(268): GC_Utils::gfPrintLog
2019/10/06 21:46:14 [/shop/shopping/load_payment_module.php] AccessID=e9bcf646fe8e9cedd58c3ae5a63e299b&AccessPass=ef464c0d879196052ffef4b17973ee86 from 1.66.100.69
customer_id = 
/home/oukoku/public_html/shop/shopping/load_payment_module.php(29): LC_Page_Shopping_LoadPaymentModule_Ex->process
/home/oukoku/public_html/shop/data/class_extends/page_extends/shopping/LC_Page_Shopping_LoadPaymentModule_Ex.php(54): LC_Page_Shopping_LoadPaymentModule->process
/home/oukoku/public_html/shop/data/class/pages/shopping/LC_Page_Shopping_LoadPaymentModule.php(70): require_once
/home/oukoku/public_html/shop/data/downloads/module/mdl_pg_mulpay/payment.php(16): LC_Page_Mdl_PG_MULPAY_Helper->process
/home/oukoku/public_html/shop/data/downloads/module/mdl_pg_mulpay/class/pages/LC_Page_Mdl_PG_MULPAY_Helper.php(45): LC_Page_Mdl_PG_MULPAY_Helper->action
/home/oukoku/public_html/shop/data/downloads/module/mdl_pg_mulpay/class/pages/LC_Page_Mdl_PG_MULPAY_Helper.php(136): LC_PageHelper_Mdl_PG_MULPAY_CVS->modeAction
/home/oukoku/public_html/shop/data/downloads/module/mdl_pg_mulpay/class/pages/helper/LC_PageHelper_Mdl_PG_MULPAY_CVS.php(85): SC_Mdl_PG_MULPAY_Client_CVS->doPaymentRequest
/home/oukoku/public_html/shop/data/downloads/module/mdl_pg_mulpay/class/client/SC_Mdl_PG_MULPAY_Client_CVS.php(42): SC_Mdl_PG_MULPAY_Client_Base->sendOrderRequest
/home/oukoku/public_html/shop/data/downloads/module/mdl_pg_mulpay/class/client/SC_Mdl_PG_MULPAY_Client_Base.php(241): SC_Mdl_PG_MULPAY_Client_Base->sendRequest
/home/oukoku/public_html/shop/data/downloads/module/mdl_pg_mulpay/class/client/SC_Mdl_PG_MULPAY_Client_Base.php(418): SC_Mdl_PG_MULPAY_Client_Base->parseResponse
/home/oukoku/public_html/shop/data/downloads/module/mdl_pg_mulpay/class/client/SC_Mdl_PG_MULPAY_Client_Base.php(446): SC_Mdl_PG_MULPAY->printLog
/home/oukoku/public_html/shop/data/downloads/module/mdl_pg_mulpay/class/SC_Mdl_PG_MULPAY.php(268): GC_Utils::gfPrintLog
2019/10/06 21:46:14 [/shop/shopping/load_payment_module.php] Array
(
    [0] => Array
        (
            [AccessID] => e9bcf646fe8e9cedd58c3ae5a63e299b
            [AccessPass] => ef464c0d879196052ffef4b17973ee86
        )

)
 from 1.66.100.69
customer_id = 
/home/oukoku/public_html/shop/shopping/load_payment_module.php(29): LC_Page_Shopping_LoadPaymentModule_Ex->process
/home/oukoku/public_html/shop/data/class_extends/page_extends/shopping/LC_Page_Shopping_LoadPaymentModule_Ex.php(54): LC_Page_Shopping_LoadPaymentModule->process
/home/oukoku/public_html/shop/data/class/pages/shopping/LC_Page_Shopping_LoadPaymentModule.php(70): require_once
/home/oukoku/public_html/shop/data/downloads/module/mdl_pg_mulpay/payment.php(16): LC_Page_Mdl_PG_MULPAY_Helper->process
/home/oukoku/public_html/shop/data/downloads/module/mdl_pg_mulpay/class/pages/LC_Page_Mdl_PG_MULPAY_Helper.php(45): LC_Page_Mdl_PG_MULPAY_Helper->action
/home/oukoku/public_html/shop/data/downloads/module/mdl_pg_mulpay/class/pages/LC_Page_Mdl_PG_MULPAY_Helper.php(136): LC_PageHelper_Mdl_PG_MULPAY_CVS->modeAction
/home/oukoku/public_html/shop/data/downloads/module/mdl_pg_mulpay/class/pages/helper/LC_PageHelper_Mdl_PG_MULPAY_CVS.php(85): SC_Mdl_PG_MULPAY_Client_CVS->doPaymentRequest
/home/oukoku/public_html/shop/data/downloads/module/mdl_pg_mulpay/class/client/SC_Mdl_PG_MULPAY_Client_CVS.php(42): SC_Mdl_PG_MULPAY_Client_Base->sendOrderRequest
/home/oukoku/public_html/shop/data/downloads/module/mdl_pg_mulpay/class/client/SC_Mdl_PG_MULPAY_Client_Base.php(241): SC_Mdl_PG_MULPAY_Client_Base->sendRequest
/home/oukoku/public_html/shop/data/downloads/module/mdl_pg_mulpay/class/client/SC_Mdl_PG_MULPAY_Client_Base.php(419): SC_Mdl_PG_MULPAY_Client_Base->setResults
/home/oukoku/public_html/shop/data/downloads/module/mdl_pg_mulpay/class/client/SC_Mdl_PG_MULPAY_Client_Base.php(533): SC_Mdl_PG_MULPAY->printLog
/home/oukoku/public_html/shop/data/downloads/module/mdl_pg_mulpay/class/SC_Mdl_PG_MULPAY.php(268): GC_Utils::gfPrintLog
2019/10/06 21:46:14 [/shop/shopping/load_payment_module.php] load_payment_module.php set payment data:Array
(
    [AccessID] => e9bcf646fe8e9cedd58c3ae5a63e299b
    [AccessPass] => ef464c0d879196052ffef4b17973ee86
    [OrderID] => 611-06214614
    [Amount] => 9460
    [action_status] => 1
    [pay_status] => 0
)
 from 1.66.100.69
customer_id = 
/home/oukoku/public_html/shop/shopping/load_payment_module.php(29): LC_Page_Shopping_LoadPaymentModule_Ex->process
/home/oukoku/public_html/shop/data/class_extends/page_extends/shopping/LC_Page_Shopping_LoadPaymentModule_Ex.php(54): LC_Page_Shopping_LoadPaymentModule->process
/home/oukoku/public_html/shop/data/class/pages/shopping/LC_Page_Shopping_LoadPaymentModule.php(70): require_once
/home/oukoku/public_html/shop/data/downloads/module/mdl_pg_mulpay/payment.php(16): LC_Page_Mdl_PG_MULPAY_Helper->process
/home/oukoku/public_html/shop/data/downloads/module/mdl_pg_mulpay/class/pages/LC_Page_Mdl_PG_MULPAY_Helper.php(45): LC_Page_Mdl_PG_MULPAY_Helper->action
/home/oukoku/public_html/shop/data/downloads/module/mdl_pg_mulpay/class/pages/LC_Page_Mdl_PG_MULPAY_Helper.php(136): LC_PageHelper_Mdl_PG_MULPAY_CVS->modeAction
/home/oukoku/public_html/shop/data/downloads/module/mdl_pg_mulpay/class/pages/helper/LC_PageHelper_Mdl_PG_MULPAY_CVS.php(85): SC_Mdl_PG_MULPAY_Client_CVS->doPaymentRequest
/home/oukoku/public_html/shop/data/downloads/module/mdl_pg_mulpay/class/client/SC_Mdl_PG_MULPAY_Client_CVS.php(42): SC_Mdl_PG_MULPAY_Client_Base->sendOrderRequest
/home/oukoku/public_html/shop/data/downloads/module/mdl_pg_mulpay/class/client/SC_Mdl_PG_MULPAY_Client_Base.php(275): SC_Util_PG_MULPAY->setOrderPayData
/home/oukoku/public_html/shop/data/downloads/module/mdl_pg_mulpay/class/util/SC_Util_PG_MULPAY.php(501): SC_Mdl_PG_MULPAY->printLog
/home/oukoku/public_html/shop/data/downloads/module/mdl_pg_mulpay/class/SC_Mdl_PG_MULPAY.php(268): GC_Utils::gfPrintLog
2019/10/06 21:46:14 [/shop/shopping/load_payment_module.php] SendRequest:https://p01.mul-pay.jp/payment/ExecTranCvs.idPass from 1.66.100.69
customer_id = 
/home/oukoku/public_html/shop/shopping/load_payment_module.php(29): LC_Page_Shopping_LoadPaymentModule_Ex->process
/home/oukoku/public_html/shop/data/class_extends/page_extends/shopping/LC_Page_Shopping_LoadPaymentModule_Ex.php(54): LC_Page_Shopping_LoadPaymentModule->process
/home/oukoku/public_html/shop/data/class/pages/shopping/LC_Page_Shopping_LoadPaymentModule.php(70): require_once
/home/oukoku/public_html/shop/data/downloads/module/mdl_pg_mulpay/payment.php(16): LC_Page_Mdl_PG_MULPAY_Helper->process
/home/oukoku/public_html/shop/data/downloads/module/mdl_pg_mulpay/class/pages/LC_Page_Mdl_PG_MULPAY_Helper.php(45): LC_Page_Mdl_PG_MULPAY_Helper->action
/home/oukoku/public_html/shop/data/downloads/module/mdl_pg_mulpay/class/pages/LC_Page_Mdl_PG_MULPAY_Helper.php(136): LC_PageHelper_Mdl_PG_MULPAY_CVS->modeAction
/home/oukoku/public_html/shop/data/downloads/module/mdl_pg_mulpay/class/pages/helper/LC_PageHelper_Mdl_PG_MULPAY_CVS.php(85): SC_Mdl_PG_MULPAY_Client_CVS->doPaymentRequest
/home/oukoku/public_html/shop/data/downloads/module/mdl_pg_mulpay/class/client/SC_Mdl_PG_MULPAY_Client_CVS.php(93): SC_Mdl_PG_MULPAY_Client_Base->sendOrderRequest
/home/oukoku/public_html/shop/data/downloads/module/mdl_pg_mulpay/class/client/SC_Mdl_PG_MULPAY_Client_Base.php(241): SC_Mdl_PG_MULPAY_Client_Base->sendRequest
/home/oukoku/public_html/shop/data/downloads/module/mdl_pg_mulpay/class/client/SC_Mdl_PG_MULPAY_Client_Base.php(375): SC_Mdl_PG_MULPAY->printLog
/home/oukoku/public_html/shop/data/downloads/module/mdl_pg_mulpay/class/SC_Mdl_PG_MULPAY.php(268): GC_Utils::gfPrintLog
2019/10/06 21:46:14 [/shop/shopping/load_payment_module.php] Array
(
    [AccessID] => e9bcf646fe8e9cedd58c3ae5a63e299b
    [AccessPass] => ef464c0d879196052ffef4b17973ee86
    [OrderID] => 611-06214614
    [Convenience] => 10001
    [CustomerName] => ******
    [CustomerKana] => ******
    [TelNo] => 09016956568
    [PaymentTermDay] => 
    [MailAddress] => ******
    [ShopMailAddress] => oukoku-onlineshop@oukoku.biz
    [ReserveNo] => 611
    [MemberNo] => 
    [RegisterDisp1] => 
    [RegisterDisp2] => 
    [RegisterDisp3] => 
    [RegisterDisp4] => 
    [RegisterDisp5] => 
    [RegisterDisp6] => 
    [RegisterDisp7] => 
    [RegisterDisp8] => 
    [ReceiptsDisp1] => 
    [ReceiptsDisp2] => 
    [ReceiptsDisp3] => 
    [ReceiptsDisp4] => 
    [ReceiptsDisp5] => 
    [ReceiptsDisp6] => 
    [ReceiptsDisp7] => 
    [ReceiptsDisp8] => 
    [ReceiptsDisp9] => 
    [ReceiptsDisp10] => 
    [ReceiptsDisp11] => 株式会社カーテン・じゅうたん王国
    [ReceiptsDisp12] => 0356493000
    [ReceiptsDisp13] => 09:30-18:30
    [ClientField1] => 
    [ClientField2] => 
    [ClientField3] => EC-CUBE4.3.24
    [ClientFieldFlag] => 1
)
 from 1.66.100.69
customer_id = 
/home/oukoku/public_html/shop/shopping/load_payment_module.php(29): LC_Page_Shopping_LoadPaymentModule_Ex->process
/home/oukoku/public_html/shop/data/class_extends/page_extends/shopping/LC_Page_Shopping_LoadPaymentModule_Ex.php(54): LC_Page_Shopping_LoadPaymentModule->process
/home/oukoku/public_html/shop/data/class/pages/shopping/LC_Page_Shopping_LoadPaymentModule.php(70): require_once
/home/oukoku/public_html/shop/data/downloads/module/mdl_pg_mulpay/payment.php(16): LC_Page_Mdl_PG_MULPAY_Helper->process
/home/oukoku/public_html/shop/data/downloads/module/mdl_pg_mulpay/class/pages/LC_Page_Mdl_PG_MULPAY_Helper.php(45): LC_Page_Mdl_PG_MULPAY_Helper->action
/home/oukoku/public_html/shop/data/downloads/module/mdl_pg_mulpay/class/pages/LC_Page_Mdl_PG_MULPAY_Helper.php(136): LC_PageHelper_Mdl_PG_MULPAY_CVS->modeAction
/home/oukoku/public_html/shop/data/downloads/module/mdl_pg_mulpay/class/pages/helper/LC_PageHelper_Mdl_PG_MULPAY_CVS.php(85): SC_Mdl_PG_MULPAY_Client_CVS->doPaymentRequest
/home/oukoku/public_html/shop/data/downloads/module/mdl_pg_mulpay/class/client/SC_Mdl_PG_MULPAY_Client_CVS.php(93): SC_Mdl_PG_MULPAY_Client_Base->sendOrderRequest
/home/oukoku/public_html/shop/data/downloads/module/mdl_pg_mulpay/class/client/SC_Mdl_PG_MULPAY_Client_Base.php(241): SC_Mdl_PG_MULPAY_Client_Base->sendRequest
/home/oukoku/public_html/shop/data/downloads/module/mdl_pg_mulpay/class/client/SC_Mdl_PG_MULPAY_Client_Base.php(376): SC_Mdl_PG_MULPAY->printLog
/home/oukoku/public_html/shop/data/downloads/module/mdl_pg_mulpay/class/SC_Mdl_PG_MULPAY.php(268): GC_Utils::gfPrintLog
2019/10/06 21:46:15 [/shop/shopping/load_payment_module.php] OrderID=611-06214614&Convenience=10001&ConfNo=6960&ReceiptNo=91927980762164&PaymentTerm=20191010235959&TranDate=20191006214614&CheckString=6141cf7590a9c4b93771daa4d50265c4&ClientField1=&ClientField2=&ClientField3=EC-CUBE4.3.24 from 1.66.100.69
customer_id = 
/home/oukoku/public_html/shop/shopping/load_payment_module.php(29): LC_Page_Shopping_LoadPaymentModule_Ex->process
/home/oukoku/public_html/shop/data/class_extends/page_extends/shopping/LC_Page_Shopping_LoadPaymentModule_Ex.php(54): LC_Page_Shopping_LoadPaymentModule->process
/home/oukoku/public_html/shop/data/class/pages/shopping/LC_Page_Shopping_LoadPaymentModule.php(70): require_once
/home/oukoku/public_html/shop/data/downloads/module/mdl_pg_mulpay/payment.php(16): LC_Page_Mdl_PG_MULPAY_Helper->process
/home/oukoku/public_html/shop/data/downloads/module/mdl_pg_mulpay/class/pages/LC_Page_Mdl_PG_MULPAY_Helper.php(45): LC_Page_Mdl_PG_MULPAY_Helper->action
/home/oukoku/public_html/shop/data/downloads/module/mdl_pg_mulpay/class/pages/LC_Page_Mdl_PG_MULPAY_Helper.php(136): LC_PageHelper_Mdl_PG_MULPAY_CVS->modeAction
/home/oukoku/public_html/shop/data/downloads/module/mdl_pg_mulpay/class/pages/helper/LC_PageHelper_Mdl_PG_MULPAY_CVS.php(85): SC_Mdl_PG_MULPAY_Client_CVS->doPaymentRequest
/home/oukoku/public_html/shop/data/downloads/module/mdl_pg_mulpay/class/client/SC_Mdl_PG_MULPAY_Client_CVS.php(93): SC_Mdl_PG_MULPAY_Client_Base->sendOrderRequest
/home/oukoku/public_html/shop/data/downloads/module/mdl_pg_mulpay/class/client/SC_Mdl_PG_MULPAY_Client_Base.php(241): SC_Mdl_PG_MULPAY_Client_Base->sendRequest
/home/oukoku/public_html/shop/data/downloads/module/mdl_pg_mulpay/class/client/SC_Mdl_PG_MULPAY_Client_Base.php(418): SC_Mdl_PG_MULPAY_Client_Base->parseResponse
/home/oukoku/public_html/shop/data/downloads/module/mdl_pg_mulpay/class/client/SC_Mdl_PG_MULPAY_Client_Base.php(446): SC_Mdl_PG_MULPAY->printLog
/home/oukoku/public_html/shop/data/downloads/module/mdl_pg_mulpay/class/SC_Mdl_PG_MULPAY.php(268): GC_Utils::gfPrintLog
2019/10/06 21:46:15 [/shop/shopping/load_payment_module.php] Array
(
    [0] => Array
        (
            [OrderID] => 611-06214614
            [Convenience] => 10001
            [ConfNo] => 6960
            [ReceiptNo] => 91927980762164
            [PaymentTerm] => 20191010235959
            [TranDate] => 20191006214614
            [CheckString] => 6141cf7590a9c4b93771daa4d50265c4
            [ClientField1] => 
            [ClientField2] => 
            [ClientField3] => EC-CUBE4.3.24
        )

)
 from 1.66.100.69
customer_id = 
/home/oukoku/public_html/shop/shopping/load_payment_module.php(29): LC_Page_Shopping_LoadPaymentModule_Ex->process
/home/oukoku/public_html/shop/data/class_extends/page_extends/shopping/LC_Page_Shopping_LoadPaymentModule_Ex.php(54): LC_Page_Shopping_LoadPaymentModule->process
/home/oukoku/public_html/shop/data/class/pages/shopping/LC_Page_Shopping_LoadPaymentModule.php(70): require_once
/home/oukoku/public_html/shop/data/downloads/module/mdl_pg_mulpay/payment.php(16): LC_Page_Mdl_PG_MULPAY_Helper->process
/home/oukoku/public_html/shop/data/downloads/module/mdl_pg_mulpay/class/pages/LC_Page_Mdl_PG_MULPAY_Helper.php(45): LC_Page_Mdl_PG_MULPAY_Helper->action
/home/oukoku/public_html/shop/data/downloads/module/mdl_pg_mulpay/class/pages/LC_Page_Mdl_PG_MULPAY_Helper.php(136): LC_PageHelper_Mdl_PG_MULPAY_CVS->modeAction
/home/oukoku/public_html/shop/data/downloads/module/mdl_pg_mulpay/class/pages/helper/LC_PageHelper_Mdl_PG_MULPAY_CVS.php(85): SC_Mdl_PG_MULPAY_Client_CVS->doPaymentRequest
/home/oukoku/public_html/shop/data/downloads/module/mdl_pg_mulpay/class/client/SC_Mdl_PG_MULPAY_Client_CVS.php(93): SC_Mdl_PG_MULPAY_Client_Base->sendOrderRequest
/home/oukoku/public_html/shop/data/downloads/module/mdl_pg_mulpay/class/client/SC_Mdl_PG_MULPAY_Client_Base.php(241): SC_Mdl_PG_MULPAY_Client_Base->sendRequest
/home/oukoku/public_html/shop/data/downloads/module/mdl_pg_mulpay/class/client/SC_Mdl_PG_MULPAY_Client_Base.php(419): SC_Mdl_PG_MULPAY_Client_Base->setResults
/home/oukoku/public_html/shop/data/downloads/module/mdl_pg_mulpay/class/client/SC_Mdl_PG_MULPAY_Client_Base.php(533): SC_Mdl_PG_MULPAY->printLog
/home/oukoku/public_html/shop/data/downloads/module/mdl_pg_mulpay/class/SC_Mdl_PG_MULPAY.php(268): GC_Utils::gfPrintLog
2019/10/06 21:46:15 [/shop/shopping/load_payment_module.php] load_payment_module.php set payment data:Array
(
    [Convenience] => 00001
    [ConfNo] => 6960
    [ReceiptNo] => 91927980762164
    [PaymentTerm] => 20191010235959
    [TranDate] => 20191006214614
    [CheckString] => 6141cf7590a9c4b93771daa4d50265c4
    [ClientField1] => 
    [ClientField2] => 
    [ClientField3] => EC-CUBE4.3.24
    [Amount] => 9460
    [action_status] => 3
    [pay_status] => 1
)
 from 1.66.100.69
customer_id = 
/home/oukoku/public_html/shop/shopping/load_payment_module.php(29): LC_Page_Shopping_LoadPaymentModule_Ex->process
/home/oukoku/public_html/shop/data/class_extends/page_extends/shopping/LC_Page_Shopping_LoadPaymentModule_Ex.php(54): LC_Page_Shopping_LoadPaymentModule->process
/home/oukoku/public_html/shop/data/class/pages/shopping/LC_Page_Shopping_LoadPaymentModule.php(70): require_once
/home/oukoku/public_html/shop/data/downloads/module/mdl_pg_mulpay/payment.php(16): LC_Page_Mdl_PG_MULPAY_Helper->process
/home/oukoku/public_html/shop/data/downloads/module/mdl_pg_mulpay/class/pages/LC_Page_Mdl_PG_MULPAY_Helper.php(45): LC_Page_Mdl_PG_MULPAY_Helper->action
/home/oukoku/public_html/shop/data/downloads/module/mdl_pg_mulpay/class/pages/LC_Page_Mdl_PG_MULPAY_Helper.php(136): LC_PageHelper_Mdl_PG_MULPAY_CVS->modeAction
/home/oukoku/public_html/shop/data/downloads/module/mdl_pg_mulpay/class/pages/helper/LC_PageHelper_Mdl_PG_MULPAY_CVS.php(85): SC_Mdl_PG_MULPAY_Client_CVS->doPaymentRequest
/home/oukoku/public_html/shop/data/downloads/module/mdl_pg_mulpay/class/client/SC_Mdl_PG_MULPAY_Client_CVS.php(93): SC_Mdl_PG_MULPAY_Client_Base->sendOrderRequest
/home/oukoku/public_html/shop/data/downloads/module/mdl_pg_mulpay/class/client/SC_Mdl_PG_MULPAY_Client_Base.php(275): SC_Util_PG_MULPAY->setOrderPayData
/home/oukoku/public_html/shop/data/downloads/module/mdl_pg_mulpay/class/util/SC_Util_PG_MULPAY.php(501): SC_Mdl_PG_MULPAY->printLog
/home/oukoku/public_html/shop/data/downloads/module/mdl_pg_mulpay/class/SC_Mdl_PG_MULPAY.php(268): GC_Utils::gfPrintLog
2019/10/06 21:46:15 [/shop/user_data/pg_mulpay_recv.php] ******* receiveer data start ******* from 210.175.7.20
customer_id = 
/home/oukoku/public_html/shop/user_data/pg_mulpay_recv.php(15): LC_Page_Mdl_PG_MULPAY_Recv->process
/home/oukoku/public_html/shop/data/downloads/module/mdl_pg_mulpay/class/pages/LC_Page_Mdl_PG_MULPAY_Recv.php(44): LC_Page_Mdl_PG_MULPAY_Recv->action
/home/oukoku/public_html/shop/data/downloads/module/mdl_pg_mulpay/class/pages/LC_Page_Mdl_PG_MULPAY_Recv.php(54): LC_Page_Mdl_PG_MULPAY_Recv->lfSetPostLog
/home/oukoku/public_html/shop/data/downloads/module/mdl_pg_mulpay/class/pages/LC_Page_Mdl_PG_MULPAY_Recv.php(832): SC_Mdl_PG_MULPAY->printLog
/home/oukoku/public_html/shop/data/downloads/module/mdl_pg_mulpay/class/SC_Mdl_PG_MULPAY.php(268): GC_Utils::gfPrintLog
2019/10/06 21:46:15 [/shop/user_data/pg_mulpay_recv.php] Array
(
    [ShopID] => 9102288779655
    [ShopPass] => **********
    [AccessID] => e9bcf646fe8e9cedd58c3ae5a63e299b
    [AccessPass] => ********************************
    [OrderID] => 611-06214614
    [Status] => REQSUCCESS
    [JobCd] => 
    [Amount] => 9460
    [Tax] => 0
    [Currency] => JPN
    [Forward] => 
    [Method] => 
    [PayTimes] => 
    [TranID] => 19100600000194704292
    [Approve] => 
    [TranDate] => 20191006214614
    [ErrCode] => 
    [ErrInfo] => 
    [PayType] => 3
    [CvsCode] => 10001
    [CvsConfNo] => 6960
    [CvsReceiptNo] => 91927980762164
    [EdyReceiptNo] => 
    [EdyOrderNo] => 
    [SuicaReceiptNo] => 
    [SuicaOrderNo] => 
    [CustID] => 
    [BkCode] => 
    [ConfNo] => 
    [PaymentTerm] => 20191010235959
    [EncryptReceiptNo] => 
    [FinishDate] => 
    [ReceiptDate] => 20191006214614
    [PayeasyPaymentURL] => 
    [WebMoneyManagementNo] => 
    [WebMoneySettleCode] => 
    [AuPayInfoNo] => 
    [AuPayMethod] => 
    [AuCancelAmount] => 
    [AuCancelTax] => 
    [DocomoSettlementCode] => 
    [DocomoCancelAmount] => 
    [DocomoCancelTax] => 
    [DocomoIncreaseAmount] => 
    [DocomoIncreaseTax] => 
    [SbTrackingId] => 
    [SbCancelAmount] => 
    [SbCancelTax] => 
    [JibunReceiptNo] => 
    [AuFirstAmount] => 
    [AuFirstTax] => 
    [AuAccountMonth] => 
    [AuContinueAccountId] => 
    [JcbPrecaSalesCode] => 
    [RequestNo] => 
    [AccountNo] => 
    [CenterCode] => 
    [NetCashPayType] => 
    [OrderDate] => 
    [CompletionDate] => 
    [RakutenidCouponFee] => 
    [McpPayInDate] => 
    [McpPayInAmount] => 
    [McpPayOutDate] => 
    [McpPayOutAmount] => 
    [RED_REQ_ID] => 
    [RED_ORD_ID] => 
    [RED_STAT_CD] => 
    [RED_FRAUD_STAT_CD] => 
    [RED_FRAUD_RSP_CD] => 
    [RED_FRAUD_REC_ID] => 
    [ProductName] => 
    [CancelAmount] => 
    [CancelTax] => 
    [PayMethod] => 
    [VaRequestAmount] => 
    [VaExpireDate] => 
    [VaTradeReason] => 
    [VaTradeClientName] => 
    [VaTradeClientMailaddress] => 
    [VaBankCode] => 
    [VaBankName] => 
    [VaBranchCode] => 
    [VaBranchName] => 
    [VaAccountType] => 
    [VaAccountNumber] => 
    [VaInInquiryNumber] => 
    [VaInSettlementDate] => 
    [VaInAmount] => 
    [VaInClientCode] => 
    [VaInClientName] => 
    [VaInSummary] => 
    [VaReserveID] => 
    [VaTradeCode] => 
    [SbStartChargeMonth] => 
    [SbChargeDay] => 
    [RcCustomerId] => 
    [RcUsePoint] => 
    [RcOrderId] => 
    [RcUpdateAuthDay] => 
    [RcUseCoupon] => 
    [RcUseShopCoupon] => 
    [RcContractId] => 
    [RcStartChargeMonth] => 
    [RcChargeDay] => 
    [RecurringID] => 
    [RecurringMethod] => 
    [RecurringChargeStartDate] => 
    [RecurringChargeStopDate] => 
    [RecurringChargeMonth] => 
    [RecurringChargeDay] => 
    [RecurringNextChargeDate] => 
    [BaSiteId] => 
    [BaMemberId] => 
    [BaTargetDate] => 
    [BaRequestAcceptEndDate] => 
    [BaTransferReturnDate] => 
    [BaWithdrawalDate] => 
    [BaResultcode] => 
    [PaidCancelAmount] => 
    [PaidCancelTax] => 
    [PaidBuyerID] => 
    [PaidCode] => 
    [PrecaNo] => 
    [PrecaSeq] => 
    [PrecaExpireDate] => 
    [ChargeType] => 
    [QuickID] => 
    [CampaignUrl] => 
    [DocomoAcceptCode] => 
    [PvFrontBillKey] => 
    [PvResultCode] => 
    [PvReceiptDatetime] => 
    [PvReceiptAgencyCode] => 
    [PvBarcode] => 
    [PvCvsCode] => 
    [PvCvsBranchCode] => 
    [PvPaymentAmount] => 
    [RakutenidSubscriptionId] => 
    [RakutenidSettlementSubscriptionId] => 
    [AuAcceptCode] => 
    [SbAcceptCode] => 
    [PaysleResultCode] => 
    [BankCode] => 
    [BankTranDate] => 
    [GanbProcessType] => 
    [GanbRequestAmount] => 
    [GanbExpireDate] => 
    [GanbTradeReason] => 
    [GanbTradeClientName] => 
    [GanbTradeClientMailaddress] => 
    [GanbBankCode] => 
    [GanbBankName] => 
    [GanbBranchCode] => 
    [GanbBranchName] => 
    [GanbAccountType] => 
    [GanbAccountNumber] => 
    [GanbAccountHolderName] => 
    [GanbInSettlementDate] => 
    [GanbInAmount] => 
    [GanbInClientName] => 
    [GanbInRemittingBankName] => 
    [GanbInRemittingBranchName] => 
    [GanbTotalTransferAmount] => 
    [GanbTotalTransferCount] => 
)
 from 210.175.7.20
customer_id = 
/home/oukoku/public_html/shop/user_data/pg_mulpay_recv.php(15): LC_Page_Mdl_PG_MULPAY_Recv->process
/home/oukoku/public_html/shop/data/downloads/module/mdl_pg_mulpay/class/pages/LC_Page_Mdl_PG_MULPAY_Recv.php(44): LC_Page_Mdl_PG_MULPAY_Recv->action
/home/oukoku/public_html/shop/data/downloads/module/mdl_pg_mulpay/class/pages/LC_Page_Mdl_PG_MULPAY_Recv.php(54): LC_Page_Mdl_PG_MULPAY_Recv->lfSetPostLog
/home/oukoku/public_html/shop/data/downloads/module/mdl_pg_mulpay/class/pages/LC_Page_Mdl_PG_MULPAY_Recv.php(836): SC_Mdl_PG_MULPAY->printLog
/home/oukoku/public_html/shop/data/downloads/module/mdl_pg_mulpay/class/SC_Mdl_PG_MULPAY.php(268): GC_Utils::gfPrintLog
2019/10/06 21:46:15 [/shop/user_data/pg_mulpay_recv.php] ******* receiveer data end ******* from 210.175.7.20
customer_id = 
/home/oukoku/public_html/shop/user_data/pg_mulpay_recv.php(15): LC_Page_Mdl_PG_MULPAY_Recv->process
/home/oukoku/public_html/shop/data/downloads/module/mdl_pg_mulpay/class/pages/LC_Page_Mdl_PG_MULPAY_Recv.php(44): LC_Page_Mdl_PG_MULPAY_Recv->action
/home/oukoku/public_html/shop/data/downloads/module/mdl_pg_mulpay/class/pages/LC_Page_Mdl_PG_MULPAY_Recv.php(54): LC_Page_Mdl_PG_MULPAY_Recv->lfSetPostLog
/home/oukoku/public_html/shop/data/downloads/module/mdl_pg_mulpay/class/pages/LC_Page_Mdl_PG_MULPAY_Recv.php(837): SC_Mdl_PG_MULPAY->printLog
/home/oukoku/public_html/shop/data/downloads/module/mdl_pg_mulpay/class/SC_Mdl_PG_MULPAY.php(268): GC_Utils::gfPrintLog
2019/10/06 21:46:16 [/shop/user_data/pg_mulpay_recv.php] update order status:2 from 210.175.7.20
customer_id = 
/home/oukoku/public_html/shop/user_data/pg_mulpay_recv.php(15): LC_Page_Mdl_PG_MULPAY_Recv->process
/home/oukoku/public_html/shop/data/downloads/module/mdl_pg_mulpay/class/pages/LC_Page_Mdl_PG_MULPAY_Recv.php(44): LC_Page_Mdl_PG_MULPAY_Recv->action
/home/oukoku/public_html/shop/data/downloads/module/mdl_pg_mulpay/class/pages/LC_Page_Mdl_PG_MULPAY_Recv.php(91): LC_Page_Mdl_PG_MULPAY_Recv->lfDoReceive
/home/oukoku/public_html/shop/data/downloads/module/mdl_pg_mulpay/class/pages/LC_Page_Mdl_PG_MULPAY_Recv.php(132): LC_Page_Mdl_PG_MULPAY_Recv->lfDoRecvCvs
/home/oukoku/public_html/shop/data/downloads/module/mdl_pg_mulpay/class/pages/LC_Page_Mdl_PG_MULPAY_Recv.php(285): LC_Page_Mdl_PG_MULPAY_Recv->lfDoRecvDefault
/home/oukoku/public_html/shop/data/downloads/module/mdl_pg_mulpay/class/pages/LC_Page_Mdl_PG_MULPAY_Recv.php(263): SC_Mdl_PG_MULPAY->printLog
/home/oukoku/public_html/shop/data/downloads/module/mdl_pg_mulpay/class/SC_Mdl_PG_MULPAY.php(268): GC_Utils::gfPrintLog
2019/10/06 21:46:16 [/shop/user_data/pg_mulpay_recv.php] pg_mulpay_recv.php set payment data:Array
(
    [ShopID] => 9102288779655
    [AccessID] => e9bcf646fe8e9cedd58c3ae5a63e299b
    [OrderID] => 611-06214614
    [Status] => REQSUCCESS
    [JobCd] => 
    [Amount] => 9460
    [Tax] => 0
    [Currency] => JPN
    [Forward] => 
    [Method] => 
    [PayTimes] => 
    [TranID] => 19100600000194704292
    [Approve] => 
    [TranDate] => 20191006214614
    [ErrCode] => 
    [ErrInfo] => 
    [PayType] => 3
    [CvsCode] => 10001
    [CvsConfNo] => 6960
    [CvsReceiptNo] => 91927980762164
    [EdyReceiptNo] => 
    [EdyOrderNo] => 
    [SuicaReceiptNo] => 
    [SuicaOrderNo] => 
    [CustID] => 
    [BkCode] => 
    [PaymentTerm] => 20191010235959
    [EncryptReceiptNo] => 
    [FinishDate] => 
    [ReceiptDate] => 20191006214614
    [WebMoneyManagementNo] => 
    [WebMoneySettleCode] => 
    [AuPayInfoNo] => 
    [AuPayMethod] => 
    [AuCancelAmount] => 
    [AuCancelTax] => 
    [DocomoSettlementCode] => 
    [DocomoCancelAmount] => 
    [DocomoCancelTax] => 
    [pay_status] => 1
)
 from 210.175.7.20
customer_id = 
/home/oukoku/public_html/shop/user_data/pg_mulpay_recv.php(15): LC_Page_Mdl_PG_MULPAY_Recv->process
/home/oukoku/public_html/shop/data/downloads/module/mdl_pg_mulpay/class/pages/LC_Page_Mdl_PG_MULPAY_Recv.php(44): LC_Page_Mdl_PG_MULPAY_Recv->action
/home/oukoku/public_html/shop/data/downloads/module/mdl_pg_mulpay/class/pages/LC_Page_Mdl_PG_MULPAY_Recv.php(91): LC_Page_Mdl_PG_MULPAY_Recv->lfDoReceive
/home/oukoku/public_html/shop/data/downloads/module/mdl_pg_mulpay/class/pages/LC_Page_Mdl_PG_MULPAY_Recv.php(226): SC_Util_PG_MULPAY->setOrderPayData
/home/oukoku/public_html/shop/data/downloads/module/mdl_pg_mulpay/class/util/SC_Util_PG_MULPAY.php(501): SC_Mdl_PG_MULPAY->printLog
/home/oukoku/public_html/shop/data/downloads/module/mdl_pg_mulpay/class/SC_Mdl_PG_MULPAY.php(268): GC_Utils::gfPrintLog
2019/10/06 21:46:16 [/shop/user_data/pg_mulpay_recv.php] response:true from 210.175.7.20
customer_id = 
/home/oukoku/public_html/shop/user_data/pg_mulpay_recv.php(15): LC_Page_Mdl_PG_MULPAY_Recv->process
/home/oukoku/public_html/shop/data/downloads/module/mdl_pg_mulpay/class/pages/LC_Page_Mdl_PG_MULPAY_Recv.php(44): LC_Page_Mdl_PG_MULPAY_Recv->action
/home/oukoku/public_html/shop/data/downloads/module/mdl_pg_mulpay/class/pages/LC_Page_Mdl_PG_MULPAY_Recv.php(93): LC_Page_Mdl_PG_MULPAY_Recv->lfSendResponse
/home/oukoku/public_html/shop/data/downloads/module/mdl_pg_mulpay/class/pages/LC_Page_Mdl_PG_MULPAY_Recv.php(849): SC_Mdl_PG_MULPAY->printLog
/home/oukoku/public_html/shop/data/downloads/module/mdl_pg_mulpay/class/SC_Mdl_PG_MULPAY.php(268): GC_Utils::gfPrintLog
