マトリックスＮｏ,巾１,巾２,巾３,巾４,巾５,巾６,巾７,丈１,丈２,丈３,丈４,丈５,丈６,丈７,丈巾１―１,丈巾１―２,丈巾１―３,丈巾１―４,丈巾１―５,丈巾１―６,丈巾１―７,丈巾２―１,丈巾２―２,丈巾２―３,丈巾２―４,丈巾２―５,丈巾２―６,丈巾２―７,丈巾３―１,丈巾３―２,丈巾３―３,丈巾３―４,丈巾３―５,丈巾３―６,丈巾３―７,丈巾４―１,丈巾４―２,丈巾４―３,丈巾４―４,丈巾４―５,丈巾５―１,丈巾５―２,丈巾５―３,丈巾５―４,丈巾５―５,丈巾６―１,丈巾６―２,丈巾６―３,丈巾６―４,丈巾６―５,丈巾７―１,丈巾７―２,丈巾７―３,丈巾７―４,丈巾７―５
E100_3980,200,-,-,,,,,140,210,270,,,,,5200,-,-,,,,,6800,-,-,,,,,8400,-,-,,,,,,,,,,,,,,,,,,,,,,,,
E100_4980,200,-,-,,,,,140,210,270,,,,,6000,-,-,,,,,7800,-,-,,,,,9600,-,-,,,,,,,,,,,,,,,,,,,,,,,,
E3980,200,300,400,,,,,140,210,270,,,,,5200,7800,10400,,,,,6800,10200,13600,,,,,8400,12600,16800,,,,,,,,,,,,,,,,,,,,,,,,
E4980,200,300,400,,,,,140,210,270,,,,,6000,9000,12000,,,,,7800,11700,15600,,,,,9600,14400,19200,,,,,,,,,,,,,,,,,,,,,,,,
E5980,200,300,400,,,,,140,210,270,,,,,7200,10800,14400,,,,,9400,14100,18800,,,,,11600,17400,23200,,,,,,,,,,,,,,,,,,,,,,,,
PO_D8800形,200,300,400,,,,,140,210,270,,,,,6800,10200,13600,,,,,8800,13200,17600,,,,,10800,16200,21600,,,,,,,,,,,,,,,,,,,,,,,,
PO_L7800形-260,200,300,400,,,,,140,210,260,,,,,5800,8700,11600,,,,,7800,11700,15600,,,,,9800,14700,19600,,,,,,,,,,,,,,,,,,,,,,,,
PO_L7800形-270,200,300,400,,,,,140,210,270,,,,,5800,8700,11600,,,,,7800,11700,15600,,,,,9800,14700,19600,,,,,,,,,,,,,,,,,,,,,,,,
レE1980,200,300,400,,,,,140,210,270,,,,,2600,3900,5200,,,,,3600,5400,7200,,,,,4600,6900,9200,,,,,,,,,,,,,,,,,,,,,,,,
レE1980形,200,300,400,,,,,140,210,270,,,,,3600,5400,7200,,,,,4600,6900,9200,,,,,5600,8400,11200,,,,,,,,,,,,,,,,,,,,,,,,
レE2980,200,300,400,,,,,140,210,270,,,,,3800,5700,7600,,,,,5400,8100,10800,,,,,7000,10500,14000,,,,,,,,,,,,,,,,,,,,,,,,
レE2980形,200,300,400,,,,,140,210,270,,,,,4800,7200,9600,,,,,6400,9600,12800,,,,,8000,12000,16000,,,,,,,,,,,,,,,,,,,,,,,,
レE3980,200,300,400,,,,,140,210,270,,,,,5200,7800,10400,,,,,6800,10200,13600,,,,,8400,12600,16800,,,,,,,,,,,,,,,,,,,,,,,,
レE3980形,200,300,400,,,,,140,210,270,,,,,6200,9300,12400,,,,,7800,11700,15600,,,,,9400,14100,18800,,,,,,,,,,,,,,,,,,,,,,,,
