商品コード,コメント1,コメント2
TBC302AEO,"<span style=""color:#9c3269; ""><b>共生地タッセル付きの商品です。</b></span>",ポリエステル100％
TBC302BEO,"<span style=""color:#9c3270; ""><b>共生地タッセル付きの商品です。</b></span>",ポリエステル100％
TBC302CEO,"<span style=""color:#9c3271; ""><b>共生地タッセル付きの商品です。</b></span>",ポリエステル100％
TBC302DEO,"<span style=""color:#9c3272; ""><b>共生地タッセル付きの商品です。</b></span>",ポリエステル100％
YUD318AEO,"<span style=""color:#9c3273; ""><b>共生地タッセル付きの商品です。</b></span>",ポリエステル100％
SFD304AEO,"<span style=""color:#9c3274; ""><b>共生地タッセル付きの商品です。</b></span>",ポリエステル100％
SFD304BEO,"<span style=""color:#9c3275; ""><b>共生地タッセル付きの商品です。</b></span>",ポリエステル100％
SFD304CEO,"<span style=""color:#9c3276; ""><b>共生地タッセル付きの商品です。</b></span>",ポリエステル100％
SFD304DEO,"<span style=""color:#9c3277; ""><b>共生地タッセル付きの商品です。</b></span>",ポリエステル100％
SFD304EEO,"<span style=""color:#9c3278; ""><b>共生地タッセル付きの商品です。</b></span>",ポリエステル100％
SFD304FEO,"<span style=""color:#9c3279; ""><b>共生地タッセル付きの商品です。</b></span>",ポリエステル100％
MAD401AEO,"<span style=""color:#9c3280; ""><b>共生地タッセル付きの商品です。</b></span>",ポリエステル100％
MAD401BEO,"<span style=""color:#9c3281; ""><b>共生地タッセル付きの商品です。</b></span>",ポリエステル100％
YUD321AEO,"<span style=""color:#9c3282; ""><b>共生地タッセル付きの商品です。</b></span>",ポリエステル100％
KMD402AEO,"<span style=""color:#9c3283; ""><b>共生地タッセル付きの商品です。</b></span>",ポリエステル100％
KMD402BEO,"<span style=""color:#9c3284; ""><b>共生地タッセル付きの商品です。</b></span>",ポリエステル100％
YUD322AEO,"<span style=""color:#9c3285; ""><b>共生地タッセル付きの商品です。</b></span>",ポリエステル100％
YUD322BEO,"<span style=""color:#9c3286; ""><b>共生地タッセル付きの商品です。</b></span>",ポリエステル100％
SFD303AEO,"<span style=""color:#9c3287; ""><b>共生地タッセル付きの商品です。</b></span>",ポリエステル100％
SFD303BEO,"<span style=""color:#9c3288; ""><b>共生地タッセル付きの商品です。</b></span>",ポリエステル100％
YUD323AEO,"<span style=""color:#9c3289; ""><b>共生地タッセル付きの商品です。</b></span>",ポリエステル100％
YUD323BEO,"<span style=""color:#9c3290; ""><b>共生地タッセル付きの商品です。</b></span>",ポリエステル100％
YUD320AEO,"<span style=""color:#9c3291; ""><b>共生地タッセル付きの商品です。</b></span>",ポリエステル100％
YUD315AEO,"<span style=""color:#9c3292; ""><b>共生地タッセル付きの商品です。</b></span>",ポリエステル100％
YUD315BEO,"<span style=""color:#9c3293; ""><b>共生地タッセル付きの商品です。</b></span>",ポリエステル100％
TBC303AEO,"<span style=""color:#9c3294; ""><b>共生地タッセル付きの商品です。</b></span>",ポリエステル100％
TBC303BEO,"<span style=""color:#9c3295; ""><b>共生地タッセル付きの商品です。</b></span>",ポリエステル100％
SCD307AEO,"<span style=""color:#9c3296; ""><b>共生地タッセル付きの商品です。</b></span>",ポリエステル100％
SCD307BEO,"<span style=""color:#9c3297; ""><b>共生地タッセル付きの商品です。</b></span>",ポリエステル100％
SCD307CEO,"<span style=""color:#9c3298; ""><b>共生地タッセル付きの商品です。</b></span>",ポリエステル100％
YUD419AEO,"<span style=""color:#9c3299; ""><b>共生地タッセル付きの商品です。</b></span>",ポリエステル100％
YUD419BEO,"<span style=""color:#9c3300; ""><b>共生地タッセル付きの商品です。</b></span>",ポリエステル100％
YUD317AEO,"<span style=""color:#9c3301; ""><b>共生地タッセル付きの商品です。</b></span>",ポリエステル100％
YUD317BEO,"<span style=""color:#9c3302; ""><b>共生地タッセル付きの商品です。</b></span>",ポリエステル100％
YUD319AEO,"<span style=""color:#9c3303; ""><b>共生地タッセル付きの商品です。</b></span>",ポリエステル100％
YUD319BEO,"<span style=""color:#9c3304; ""><b>共生地タッセル付きの商品です。</b></span>",ポリエステル100％
TBC301AEO,"<span style=""color:#9c3305; ""><b>共生地タッセル付きの商品です。</b></span>",ポリエステル100％
TBC301BEO,"<span style=""color:#9c3306; ""><b>共生地タッセル付きの商品です。</b></span>",ポリエステル100％
KMD401AEO,"<span style=""color:#9c3307; ""><b>共生地タッセル付きの商品です。</b></span>",ポリエステル100％
KMD401CEO,"<span style=""color:#9c3308; ""><b>共生地タッセル付きの商品です。</b></span>",ポリエステル100％
KMD401DEO,"<span style=""color:#9c3309; ""><b>共生地タッセル付きの商品です。</b></span>",ポリエステル100％
TBC305AEO,"<span style=""color:#9c3310; ""><b>共生地タッセル付きの商品です。</b></span>",ポリエステル100％
TBC502AEO,"<span style=""color:#9c3311; ""><b>共生地タッセル付きの商品です。</b></span>",ポリエステル100％
TBC502BEO,"<span style=""color:#9c3312; ""><b>共生地タッセル付きの商品です。</b></span>",ポリエステル100％
SFD404AEO,"<span style=""color:#9c3313; ""><b>共生地タッセル付きの商品です。</b></span>",ポリエステル100％
SFD404BEO,"<span style=""color:#9c3314; ""><b>共生地タッセル付きの商品です。</b></span>",ポリエステル100％
MAD402BEO,"<span style=""color:#9c3315; ""><b>共生地タッセル付きの商品です。</b></span>",ポリエステル100％
KZD437AEO,"<span style=""color:#9c3316; ""><b>共生地タッセル付きの商品です。</b></span>",ポリエステル100％
TBC501AEO,"<span style=""color:#9c3317; ""><b>共生地タッセル付きの商品です。</b></span>",ポリエステル100％
TBC501BEO,"<span style=""color:#9c3318; ""><b>共生地タッセル付きの商品です。</b></span>",ポリエステル100％
KZD535AEO,"<span style=""color:#9c3319; ""><b>共生地タッセル付きの商品です。</b></span>",ポリエステル100％
KZD535BEO,"<span style=""color:#9c3320; ""><b>共生地タッセル付きの商品です。</b></span>",ポリエステル100％
YUD425AEO,"<span style=""color:#9c3321; ""><b>共生地タッセル付きの商品です。</b></span>",ポリエステル100％
YUD425BEO,"<span style=""color:#9c3322; ""><b>共生地タッセル付きの商品です。</b></span>",ポリエステル100％
YUD425CEO,"<span style=""color:#9c3323; ""><b>共生地タッセル付きの商品です。</b></span>",ポリエステル100％
YUD425DEO,"<span style=""color:#9c3324; ""><b>共生地タッセル付きの商品です。</b></span>",ポリエステル100％
YUD425EEO,"<span style=""color:#9c3325; ""><b>共生地タッセル付きの商品です。</b></span>",ポリエステル100％
YUD425FEO,"<span style=""color:#9c3326; ""><b>共生地タッセル付きの商品です。</b></span>",ポリエステル100％
KZD421AEO,"<span style=""color:#9c3327; ""><b>共生地タッセル付きの商品です。</b></span>",ポリエステル100％
YUD422AEO,"<span style=""color:#9c3328; ""><b>共生地タッセル付きの商品です。</b></span>",ポリエステル100％
YUD422BEO,"<span style=""color:#9c3329; ""><b>共生地タッセル付きの商品です。</b></span>",ポリエステル100％
SCD417AEO,"<span style=""color:#9c3330; ""><b>共生地タッセル付きの商品です。</b></span>",ポリエステル100％
SCD417BEO,"<span style=""color:#9c3331; ""><b>共生地タッセル付きの商品です。</b></span>",ポリエステル100％
TBC405AEO,"<span style=""color:#9c3332; ""><b>共生地タッセル付きの商品です。</b></span>",ポリエステル100％
TBC405BEO,"<span style=""color:#9c3333; ""><b>共生地タッセル付きの商品です。</b></span>",ポリエステル100％
KZD435BEO,"<span style=""color:#9c3334; ""><b>共生地タッセル付きの商品です。</b></span>",ポリエステル100％　刺繍糸：レーヨン
YUD426AEO,"<span style=""color:#9c3335; ""><b>共生地タッセル付きの商品です。</b></span>",ポリエステル100％
YUD426BEO,"<span style=""color:#9c3336; ""><b>共生地タッセル付きの商品です。</b></span>",ポリエステル100％
TBC404AEO,"<span style=""color:#9c3337; ""><b>共生地タッセル付きの商品です。</b></span>",ポリエステル100％
TBC404BEO,"<span style=""color:#9c3338; ""><b>共生地タッセル付きの商品です。</b></span>",ポリエステル100％
YUD421AEO,"<span style=""color:#9c3339; ""><b>共生地タッセル付きの商品です。</b></span>",ポリエステル100％
YUD421BEO,"<span style=""color:#9c3340; ""><b>共生地タッセル付きの商品です。</b></span>",ポリエステル100％
KZD513AEO,"<span style=""color:#9c3341; ""><b>共生地タッセル付きの商品です。</b></span>",ポリエステル100％
KZD513BEO,"<span style=""color:#9c3342; ""><b>共生地タッセル付きの商品です。</b></span>",ポリエステル100％
KZD513CEO,"<span style=""color:#9c3343; ""><b>共生地タッセル付きの商品です。</b></span>",ポリエステル100％
KZD513DEO,"<span style=""color:#9c3344; ""><b>共生地タッセル付きの商品です。</b></span>",ポリエステル100％
KZD513EEO,"<span style=""color:#9c3345; ""><b>共生地タッセル付きの商品です。</b></span>",ポリエステル100％
KZD513FEO,"<span style=""color:#9c3346; ""><b>共生地タッセル付きの商品です。</b></span>",ポリエステル100％
KZD513GEO,"<span style=""color:#9c3347; ""><b>共生地タッセル付きの商品です。</b></span>",ポリエステル100％
KZD513HEO,"<span style=""color:#9c3348; ""><b>共生地タッセル付きの商品です。</b></span>",ポリエステル100％
KZD513JEO,"<span style=""color:#9c3349; ""><b>共生地タッセル付きの商品です。</b></span>",ポリエステル100％
KZD513KEO,"<span style=""color:#9c3350; ""><b>共生地タッセル付きの商品です。</b></span>",ポリエステル100％
KZD513MEO,"<span style=""color:#9c3351; ""><b>共生地タッセル付きの商品です。</b></span>",ポリエステル100％
KZD438CEO,"<span style=""color:#9c3352; ""><b>共生地タッセル付きの商品です。</b></span>",ポリエステル100％
KZD529BEO,"<span style=""color:#9c3353; ""><b>共生地タッセル付きの商品です。</b></span>",ポリエステル100％
KZD529CEO,"<span style=""color:#9c3354; ""><b>共生地タッセル付きの商品です。</b></span>",ポリエステル100％
KZL106AEO,,ポリエステル100％
KZL105BEO,,ポリエステル100％
AOL204AEO,,ポリエステル100％
MAL202AEO,,ポリエステル100％
AOL201AEO,,ポリエステル100％
SCL204AEO,,ポリエステル100％
SAL211AEO,,ポリエステル100％
KZL217AEO,,ポリエステル100％
SAL210AEO,,ポリエステル100％
KZL212AEO,,ポリエステル100％
KZL221AEO,,ポリエステル100％
KZL220AEO,,ポリエステル100％
KZL224AEO,,ポリエステル100％　刺繍糸：レーヨン
KZL219AEO,,ポリエステル100％
SCL208AEO,,ポリエステル100％
AOL301AEO,,ポリエステル100％
AOL203AEO,,ポリエステル100％
MAL203AEO,,ポリエステル100％
SCL203AEO,,ポリエステル100％
AOL202AEO,,ポリエステル100％
AOL302AEO,,ポリエステル100％
KZL225AEO,,ポリエステル100％　刺繍糸：レーヨン
SCL205AEO,,ポリエステル100％
SCL205CEO,,ポリエステル100％
SCL205BEO,,ポリエステル100％
SAL322AEO,,ポリエステル100％
SCL207AEO,,ポリエステル100％
YUL202AEO,,ポリエステル100％
YUL303AEO,,ポリエステル100％
SCL307AEO,,ポリエステル100％
KZL355AEO,,ポリエステル100％　刺繍糸：レーヨン
PAL5001,,ポリエステル100％
PAL5002,,ポリエステル100％
PSL3001,,ポリエステル100％
PSL3002,,ポリエステル80％　麻20％
PSL3003,,ポリエステル80％　麻20％
PSL3004,,ポリエステル100％
PSL3005,,ポリエステル100％
PYL1001,,ポリエステル100％
PYL1002,,ポリエステル100％
PYL1003,,ポリエステル100％
PYL1004,,ポリエステル100％
PYL1005,,ポリエステル100％
PYL1006,,ポリエステル100％
PYL1007,,ポリエステル100％
PYL1009,,ポリエステル100％
PYL1010,,ポリエステル100％
PYL1011,,ポリエステル100％
PYL1012,,ポリエステル100％
PYL1013,,ポリエステル100％
PYL1014,,ポリエステル72％　綿17％　アクリル11％
PYL1015,,ポリエステル100％
PSL3006,,ポリエステル100％
PSL3007,,ポリエステル100％
PSD4001,"<span style=""color:#9c3354; ""><b>共生地タッセル付きの商品です。</b></span>",ポリエステル100％
PSD4002,"<span style=""color:#9c3355; ""><b>共生地タッセル付きの商品です。</b></span>",ポリエステル100％
PSD4003,"<span style=""color:#9c3356; ""><b>共生地タッセル付きの商品です。</b></span>",ポリエステル100％
PYD2001,"<span style=""color:#9c3357; ""><b>共生地タッセル付きの商品です。</b></span>",ポリエステル100％
PYD2002,"<span style=""color:#9c3358; ""><b>共生地タッセル付きの商品です。</b></span>",ポリエステル100％
PYD2003,"<span style=""color:#9c3359; ""><b>共生地タッセル付きの商品です。</b></span>",ポリエステル100％
PYD2004,"<span style=""color:#9c3360; ""><b>共生地タッセル付きの商品です。</b></span>",ポリエステル100％
PYD2005,"<span style=""color:#9c3361; ""><b>共生地タッセル付きの商品です。</b></span>",ポリエステル100％
PYD2006,"<span style=""color:#9c3362; ""><b>共生地タッセル付きの商品です。</b></span>",ポリエステル100％
PYD2007,"<span style=""color:#9c3363; ""><b>共生地タッセル付きの商品です。</b></span>",ポリエステル100％
PYD2009,"<span style=""color:#9c3364; ""><b>共生地タッセル付きの商品です。</b></span>",ポリエステル100％
PYD2010,"<span style=""color:#9c3365; ""><b>共生地タッセル付きの商品です。</b></span>",ポリエステル100％
PYD2012,"<span style=""color:#9c3366; ""><b>共生地タッセル付きの商品です。</b></span>",ポリエステル100％
PYD2013,"<span style=""color:#9c3367; ""><b>共生地タッセル付きの商品です。</b></span>",ポリエステル100％
PYD2014,"<span style=""color:#9c3368; ""><b>共生地タッセル付きの商品です。</b></span>",ポリエステル100％
PYD2016,"<span style=""color:#9c3369; ""><b>共生地タッセル付きの商品です。</b></span>",ポリエステル100％
PYD2017,"<span style=""color:#9c3370; ""><b>共生地タッセル付きの商品です。</b></span>",ポリエステル100％
PYD2018,"<span style=""color:#9c3371; ""><b>共生地タッセル付きの商品です。</b></span>",ポリエステル100％
PYD2019,"<span style=""color:#9c3372; ""><b>共生地タッセル付きの商品です。</b></span>",ポリエステル100％
PYD2020,"<span style=""color:#9c3373; ""><b>共生地タッセル付きの商品です。</b></span>",ポリエステル100％
PYD2021,"<span style=""color:#9c3374; ""><b>共生地タッセル付きの商品です。</b></span>",ポリエステル100％
PYD2022,"<span style=""color:#9c3375; ""><b>共生地タッセル付きの商品です。</b></span>",ポリエステル100％
PYD2023,"<span style=""color:#9c3376; ""><b>共生地タッセル付きの商品です。</b></span>",ポリエステル100％
PYD2025,"<span style=""color:#9c3377; ""><b>共生地タッセル付きの商品です。</b></span>",ポリエステル100％
PYD2031,"<span style=""color:#9c3378; ""><b>共生地タッセル付きの商品です。</b></span>",ポリエステル100％
PYD2032,"<span style=""color:#9c3379; ""><b>共生地タッセル付きの商品です。</b></span>",ポリエステル100％
PYD2027,"<span style=""color:#9c3380; ""><b>共生地タッセル付きの商品です。</b></span>",ポリエステル100％
PYD2028,"<span style=""color:#9c3381; ""><b>共生地タッセル付きの商品です。</b></span>",ポリエステル100％
PYD2029,"<span style=""color:#9c3382; ""><b>共生地タッセル付きの商品です。</b></span>",ポリエステル100％
PYD2030,"<span style=""color:#9c3383; ""><b>共生地タッセル付きの商品です。</b></span>",ポリエステル100％
PYD2033,"<span style=""color:#9c3384; ""><b>共生地タッセル付きの商品です。</b></span>",ポリエステル100％
PSD4004,"<span style=""color:#9c3385; ""><b>共生地タッセル付きの商品です。</b></span>",ポリエステル100％
PSD4005,"<span style=""color:#9c3386; ""><b>共生地タッセル付きの商品です。</b></span>",ポリエステル100％
PSD4006,"<span style=""color:#9c3387; ""><b>共生地タッセル付きの商品です。</b></span>",ポリエステル100％
PSD4008,"<span style=""color:#9c3388; ""><b>共生地タッセル付きの商品です。</b></span>",ポリエステル100％
PSD4009,"<span style=""color:#9c3389; ""><b>共生地タッセル付きの商品です。</b></span>",ポリエステル100％
