商品ID,商品コード,検索_カラー_モノトーン系,検索_カラー_ベージュ系,検索_カラー_ブラウン系,検索_カラー_イエロー系,検索_カラー_グリーン系,検索_カラー_ブルー系,検索_カラー_レッド系,検索_カラー_グレイ系,検索_カラー_アイボリー系,検索_機能_遮熱,検索_機能_ウェーブロン,検索_機能_遮光,検索_機能_防炎,検索_機能_防音,検索_機能_UVカット,検索_機能_洗える,検索_機能_省エネ,検索_機能_形状記憶加工,検索_機能_花粉キャッチ,検索_機能_プライバシー対策,機能と特徴_裏地付き,機能と特徴_2倍ヒダ,機能と特徴_柄出し縫製,機能と特徴_形状記憶加工,機能と特徴_お洗濯OK,機能と特徴_防炎,機能と特徴_遮光1級,機能と特徴_遮光2級,機能と特徴_遮光3級,機能と特徴_UVカット,機能と特徴_ミラーレース,機能と特徴_遮熱・断熱,機能と特徴_ウェーブロン+(プラス),機能と特徴_採光,機能と特徴_遮像,機能と特徴_防音,機能と特徴_シームレス,機能と特徴_抗菌,機能と特徴_消臭,機能と特徴_防臭,機能と特徴_防汚,機能と特徴_透けにくい,機能と特徴_花粉キャッチ,機能と特徴_黒ずみ防止,機能と特徴_防虫,機能と特徴_アレルゲン抑制,カテゴリー,画像1_コメント,画像2_コメント,画像3_コメント,画像4_コメント,画像5_コメント,画像6_コメント,画像7_コメント,画像8_コメント,画像9_コメント,生地サンプル
,TBC302AEO,0,0,0,0,0,0,0,0,1,0,0,1,0,0,0,1,0,1,0,0,0,0,0,1,1,0,0,1,0,0,0,0,0,0,0,0,0,0,0,0,0,0,0,0,0,0,"無地,アイボリー系,ドレープカーテン,ドレープカーテン_遮光,ドレープカーテン_形状記憶,ドレープカーテン_洗える,既製カーテン,イージーオーダーカーテン,～10000円",,,,,,,,,,
,TBC302CEO,0,0,0,0,1,0,0,0,0,0,0,1,0,0,0,1,0,1,0,0,0,0,0,1,1,0,0,1,0,0,0,0,0,0,0,0,0,0,0,0,0,0,0,0,0,0,"無地,グリーン系,ドレープカーテン,ドレープカーテン_遮光,ドレープカーテン_形状記憶,ドレープカーテン_洗える,既製カーテン,イージーオーダーカーテン,～10000円",,,,,,,,,,
,TBC302DEO,0,0,0,0,0,1,0,0,0,0,0,1,0,0,0,1,0,1,0,0,0,0,0,1,1,0,0,1,0,0,0,0,0,0,0,0,0,0,0,0,0,0,0,0,0,0,"無地,ドレープカーテン,ドレープカーテン_遮光,ドレープカーテン_形状記憶,ドレープカーテン_洗える,既製カーテン,イージーオーダーカーテン,ブルー系,～10000円",,,,,,,,,,
,TBC302BEO,0,1,0,0,0,0,0,0,0,0,0,1,0,0,0,1,0,1,0,0,0,0,0,1,1,0,0,1,0,0,0,0,0,0,0,0,0,0,0,0,0,0,0,0,0,0,"無地,ベージュ系,ドレープカーテン,ドレープカーテン_遮光,ドレープカーテン_形状記憶,ドレープカーテン_洗える,既製カーテン,イージーオーダーカーテン,～10000円",,,,,,,,,,
,AOL204AEO,0,0,0,0,0,1,0,0,0,0,0,0,0,0,0,1,1,0,0,1,0,0,0,0,1,0,0,0,0,0,1,1,0,0,0,0,0,0,0,0,0,1,0,0,0,0,"レースカーテン_洗える,既製カーテン,イージーオーダーカーテン,ブルー系,レースカーテン_プライバシー対策,レースカーテン_省エネ,モダン,～10000円,

",UVカット率64％・省エネ効果のあるレースです。,ネイビーのボーダーは男の子のお部屋にも人気です。,,,,,,,,
,YUD318AEO,0,0,0,0,0,1,0,0,0,0,0,1,0,0,0,1,0,1,0,0,0,0,0,1,1,0,0,1,0,0,0,0,0,0,0,0,0,0,0,0,0,0,0,0,0,0,"ドレープカーテン_形状記憶,ドレープカーテン_洗える,既製カーテン,イージーオーダーカーテン,ブルー系,カジュアル,ドレープカーテン_遮光,ブルーカラー,～10000円,",,,,,,,,,,
,SFD304AEO,0,0,0,0,0,0,0,0,0,0,0,0,0,0,0,1,0,1,0,0,0,0,0,1,1,0,0,0,0,0,0,0,0,0,0,0,0,0,0,0,0,0,0,0,0,0,"ドレープカーテン_形状記憶,ドレープカーテン_洗える,既製カーテン,イージーオーダーカーテン,アイボリー系,無地,ナチュラル,ドレープカーテン_遮光,～10000円",,,,,,,,,,
,SFD304DEO,0,0,0,0,1,0,0,0,0,0,0,0,0,0,0,1,0,1,0,0,0,0,0,1,1,0,0,0,0,0,0,0,0,0,0,0,0,0,0,0,0,0,0,0,0,0,"ドレープカーテン_形状記憶,ドレープカーテン_洗える,既製カーテン,イージーオーダーカーテン,無地,ナチュラル,グリーン系,ドレープカーテン_遮光,～10000円,",,,,,,,,,,
,SFD304CEO,0,0,1,0,0,0,0,0,0,0,0,1,0,0,0,1,0,1,0,0,0,0,0,1,1,0,0,0,1,0,0,0,0,0,0,0,0,0,0,0,0,0,0,0,0,0,"ドレープカーテン_形状記憶,ドレープカーテン_洗える,既製カーテン,イージーオーダーカーテン,無地,ブラウン系,ナチュラル,ドレープカーテン_遮光,～10000円,",,,,,,,,,,
,SFD304FEO,1,0,0,0,0,0,0,0,0,0,0,1,0,0,0,1,0,1,0,0,0,0,0,1,1,0,0,1,0,0,0,0,0,0,0,0,0,0,0,0,0,0,0,0,0,0,"ドレープカーテン_形状記憶,ドレープカーテン_洗える,既製カーテン,イージーオーダーカーテン,無地,モノトーン系,ナチュラル,ドレープカーテン_遮光,～10000円,",,,,,,,,,,
,SFD304EEO,0,0,0,0,0,1,0,0,0,0,0,1,0,0,0,1,0,1,0,0,0,0,0,1,1,0,0,0,1,0,0,0,0,0,0,0,0,0,0,0,0,0,0,0,0,0,"ドレープカーテン_形状記憶,ドレープカーテン_洗える,既製カーテン,イージーオーダーカーテン,無地,ブルー系,ドレープカーテン_遮光,ナチュラル,～10000円,",,,,,,,,,,
,SFD304BEO,0,1,0,0,0,0,0,0,0,0,0,0,0,0,0,1,0,1,0,0,0,0,0,1,1,0,0,0,0,0,0,0,0,0,0,0,0,0,0,0,0,0,0,0,0,0,"ドレープカーテン_形状記憶,ドレープカーテン_洗える,既製カーテン,イージーオーダーカーテン,無地,ベージュ系,ドレープカーテン_遮光,ナチュラル,～10000円,",,,,,,,,,,
,MAD401AEO,0,0,0,0,0,0,0,0,1,0,0,1,0,0,0,1,0,1,0,0,0,0,0,1,1,0,0,1,0,0,0,0,0,0,0,0,0,0,0,0,0,0,0,0,0,0,"ドレープカーテン_形状記憶,ドレープカーテン_洗える,既製カーテン,イージーオーダーカーテン,ドレープカーテン_遮光,カジュアル,アイボリー系,～10000円,",,,,,,,,,,
,MAD401BEO,0,0,0,0,0,1,0,0,0,0,0,1,0,0,0,1,0,1,0,0,0,0,0,1,1,0,1,0,0,0,0,0,0,0,0,0,0,0,0,0,0,0,0,0,0,0,"ドレープカーテン_形状記憶,ドレープカーテン_洗える,既製カーテン,イージーオーダーカーテン,ドレープカーテン_遮光,カジュアル,ブルー系,～10000円,",,,,,,,,,,
,MAL202AEO,0,0,0,0,0,0,0,0,1,0,0,0,0,0,0,1,0,0,0,1,0,0,0,0,1,0,0,0,0,0,0,0,0,0,0,0,0,0,0,0,0,1,0,0,0,0,"レースカーテン_洗える,既製カーテン,イージーオーダーカーテン,アイボリー系,レースカーテン_プライバシー対策,カジュアル,～10000円,

",UVカット率78.7％の透けにくいレースです。,ボイル生地に箔プリントを施しています。,,,,,,,,
,AOL201AEO,0,0,0,0,0,0,0,0,1,0,0,0,0,0,0,1,1,0,0,1,0,0,0,0,1,0,0,0,0,0,1,1,0,0,0,0,0,0,0,0,0,1,0,0,0,0,"レースカーテン_洗える,既製カーテン,イージーオーダーカーテン,アイボリー系,レースカーテン_プライバシー対策,レースカーテン_省エネ,モダン,～10000円,

",UVカット率67.7％・省エネ効果のあるレースです。,ゆるやかな曲線状の流れがきれいなレースです。,,,,,,,,
,SCL204AEO,0,0,0,0,0,0,0,0,1,0,0,0,1,0,0,1,1,0,0,1,0,0,0,0,1,1,0,0,0,0,1,1,0,0,0,0,0,0,0,0,0,1,0,0,0,0,"レースカーテン_洗える,既製カーテン,イージーオーダーカーテン,アイボリー系,レースカーテン_プライバシー対策,レースカーテン_省エネ,レースカーテン_防炎,ナチュラル,～10000円,

",UVカット率73.6％・省エネ効果のあるレースです。,合せやすいシンプルなリーフ柄です。,,,,,,,,
,SAL211AEO,0,0,0,0,0,0,0,0,1,0,0,0,1,0,0,1,1,0,0,1,0,0,0,0,1,1,0,0,0,0,0,1,0,0,0,0,0,0,0,0,0,1,0,0,0,0,"レースカーテン_洗える,既製カーテン,イージーオーダーカーテン,アイボリー系,レースカーテン_プライバシー対策,レースカーテン_省エネ,レースカーテン_省エネ,レースカーテン_防炎,無地,ナチュラル,モダン,～10000円,

",UVカット率79.2％・省エネ効果・防炎機能のあるレースです。,ナチュラルな風合いのレースです。,,,,,,,,
,KZL217AEO,0,0,0,0,0,0,0,0,1,0,0,0,1,0,1,1,1,0,0,1,0,0,0,0,1,1,0,0,0,1,1,1,0,0,0,0,0,0,0,0,0,1,0,0,0,0,"レースカーテン_洗える,既製カーテン,イージーオーダーカーテン,アイボリー系,レースカーテン_プライバシー対策,レースカーテン_省エネ,レースカーテン_UVカット,レースカーテン_省エネ,レースカーテン_防炎,無地,～10000円,

",UVカット率85.8％・省エネ効果・防炎機能付きのレースです。,無地調の使いやすい柄になります。,,,,,,,,
,YUD321AEO,0,0,0,0,0,0,1,0,0,0,0,0,0,0,0,1,0,1,0,0,0,0,0,1,1,0,0,0,0,0,0,0,0,0,0,0,0,0,0,0,0,0,0,0,0,0,"ドレープカーテン_形状記憶,ドレープカーテン_洗える,既製カーテン,イージーオーダーカーテン,カジュアル,レッド系,～10000円,",,,,,,,,,,
,SAL210AEO,0,0,0,0,0,0,0,0,1,0,0,0,0,0,0,1,0,0,1,1,0,0,0,0,1,0,0,0,0,0,0,0,0,0,0,0,0,0,0,0,0,1,1,0,0,0,"レースカーテン_洗える,既製カーテン,イージーオーダーカーテン,アイボリー系,レースカーテン_プライバシー対策,レースカーテン_花粉キャッチ,モダン,～10000円,

",UVカット率75.8％・花粉キャッチ機能付きのレースです。,シンプルなデザインで使いやすいレースです。,,,,,,,,
,TBC502AEO,0,0,0,0,0,0,0,0,1,0,0,1,0,0,0,1,1,1,0,0,0,0,0,1,1,0,0,1,0,0,0,1,0,0,0,0,0,0,0,0,0,0,0,0,0,0,"ドレープカーテン_形状記憶,ドレープカーテン_洗える,既製カーテン,イージーオーダーカーテン,ドレープカーテン_遮光,ナチュラル,アイボリー系,ドレープカーテン_省エネ,～10000円",,,,,,,,,,
,TBC502BEO,0,0,0,0,1,0,0,0,0,0,0,1,0,0,0,1,1,1,0,0,0,0,0,1,1,0,0,1,0,0,0,1,0,0,0,0,0,0,0,0,0,0,0,0,0,0,"ドレープカーテン_形状記憶,ドレープカーテン_洗える,既製カーテン,イージーオーダーカーテン,ドレープカーテン_遮光,ナチュラル,グリーン系,ドレープカーテン_省エネ,～10000円",,,,,,,,,,
,KZL212AEO,0,0,0,0,0,0,0,0,1,0,0,0,0,0,1,1,1,0,0,1,0,0,0,0,1,0,0,0,0,1,1,1,0,0,0,0,0,0,0,0,0,1,0,1,0,0,"レースカーテン_洗える,既製カーテン,イージーオーダーカーテン,アイボリー系,レースカーテン_プライバシー対策,レースカーテン_省エネ,レースカーテン_UVカット,無地,モダン,～10000円,

",UVカット率80％・省エネ効果・黒ずみ防止機能付きのレースです。,ストライプにラメ糸を使っています。,,,,,,,,
,KZL221AEO,0,0,0,0,0,0,0,0,1,0,0,0,0,0,1,1,0,0,0,1,0,0,0,0,1,0,0,0,0,1,0,0,1,1,1,0,0,0,0,0,0,1,0,0,0,0,"レースカーテン_洗える,既製カーテン,イージーオーダーカーテン,アイボリー系,レースカーテン_プライバシー対策,レースカーテン_UVカット,クラシック,～10000円,

",UVカット率84.7％・遮像・採光機能付きのプライバシー性の高いレースです。,エレガンス調のカーテンと相性が良いデザインです。,,,,,,,,
,KZL220AEO,0,0,0,0,0,0,0,0,1,0,0,0,1,0,0,1,1,0,0,1,0,0,0,0,1,1,0,0,0,0,0,1,0,0,0,0,0,0,0,0,0,1,0,0,0,0,"レースカーテン_洗える,既製カーテン,イージーオーダーカーテン,アイボリー系,レースカーテン_プライバシー対策,レースカーテン_省エネ,レースカーテン_省エネ,レースカーテン_防炎,無地,～10000円,

",UVカット率82％・省エネ効果・難燃・制菌機能付きのレースです。,シンプルで使いやすいストライプ柄です。,,,,,,,,
,KZL224AEO,0,0,0,1,0,0,0,0,0,0,0,0,0,0,0,1,0,0,0,0,0,0,0,0,1,0,0,0,0,0,0,0,0,0,0,0,0,0,0,0,0,0,0,0,0,0,"レースカーテン_洗える,既製カーテン,イージーオーダーカーテン,イエロー系,カジュアル,～10000円,

",UVカット率67.8％・さりげなく花柄の刺繍が入っているレースです。,やさしい透け感のスパンボイル生地になります。,,,,,,,,
,KMD402AEO,0,0,1,0,0,0,0,0,0,0,0,1,0,0,0,1,0,1,0,0,0,0,0,1,1,0,0,1,0,0,0,0,0,0,0,0,0,0,0,0,0,0,0,0,0,0,"ドレープカーテン_形状記憶,ドレープカーテン_洗える,既製カーテン,イージーオーダーカーテン,ドレープカーテン_遮光,モダン,ブラウン系,モダンカラー,～10000円",,,,,,,,,,
,KMD402BEO,1,0,0,0,0,0,0,0,0,0,0,1,0,0,0,1,0,1,0,0,0,0,0,1,1,0,1,0,0,0,0,0,0,0,0,0,0,0,0,0,0,0,0,0,0,0,"ドレープカーテン_形状記憶,ドレープカーテン_洗える,既製カーテン,イージーオーダーカーテン,ドレープカーテン_遮光,モダン,モノトーン系,モダンカラー,～10000円",,,,,,,,,,
,YUD322BEO,0,0,0,0,0,1,0,0,0,0,0,1,0,0,0,1,0,1,0,0,0,0,0,1,1,0,0,0,1,0,0,0,0,0,0,0,0,0,0,0,0,0,0,0,0,0,"ドレープカーテン_形状記憶,ドレープカーテン_洗える,既製カーテン,イージーオーダーカーテン,ドレープカーテン_遮光,ナチュラル,ブルー系,ブルーカラー,～10000円",,,,,,,,,,
,YUD322AEO,0,1,0,0,0,0,0,0,0,0,0,1,0,0,0,1,0,1,0,0,0,0,0,1,1,0,0,0,1,0,0,0,0,0,0,0,0,0,0,0,0,0,0,0,0,0,"ドレープカーテン_形状記憶,ドレープカーテン_洗える,既製カーテン,イージーオーダーカーテン,ドレープカーテン_遮光,アイボリー系,ナチュラル,～10000円",,,,,,,,,,
,SFD404AEO,0,0,1,0,0,0,0,0,0,0,0,1,0,0,0,1,0,1,0,0,0,0,0,1,1,0,0,0,1,0,0,0,0,0,0,0,0,0,0,0,0,0,0,0,0,0,"ドレープカーテン_形状記憶,ドレープカーテン_洗える,既製カーテン,イージーオーダーカーテン,ドレープカーテン_遮光,モダン,ブラウン系,～10000円",,,,,,,,,,
,SFD404BEO,1,0,0,0,0,0,0,0,0,0,0,1,0,0,0,1,0,1,0,0,0,0,0,1,1,0,0,0,1,0,0,0,0,0,0,0,0,0,0,0,0,0,0,0,0,0,"ドレープカーテン_形状記憶,ドレープカーテン_洗える,既製カーテン,イージーオーダーカーテン,ドレープカーテン_遮光,モダン,モノトーン系,～10000円",,,,,,,,,,
,KZL219AEO,0,0,0,0,0,0,0,0,1,0,1,0,0,0,1,1,0,0,0,1,0,0,0,0,1,0,0,0,0,1,0,0,1,1,1,0,0,0,0,0,0,1,0,0,0,0,"レースカーテン_洗える,既製カーテン,イージーオーダーカーテン,アイボリー系,レースカーテン_プライバシー対策,レースカーテン_UVカット,無地,～10000円,

",UVカット率94％・遮像・採光機能付きのプライバシー性の高いレースです。,帝人のウェーブロンプラス糸を使用しています。,,,,,,,,
,MAD402BEO,1,0,0,0,0,0,0,0,0,0,0,1,0,0,0,1,0,1,0,0,0,0,0,1,1,0,0,0,1,0,0,0,0,0,0,0,0,0,0,0,0,0,0,0,0,0,"ドレープカーテン_形状記憶,ドレープカーテン_洗える,既製カーテン,イージーオーダーカーテン,ドレープカーテン_遮光,ナチュラル,モノトーン系,～10000円",,,,,,,,,,
,YUL303AEO,1,0,0,0,0,0,0,0,0,0,0,0,1,0,1,1,1,0,0,0,0,0,0,0,1,1,0,0,0,1,0,1,0,0,1,0,0,0,0,0,0,0,0,0,0,1,"レースカーテン_洗える,既製カーテン,イージーオーダーカーテン,モノトーン系,レースカーテン_省エネ,レースカーテン_UVカット,レースカーテン_省エネ,レースカーテン_防炎,無地,ナチュラル,モダン,～10000円,

",UVカット率95％・省エネ効果・防炎・アレルゲン抑制機能が付いたレースです。,遮像機能もあり、無地調なのでどんなカーテンにもおすすめです。,,,,,,,,
,KZD437AEO,0,0,0,0,0,1,0,0,0,0,0,0,0,0,0,1,0,1,0,0,0,0,0,1,1,0,0,0,0,0,0,0,0,0,0,0,0,0,0,0,0,0,0,0,0,0,"ドレープカーテン_形状記憶,ドレープカーテン_洗える,既製カーテン,イージーオーダーカーテン,ブルー系,ナチュラル,～10000円",,,,,,,,,,
,TBC501BEO,0,0,0,0,0,1,0,0,0,0,0,1,0,0,0,1,1,1,0,0,0,0,0,1,1,0,0,1,0,0,0,1,0,0,0,0,0,0,0,0,0,0,0,0,0,0,"ドレープカーテン_形状記憶,ドレープカーテン_洗える,既製カーテン,イージーオーダーカーテン,ドレープカーテン_遮光,モダン,ブルー系,ドレープカーテン_省エネ,～10000円",,,,,,,,,,
,TBC501AEO,0,0,1,0,0,0,0,0,0,0,0,1,0,0,0,1,1,1,0,0,0,0,0,1,1,0,0,1,0,0,0,1,0,0,0,0,0,0,0,0,0,0,0,0,0,0,"ドレープカーテン_形状記憶,ドレープカーテン_洗える,既製カーテン,イージーオーダーカーテン,ドレープカーテン_遮光,モダン,ブラウン系,ドレープカーテン_省エネ,～10000円",,,,,,,,,,
,SCL208AEO,0,0,0,0,0,0,0,0,1,0,0,0,0,0,0,1,0,0,1,1,0,0,0,0,1,0,0,0,0,0,1,0,0,0,0,0,0,0,0,0,0,1,1,0,0,0,"レースカーテン_洗える,既製カーテン,イージーオーダーカーテン,アイボリー系,レースカーテン_プライバシー対策,レースカーテン_花粉キャッチ,モダン,～10000円,

",UVカット率68.9％・花粉キャッチ機能付きのレースです。,ボーダー柄でシンプルモダンな雰囲気のお部屋におすすめです。,,,,,,,,
,KZD535BEO,0,0,0,0,1,0,0,0,0,1,0,1,0,0,0,1,1,1,0,0,0,0,0,1,1,0,0,1,0,0,0,1,0,0,0,0,0,0,0,0,0,0,0,0,0,0,"ドレープカーテン_形状記憶,ドレープカーテン_洗える,既製カーテン,イージーオーダーカーテン,ドレープカーテン_遮光,エレガンス,グリーン系,ドレープカーテン_省エネ,～10000円",,,,,,,,,,
,KZD535AEO,0,0,0,0,0,0,1,0,0,1,0,1,0,0,0,1,1,1,0,0,0,0,0,1,1,0,0,1,0,0,0,1,0,0,0,0,0,0,0,0,0,0,0,0,0,0,"ドレープカーテン_形状記憶,ドレープカーテン_洗える,既製カーテン,イージーオーダーカーテン,ドレープカーテン_遮光,レッド系,エレガンス,ドレープカーテン_省エネ.～10000円",,,,,,,,,,
,SFD303BEO,0,0,0,0,0,0,0,0,1,0,0,0,0,0,0,1,0,1,0,0,0,0,0,1,1,0,0,0,0,0,0,0,0,0,0,0,0,0,0,0,0,0,0,0,0,0,"ドレープカーテン_形状記憶,ドレープカーテン_洗える,既製カーテン,イージーオーダーカーテン,エレガンス,アイボリー系,～10000円",,,,,,,,,,
,SFD303AEO,0,0,0,0,0,0,1,0,0,0,0,0,0,0,0,1,0,1,0,0,0,0,0,1,1,0,0,0,0,0,0,0,0,0,0,0,0,0,0,0,0,0,0,0,0,0,"ドレープカーテン_形状記憶,ドレープカーテン_洗える,既製カーテン,イージーオーダーカーテン,レッド系,エレガンス,～10000円",,,,,,,,,,
,YUD425FEO,0,0,0,1,0,0,0,0,0,0,0,1,0,0,0,1,0,1,0,0,0,0,0,1,1,0,0,1,0,0,0,0,0,0,0,0,0,0,0,0,0,0,0,0,0,0,"ドレープカーテン_形状記憶,ドレープカーテン_洗える,既製カーテン,イージーオーダーカーテン,ドレープカーテン_遮光,無地,イエロー系,～10000円",,,,,,,,,,
,YUD425EEO,0,0,0,1,0,0,0,0,0,0,0,1,0,0,0,1,0,1,0,0,0,0,0,1,1,0,0,1,0,0,0,0,0,0,0,0,0,0,0,0,0,0,0,0,0,0,"ドレープカーテン_形状記憶,ドレープカーテン_洗える,既製カーテン,イージーオーダーカーテン,ドレープカーテン_遮光,無地,イエロー系,～10000円",,,,,,,,,,
,YUD425DEO,0,0,0,1,1,0,0,0,0,0,0,1,0,0,0,1,0,1,0,0,0,0,0,1,1,0,0,1,0,0,0,0,0,0,0,0,0,0,0,0,0,0,0,0,0,0,"ドレープカーテン_形状記憶,ドレープカーテン_洗える,既製カーテン,イージーオーダーカーテン,ドレープカーテン_遮光,無地,グリーン系,～10000円",,,,,,,,,,
,YUD425BEO,0,0,0,0,0,0,0,1,0,0,0,1,0,0,0,1,0,1,0,0,0,0,0,1,1,0,0,1,0,0,0,0,0,0,0,0,0,0,0,0,0,0,0,0,0,0,"ドレープカーテン_形状記憶,ドレープカーテン_洗える,既製カーテン,イージーオーダーカーテン,ドレープカーテン_遮光,無地,グレイ系,～10000円",,,,,,,,,,
,YUD425AEO,0,0,0,0,0,1,0,0,0,0,0,1,0,0,0,1,0,1,0,0,0,0,0,1,1,0,0,1,0,0,0,0,0,0,0,0,0,0,0,0,0,0,0,0,0,0,"ドレープカーテン_形状記憶,ドレープカーテン_洗える,既製カーテン,イージーオーダーカーテン,ドレープカーテン_遮光,無地,ブルー系,～10000円",,,,,,,,,,
,YUD425CEO,0,0,1,0,0,0,0,0,0,0,0,1,0,0,0,1,0,1,0,0,0,0,0,1,1,0,0,1,0,0,0,0,0,0,0,0,0,0,0,0,0,0,0,0,0,0,"ドレープカーテン_形状記憶,ドレープカーテン_洗える,既製カーテン,イージーオーダーカーテン,ドレープカーテン_遮光,無地,ブラウン系,～10000円",,,,,,,,,,
,KZL106AEO,0,0,0,0,0,0,0,0,1,0,0,0,0,0,0,1,0,0,0,1,0,0,0,0,1,0,0,0,0,0,1,0,0,0,0,0,0,0,0,0,0,1,0,0,0,0,"レースカーテン_洗える,既製カーテン,イージーオーダーカーテン,アイボリー系,レースカーテン_プライバシー対策,無地,～10000円,

",お求めやすい価格のミラーレースです。,,,,,,,,,
,KZD529CEO,0,0,0,0,0,0,0,0,1,1,0,1,0,0,0,1,1,1,0,0,0,0,0,1,1,0,0,0,1,0,0,1,0,0,0,0,0,0,0,0,0,0,0,0,0,0,"ドレープカーテン_形状記憶,ドレープカーテン_洗える,既製カーテン,イージーオーダーカーテン,ドレープカーテン_遮光,アイボリー系,モダン,,～10000円",,,,,,,,,,
,KZD529BEO,0,0,1,0,0,0,0,0,0,1,0,1,0,0,0,1,1,1,0,0,0,0,0,1,1,0,1,0,0,0,0,1,0,0,0,0,0,0,0,0,0,0,0,0,0,0,"ドレープカーテン_形状記憶,ドレープカーテン_洗える,既製カーテン,イージーオーダーカーテン,ドレープカーテン_遮光,ブラウン系,モダン,～10000円",,,,,,,,,,
,KZD438CEO,0,0,0,0,0,0,0,1,0,1,0,1,0,0,0,1,1,1,0,0,0,0,0,1,1,0,0,1,0,0,0,1,0,0,0,0,0,0,0,0,0,0,0,0,0,0,"ドレープカーテン_形状記憶,ドレープカーテン_洗える,既製カーテン,イージーオーダーカーテン,ドレープカーテン_遮光,グレイ系,モダン,～10000円",,,,,,,,,,
,YUD323BEO,0,0,0,0,1,0,0,0,0,0,0,1,0,0,0,1,0,1,0,0,0,0,0,1,1,0,0,0,1,0,0,0,0,0,0,0,0,0,0,0,0,0,0,0,0,0,"ドレープカーテン_形状記憶,ドレープカーテン_洗える,既製カーテン,イージーオーダーカーテン,ドレープカーテン_遮光,エレガンス,グリーン系,～10000円",,,,,,,,,,
,YUD323AEO,0,0,0,0,0,0,1,0,0,0,0,1,0,0,0,1,0,1,0,0,0,0,0,1,1,0,0,0,1,0,0,0,0,0,0,0,0,0,0,0,0,0,0,0,0,0,"ドレープカーテン_形状記憶,ドレープカーテン_洗える,既製カーテン,イージーオーダーカーテン,ドレープカーテン_遮光,エレガンス,レッド系,～10000円",,,,,,,,,,
,KZD421AEO,0,0,0,0,0,0,0,0,1,0,0,0,0,0,0,1,0,1,0,0,0,0,0,1,1,0,0,0,0,0,0,0,0,0,0,0,0,0,0,0,0,0,0,0,0,0,"ドレープカーテン_形状記憶,ドレープカーテン_洗える,既製カーテン,イージーオーダーカーテン,アイボリー系,ナチュラル,～10000円",,,,,,,,,,
,SCL307AEO,0,0,0,0,0,0,0,0,1,0,0,0,0,0,0,1,1,0,0,1,0,0,0,0,1,0,0,0,0,0,1,1,0,0,0,0,0,0,0,0,1,1,0,0,0,0,"レースカーテン_洗える,既製カーテン,イージーオーダーカーテン,アイボリー系,レースカーテン_プライバシー対策,レースカーテン_省エネ,エレガンス,～10000円,

",ＵＶカット率78.7％・省エネ効果・防汚機能付きのレースです。,総柄なので無地調のカーテンにはもちろん、柄物にも合わせやすいデザインです。,,,,,,,,
,AOL301AEO,0,0,0,0,0,0,0,0,1,0,0,0,0,0,0,1,0,0,0,1,0,0,0,0,1,0,0,0,0,0,1,0,0,0,0,0,0,0,0,0,1,1,0,0,0,0,"レースカーテン_洗える,既製カーテン,イージーオーダーカーテン,アイボリー系,レースカーテン_プライバシー対策,モダン,～10000円,

",UVカット率69％・防汚機能付きのレースです。,シルバーの糸でドット＆ラインを表現しています。カジュアル柄のカーテンとのコーディネートがおすすめです。,,,,,,,,
,YUD422AEO,0,0,0,0,0,0,0,0,1,0,0,1,0,0,0,1,0,1,0,0,0,0,0,1,1,0,0,0,1,0,0,0,0,0,0,0,0,0,0,0,0,0,0,0,0,0,"ドレープカーテン_形状記憶,ドレープカーテン_洗える,既製カーテン,イージーオーダーカーテン,ドレープカーテン_遮光,エレガンス,アイボリー系,～10000円",,,,,,,,,,
,YUD422BEO,0,0,0,0,1,0,0,0,0,0,0,1,0,0,0,1,0,1,0,0,0,0,0,1,1,0,0,0,1,0,0,0,0,0,0,0,0,0,0,0,0,0,0,0,0,0,"ドレープカーテン_形状記憶,ドレープカーテン_洗える,既製カーテン,イージーオーダーカーテン,ドレープカーテン_遮光,エレガンス,グリーン系,～10000円",,,,,,,,,,
,YUD320AEO,0,0,0,1,0,0,0,0,0,0,0,1,0,0,0,1,0,1,0,0,0,0,0,1,1,0,0,1,0,0,0,0,0,0,0,0,0,0,0,0,0,0,0,0,0,0,"ドレープカーテン_形状記憶,ドレープカーテン_洗える,既製カーテン,イージーオーダーカーテン,ドレープカーテン_遮光,北欧スタイル,イエロー系,～10000円",,,,,,,,,,
,AOL203AEO,0,0,0,0,0,0,0,0,1,0,0,0,0,0,0,1,1,0,0,1,0,0,0,0,1,0,0,0,0,0,1,1,0,0,0,0,0,0,0,0,0,1,0,0,0,0,"レースカーテン_洗える,既製カーテン,イージーオーダーカーテン,アイボリー系,レースカーテン_プライバシー対策,レースカーテン_省エネ,カジュアル,～10000円,

",UVカット率69.8％・省エネ効果のあるレースです。,レインボーの小さなボンボンがアクセントのカジュアル柄です。,,,,,,,,
,YUD315AEO,0,0,0,0,0,0,1,0,0,0,0,1,0,0,0,1,0,1,0,0,0,0,0,1,1,0,0,1,0,0,0,0,0,0,0,0,0,0,0,0,0,0,0,0,0,0,"ドレープカーテン_形状記憶,ドレープカーテン_洗える,既製カーテン,イージーオーダーカーテン,ドレープカーテン_遮光,レッド系,エレガンス,～10000円",,,,,,,,,,
,YUD315BEO,0,0,0,0,0,1,0,0,0,0,0,1,0,0,0,1,0,1,0,0,0,0,0,1,1,0,0,1,0,0,0,0,0,0,0,0,0,0,0,0,0,0,0,0,0,0,"ドレープカーテン_形状記憶,ドレープカーテン_洗える,既製カーテン,イージーオーダーカーテン,ドレープカーテン_遮光,ブルー系,エレガンス,～10000円",,,,,,,,,,
,KZD513BEO,0,0,0,0,0,0,0,0,1,0,0,1,1,0,0,1,1,1,0,0,0,0,0,1,1,1,0,1,0,0,0,1,0,0,0,0,0,0,0,0,0,0,0,0,0,0,"ドレープカーテン_形状記憶,ドレープカーテン_洗える,既製カーテン,イージーオーダーカーテン,ドレープカーテン_遮光,無地,アイボリー系,ドレープカーテン_省エネ,ドレープカーテン_防炎,～10000円",,,,,,,,,,
,KZD513DEO,0,0,0,1,0,0,0,0,0,0,0,1,1,0,0,1,1,1,0,0,0,0,0,1,1,1,0,1,0,0,0,1,0,0,0,0,0,0,0,0,0,0,0,0,0,0,"ドレープカーテン_形状記憶,ドレープカーテン_洗える,既製カーテン,イージーオーダーカーテン,ドレープカーテン_遮光,無地,イエロー系,ドレープカーテン_省エネ,ドレープカーテン_防炎,～10000円",,,,,,,,,,
,KZD513HEO,0,0,0,1,0,0,0,0,0,0,0,1,1,0,0,1,1,1,0,0,0,0,0,1,1,1,1,0,0,0,0,1,0,0,0,0,0,0,0,0,0,0,0,0,0,0,"ドレープカーテン_形状記憶,ドレープカーテン_洗える,既製カーテン,イージーオーダーカーテン,ドレープカーテン_遮光,無地,イエロー系,ドレープカーテン_省エネ,ドレープカーテン_防炎,～10000円",,,,,,,,,,
,KZD513FEO,0,0,0,0,1,0,0,0,0,0,0,1,1,0,0,1,1,1,0,0,0,0,0,1,1,1,1,0,0,0,0,1,0,0,0,0,0,0,0,0,0,0,0,0,0,0,"ドレープカーテン_形状記憶,ドレープカーテン_洗える,既製カーテン,イージーオーダーカーテン,ドレープカーテン_遮光,無地,グリーン系,ドレープカーテン_省エネ,ドレープカーテン_防炎,～10000円",,,,,,,,,,
,KZD513JEO,0,0,0,0,0,1,0,0,0,0,0,1,1,0,0,1,1,1,0,0,0,0,0,1,1,1,1,0,0,0,0,1,0,0,0,0,0,0,0,0,0,0,0,0,0,0,"ドレープカーテン_形状記憶,ドレープカーテン_洗える,既製カーテン,イージーオーダーカーテン,ドレープカーテン_遮光,無地,ブルー系,ドレープカーテン_省エネ,ドレープカーテン_防炎,～10000円",,,,,,,,,,
,KZD513KEO,0,0,1,0,0,0,0,0,0,0,0,1,1,0,0,1,1,1,0,0,0,0,0,1,1,1,1,0,0,0,0,1,0,0,0,0,0,0,0,0,0,0,0,0,0,0,"ドレープカーテン_形状記憶,ドレープカーテン_洗える,既製カーテン,イージーオーダーカーテン,ドレープカーテン_遮光,無地,ブラウン系,ドレープカーテン_省エネ,ドレープカーテン_防炎,～10000円",,,,,,,,,,
,KZD513GEO,0,0,0,0,0,1,0,0,0,0,0,1,1,0,0,1,1,1,0,0,0,0,0,1,1,1,1,0,0,0,0,1,0,0,0,0,0,0,0,0,0,0,0,0,0,0,"ドレープカーテン_形状記憶,ドレープカーテン_洗える,既製カーテン,イージーオーダーカーテン,ドレープカーテン_遮光,ブルーカラー,ブルー系,ドレープカーテン_省エネ,ドレープカーテン_防炎,～10000円",,,,,,,,,,
,KZD513CEO,0,1,0,0,0,0,0,0,0,0,0,1,1,0,0,1,1,1,0,0,0,0,0,1,1,1,1,0,0,0,0,1,0,0,0,0,0,0,0,0,0,0,0,0,0,0,"ドレープカーテン_形状記憶,ドレープカーテン_洗える,既製カーテン,イージーオーダーカーテン,ドレープカーテン_遮光,無地,ベージュ系,ドレープカーテン_省エネ,ドレープカーテン_防炎,～10000円",,,,,,,,,,
,KZD513EEO,0,0,0,0,1,0,0,0,0,0,0,1,1,0,0,1,1,1,0,0,0,0,0,1,1,1,0,1,0,0,0,1,0,0,0,0,0,0,0,0,0,0,0,0,0,0,"ドレープカーテン_形状記憶,ドレープカーテン_洗える,既製カーテン,イージーオーダーカーテン,ドレープカーテン_遮光,無地,グリーン系,ドレープカーテン_省エネ,ドレープカーテン_防炎,～10000円",,,,,,,,,,
,KZD513MEO,0,0,1,0,0,0,0,0,0,0,0,1,1,0,0,1,1,1,0,0,0,0,0,1,1,1,1,0,0,0,0,1,0,0,0,0,0,0,0,0,0,0,0,0,0,0,"ドレープカーテン_形状記憶,ドレープカーテン_洗える,既製カーテン,イージーオーダーカーテン,ドレープカーテン_遮光,無地,ブラウン系,ドレープカーテン_省エネ,ドレープカーテン_防炎,～10000円",,,,,,,,,,
,KZD513AEO,0,0,0,0,0,0,1,0,0,0,0,1,1,0,0,1,1,1,0,0,0,0,0,1,1,1,1,0,0,0,0,1,0,0,0,0,0,0,0,0,0,0,0,0,0,0,"ドレープカーテン_形状記憶,ドレープカーテン_洗える,既製カーテン,イージーオーダーカーテン,ドレープカーテン_遮光,無地,レッド系,ドレープカーテン_省エネ,ドレープカーテン_防炎,～10000円",,,,,,,,,,
,TBC303AEO,0,0,0,0,0,1,0,0,0,0,0,1,0,0,0,1,0,1,0,0,0,0,0,1,1,0,1,0,0,0,0,0,0,0,0,0,0,0,0,0,0,0,0,0,0,0,"ドレープカーテン_形状記憶,ドレープカーテン_洗える,既製カーテン,イージーオーダーカーテン,ドレープカーテン_遮光,カジュアル,ブルー系,～10000円",,,,,,,,,,
,TBC303BEO,1,0,0,0,0,0,0,0,0,0,0,1,0,0,0,1,0,1,0,0,0,0,0,1,1,0,1,0,0,0,0,0,0,0,0,0,0,0,0,0,0,0,0,0,0,0,"ドレープカーテン_形状記憶,ドレープカーテン_洗える,既製カーテン,イージーオーダーカーテン,ドレープカーテン_遮光,モノトーン系,
カジュアル,～10000円",,,,,,,,,,
,MAL203AEO,0,0,0,0,0,0,0,1,0,0,0,0,0,0,0,1,0,0,0,1,0,0,0,0,1,0,0,0,0,0,0,0,0,0,0,0,0,0,0,0,0,0,0,0,0,0,"レースカーテン_洗える,既製カーテン,イージーオーダーカーテン,グレイ系,カジュアル,～10000円,

",UVカット率53％の透けにくいレースです。,星柄で子供部屋におすすめです。,,,,,,,,
,SCD417AEO,0,0,0,0,0,0,0,0,1,0,0,1,0,0,0,1,0,1,0,0,0,0,0,1,1,0,0,1,0,0,0,0,0,0,0,0,0,0,0,0,0,0,0,0,0,0,"ドレープカーテン_形状記憶,ドレープカーテン_洗える,既製カーテン,イージーオーダーカーテン,ドレープカーテン_遮光,モダン,アイボリー系,～10000円",,,,,,,,,,
,SCD417BEO,0,0,0,0,0,0,0,1,0,0,0,1,0,0,0,1,0,1,0,0,0,0,0,1,1,0,0,1,0,0,0,0,0,0,0,0,0,0,0,0,0,0,0,0,0,0,"ドレープカーテン_形状記憶,ドレープカーテン_洗える,既製カーテン,イージーオーダーカーテン,ドレープカーテン_遮光,グレイ系,モダン,～10000円",,,,,,,,,,
,KZL105BEO,0,0,0,0,0,0,0,0,1,0,0,0,0,0,0,1,0,0,0,1,0,0,0,0,1,0,0,0,0,0,1,0,0,0,0,0,0,0,0,0,0,1,0,0,0,0,"レースカーテン_洗える,既製カーテン,イージーオーダーカーテン,アイボリー系,レースカーテン_プライバシー対策,無地,～10000円,

",お求めやすい価格のミラーレースです。,,,,,,,,,
,SCD307BEO,0,0,0,0,1,0,0,0,0,0,0,1,0,0,0,1,0,1,0,0,0,0,0,1,1,0,0,1,0,0,0,0,0,0,0,0,0,0,0,0,0,0,0,0,0,0,"ドレープカーテン_形状記憶,ドレープカーテン_洗える,既製カーテン,イージーオーダーカーテン,ドレープカーテン_遮光,モダン,カジュアル,グリーン系,～10000円",,,,,,,,,,
,SCD307CEO,0,0,0,0,0,1,0,0,0,0,0,1,0,0,0,1,0,1,0,0,0,0,0,1,1,0,0,1,0,0,0,0,0,0,0,0,0,0,0,0,0,0,0,0,0,0,"ドレープカーテン_形状記憶,ドレープカーテン_洗える,既製カーテン,イージーオーダーカーテン,ドレープカーテン_遮光,モダン,カジュアル,ブルー系,～10000円",,,,,,,,,,
,SCD307AEO,0,0,0,0,0,0,1,0,0,0,0,1,0,0,0,1,0,1,0,0,0,0,0,1,1,0,0,1,0,0,0,0,0,0,0,0,0,0,0,0,0,0,0,0,0,0,"ドレープカーテン_形状記憶,ドレープカーテン_洗える,既製カーテン,イージーオーダーカーテン,ドレープカーテン_遮光,モダン,カジュアル,レッド系,～10000円",,,,,,,,,,
,YUD419AEO,0,0,0,1,0,0,0,0,0,0,0,1,0,0,0,1,0,1,0,0,0,0,0,1,1,0,0,0,1,0,0,0,0,0,0,0,0,0,0,0,0,0,0,0,0,0,"ドレープカーテン_形状記憶,ドレープカーテン_洗える,既製カーテン,イージーオーダーカーテン,ドレープカーテン_遮光,イエロー系,ナチュラル,～10000円",,,,,,,,,,
,YUD419BEO,0,0,0,0,1,0,0,0,0,0,0,1,0,0,0,1,0,1,0,0,0,0,0,1,1,0,0,1,0,0,0,0,0,0,0,0,0,0,0,0,0,0,0,0,0,0,"ドレープカーテン_形状記憶,ドレープカーテン_洗える,既製カーテン,イージーオーダーカーテン,ドレープカーテン_遮光,グリーン系,ナチュラル,～10000円",,,,,,,,,,
,YUD317AEO,0,0,0,1,1,0,0,0,0,0,0,1,0,0,0,1,0,1,0,0,0,0,0,1,1,0,0,0,1,0,0,0,0,0,0,0,0,0,0,0,0,0,0,0,0,0,"ドレープカーテン_形状記憶,ドレープカーテン_洗える,既製カーテン,イージーオーダーカーテン,ドレープカーテン_遮光,グリーン系,イエロー系,モダン,～10000円",,,,,,,,,,
,YUD317BEO,0,0,1,0,0,0,0,0,0,0,0,1,0,0,0,1,0,1,0,0,0,0,0,1,1,0,0,1,0,0,0,0,0,0,0,0,0,0,0,0,0,0,0,0,0,0,"ドレープカーテン_形状記憶,ドレープカーテン_洗える,既製カーテン,イージーオーダーカーテン,ドレープカーテン_遮光,ブラウン系,モダン,～10000円",,,,,,,,,,
,SCL203AEO,0,0,0,0,0,0,0,0,1,0,0,0,0,0,1,1,1,0,0,1,0,0,0,0,1,0,0,0,0,1,1,1,0,0,0,0,0,0,0,0,0,1,0,0,1,0,"レースカーテン_洗える,既製カーテン,イージーオーダーカーテン,アイボリー系,レースカーテン_プライバシー対策,レースカーテン_省エネ,レースカーテン_UVカット,レースカーテン_防虫,無地,モダン,～10000円,

",UVカット率85.3％・省エネ効果・防虫加工付きのレースです。,ストライプ調の合せやすい柄です。,,,,,,,,
,AOL202AEO,0,0,0,0,0,0,0,0,1,0,0,0,0,0,0,1,1,0,0,1,0,0,0,0,1,0,0,0,0,0,1,1,0,0,0,0,0,0,0,0,0,1,0,0,0,0,"レースカーテン_洗える,既製カーテン,イージーオーダーカーテン,アイボリー系,レースカーテン_プライバシー対策,レースカーテン_省エネ,エレガンス,～10000円,

",UVカット率72.3％・省エネ効果のあるレースです。,エレガンス調の模様がポイントのレースです。,,,,,,,,
,AOL302AEO,0,0,0,0,1,0,0,0,0,0,0,0,0,0,0,1,1,0,0,1,0,0,0,0,1,0,0,0,0,0,1,1,0,0,0,0,0,0,0,0,1,1,0,0,0,0,"レースカーテン_洗える,既製カーテン,イージーオーダーカーテン,グリーン系,レースカーテン_プライバシー対策,レースカーテン_省エネ,ナチュラル,～10000円,

",UVカット率68.1％・省エネ効果・防汚機能付きのレースです。,小さなリーフを流れるように配置した、ナチュラルイメージのレースです。,,,,,,,,
,KZL225AEO,0,0,0,1,0,0,0,0,0,0,0,0,0,0,0,1,0,0,0,0,0,0,0,0,1,0,0,0,0,0,0,0,0,0,0,0,0,0,0,0,0,0,0,0,0,0,"レースカーテン_洗える,既製カーテン,イージーオーダーカーテン,イエロー系,カジュアル,～10000円,

",UVカット率67.8％・フラッグ柄と小鳥の刺繍がポイントです。,,,,,,,,,
,SCL205AEO,0,0,0,0,0,0,0,0,1,0,0,0,0,0,0,1,0,0,0,0,0,0,0,0,1,0,0,0,0,0,0,0,0,0,0,0,0,0,0,0,0,0,0,0,0,0,"レースカーテン_洗える,既製カーテン,イージーオーダーカーテン,アイボリー系,無地,ナチュラル,モダン,～10000円,

",UVカット率56.3％・天然ライクな素材感のレースです。,,,,,,,,,
,SCL205CEO,0,0,0,0,0,0,0,1,0,0,0,0,0,0,0,1,0,0,0,0,0,0,0,0,1,0,0,0,0,0,0,0,0,0,0,0,0,0,0,0,0,0,0,0,0,0,"レースカーテン_洗える,既製カーテン,イージーオーダーカーテン,グレイ系,無地,ナチュラル,モダン,～10000円,

",UVカット率61.6％・天然ライクな素材感のレースです。,モダンなカラーが人気のレースです。,,,,,,,,
,SCL205BEO,0,0,0,0,0,1,0,0,0,0,0,0,0,0,0,1,0,0,0,0,0,0,0,0,1,0,0,0,0,0,0,0,0,0,0,0,0,0,0,0,0,0,0,0,0,0,"レースカーテン_洗える,既製カーテン,イージーオーダーカーテン,ブルー系,無地,ナチュラル,モダン,～10000円,

",UVカット率59.3％・天然ライクな素材感のレースです。,モダンなカラーが人気のレースです。,,,,,,,,
,SAL322AEO,1,0,0,0,0,0,0,0,0,0,0,0,1,0,0,1,1,0,0,1,0,0,0,0,1,1,0,0,0,0,1,1,0,0,0,0,0,0,0,0,0,1,0,0,0,0,"レースカーテン_洗える,既製カーテン,イージーオーダーカーテン,モノトーン系,レースカーテン_プライバシー対策,レースカーテン_省エネ,レースカーテン_省エネ,レースカーテン_防炎,無地,～10000円,

",UVカット率68.6％・省エネ効果・防炎機能付きのレースです。,帝人の遮熱糸を使用しています。,,,,,,,,
,SCL207AEO,0,0,0,0,0,0,0,1,0,0,0,0,0,0,0,1,1,0,0,1,0,0,0,0,1,0,0,0,0,0,0,1,0,0,0,0,0,0,0,0,0,1,0,0,0,0,"レースカーテン_洗える,既製カーテン,イージーオーダーカーテン,グレイ系,レースカーテン_プライバシー対策,レースカーテン_省エネ,モダン,カジュアル,～10000円,

",UVカット率87％・省エネ効果のあるレースです。,ブルー系の糸でストライプを表現したモダンテイストのレースです。,,,,,,,,
,TBC405AEO,0,0,1,0,0,0,0,0,0,0,0,1,0,0,0,1,0,1,0,0,0,0,0,1,1,0,0,1,0,0,0,0,0,0,0,0,0,0,0,0,0,0,0,0,0,0,"ドレープカーテン_形状記憶,ドレープカーテン_洗える,既製カーテン,イージーオーダーカーテン,ドレープカーテン_遮光,カジュアル,ブラウン系,～10000円",,,,,,,,,,
,TBC405BEO,0,0,0,0,0,1,0,0,0,0,0,1,0,0,0,1,0,1,0,0,0,0,0,1,1,0,0,1,0,0,0,0,0,0,0,0,0,0,0,0,0,0,0,0,0,0,"ドレープカーテン_形状記憶,ドレープカーテン_洗える,既製カーテン,イージーオーダーカーテン,ドレープカーテン_遮光,ブルー系,カジュアル,～10000円",,,,,,,,,,
,YUD319BEO,1,0,0,0,0,0,0,0,0,0,0,1,0,0,0,1,0,1,0,0,0,0,0,1,1,0,0,1,0,0,0,0,0,0,0,0,0,0,0,0,0,0,0,0,0,0,"ドレープカーテン_形状記憶,ドレープカーテン_洗える,既製カーテン,イージーオーダーカーテン,ドレープカーテン_遮光,モダン,モノトーン系,モダンカラー,～10000円",,,,,,,,,,
,YUD319AEO,0,0,0,0,0,0,1,0,0,0,0,1,0,0,0,1,0,1,0,0,0,0,0,1,1,0,0,1,0,0,0,0,0,0,0,0,0,0,0,0,0,0,0,0,0,0,"ドレープカーテン_形状記憶,ドレープカーテン_洗える,既製カーテン,イージーオーダーカーテン,ドレープカーテン_遮光,レッド系,モダン,モダンカラー,～10000円",,,,,,,,,,
,TBC301BEO,0,0,0,0,1,0,0,0,0,0,0,1,0,0,0,1,0,1,0,0,0,0,0,1,1,0,0,0,1,0,0,0,0,0,0,0,0,0,0,0,0,0,0,0,0,0,"ドレープカーテン_形状記憶,ドレープカーテン_洗える,既製カーテン,イージーオーダーカーテン,ドレープカーテン_遮光,ナチュラル,グリーン系,ブルー系,～10000円",,,,,,,,,,
,TBC301AEO,0,0,0,0,0,0,1,0,0,0,0,1,0,0,0,1,0,1,0,0,0,0,0,1,1,0,0,0,1,0,0,0,0,0,0,0,0,0,0,0,0,0,0,0,0,0,"ドレープカーテン_形状記憶,ドレープカーテン_洗える,既製カーテン,イージーオーダーカーテン,ドレープカーテン_遮光,ナチュラル,レッド系,～10000円",,,,,,,,,,
,KZD435BEO,0,0,0,0,0,1,0,0,0,0,0,0,0,0,0,1,0,1,0,0,0,0,0,1,1,0,0,0,0,0,0,0,0,0,0,0,0,0,0,0,0,0,0,0,0,0,"ドレープカーテン_形状記憶,ドレープカーテン_洗える,既製カーテン,イージーオーダーカーテン,カジュアル,ブルー系,～10000円",,,,,,,,,,
,KZL355AEO,0,0,0,0,0,0,0,0,1,0,0,0,0,0,0,1,0,0,0,0,0,0,0,0,1,0,0,0,0,0,0,0,0,0,0,0,0,0,0,0,0,0,0,0,0,0,"レースカーテン_洗える,既製カーテン,イージーオーダーカーテン,アイボリー系,カジュアル,～10000円,

",UVカット率67.8％・星と月のモチーフを刺繍したレースです。,やわらかい風合いのレースです。,,,,,,,,
,YUL202AEO,0,0,0,0,0,0,0,0,1,0,0,0,0,0,0,1,1,0,0,1,0,0,0,0,1,0,0,0,0,0,1,1,0,0,0,0,0,0,0,0,0,1,0,0,0,0,"レースカーテン_洗える,既製カーテン,イージーオーダーカーテン,アイボリー系,レースカーテン_プライバシー対策,レースカーテン_省エネ,モダン,～10000円,

",,,,,,,,,,
,YUD426BEO,0,0,0,0,0,0,0,1,0,0,0,0,0,0,0,1,0,1,0,0,0,0,0,1,1,0,0,0,0,0,0,0,0,0,0,0,0,0,0,0,0,0,0,0,0,0,"ドレープカーテン_形状記憶,ドレープカーテン_洗える,既製カーテン,イージーオーダーカーテン,パステルカラー,エレガンス,グレイ系,～10000円",,,,,,,,,,
,YUD426AEO,0,0,0,0,0,0,1,0,0,0,0,0,0,0,0,1,0,1,0,0,0,0,0,1,1,0,0,0,0,0,0,0,0,0,0,0,0,0,0,0,0,0,0,0,0,0,"ドレープカーテン_形状記憶,ドレープカーテン_洗える,既製カーテン,イージーオーダーカーテン,パステルカラー,エレガンス,レッド系,～10000円",,,,,,,,,,
,TBC404AEO,0,0,0,1,0,0,0,0,0,0,0,1,0,0,0,1,0,1,0,0,0,0,0,1,1,0,0,1,0,0,0,0,0,0,0,0,0,0,0,0,0,0,0,0,0,0,"ドレープカーテン_形状記憶,ドレープカーテン_洗える,既製カーテン,イージーオーダーカーテン,ドレープカーテン_遮光,イエロー系,北欧スタイル,カジュアル,～10000円",,,,,,,,,,
,TBC404BEO,0,0,0,0,0,1,0,0,0,0,0,1,0,0,0,1,0,1,0,0,0,0,0,1,1,0,0,1,0,0,0,0,0,0,0,0,0,0,0,0,0,0,0,0,0,0,"ドレープカーテン_形状記憶,ドレープカーテン_洗える,既製カーテン,イージーオーダーカーテン,ドレープカーテン_遮光,ブルー系,北欧スタイル,カジュアル,～10000円",,,,,,,,,,
,KMD401CEO,0,0,0,0,0,0,0,0,1,0,0,1,0,0,0,1,0,1,0,0,0,0,0,1,1,0,0,1,0,0,0,0,0,0,0,0,0,0,0,0,0,0,0,0,0,0,"ドレープカーテン_形状記憶,ドレープカーテン_洗える,既製カーテン,イージーオーダーカーテン,ドレープカーテン_遮光,モダン,アイボリー系,～10000円",,,,,,,,,,
,KMD401DEO,0,0,0,0,1,0,0,0,0,0,0,1,0,0,0,1,0,1,0,0,0,0,0,1,1,0,0,1,0,0,0,0,0,0,0,0,0,0,0,0,0,0,0,0,0,0,"ドレープカーテン_形状記憶,ドレープカーテン_洗える,既製カーテン,イージーオーダーカーテン,ドレープカーテン_遮光,モダン,グリーン系,～10000円",,,,,,,,,,
,KMD401AEO,0,0,1,0,0,0,0,0,0,0,0,1,0,0,0,1,0,1,0,0,0,0,0,1,1,0,0,1,0,0,0,0,0,0,0,0,0,0,0,0,0,0,0,0,0,0,"ドレープカーテン_形状記憶,ドレープカーテン_洗える,既製カーテン,イージーオーダーカーテン,ドレープカーテン_遮光,モダン,ブラウン系,～10000円",,,,,,,,,,
,YUD421AEO,0,0,0,0,0,0,0,0,1,0,0,1,0,0,0,1,0,1,0,0,0,0,0,1,1,0,0,0,1,0,0,0,0,0,0,0,0,0,0,0,0,0,0,0,0,0,"ドレープカーテン_形状記憶,ドレープカーテン_洗える,既製カーテン,イージーオーダーカーテン,ドレープカーテン_遮光,モダン,アイボリー系,～10000円",,,,,,,,,,
,YUD421BEO,1,0,0,0,0,0,0,0,0,0,0,1,0,0,0,1,0,1,0,0,0,0,0,1,1,0,0,1,0,0,0,0,0,0,0,0,0,0,0,0,0,0,0,0,0,0,"ドレープカーテン_形状記憶,ドレープカーテン_洗える,既製カーテン,イージーオーダーカーテン,ドレープカーテン_遮光,モダン,モノトーン系,～10000円",,,,,,,,,,
,TBC305AEO,0,0,0,0,0,1,0,0,0,0,0,1,0,0,0,1,0,1,0,0,0,0,0,1,1,0,0,1,0,0,0,0,0,0,0,0,0,0,0,0,0,0,0,0,0,0,"ドレープカーテン_形状記憶,ドレープカーテン_洗える,既製カーテン,イージーオーダーカーテン,ドレープカーテン_遮光,ブルー系,カジュアル,～10000円,",,,,,,,,,,
