商品ID,商品コード,検索_カラー_モノトーン系,検索_カラー_ベージュ系,検索_カラー_ブラウン系,検索_カラー_イエロー系,検索_カラー_グリーン系,検索_カラー_ブルー系,検索_カラー_レッド系,検索_カラー_グレイ系,検索_カラー_アイボリー系,検索_機能_遮熱,検索_機能_ウェーブロン,検索_機能_遮光,検索_機能_防炎,検索_機能_防音,検索_機能_UVカット,検索_機能_洗える,検索_機能_省エネ,検索_機能_形状記憶加工,検索_機能_花粉キャッチ,検索_機能_プライバシー対策,機能と特徴_裏地付き,機能と特徴_2倍ヒダ,機能と特徴_柄出し縫製,機能と特徴_形状記憶加工,機能と特徴_お洗濯OK,機能と特徴_防炎,機能と特徴_遮光1級,機能と特徴_遮光2級,機能と特徴_遮光3級,機能と特徴_UVカット,機能と特徴_ミラーレース,機能と特徴_遮熱・断熱,機能と特徴_ウェーブロン+(プラス),機能と特徴_採光,機能と特徴_遮像,機能と特徴_防音,機能と特徴_シームレス,機能と特徴_抗菌,機能と特徴_消臭,機能と特徴_防臭,機能と特徴_防汚,機能と特徴_透けにくい,機能と特徴_花粉キャッチ,機能と特徴_黒ずみ防止,機能と特徴_防虫,機能と特徴_アレルゲン抑制,カテゴリー,画像1_コメント,画像2_コメント,画像3_コメント,画像4_コメント,画像5_コメント,画像6_コメント,画像7_コメント,画像8_コメント,画像9_コメント,生地サンプル
,PYD2001,0,1,1,0,0,0,0,0,0,0,0,0,0,0,0,1,0,1,0,0,0,0,0,1,1,0,0,0,0,0,0,0,0,0,0,0,0,0,0,0,0,0,0,0,0,0,"ナチュラル,モダン,ベージュ系,ブラウン系,ドレープカーテン,ドレープカーテン_形状記憶,ドレープカーテン_洗える,イージーオーダーカーテン,～10000円",,,,,,,,,,1
,PYD2002,0,0,0,1,0,0,0,0,0,0,0,0,0,0,0,1,0,1,0,0,0,0,0,1,1,0,0,0,0,0,0,0,0,0,0,0,0,0,0,0,0,0,0,0,0,0,"ナチュラル,モダン,イエロー系,ドレープカーテン,ドレープカーテン_形状記憶,ドレープカーテン_洗える,イージーオーダーカーテン,～10000円",,,,,,,,,,1
,PYD2003,0,0,0,0,0,0,0,1,0,0,0,0,0,0,0,1,0,1,0,0,0,0,0,1,1,0,0,0,0,0,0,0,0,0,0,0,0,0,0,0,0,0,0,0,0,0,"モダンカラー,ナチュラル,モダン,グレイ系,ドレープカーテン,ドレープカーテン_形状記憶,ドレープカーテン_洗える,イージーオーダーカーテン,～10000円",,,,,,,,,,1
,PYD2004,0,0,0,0,0,1,0,0,0,0,0,0,0,0,0,1,0,1,0,0,0,0,0,1,1,0,0,0,0,0,0,0,0,0,0,0,0,0,0,0,0,0,0,0,0,0,"ナチュラル,モダン,ブルー系,ドレープカーテン,ドレープカーテン_形状記憶,ドレープカーテン_洗える,イージーオーダーカーテン,～10000円",,,,,,,,,,1
,PYD2005,0,0,0,0,0,0,0,1,0,0,0,1,0,0,0,1,0,1,0,0,0,0,0,1,1,0,0,1,0,0,0,0,0,0,0,0,0,0,0,0,0,0,0,0,0,0,"モダンカラー,ナチュラル,モダン,グレイ系,ドレープカーテン,ドレープカーテン_遮光,ドレープカーテン_形状記憶,ドレープカーテン_洗える,イージーオーダーカーテン,～10000円",,,,,,,,,,1
,PYD2006,0,0,0,0,0,0,1,0,0,0,0,1,0,0,0,1,0,1,0,0,0,0,0,1,1,0,0,1,0,0,0,0,0,0,0,0,0,0,0,0,0,0,0,0,0,0,"ナチュラル,モダン,レッド系,イエロー系,ドレープカーテン,ドレープカーテン_遮光,ドレープカーテン_形状記憶,ドレープカーテン_洗える,イージーオーダーカーテン,～10000円",,,,,,,,,,1
,PYD2007,0,0,1,0,0,0,0,0,0,0,0,1,0,0,0,1,0,1,0,0,0,0,0,1,1,0,0,1,0,0,0,0,0,0,0,0,0,0,0,0,0,0,0,0,0,0,"ナチュラル,モダン,ブラウン系,ドレープカーテン,ドレープカーテン_遮光,ドレープカーテン_形状記憶,ドレープカーテン_洗える,イージーオーダーカーテン,～10000円",,,,,,,,,,1
,PYD2009,0,0,0,0,0,0,0,0,1,0,0,1,0,0,0,1,0,1,0,0,0,0,0,1,1,0,0,0,1,0,0,0,0,0,0,0,0,0,0,0,0,0,0,0,0,0,"ナチュラル,モダン,アイボリー系,ドレープカーテン,ドレープカーテン_遮光,ドレープカーテン_形状記憶,ドレープカーテン_洗える,イージーオーダーカーテン,～10000円",,,,,,,,,,1
,PYD2010,0,0,0,1,0,0,0,0,0,0,0,1,0,0,0,1,0,1,0,0,0,0,0,1,1,0,0,0,1,0,0,0,0,0,0,0,0,0,0,0,0,0,0,0,0,0,"ナチュラル,モダン,イエロー系,ドレープカーテン,ドレープカーテン_遮光,ドレープカーテン_形状記憶,ドレープカーテン_洗える,イージーオーダーカーテン,～10000円",,,,,,,,,,1
,PYD2012,0,0,0,0,0,1,0,0,0,0,0,1,0,0,0,1,0,1,0,0,0,0,0,1,1,0,0,1,0,0,0,0,0,0,0,0,0,0,0,0,0,0,0,0,0,0,"ブルーカラー,ナチュラル,モダン,ブルー系,ドレープカーテン,ドレープカーテン_遮光,ドレープカーテン_形状記憶,ドレープカーテン_洗える,イージーオーダーカーテン,～10000円",,,,,,,,,,1
,PYD2013,0,0,0,0,0,0,0,1,0,0,0,1,0,0,0,1,0,1,0,0,0,0,0,1,1,0,0,1,0,0,0,0,0,0,0,0,0,0,0,0,0,0,0,0,0,0,"ナチュラル,モダン,グレイ系,ドレープカーテン,ドレープカーテン_遮光,ドレープカーテン_形状記憶,ドレープカーテン_洗える,イージーオーダーカーテン,～10000円",,,,,,,,,,1
,PYD2014,0,0,0,0,0,0,0,1,0,0,0,1,0,0,0,1,0,1,0,0,0,0,0,1,1,0,0,1,0,0,0,0,0,0,0,0,0,0,0,0,0,0,0,0,0,0,"モダンカラー,ナチュラル,モダン,グレイ系,ドレープカーテン,ドレープカーテン_遮光,ドレープカーテン_形状記憶,ドレープカーテン_洗える,イージーオーダーカーテン,～10000円",,,,,,,,,,1
,PYD2016,0,0,0,0,0,1,0,0,0,0,0,1,0,0,0,1,0,1,0,0,0,0,0,1,1,0,0,1,0,0,0,0,0,0,0,0,0,0,0,0,0,0,0,0,0,0,"モダンカラー,男前スタイル,ナチュラル,モダン,ブルー系,ドレープカーテン,ドレープカーテン_遮光,ドレープカーテン_形状記憶,ドレープカーテン_洗える,イージーオーダーカーテン,～10000円",,,,,,,,,,1
,PYD2017,0,0,0,1,0,0,1,0,1,0,0,1,0,0,0,1,0,1,0,0,0,0,0,1,1,0,0,1,0,0,0,0,0,0,0,0,0,0,0,0,0,0,0,0,0,0,"ナチュラル,モダン,イエロー系,レッド系,アイボリー系,ドレープカーテン,ドレープカーテン_遮光,ドレープカーテン_形状記憶,ドレープカーテン_洗える,イージーオーダーカーテン,～10000円",,,,,,,,,,1
,PYD2018,0,0,0,1,0,1,0,0,1,0,0,1,0,0,0,1,0,1,0,0,0,0,0,1,1,0,0,1,0,0,0,0,0,0,0,0,0,0,0,0,0,0,0,0,0,0,"ブルーカラー,ナチュラル,モダン,イエロー系,ブルー系,アイボリー系,ドレープカーテン,ドレープカーテン_遮光,ドレープカーテン_形状記憶,ドレープカーテン_洗える,イージーオーダーカーテン,～10000円",,,,,,,,,,1
,PYD2019,0,1,0,0,0,0,0,0,1,0,0,1,0,0,0,1,0,1,0,0,0,0,0,1,1,0,0,1,0,0,0,0,0,0,0,0,0,0,0,0,0,0,0,0,0,0,"北欧スタイル,モダン,ナチュラル,ベージュ系,アイボリー系,ドレープカーテン,ドレープカーテン_遮光,ドレープカーテン_形状記憶,ドレープカーテン_洗える,イージーオーダーカーテン,～10000円",,,,,,,,,,1
,PYD2020,0,0,0,1,0,0,0,1,1,0,0,1,0,0,0,1,0,1,0,0,0,0,0,1,1,0,0,1,0,0,0,0,0,0,0,0,0,0,0,0,0,0,0,0,0,0,"北欧スタイル,モダン,ナチュラル,イエロー系,グレイ系,アイボリー系,ドレープカーテン,ドレープカーテン_遮光,ドレープカーテン_形状記憶,ドレープカーテン_洗える,イージーオーダーカーテン,～10000円",,,,,,,,,,1
,PYD2021,0,0,0,1,0,0,0,0,1,0,0,1,0,0,0,1,0,1,0,0,0,0,0,1,1,0,0,0,1,0,0,0,0,0,0,0,0,0,0,0,0,0,0,0,0,0,"モダン,イエロー系,アイボリー系,ドレープカーテン,ドレープカーテン_遮光,ドレープカーテン_形状記憶,ドレープカーテン_洗える,イージーオーダーカーテン,～10000円",,,,,,,,,,1
,PYD2022,0,0,0,0,0,1,0,0,1,0,0,1,0,0,0,1,0,1,0,0,0,0,0,1,1,0,0,0,1,0,0,0,0,0,0,0,0,0,0,0,0,0,0,0,0,0,"モダン,ブルー系,アイボリー系,ドレープカーテン,ドレープカーテン_遮光,ドレープカーテン_形状記憶,ドレープカーテン_洗える,イージーオーダーカーテン,～10000円",,,,,,,,,,1
,PYD2023,0,1,0,0,0,0,0,0,1,0,0,0,0,0,0,1,0,1,0,0,0,0,0,1,1,0,0,0,0,0,0,0,0,0,0,0,0,0,0,0,0,0,0,0,0,0,"ナチュラル,モダン,ベージュ系,アイボリー系,ドレープカーテン,ドレープカーテン_形状記憶,ドレープカーテン_洗える,イージーオーダーカーテン,～10000円",,,,,,,,,,1
,PYD2025,0,0,0,0,0,0,0,0,1,0,0,0,0,0,0,1,0,1,0,0,0,0,0,1,1,0,0,0,0,0,0,0,0,0,0,0,0,0,0,0,0,0,0,0,0,0,"ナチュラル,モダン,,アイボリー系,ドレープカーテン,ドレープカーテン_形状記憶,ドレープカーテン_洗える,イージーオーダーカーテン,～10000円",,,,,,,,,,1
,PYD2027,0,0,1,0,0,0,0,0,0,0,0,1,0,0,0,1,0,1,0,0,0,0,0,1,1,0,0,1,0,0,0,0,0,0,0,0,0,0,0,0,0,0,0,0,0,0,"モダンカラー,モダン,ブラウン系,ドレープカーテン,ドレープカーテン_遮光,ドレープカーテン_形状記憶,ドレープカーテン_洗える,イージーオーダーカーテン,～10000円",,,,,,,,,,1
,PYD2028,0,0,0,0,0,1,0,0,0,0,0,1,0,0,0,1,0,1,0,0,0,0,0,1,1,0,0,1,0,0,0,0,0,0,0,0,0,0,0,0,0,0,0,0,0,0,"モダンカラー,モダン,ブルー系,ドレープカーテン,ドレープカーテン_遮光,ドレープカーテン_形状記憶,ドレープカーテン_洗える,イージーオーダーカーテン,～10000円",,,,,,,,,,1
,PYD2029,0,0,0,0,0,1,0,1,0,0,0,0,0,0,0,1,0,1,0,0,0,0,0,1,1,0,0,0,0,0,0,0,0,0,0,0,0,0,0,0,0,0,0,0,0,0,"ブルーカラー,モダン,ブルー系,ドレープカーテン,ドレープカーテン_形状記憶,ドレープカーテン_洗える,イージーオーダーカーテン,～10000円",,,,,,,,,,1
,PYD2030,0,0,0,0,0,0,0,1,0,0,0,1,0,0,0,1,0,1,0,0,0,0,0,1,1,0,0,0,1,0,0,0,0,0,0,0,0,0,0,0,0,0,0,0,0,0,"モダン,グレイ系,ドレープカーテン,ドレープカーテン_遮光,ドレープカーテン_形状記憶,ドレープカーテン_洗える,イージーオーダーカーテン,～10000円",,,,,,,,,,1
,PYD2031,0,0,0,0,0,0,0,0,1,0,0,1,0,0,0,1,0,1,0,0,0,0,0,1,1,0,0,0,1,0,0,0,0,0,0,0,0,0,0,0,0,0,0,0,0,0,"ナチュラル,モダン,アイボリー系,ドレープカーテン,ドレープカーテン_遮光,ドレープカーテン_形状記憶,ドレープカーテン_洗える,イージーオーダーカーテン,～10000円",,,,,,,,,,1
,PYD2032,0,0,1,0,0,0,0,0,0,0,0,1,0,0,0,1,0,1,0,0,0,0,0,1,1,0,0,1,0,0,0,0,0,0,0,0,0,0,0,0,0,0,0,0,0,0,"ナチュラル,モダン,ブラウン系,ドレープカーテン,ドレープカーテン_遮光,ドレープカーテン_形状記憶,ドレープカーテン_洗える,イージーオーダーカーテン,～10000円",,,,,,,,,,1
,PYD2033,0,1,0,0,0,0,0,0,0,0,0,1,0,0,0,1,0,1,0,0,0,0,0,1,1,0,0,0,1,0,0,0,0,0,0,0,0,0,0,0,0,0,0,0,0,0,"ナチュラル,モダン,ベージュ系,ドレープカーテン,ドレープカーテン_遮光,ドレープカーテン_形状記憶,ドレープカーテン_洗える,イージーオーダーカーテン,～10000円",,,,,,,,,,1
,PSD4001,0,0,0,0,0,1,0,0,0,0,0,1,0,0,0,1,0,1,0,0,0,0,0,1,1,0,1,0,0,0,0,0,0,0,0,0,0,0,0,0,0,0,0,0,0,0,"男前スタイル,ナチュラル,モダン,ブルー系,ドレープカーテン,ドレープカーテン_遮光,ドレープカーテン_形状記憶,ドレープカーテン_洗える,イージーオーダーカーテン,～10000円",,,,,,,,,,1
,PSD4002,0,0,0,0,0,0,0,1,0,0,0,1,0,0,0,1,0,1,0,0,0,0,0,1,1,0,0,1,0,0,0,0,0,0,0,0,0,0,0,0,0,0,0,0,0,0,"男前スタイル,ナチュラル,モダン,グレイ系,ドレープカーテン,ドレープカーテン_遮光,ドレープカーテン_形状記憶,ドレープカーテン_洗える,イージーオーダーカーテン,～10000円",,,,,,,,,,1
,PSD4003,1,0,0,0,0,0,0,0,0,0,0,1,0,0,0,1,0,1,0,0,0,0,0,1,1,0,1,0,0,0,0,0,0,0,0,0,0,0,0,0,0,0,0,0,0,0,"男前スタイル,ナチュラル,モダン,モノトーン系,ドレープカーテン,ドレープカーテン_遮光,ドレープカーテン_形状記憶,ドレープカーテン_洗える,イージーオーダーカーテン,～10000円",,,,,,,,,,1
,PSD4004,0,0,0,1,0,0,1,0,0,0,0,1,0,0,0,1,0,1,0,0,0,0,0,1,1,0,0,1,0,0,0,0,0,0,0,0,0,0,0,0,0,0,0,0,0,0,"ナチュラル,モダン,イエロー系,レッド系,ドレープカーテン,ドレープカーテン_遮光,ドレープカーテン_形状記憶,ドレープカーテン_洗える,イージーオーダーカーテン,～10000円",,,,,,,,,,1
,PSD4005,0,1,0,0,0,0,0,0,0,0,0,1,0,0,0,1,0,1,0,0,0,0,0,1,1,0,0,1,0,0,0,0,0,0,0,0,0,0,0,0,0,0,0,0,0,0,"ナチュラル,モダン,ベージュ系,ドレープカーテン,ドレープカーテン_遮光,ドレープカーテン_形状記憶,ドレープカーテン_洗える,イージーオーダーカーテン,～10000円",,,,,,,,,,1
,PSD4006,0,0,0,0,1,0,0,0,0,0,0,1,0,0,0,1,0,1,0,0,0,0,0,1,1,0,0,1,0,0,0,0,0,0,0,0,0,0,0,0,0,0,0,0,0,0,"ナチュラル,モダン,グリーン系,ドレープカーテン,ドレープカーテン_遮光,ドレープカーテン_形状記憶,ドレープカーテン_洗える,イージーオーダーカーテン,～10000円",,,,,,,,,,1
,PSD4008,0,0,0,0,1,0,0,0,0,0,0,1,0,0,0,1,0,1,0,0,0,0,0,1,1,0,0,0,1,0,0,0,0,0,0,0,0,0,0,0,0,0,0,0,0,0,"ナチュラル,モダン,グリーン系,ドレープカーテン,ドレープカーテン_遮光,ドレープカーテン_形状記憶,ドレープカーテン_洗える,イージーオーダーカーテン,～10000円",,,,,,,,,,1
,PSD4009,0,0,0,0,0,1,0,0,0,0,0,1,0,0,0,1,0,1,0,0,0,0,0,1,1,0,0,0,1,0,0,0,0,0,0,0,0,0,0,0,0,0,0,0,0,0,"ナチュラル,モダン,ブルー系,ドレープカーテン,ドレープカーテン_遮光,ドレープカーテン_形状記憶,ドレープカーテン_洗える,イージーオーダーカーテン,～10000円",,,,,,,,,,1
,PYL1001,0,0,0,0,0,0,0,0,1,0,0,0,0,0,0,1,0,1,0,0,0,0,0,1,1,0,0,0,0,0,0,0,0,0,0,0,1,0,0,0,0,0,0,0,0,0,"無地,ナチュラル,アイボリー系,レースカーテン,レースカーテン_形状記憶,レースカーテン_洗える,イージーオーダーカーテン,～10000円",こちらのレースは裾がウエィトテープ仕様になります。,,,,,,,,,1
,PYL1002,0,0,0,0,0,0,0,0,1,0,0,0,0,0,0,1,0,1,0,0,0,0,0,1,1,0,0,0,0,0,0,0,0,0,0,0,0,0,0,0,0,0,0,0,0,0,"無地,ナチュラル,アイボリー系,レースカーテン,レースカーテン_形状記憶,レースカーテン_洗える,イージーオーダーカーテン,～10000円",,,,,,,,,,1
,PYL1003,0,1,0,0,0,0,0,0,0,0,0,0,0,0,0,1,0,1,0,0,0,0,0,1,1,0,0,0,0,0,0,0,0,0,0,0,0,0,0,0,0,0,0,0,0,0,"無地,ナチュラル,ベージュ系,レースカーテン,レースカーテン_形状記憶,レースカーテン_洗える,イージーオーダーカーテン,～10000円",,,,,,,,,,1
,PYL1004,0,0,0,0,0,0,0,1,0,0,0,0,0,0,0,1,0,1,0,0,0,0,0,1,1,0,0,0,0,0,0,0,0,0,0,0,0,0,0,0,0,0,0,0,0,0,"無地,ナチュラル,グレイ系,レースカーテン,レースカーテン_形状記憶,レースカーテン_洗える,イージーオーダーカーテン,～10000円",,,,,,,,,,1
,PYL1005,0,0,0,0,0,1,0,0,0,0,0,0,0,0,0,1,0,1,0,0,0,0,0,1,1,0,0,0,0,0,0,0,0,0,0,0,0,0,0,0,0,0,0,0,0,0,"無地,ナチュラル,ブルー系,レースカーテン,レースカーテン_形状記憶,レースカーテン_洗える,イージーオーダーカーテン,～10000円",,,,,,,,,,1
,PYL1006,0,0,0,0,0,0,0,0,1,0,0,0,0,0,0,1,1,1,0,0,0,0,0,1,1,0,0,0,0,0,0,1,0,0,0,0,0,0,0,0,0,0,0,0,0,0,"ナチュラル,モダン,アイボリー系,レースカーテン,レースカーテン_形状記憶,レースカーテン_洗える,レースカーテン_省エネ,イージーオーダーカーテン,～10000円",,,,,,,,,,1
,PYL1007,0,0,0,0,0,0,0,0,1,0,0,0,0,0,0,1,0,1,0,0,0,0,0,1,1,0,0,0,0,0,0,0,0,0,0,0,1,0,0,0,0,0,0,0,0,0,"男前スタイル,ナチュラル,モダン,アイボリー系,レースカーテン,レースカーテン_形状記憶,レースカーテン_洗える,イージーオーダーカーテン,～10000円",こちらのレースは裾がウエィトテープ仕様になります。,,,,,,,,,1
,PYL1009,0,0,0,0,0,0,1,0,1,0,0,0,0,0,0,1,0,1,0,0,0,0,0,1,1,0,0,0,0,0,0,0,0,0,0,0,0,0,0,0,0,0,0,0,0,0,"北欧スタイル,ナチュラル,モダン,レッド系,アイボリー系,レースカーテン,レースカーテン_形状記憶,レースカーテン_洗える,イージーオーダーカーテン,～10000円",,,,,,,,,,1
,PYL1010,0,0,0,1,0,0,0,1,1,0,0,0,0,0,0,1,0,1,0,0,0,0,0,1,1,0,0,0,0,0,0,0,0,0,0,0,0,0,0,0,0,0,0,0,0,0,"北欧スタイル,ナチュラル,モダン,グレイ系,アイボリー系,イエロー系,レースカーテン,レースカーテン_形状記憶,レースカーテン_洗える,イージーオーダーカーテン,～10000円",,,,,,,,,,1
,PYL1011,0,0,0,0,0,1,0,1,0,0,0,0,0,0,0,1,0,1,0,0,0,0,0,1,1,0,0,0,0,0,0,0,0,0,0,0,0,0,0,0,0,0,0,0,0,0,"ブルーカラー,ナチュラル,モダン,ブルー系,グレイ系,レースカーテン,レースカーテン_形状記憶,レースカーテン_洗える,イージーオーダーカーテン,～10000円",,,,,,,,,,1
,PYL1012,0,1,0,0,0,0,0,0,0,0,0,0,0,0,0,1,0,1,0,0,0,0,0,1,1,0,0,0,0,0,0,0,0,0,0,0,1,0,0,0,0,0,0,0,0,0,"ナチュラル,モダン,ベージュ系,レースカーテン,レースカーテン_形状記憶,レースカーテン_洗える,イージーオーダーカーテン,～10000円",こちらのレースは裾がウエィトテープ仕様になります。,,,,,,,,,1
,PYL1013,0,0,0,0,0,0,0,1,1,0,0,0,0,0,0,1,0,1,0,0,0,0,0,1,1,0,0,0,0,0,0,0,0,0,0,0,0,0,0,0,0,0,0,0,0,0,"ナチュラル,モダン,グレイ系,アイボリー系,レースカーテン,レースカーテン_形状記憶,レースカーテン_洗える,イージーオーダーカーテン,～10000円",こちらのレースは裾がウエィトテープ仕様になります。,,,,,,,,,1
,PYL1014,0,1,0,0,0,0,0,0,1,0,0,0,0,0,0,1,0,1,0,0,0,0,0,1,1,0,0,0,0,0,0,0,0,0,0,0,0,0,0,0,0,0,0,0,0,0,"ナチュラル,モダン,,ベージュ系,アイボリー系,レースカーテン,レースカーテン_形状記憶,レースカーテン_洗える,イージーオーダーカーテン,～10000円",,,,,,,,,,1
,PYL1015,0,0,0,0,0,0,0,1,1,0,0,0,0,0,0,1,0,1,0,0,0,0,0,1,1,0,0,0,0,0,0,0,0,0,0,0,1,0,0,0,0,0,0,0,0,0,"ナチュラル,モダン,グレイ系,アイボリー系,レースカーテン,レースカーテン_形状記憶,レースカーテン_洗える,イージーオーダーカーテン,～10000円",こちらのレースは裾がウエィトテープ仕様になります。,,,,,,,,,1
,PSL3001,0,0,0,0,1,0,0,0,0,0,0,0,0,0,0,1,0,1,0,0,0,0,0,1,1,0,0,0,0,0,0,0,0,0,0,0,0,0,0,0,0,0,0,0,0,0,"ボタニカルスタイル,ナチュラル,モダン,グリーン系,レースカーテン,レースカーテン_形状記憶,レースカーテン_洗える,イージーオーダーカーテン,～10000円",,,,,,,,,,1
,PSL3002,0,1,0,0,0,0,1,0,0,0,0,0,0,0,0,1,0,1,0,0,0,0,0,1,1,0,0,0,0,0,0,0,0,0,0,0,0,0,0,0,0,0,0,0,0,0,"男前スタイル,ナチュラル,モダン,ベージュ系,レッド系,レースカーテン,レースカーテン_形状記憶,レースカーテン_洗える,イージーオーダーカーテン,～10000円",,,,,,,,,,1
,PSL3003,0,1,0,0,0,1,0,0,0,0,0,0,0,0,0,1,0,1,0,0,0,0,0,1,1,0,0,0,0,0,0,0,0,0,0,0,0,0,0,0,0,0,0,0,0,0,"男前スタイル,ナチュラル,モダン,ベージュ系,ブルー系,レースカーテン,レースカーテン_形状記憶,レースカーテン_洗える,イージーオーダーカーテン,～10000円",,,,,,,,,,1
,PSL3004,0,0,0,0,0,1,0,0,1,0,0,0,0,0,0,1,0,1,0,0,0,0,0,1,1,0,0,0,0,0,0,0,0,0,0,0,0,0,0,0,0,0,0,0,0,0,"ボタニカルスタイル,ナチュラル,モダン,ブルー系,アイボリー系,レースカーテン,レースカーテン_形状記憶,レースカーテン_洗える,イージーオーダーカーテン,～10000円",,,,,,,,,,1
,PSL3005,0,0,0,0,0,0,0,1,1,0,0,0,0,0,0,1,0,1,0,0,0,0,0,1,1,0,0,0,0,0,0,0,0,0,0,0,0,0,0,0,0,0,0,0,0,0,"ボタニカルスタイル,ナチュラル,モダン,グレイ系,アイボリー系,レースカーテン,レースカーテン_形状記憶,レースカーテン_洗える,イージーオーダーカーテン,～10000円",,,,,,,,,,1
,PSL3006,0,1,0,0,0,0,0,1,0,0,0,0,0,0,0,1,0,1,0,0,0,0,0,1,1,0,0,0,0,0,0,0,0,0,0,0,0,0,0,0,0,0,0,0,0,0,"ボタニカルスタイル,ナチュラル,モダン,ベージュ系,グレイ系,レースカーテン,レースカーテン_形状記憶,レースカーテン_洗える,イージーオーダーカーテン,～10000円",,,,,,,,,,1
,PSL3007,0,0,0,0,1,1,0,0,0,0,0,0,0,0,0,1,0,1,0,0,0,0,0,1,1,0,0,0,0,0,0,0,0,0,0,0,0,0,0,0,0,0,0,0,0,0,"無地,ナチュラル,モダン,グリーン系,ブルー系,レースカーテン,レースカーテン_形状記憶,レースカーテン_洗える,イージーオーダーカーテン,～10000円",,,,,,,,,,1
,PAL5001,0,0,0,0,0,0,0,0,1,0,0,0,0,0,0,1,1,1,0,1,0,0,0,1,1,0,0,0,0,1,1,1,0,0,0,0,0,0,0,0,0,1,0,0,0,0,"無地,ナチュラル,モダン,アイボリー系,レースカーテン,レースカーテン_形状記憶,レースカーテン_プライバシー対策,レースカーテン_省エネ,レースカーテン_洗える,イージーオーダーカーテン,～10000円",,,,,,,,,,1
,PAL5002,0,0,0,0,0,0,0,0,1,0,0,0,0,0,0,1,1,1,0,1,0,0,0,1,1,0,0,0,0,1,1,1,0,0,0,0,0,0,0,0,0,1,0,0,0,0,"ナチュラル,モダン,アイボリー系,レースカーテン,レースカーテン_形状記憶,レースカーテン_プライバシー対策,レースカーテン_省エネ,レースカーテン_洗える,イージーオーダーカーテン,～10000円",,,,,,,,,,1
