商品コード,商品名(メインコメント),メインコメント,メインコメント詳細,検索ワード,カテゴリID
PYL1001,PYL1001,,,"無地,ナチュラル,アイボリー系,レースカーテン,レースカーテン_形状記憶,レースカーテン_洗える,イージーオーダーカーテン,～10000円,レースカーテン,1.5倍ヒダ,ウェイト巻標準,アイボリー,無地,ナチュラル","1706,1796"
PYL1002,PYL1002,,,"無地,ナチュラル,アイボリー系,レースカーテン,レースカーテン_形状記憶,レースカーテン_洗える,イージーオーダーカーテン,～10000円,レースカーテン,1.5倍ヒダ,アイボリー,無地,ナチュラル","1706,1796"
PYL1003,PYL1003,,,"無地,ナチュラル,ベージュ系,レースカーテン,レースカーテン_形状記憶,レースカーテン_洗える,イージーオーダーカーテン,～10000円,レースカーテン,1.5倍ヒダ,ベージュ,無地,ナチュラル","1706,1796"
PYL1004,PYL1004,,,"無地,ナチュラル,グレイ系,レースカーテン,レースカーテン_形状記憶,レースカーテン_洗える,イージーオーダーカーテン,～10000円,レースカーテン,1.5倍ヒダ,グレー,無地,ナチュラル","1706,1796"
PYL1005,PYL1005,,,"無地,ナチュラル,ブルー系,レースカーテン,レースカーテン_形状記憶,レースカーテン_洗える,イージーオーダーカーテン,～10000円,レースカーテン,1.5倍ヒダ,ブルー,無地,ナチュラル","1706,1796"
PYL1006,PYL1006,,,"ナチュラル,モダン,アイボリー系,レースカーテン,レースカーテン_形状記憶,レースカーテン_洗える,レースカーテン_省エネ,イージーオーダーカーテン,～10000円,レースカーテン,1.5倍ヒダ,アイボリー,ストライプ,モダン","1706,1796"
PYL1007,PYL1007,,,"男前スタイル,ナチュラル，モダン,アイボリー系,レースカーテン,レースカーテン_形状記憶,レースカーテン_洗える,イージーオーダーカーテン,～10000円,レースカーテン,1.5倍ヒダ,ウェイト巻標準,アイボリー,幾何,モダン","1706,1796"
PYL1009,PYL1009,,,"北欧スタイル,ナチュラル,モダン,レッド系,アイボリー系,レースカーテン,レースカーテン_形状記憶,レースカーテン_洗える,イージーオーダーカーテン,～10000円,レースカーテン,1.5倍ヒダ,ベージュ,幾何,ナチュラル,モダン","1706,1796"
PYL1010,PYL1010,,,"北欧スタイル,ナチュラル,モダン,グレイ系,アイボリー系,イエロー系,レースカーテン,レースカーテン_形状記憶,レースカーテン_洗える,イージーオーダーカーテン,～10000円,レースカーテン,1.5倍ヒダ,グレー,幾何,ナチュラル,モダン","1706,1796"
PYL1011,PYL1011,,,"ブルーカラー,ナチュラル,モダン,ブルー系,グレイ系,レースカーテン,レースカーテン_形状記憶,レースカーテン_洗える,イージーオーダーカーテン,～10000円,レースカーテン,1.5倍ヒダ,ブルー,幾何,ナチュラル,モダン","1706,1796"
PYL1012,PYL1012,,,"ナチュラル,モダン,ベージュ系,レース カーテン,レースカーテン_形状記憶,レースカーテン_洗える,イージーオーダーカーテン,～10000円,レースカーテン,1.5倍ヒダ,ウェイト巻標準,ベージュ,ストライプ,モダン","1706,1796"
PYL1013,PYL1013,,,"ナチュラル,モダン,グレイ系,アイボリー系,レースカーテン,レースカーテン_形状記憶,レースカーテン_洗える,イージーオーダーカーテン,～10000円,レースカーテン,1.5倍ヒダ,ウェイト巻標準,グレー,幾何,モダン","1706,1796"
PYL1014,PYL1014,,,"ナチュラル,モダン,,ベージュ系,アイボリー系,レースカーテン,レースカーテン_形状記憶,レースカーテン_洗える,イージーオーダーカーテン,～10000円,レースカーテン,1.5倍ヒダ,ベージュ,ボーダー,ナチュラル","1706,1796"
PYL1015,PYL1015,,,"ナチュラル,モダン,グレイ系,アイボリー系,レースカーテン,レースカーテン_形状記憶,レースカーテン_洗える,イージーオーダーカーテン,～10000円,レースカーテン,1.5倍ヒダ,ウェイト巻標準,グレー,ストライプ,モダン","1706,1796"
PSL3001,PSL3001,,,"ボタニカルスタイル,ナチュラル,モダン,グリーン系,レースカーテン,レースカーテン_形状記憶,レースカーテン_洗える,イージーオーダーカーテン,～10000円,レースカーテン,1.5倍ヒダ,グリーン,リーフ,ナチュラル","1706,1796"
PSL3002,PSL3002,,,"男前スタイル,ナチュラル，モダン,ベージュ系,レッド系,レースカーテン,レースカーテン_形状記憶,レースカーテン_洗える,イージーオーダーカーテン,～10000円,レースカーテン,1.5倍ヒダ,オレンジ,ストライプ,モダン","1706,1796"
PSL3003,PSL3003,,,"男前スタイル,ナチュラル，モダン,ベージュ系,ブルー系,レースカーテン,レースカーテン_形状記憶,レースカーテン_洗える,イージーオーダーカーテン,～10000円,レースカーテン,1.5倍ヒダ,ネイビー,ストライプ,モダン","1706,1796"
PSL3004,PSL3004,,,"ボタニカルスタイル,ナチュラル,モダン,ブルー系,アイボリー系,レースカーテン,レースカーテン_形状記憶,レースカーテン_洗える,イージーオーダーカーテン,～10000円,レースカーテン,1.5倍ヒダ,ブルーグリーン,リーフ,ナチュラル","1706,1796"
PSL3005,PSL3005,,,"ボタニカルスタイル,ナチュラル,モダン,グレイ系,アイボリー系,レースカーテン,レースカーテン_形状記憶,レースカーテン_洗える,イージーオーダーカーテン,～10000円,レースカーテン,1.5倍ヒダ,グレー,リーフ,ナチュラル","1706,1796"
PSL3006,PSL3006,,,"ボタニカルスタイル,ナチュラル,モダン,ベージュ系,グレイ系,レースカーテン,レースカーテン_形状記憶,レースカーテン_洗える,イージーオーダーカーテン,～10000円,レースカーテン,1.5倍ヒダ,ベージュ,リーフ,ナチュラル","1706,1796"
PSL3007,PSL3007,,,"無地,ナチュラル,モダン,グリーン系,ブルー系,レースカーテン,レースカーテン_形状記憶,レースカーテン_洗える,イージーオーダーカーテン,～10000円,レースカーテン,1.5倍ヒダ,グリーン,無地,ナチュラル","1706,1796"
PAL5001,PAL5001,,,"無地,ナチュラル,モダン,アイボリー系,レースカーテン,レースカーテン_形状記憶,レースカーテン_プライバシー対策,レースカーテン_省エネ,レースカーテン_洗える,イージーオーダーカーテン,～10000円,レースカーテン,1.5倍ヒダ,アイボリー,無地,ナチュラル","1706,1796"
PAL5002,PAL5002,,,"ナチュラル,モダン,アイボリー系,レースカーテン,レースカーテン_形状記憶,レースカーテン_プライバシー対策,レースカーテン_省エネ,レースカーテン_洗える,イージーオーダーカーテン,～10000円,レースカーテン,1.5倍ヒダ,アイボリー,ストライプ,モダン","1706,1796"
