商品コード,テイスト
CO74103,ナチュラル
CO74104,ナチュラル
CO74118,モダン
CO74119,モダン
CO74120,モダン
CO74121,モダン
CO74122,モダン
CO74123,エレガンス
CO74124,エレガンス
CO74125,ナチュラル
CO74126,ナチュラル
CO74129,ナチュラル
CO74130,ナチュラル
CO74131,ナチュラル
CO74132,ナチュラル
CO74133,ナチュラル
CO74134,ナチュラル
CO74135,ナチュラル
CO74136,ナチュラル
CO74137,モダン
CO74138,モダン
CO74139,モダン
CO74140,モダン
CO78307,モダン
CO78308,モダン
CO78309,モダン
CO78312,モダン
CO78313,モダン
CO79301,モダン
CO79302,モダン
FA21071,クラシック
FA21072,クラシック
FA21094,エレガンス
FA21095,エレガンス
FA21101,エレガンス
FA21102,エレガンス
FA21162,ナチュラル
FA21163,ナチュラル
FA21174,モダン
FA21175,モダン
FA21325,モダン
FA21326,モダン
FA21330,モダン
FA21331,モダン
FA21343,ナチュラル
FA21344,ナチュラル
FA21360,エレガンス
FA21361,エレガンス
FB21023,カジュアル
FB21030,クラシック
FB21031,クラシック
FB21053,エレガンス
FB21054,エレガンス
FB21059,モダン
FB21060,モダン
FB21061,モダン
FB21071,カジュアル
FB21072,カジュアル
FB21073,ナチュラル
FB21074,ナチュラル
FB21078,ナチュラル
FB21079,ナチュラル
ＩＨ26101,モダン
ＩＨ26102,モダン
ＩＨ26103,モダン
ＩＨ26104,モダン
ＩＨ26105,モダン
ＩＨ26106,モダン
ＩＨ26107,モダン
ＩＨ26108,モダン
ＩＨ26109,モダン
ＩＨ26110,モダン
ＩＨ26111,モダン
ＩＨ26112,モダン
IH28046,ベーシック
IH28047,ベーシック
IH28048,ベーシック
IH28049,モダン
IH28050,モダン
IH28126,ナチュラル
IH28127,ナチュラル
IH28130,ナチュラル
IH28131,ナチュラル
IH28315,ナチュラル
IH28316,ナチュラル
IH28319,モダン
IH28320,モダン
IH28321,モダン
IH28322,モダン
IH28323,エレガンス
IH28324,エレガンス
IH28325,ナチュラル
IH28326,ナチュラル
SC27099,モダン
SD27001,モダン
SD27004,モダン
SD27015,ナチュラル
SD27016,ナチュラル
SD27017,ベーシック
SD27018,ベーシック
SD27019,ベーシック
SD27020,ベーシック
SD27021,ベーシック
SD27022,ベーシック
SD27023,ベーシック
SD27024,ベーシック
SD27025,ベーシック
SD27026,ベーシック
SD27027,ベーシック
SD27028,ベーシック
SD27029,ベーシック
SD27030,ベーシック
SD27031,ベーシック
SD27032,ベーシック
SD27033,ベーシック
SD27038,エレガンス
SD27039,エレガンス
SD27048,モダン
SD27049,モダン
SD27055,モダン
SD27056,モダン
SD27059,ナチュラル
SD27060,ナチュラル
SD27061,カジュアル
SD27062,カジュアル
SD27066,ベーシック
SD27067,ベーシック
SD27068,ベーシック
SD27069,ベーシック
SD27070,ベーシック
SD27071,ベーシック
SD27077,モダン
SD27078,モダン
SD27079,モダン
SD27080,クラシック
SD27081,クラシック
SD27082,クラシック
SD27083,クラシック
SD27084,カジュアル
SD27087,カジュアル
SD27088,ナチュラル
SD27089,ナチュラル
SD27090,エレガンス
SD27091,エレガンス
SD27092,エレガンス
SD27093,エレガンス
SD27126,モダン
SD27127,モダン
SD27128,モダン
SD27129,モダン
SD27130,モダン
SD27131,モダン
SD27132,エレガンス
SD27133,エレガンス
SD27134,エレガンス
SD27135,モダン
SD27136,モダン
SD27137,モダン
SD27138,モダン
SD27139,ナチュラル
SD27140,ナチュラル
SD27141,エレガンス
SD27142,エレガンス
SD27143,エレガンス
SD27144,エレガンス
SD27145,エレガンス
SD27146,ナチュラル
SD27147,ナチュラル
SD27151,モダン
SD27154,モダン
SD27155,モダン
SD27156,モダン
SD27157,エレガンス
SD27158,エレガンス
SD27162,モダン
SD27163,モダン
SD27166,ナチュラル
SD27167,ナチュラル
SD27168,ナチュラル
SD27169,ナチュラル
SD27170,ナチュラル
SD27171,エレガンス
SD27172,エレガンス
SD27173,エレガンス
SD27174,エレガンス
SD27175,ナチュラル
SD27176,ナチュラル
SU25103,エレガンス
SU25104,エレガンス
SU25107,エレガンス
SU25108,エレガンス
SU25113,モダン
SU25114,モダン
SU25141,ナチュラル
SU25154,エレガンス
SU25155,エレガンス
SU25156,エレガンス
SU25157,エレガンス
SU25158,エレガンス
SU25159,エレガンス
YB22016,ナチュラル
YB22017,ナチュラル
YB22111,ナチュラル
YB22112,ナチュラル
YB22116,ナチュラル
YB22117,ナチュラル
YB22123,モダン
YB22125,ナチュラル
YB22126,ナチュラル
YB22127,ナチュラル
YB22128,ナチュラル
YB22131,モダン
YB22132,モダン
YB22133,モダン
YB22134,モダン
YB22311,モダン
YB22312,モダン
YB22313,ナチュラル
YB22314,ナチュラル
YB22315,ナチュラル
YB22316,ナチュラル
YB22317,ベーシック
YB22318,ベーシック
YB22319,ベーシック
YB22320,ベーシック
YB22321,ベーシック
YB22322,エレガンス
YB22323,エレガンス
YB22324,エレガンス
YB22327,ナチュラル
YB22328,ナチュラル
BU31251,エレガンス
BU31252,エレガンス
BU31253,モダン
BU31254,モダン
BU31255,モダン
BU31256,モダン
BU31257,モダン
BU31327,エレガンス
BU31328,エレガンス
BU31329,エレガンス
BU31330,エレガンス
BU31353,エレガンス
BU31369,エレガンス
BU31370,エレガンス
BU31373,エレガンス
BU31374,エレガンス
BU31385,モダン
BU31394,モダン
BU31481,
BW31304,エレガンス
BW31305,エレガンス
BW31306,モダン
BW31307,モダン
BW31308,ナチュラル
BW31309,ナチュラル
BW31311,ナチュラル
BW31312,ナチュラル
BW31313,ナチュラル
BW31316,エレガンス
CO51403,エレガンス
CO51405,エレガンス
CO51406,エレガンス
CO51410,モダン
CO51411,モダン
CO51412,エレガンス
CO52503,クラシック
CO52504,クラシック
CO53501,Ｅセレクション
CO53502,Ｅセレクション
CO56401,エレガンス
CO56402,エレガンス
CO58404,エレガンス
CO58408,エレガンス
CO58409,エレガンス
CO58410,エレガンス
CO58411,エレガンス
CO58501,クラシック
CO58502,クラシック
CO58507,エレガンス
CO58508,エレガンス
CO58513,Ｅセレクション
CO58514,Ｅセレクション
CO58601,クラシック
CO58602,クラシック
CO59401,クラシック
CO59403,クラシック
CO59404,クラシック
CO59405,クラシック
CO59505,モダン
CO59506,モダン
CO59603,クラシック
CO59604,クラシック
IH33307,モダン
IH33308,モダン
IH33309,モダン
IH33310,モダン
IH33401,クラシック
IH33407,エレガンス
IH33408,エレガンス
IH33414,モダン
IH33415,モダン
IH33423,エレガンス
IH33432,クラシック
IH33433,クラシック
IH33457,クラシック
IH33460,モダン
IH33473,モダン
IH33474,モダン
IH33475,モダン
IH33476,モダン
IH33481,クラシック
IH33482,クラシック
IH33483,クラシック
IH33484,クラシック
IH33495,エレガンス
IH33496,エレガンス
IH33497,モダン
IH33498,モダン
IH33499,エレガンス
IH33525,モダン
IH33526,モダン
IH33533,モダン
IH33534,モダン
IH34401,エレガンス
IH34402,モダン
IH34403,モダン
IH34404,クラシック
IH34405,クラシック
IH34406,クラシック
IH34407,クラシック
IH34408,エレガンス
IH34409,エレガンス
IH34410,エレガンス
IH34411,エレガンス
IH34412,エレガンス
IH34413,エレガンス
IH34414,エレガンス
IH34415,エレガンス
IH34416,エレガンス
IH34417,モダン
IH34418,モダン
IH34420,モダン
IH34421,モダン
IH34422,モダン
IH34423,エレガンス
IH34424,エレガンス
IH34426,エレガンス
IH34427,ナチュラル
IH34428,ナチュラル
IH34429,モダン
IH34430,モダン
IH34431,モダン
IH34432,モダン
SC37301,モダン
SC37302,モダン
SC37303,モダン
SC37304,エレガンス
SC37305,エレガンス
SC37306,エレガンス
SC37307,エレガンス
