<?xml version="1.0" encoding="utf-8"?>
<!-- Generator: Adobe Illustrator 17.0.0, SVG Export Plug-In . SVG Version: 6.00 Build 0)  -->
<!DOCTYPE svg PUBLIC "-//W3C//DTD SVG 1.1//EN" "http://www.w3.org/Graphics/SVG/1.1/DTD/svg11.dtd">
<svg version="1.1" id="レイヤー_1" xmlns="http://www.w3.org/2000/svg" xmlns:xlink="http://www.w3.org/1999/xlink" x="0px"
	 y="0px" width="10px" height="18px" viewBox="0 0 10 18" enable-background="new 0 0 10 18" xml:space="preserve">
<g>
	<g>
		<rect x="0" y="16" fill-rule="evenodd" clip-rule="evenodd" fill="#555555" width="2" height="2"/>
		<rect x="2" y="14" fill-rule="evenodd" clip-rule="evenodd" fill="#555555" width="2" height="2"/>
		<rect x="4" y="12" fill-rule="evenodd" clip-rule="evenodd" fill="#555555" width="2" height="2"/>
		<rect x="6" y="10" fill-rule="evenodd" clip-rule="evenodd" fill="#555555" width="2" height="2"/>
		<rect x="8" y="8" fill-rule="evenodd" clip-rule="evenodd" fill="#555555" width="2" height="2"/>
		<rect x="6" y="6" fill-rule="evenodd" clip-rule="evenodd" fill="#555555" width="2" height="2"/>
		<rect x="4" y="4" fill-rule="evenodd" clip-rule="evenodd" fill="#555555" width="2" height="2"/>
		<rect x="2" y="2" fill-rule="evenodd" clip-rule="evenodd" fill="#555555" width="2" height="2"/>
		<rect x="0" fill-rule="evenodd" clip-rule="evenodd" fill="#555555" width="2" height="2"/>
	</g>
</g>
</svg>
