<?xml version="1.0" encoding="utf-8"?>
<!-- Generator: Adobe Illustrator 17.0.0, SVG Export Plug-In . SVG Version: 6.00 Build 0)  -->
<!DOCTYPE svg PUBLIC "-//W3C//DTD SVG 1.1//EN" "http://www.w3.org/Graphics/SVG/1.1/DTD/svg11.dtd">
<svg version="1.1" id="レイヤー_1" xmlns="http://www.w3.org/2000/svg" xmlns:xlink="http://www.w3.org/1999/xlink" x="0px"
	 y="0px" width="963px" height="62px" viewBox="0 0 963 62" enable-background="new 0 0 963 62" xml:space="preserve">
<g>
	<rect x="499.5" y="0.5" fill-rule="evenodd" clip-rule="evenodd" fill="#EFEEEE" width="463" height="61"/>
	
		<polyline fill-rule="evenodd" clip-rule="evenodd" fill="none" stroke="#212222" stroke-linecap="round" stroke-linejoin="round" stroke-miterlimit="10" points="
		0.5,59.5 0.5,0.5 464.5,0.5 464.5,61.5 962.5,61.5 	"/>
</g>
</svg>
