<?xml version="1.0" encoding="utf-8"?>
<!-- Generator: Adobe Illustrator 17.0.0, SVG Export Plug-In . SVG Version: 6.00 Build 0)  -->
<!DOCTYPE svg PUBLIC "-//W3C//DTD SVG 1.1//EN" "http://www.w3.org/Graphics/SVG/1.1/DTD/svg11.dtd">
<svg version="1.1" id="レイヤー_1" xmlns="http://www.w3.org/2000/svg" xmlns:xlink="http://www.w3.org/1999/xlink" x="0px"
	 y="0px" width="39px" height="39px" viewBox="0 0 39 39" enable-background="new 0 0 39 39" xml:space="preserve">
<g>
	<g>
		<rect x="16" y="7" fill-rule="evenodd" clip-rule="evenodd" fill="none" width="11" height="25.2"/>
		<path fill="#1F2020" d="M19.766,19.051c1.056,0.18,1.955,1.031,1.955,2.327c0,1.427-1.031,2.674-3.046,2.674
			c-0.899,0-1.716-0.288-2.123-0.576l0.3-0.768c0.324,0.216,1.043,0.54,1.835,0.54c1.511,0,2.003-1.056,2.003-1.883
			c0-1.319-1.115-1.919-2.291-1.919h-0.588v-0.744h0.588c0.863,0,1.979-0.54,1.979-1.667c0-0.779-0.468-1.451-1.548-1.451
			c-0.659,0-1.283,0.324-1.643,0.588l-0.3-0.732c0.432-0.335,1.271-0.671,2.135-0.671c1.643,0,2.375,1.043,2.375,2.123
			c0,0.924-0.588,1.751-1.632,2.123V19.051z"/>
	</g>
	
		<circle fill-rule="evenodd" clip-rule="evenodd" fill="none" stroke="#747474" stroke-width="2" stroke-linecap="round" stroke-linejoin="round" stroke-miterlimit="10" cx="19.5" cy="19.5" r="18.5"/>
</g>
</svg>
