<?xml version="1.0" encoding="utf-8"?>
<!-- Generator: Adobe Illustrator 17.0.0, SVG Export Plug-In . SVG Version: 6.00 Build 0)  -->
<!DOCTYPE svg PUBLIC "-//W3C//DTD SVG 1.1//EN" "http://www.w3.org/Graphics/SVG/1.1/DTD/svg11.dtd">
<svg version="1.1" id="レイヤー_1" xmlns="http://www.w3.org/2000/svg" xmlns:xlink="http://www.w3.org/1999/xlink" x="0px"
	 y="0px" width="54px" height="27px" viewBox="0 0 54 27" enable-background="new 0 0 54 27" xml:space="preserve">
<g>
	<rect x="0" fill-rule="evenodd" clip-rule="evenodd" fill="#F6CC50" width="54" height="27"/>
	<g>
		<rect x="10.5" y="1.5" fill-rule="evenodd" clip-rule="evenodd" fill="none" width="39" height="24"/>
		<path fill="#1E1F1F" d="M11.52,9.389c0.527-0.096,1.224-0.18,2.075-0.18c2.95,0,3.189,1.895,3.189,2.615
			c0,2.146-1.715,2.914-3.334,2.914c-0.348,0-0.659-0.012-0.936-0.084v3.754H11.52V9.389z M12.515,13.827
			c0.252,0.072,0.576,0.096,0.96,0.096c1.439,0,2.314-0.72,2.314-2.027s-0.936-1.883-2.183-1.883c-0.504,0-0.876,0.048-1.092,0.096
			V13.827z"/>
		<path fill="#1E1F1F" d="M25.664,13.754c0,3.214-1.799,4.797-3.958,4.797c-2.267,0-3.873-1.787-3.873-4.641
			c0-2.975,1.69-4.786,3.981-4.786C24.153,9.125,25.664,10.996,25.664,13.754z M18.876,13.886c0,1.943,1.008,3.838,2.866,3.838
			c1.883,0,2.879-1.835,2.879-3.922c0-1.835-0.899-3.85-2.854-3.85C19.752,9.953,18.876,11.943,18.876,13.886z"/>
		<path fill="#1E1F1F" d="M27.179,9.269h0.996v9.139h-0.996V9.269z"/>
		<path fill="#1E1F1F" d="M36.669,18.408h-0.996l-2.914-4.809c-0.611-1.02-1.199-2.039-1.644-3.046l-0.048,0.012
			c0.084,1.163,0.097,2.23,0.097,3.814v4.029h-0.936V9.269h1.043l2.95,4.809c0.647,1.092,1.176,2.039,1.596,2.987l0.023-0.012
			c-0.096-1.271-0.12-2.363-0.12-3.802V9.269h0.948V18.408z"/>
		<path fill="#1E1F1F" d="M44.06,10.121h-2.698v8.287h-0.995v-8.287H37.68v-0.84h6.38V10.121z"/>
	</g>
</g>
</svg>
