商品ID,商品規格ID,親規格分類ID,規格分類ID,親規格分類名,規格分類名,メーカーID,メーカー名,商品名,表示ステータス(公開・非公開),検索ワード(コメント3),備考欄(SHOP専用),一覧-メイン画像,詳細-メインコメント,詳細-メイン画像,詳細-メイン拡大画像,詳細-サブタイトル(1),詳細-サブコメント(1),詳細-サブ画像(1),詳細-サブ拡大画像(1),詳細-サブタイトル(2),詳細-サブコメント(2),詳細-サブ画像(2),詳細-サブ拡大画像(2),詳細-サブ画像(3),詳細-サブ拡大画像(3),詳細-サブ画像(4),詳細-サブ拡大画像(4),発送日目安ID,商品種別ID,商品コード,在庫数,在庫無制限フラグ,販売制限数,通常価格,販売価格,送料,ポイント付与率,関連商品ID(1),関連商品コメント(1),関連商品ID(2),関連商品コメント(2),関連商品ID(3),関連商品コメント(3),関連商品ID(4),関連商品コメント(4),関連商品ID(5),関連商品コメント(5),関連商品ID(6),関連商品コメント(6),カテゴリID,カテゴリ名
10,,0,0,,,1,スモールプラネット,4Pランチボックス（フェイス）,1,"ランチ,ランチボックス,お弁当,お弁当箱,弁当箱,オフィス,新学期,新入学,新生活,ギフト,プレゼント","●容量:(L)450ml、(M)280ml、(S)180ml、(SS)100ml<br>
●耐熱温度:(本体)140℃、 (フタ)70℃ 
●電子レンジ(フタをはずす)対応",4518645431654_0_180.jpg,サイズが違う4つがセットになったお弁当箱。入れ子式収納なので、食べ終わった後はコンパクトになります。<br>お弁当箱としてだけでなく、ご自宅で保存容器や小分け用容器として使っても!,4518645431654_1_260.jpg,4518645431654_1_500.jpg,商品詳細,"<div class=""row1"">サイズ</div>
<div class=""row2"">約H9.1×W14.4×D5.3cm（収納時）</div>
<div class=""row1"">素材</div>
<div class=""row2"">ポリプロピレン、ポリエチレン</div>
<div class=""row1"">原産国</div>
<div class=""row2"">日本</div>
<div class=""row1"">備考</div>
<div class=""row2"">●容量:(L)450ml、(M)280ml、(S)180ml、(SS)100ml<br>●耐熱温度:(本体)140℃、 (フタ)70℃ ●電子レンジ(フタをはずす)対応</div>",4518645431654_2_260.jpg,4518645431654_2_500.jpg,サブ2,,4518645431654_3_260.jpg,4518645431654_3_500.jpg,4518645431654_3_260.jpg,4518645431654_3_500.jpg,,,3,1,4.51865E+12,,1,5,1400,1400,,10,,,,,,,,,,,,,700,ランチグッズ
11,,0,0,,,1,スモールプラネット,箸＆ケース（フェイス）,1,"ランチ,ランチボックス,お弁当,お弁当箱,弁当箱,オフィス,新学期,新入学,新生活,ギフト,プレゼント","●容量:(L)450ml、(M)280ml、(S)180ml、(SS)100ml<br>
●耐熱温度:(本体)140℃、 (フタ)70℃ 
●電子レンジ(フタをはずす)対応",4549204294670_0_180.jpg,クレヨンしんちゃん ハシ&ハシケース♪シロががデザインされたお箸と、しんちゃんと仲間たちがデザインされた箸ケースがセットになっています。,4549204294670_1_260.jpg,4549204294670_1_500.jpg,商品詳細,"<div class=""row1"">サイズ</div>
<div class=""row2"">約H2.7×W19.5×D1.3cm（18cm箸入り）</div>
<div class=""row1"">素材</div>
<div class=""row2"">スチロール樹脂、AS樹脂</div>
<div class=""row1"">原産国</div>
<div class=""row2"">日本</div>
<div class=""row1"">備考</div>
<div class=""row2""> ●耐熱温度/蓋・本体:100℃ 箸:100℃<br>●食器洗浄機・食器乾燥機の使用は避けてください。 </div>",4549204294670_2_260.jpg,4549204294670_2_500.jpg,サブ2,,4549204294670_3_260.jpg,4549204294670_3_500.jpg,4549204294670_3_260.jpg,4549204294670_3_500.jpg,,,3,1,4.5492E+12,,1,5,700,700,,10,,,,,,,,,,,,,700,ランチグッズ
12,,2,5,,,1,スモールプラネット,Tシャツ（グッド）,1,"シャツ,オシャレ,ファッション,夏,着替え,半袖",,4549204295035_0_180.jpg,大きなしんちゃんが目をひくTシャツ！<br>大人かわいく着こなしたいカラフルデザイン！,4549204295035_1_260.jpg,4549204295035_1_500.jpg,商品詳細,"<div class=""row1"">サイズ</div>
<div class=""row2"">Mサイズ/身丈:63cm、身幅:約45cm、肩幅：40cm、袖丈：20cm<br>Lサイズ/身丈:68cm、身幅:50cm、肩幅：45cm、袖丈：23cm</div>
<div class=""row1"">素材</div>
<div class=""row2"">コットン</div>
<div class=""row1"">原産国</div>
<div class=""row2"">中国</div>
<div class=""row1"">洗濯方法</div>
<div class=""row2""> 洗濯方法などが入る </div>",4549204295035_2_260.jpg,4549204295035_2_500.jpg,サブ2,,4549204295035_3_260.jpg,4549204295035_3_500.jpg,4549204295035_3_260.jpg,4549204295035_3_500.jpg,,,3,1,4.5492E+12,,1,5,700,700,,10,,,,,,,,,,,,,"600,1","Tシャツ,新商品"
12,,2,6,,,1,スモールプラネット,Tシャツ（グッド）,1,"シャツ,オシャレ,ファッション,夏,着替え,半袖",,4549204295035_0_180.jpg,大きなしんちゃんが目をひくTシャツ！<br>大人かわいく着こなしたいカラフルデザイン！,4549204295035_1_260.jpg,4549204295035_1_500.jpg,商品詳細,"<div class=""row1"">サイズ</div>
<div class=""row2"">Mサイズ/身丈:63cm、身幅:約45cm、肩幅：40cm、袖丈：20cm<br>Lサイズ/身丈:68cm、身幅:50cm、肩幅：45cm、袖丈：23cm</div>
<div class=""row1"">素材</div>
<div class=""row2"">コットン</div>
<div class=""row1"">原産国</div>
<div class=""row2"">中国</div>
<div class=""row1"">洗濯方法</div>
<div class=""row2""> 洗濯方法などが入る </div>",4549204295035_2_260.jpg,4549204295035_2_500.jpg,サブ2,,4549204295035_3_260.jpg,4549204295035_3_500.jpg,4549204295035_3_260.jpg,4549204295035_3_500.jpg,,,3,1,4.5492E+12,,1,5,700,700,,10,,,,,,,,,,,,,"600,1","Tシャツ,新商品"
