﻿商品ID,商品規格ID,親規格分類ID,規格分類ID,親規格分類名,規格分類名,メーカーID,メーカー名,商品名,表示ステータス(公開・非公開),メーカーURL(コメント1),コメント2,検索ワード(コメント3),コメント4,コメント5,コメント6,備考欄(SHOP専用),一覧-メインコメント,一覧-メイン画像,詳細-メインコメント,詳細-メイン画像,詳細-メイン拡大画像,詳細-サブタイトル(1),詳細-サブコメント(1),詳細-サブ画像(1),詳細-サブ拡大画像(1),詳細-サブタイトル(2),詳細-サブコメント(2),詳細-サブ画像(2),詳細-サブ拡大画像(2),詳細-サブタイトル(3),詳細-サブコメント(3),詳細-サブ画像(3),詳細-サブ拡大画像(3),詳細-サブタイトル(4),詳細-サブコメント(4),詳細-サブ画像(4),詳細-サブ拡大画像(4),詳細-サブタイトル(5),詳細-サブコメント(5),詳細-サブ画像(5),詳細-サブ拡大画像(5),発送日目安ID,削除フラグ,商品種別ID,商品コード,在庫数,在庫無制限フラグ,販売制限数,通常価格,販売価格,送料,ポイント付与率,ダウンロードファイル名,ダウンロード実ファイル,関連商品ID(1),関連商品コメント(1),関連商品ID(2),関連商品コメント(2),関連商品ID(3),関連商品コメント(3),関連商品ID(4),関連商品コメント(4),関連商品ID(5),関連商品コメント(5),関連商品ID(6),関連商品コメント(6),商品ステータス,商品ステータス名,カテゴリID,カテゴリ名
,,,,,,1,スモール・プラネット,4Pランチボックス,1,,,"ランチ,ランチボックス,お弁当,お弁当箱,弁当箱,オフィス,新学期,新入学,新生活,ギフト,プレゼント",,,,"●容量：（L）450ml、（M）280ml、（S）180ml、（SS）100ml<br>
●耐熱温度：（本体）140℃、 （フタ）70℃ 
●電子レンジ(フタをはずす)対応",メインコメントテスト,4549204294656.jpg,サイズが違う4つがセットになったお弁当箱。入れ子式収納なので、食べ終わった後はコンパクトになります。<br>お弁当箱としてだけでなく、ご自宅で保存容器や小分け用容器として使っても！,4549204294656.jpg,4549204294656.jpg,,,,,,,,,,,,,,,,,,,,,3,0,1,KYLC939,10,0,5,1400,1400,,10,,,1,,,,,,,,,,,,,,700,ランチグッズ
