商品ID,商品規格ID,親規格分類ID,規格分類ID,メーカーID,商品名,表示ステータス(公開・非公開),コメント2,検索ワード(コメント3),コメント4,コメント5,コメント6,備考欄(SHOP専用),一覧-メインコメント,一覧-メイン画像,詳細-メインコメント,詳細-メイン画像,詳細-メイン拡大画像,詳細-サブタイトル(1),詳細-サブコメント(1),詳細-サブ画像(1),詳細-サブ拡大画像(1),詳細-サブタイトル(2),詳細-サブコメント(2),詳細-サブ画像(2),詳細-サブ拡大画像(2),詳細-サブタイトル(3),詳細-サブコメント(3),詳細-サブ画像(3),詳細-サブ拡大画像(3),詳細-サブタイトル(4),詳細-サブコメント(4),詳細-サブ画像(4),詳細-サブ拡大画像(4),詳細-サブタイトル(5),詳細-サブコメント(5),詳細-サブ画像(5),詳細-サブ拡大画像(5),詳細-サブタイトル(6),詳細-サブコメント(6),詳細-サブ画像(6),詳細-サブ拡大画像(6),詳細-サブタイトル(7),詳細-サブコメント(7),詳細-サブ画像(7),詳細-サブ拡大画像(7),詳細-サブタイトル(8),詳細-サブコメント(8),詳細-サブ画像(8),詳細-サブ拡大画像(8),発送日目安ID,削除フラグ,商品種別ID,商品コード,在庫数,在庫無制限フラグ,販売制限数,通常価格,販売価格,送料,ポイント付与率,ダウンロードファイル名,ダウンロード実ファイル,関連商品ID(1),関連商品コメント(1),関連商品ID(2),関連商品コメント(2),関連商品ID(3),関連商品コメント(3),関連商品ID(4),関連商品コメント(4),関連商品ID(5),関連商品コメント(5),関連商品ID(6),関連商品コメント(6),商品ステータス,商品ステータス名,カテゴリID,カテゴリ名,オプション設定,オーダー商品ID,オーダー商品フラグ,会員ランク別購入不可設定,通常価格_1
,,,,1,FA21094（ローズ）,1,,,,,,,遮光2級、形状記憶付2倍ヒダオーダーメイドカーテンです。,,遮光2級、形状記憶付2倍ヒダオーダーメイドカーテンです。,,,,,,,,,,,,,,,,,,,,,,,,,,,,,,,,,,,,0,1,0,,1,,9800,9800,,0,,,,,,,,,,,,,,,"2,5",,"1706,1707,1715,1719,1726,1728,1730",,"5,4,3,2,1",,,,
,,,,1,FA21095（イエロー）,1,,,,,,,遮光2級、形状記憶付2倍ヒダオーダーメイドカーテンです。,,遮光2級、形状記憶付2倍ヒダオーダーメイドカーテンです。,,,,,,,,,,,,,,,,,,,,,,,,,,,,,,,,,,,,0,1,0,,1,,9800,9800,,0,,,,,,,,,,,,,,,"2,5",,"1706,1707,1715,1719,1726,1728,1730",,"5,4,3,2,1",,,,
,,,,1,FB21053（アイボリー）,1,,,,,,,形状記憶付2倍ヒダオーダーメイドカーテンです。,,形状記憶付2倍ヒダオーダーメイドカーテンです。,,,,,,,,,,,,,,,,,,,,,,,,,,,,,,,,,,,,0,1,0,,1,,9800,9800,,0,,,,,,,,,,,,,,,"2,5",,"1706,1707,1715,1719,1726,1728",,"5,4,3,2,1",,,,
,,,,1,FB21054（グリーン）,1,,,,,,,形状記憶付2倍ヒダオーダーメイドカーテンです。,,形状記憶付2倍ヒダオーダーメイドカーテンです。,,,,,,,,,,,,,,,,,,,,,,,,,,,,,,,,,,,,0,1,0,,1,,9800,9800,,0,,,,,,,,,,,,,,,"2,5",,"1706,1707,1715,1719,1726,1728",,"5,4,3,2,1",,,,
,,,,1,SD27038（ベージュ）,1,,,,,,,遮光2級、形状記憶付2倍ヒダオーダーメイドカーテンです。,,遮光2級、形状記憶付2倍ヒダオーダーメイドカーテンです。,,,,,,,,,,,,,,,,,,,,,,,,,,,,,,,,,,,,0,1,0,,1,,9800,9800,,0,,,,,,,,,,,,,,,"2,5",,"1706,1707,1715,1719,1726,1728,1730",,"5,4,3,2,1",,,,
,,,,1,SD27039（ブルー）,1,,,,,,,遮光2級、形状記憶付2倍ヒダオーダーメイドカーテンです。,,遮光2級、形状記憶付2倍ヒダオーダーメイドカーテンです。,,,,,,,,,,,,,,,,,,,,,,,,,,,,,,,,,,,,0,1,0,,1,,9800,9800,,0,,,,,,,,,,,,,,,"2,5",,"1706,1707,1715,1719,1726,1728,1730",,"5,4,3,2,1",,,,
,,,,1,SD27090（ピンク）,1,,,,,,,形状記憶付2倍ヒダオーダーメイドカーテンです。,,形状記憶付2倍ヒダオーダーメイドカーテンです。,,,,,,,,,,,,,,,,,,,,,,,,,,,,,,,,,,,,0,1,0,,1,,9800,9800,,0,,,,,,,,,,,,,,,"2,5",,"1706,1707,1715,1719,1726,1728",,"5,4,3,2,1",,,,
,,,,1,SD27091（ブルー）,1,,,,,,,形状記憶付2倍ヒダオーダーメイドカーテンです。,,形状記憶付2倍ヒダオーダーメイドカーテンです。,,,,,,,,,,,,,,,,,,,,,,,,,,,,,,,,,,,,0,1,0,,1,,9800,9800,,0,,,,,,,,,,,,,,,"2,5",,"1706,1707,1715,1719,1726,1728",,"5,4,3,2,1",,,,
,,,,1,SD27092（アイボリー）,1,,,,,,,形状記憶付2倍ヒダオーダーメイドカーテンです。,,形状記憶付2倍ヒダオーダーメイドカーテンです。,,,,,,,,,,,,,,,,,,,,,,,,,,,,,,,,,,,,0,1,0,,1,,9800,9800,,0,,,,,,,,,,,,,,,"2,5",,"1706,1707,1715,1719,1726,1728",,"5,4,3,2,1",,,,
,,,,1,SD27093（グリーン）,1,,,,,,,形状記憶付2倍ヒダオーダーメイドカーテンです。,,形状記憶付2倍ヒダオーダーメイドカーテンです。,,,,,,,,,,,,,,,,,,,,,,,,,,,,,,,,,,,,0,1,0,,1,,9800,9800,,0,,,,,,,,,,,,,,,"2,5",,"1706,1707,1715,1719,1726,1728",,"5,4,3,2,1",,,,
,,,,1,IH28051（アイボリー）,1,,,,,,,防炎、形状記憶付2倍ヒダオーダーメイドカーテンです。,,防炎、形状記憶付2倍ヒダオーダーメイドカーテンです。,,,,,,,,,,,,,,,,,,,,,,,,,,,,,,,,,,,,0,1,0,,1,,9800,9800,,0,,,,,,,,,,,,,,,"2,5",,"1706,1707,1715,1719,1726,1728,1727",,"5,4,3,2,1",,,,
,,,,1,IH28052（グリーン）,1,,,,,,,防炎、形状記憶付2倍ヒダオーダーメイドカーテンです。,,防炎、形状記憶付2倍ヒダオーダーメイドカーテンです。,,,,,,,,,,,,,,,,,,,,,,,,,,,,,,,,,,,,0,1,0,,1,,9800,9800,,0,,,,,,,,,,,,,,,"2,5",,"1706,1707,1715,1719,1726,1728,1727",,"5,4,3,2,1",,,,
,,,,1,FB21023（ピンク）,1,,,,,,,形状記憶付2倍ヒダオーダーメイドカーテンです。,,形状記憶付2倍ヒダオーダーメイドカーテンです。,,,,,,,,,,,,,,,,,,,,,,,,,,,,,,,,,,,,0,1,0,,1,,9800,9800,,0,,,,,,,,,,,,,,,"2,5",,"1706,1707,1715,1719,1726,1728",,"5,4,3,2,1",,,,
,,,,1,FB21066（ピンク）,1,,,,,,,遮光3級、形状記憶付2倍ヒダオーダーメイドカーテンです。,,遮光3級、形状記憶付2倍ヒダオーダーメイドカーテンです。,,,,,,,,,,,,,,,,,,,,,,,,,,,,,,,,,,,,0,1,0,,1,,9800,9800,,0,,,,,,,,,,,,,,,"2,5",,"1706,1707,1715,1719,1726,1728,1730",,"5,4,3,2,1",,,,
,,,,1,FB21068（ブルー）,1,,,,,,,遮光3級、形状記憶付2倍ヒダオーダーメイドカーテンです。,,遮光3級、形状記憶付2倍ヒダオーダーメイドカーテンです。,,,,,,,,,,,,,,,,,,,,,,,,,,,,,,,,,,,,0,1,0,,1,,9800,9800,,0,,,,,,,,,,,,,,,"2,5",,"1706,1707,1715,1719,1726,1728,1730",,"5,4,3,2,1",,,,
,,,,1,FB21069（アイボリー）,1,,,,,,,遮光3級、形状記憶付2倍ヒダオーダーメイドカーテンです。,,遮光3級、形状記憶付2倍ヒダオーダーメイドカーテンです。,,,,,,,,,,,,,,,,,,,,,,,,,,,,,,,,,,,,0,1,0,,1,,9800,9800,,0,,,,,,,,,,,,,,,"2,5",,"1706,1707,1715,1719,1726,1728,1730",,"5,4,3,2,1",,,,
,,,,1,FB21070（ブルー）,1,,,,,,,遮光3級、形状記憶付2倍ヒダオーダーメイドカーテンです。,,遮光3級、形状記憶付2倍ヒダオーダーメイドカーテンです。,,,,,,,,,,,,,,,,,,,,,,,,,,,,,,,,,,,,0,1,0,,1,,9800,9800,,0,,,,,,,,,,,,,,,"2,5",,"1706,1707,1715,1719,1726,1728,1730",,"5,4,3,2,1",,,,
,,,,1,FB21071（イエロー）,1,,,,,,,遮光3級、形状記憶付2倍ヒダオーダーメイドカーテンです。,,遮光3級、形状記憶付2倍ヒダオーダーメイドカーテンです。,,,,,,,,,,,,,,,,,,,,,,,,,,,,,,,,,,,,0,1,0,,1,,9800,9800,,0,,,,,,,,,,,,,,,"2,5",,"1706,1707,1715,1719,1726,1728,1730",,"5,4,3,2,1",,,,
,,,,1,FB21072（ブルーグリーン）,1,,,,,,,遮光3級、形状記憶付2倍ヒダオーダーメイドカーテンです。,,遮光3級、形状記憶付2倍ヒダオーダーメイドカーテンです。,,,,,,,,,,,,,,,,,,,,,,,,,,,,,,,,,,,,0,1,0,,1,,9800,9800,,0,,,,,,,,,,,,,,,"2,5",,"1706,1707,1715,1719,1726,1728,1730",,"5,4,3,2,1",,,,
,,,,1,SD27061（ベージュ）,1,,,,,,,遮光2級、形状記憶付2倍ヒダオーダーメイドカーテンです。,,遮光2級、形状記憶付2倍ヒダオーダーメイドカーテンです。,,,,,,,,,,,,,,,,,,,,,,,,,,,,,,,,,,,,0,1,0,,1,,9800,9800,,0,,,,,,,,,,,,,,,"2,5",,"1706,1707,1715,1719,1726,1728,1730",,"5,4,3,2,1",,,,
,,,,1,SD27062（ブルー）,1,,,,,,,遮光2級、形状記憶付2倍ヒダオーダーメイドカーテンです。,,遮光2級、形状記憶付2倍ヒダオーダーメイドカーテンです。,,,,,,,,,,,,,,,,,,,,,,,,,,,,,,,,,,,,0,1,0,,1,,9800,9800,,0,,,,,,,,,,,,,,,"2,5",,"1706,1707,1715,1719,1726,1728,1730",,"5,4,3,2,1",,,,
,,,,1,SD27084（ブルー）,1,,,,,,,遮光2級、形状記憶付2倍ヒダオーダーメイドカーテンです。,,遮光2級、形状記憶付2倍ヒダオーダーメイドカーテンです。,,,,,,,,,,,,,,,,,,,,,,,,,,,,,,,,,,,,0,1,0,,1,,9800,9800,,0,,,,,,,,,,,,,,,"2,5",,"1706,1707,1715,1719,1726,1728,1730",,"5,4,3,2,1",,,,
,,,,1,SD27087（ブルー）,1,,,,,,,形状記憶付2倍ヒダオーダーメイドカーテンです。,,形状記憶付2倍ヒダオーダーメイドカーテンです。,,,,,,,,,,,,,,,,,,,,,,,,,,,,,,,,,,,,0,1,0,,1,,9800,9800,,0,,,,,,,,,,,,,,,"2,5",,"1706,1707,1715,1719,1726,1728",,"5,4,3,2,1",,,,
,,,,1,FA21071（イエロー）,1,,,,,,,形状記憶付2倍ヒダオーダーメイドカーテンです。,,形状記憶付2倍ヒダオーダーメイドカーテンです。,,,,,,,,,,,,,,,,,,,,,,,,,,,,,,,,,,,,0,1,0,,1,,9800,9800,,0,,,,,,,,,,,,,,,"2,5",,"1706,1707,1715,1719,1726,1728",,"5,4,3,2,1",,,,
,,,,1,FA21072（グリーン）,1,,,,,,,形状記憶付2倍ヒダオーダーメイドカーテンです。,,形状記憶付2倍ヒダオーダーメイドカーテンです。,,,,,,,,,,,,,,,,,,,,,,,,,,,,,,,,,,,,0,1,0,,1,,9800,9800,,0,,,,,,,,,,,,,,,"2,5",,"1706,1707,1715,1719,1726,1728",,"5,4,3,2,1",,,,
,,,,1,FB21030（ローズ）,1,,,,,,,形状記憶付2倍ヒダオーダーメイドカーテンです。,,形状記憶付2倍ヒダオーダーメイドカーテンです。,,,,,,,,,,,,,,,,,,,,,,,,,,,,,,,,,,,,0,1,0,,1,,9800,9800,,0,,,,,,,,,,,,,,,"2,5",,"1706,1707,1715,1719,1726,1728",,"5,4,3,2,1",,,,
,,,,1,FB21031（グリーン）,1,,,,,,,形状記憶付2倍ヒダオーダーメイドカーテンです。,,形状記憶付2倍ヒダオーダーメイドカーテンです。,,,,,,,,,,,,,,,,,,,,,,,,,,,,,,,,,,,,0,1,0,,1,,9800,9800,,0,,,,,,,,,,,,,,,"2,5",,"1706,1707,1715,1719,1726,1728",,"5,4,3,2,1",,,,
,,,,1,SD27080（アイボリー）,1,,,,,,,形状記憶付2倍ヒダオーダーメイドカーテンです。,,形状記憶付2倍ヒダオーダーメイドカーテンです。,,,,,,,,,,,,,,,,,,,,,,,,,,,,,,,,,,,,0,1,0,,1,,9800,9800,,0,,,,,,,,,,,,,,,"2,5",,"1706,1707,1715,1719,1726,1728",,"5,4,3,2,1",,,,
,,,,1,SD27081（グリーン）,1,,,,,,,形状記憶付2倍ヒダオーダーメイドカーテンです。,,形状記憶付2倍ヒダオーダーメイドカーテンです。,,,,,,,,,,,,,,,,,,,,,,,,,,,,,,,,,,,,0,1,0,,1,,9800,9800,,0,,,,,,,,,,,,,,,"2,5",,"1706,1707,1715,1719,1726,1728",,"5,4,3,2,1",,,,
,,,,1,SD27082（アイボリー）,1,,,,,,,形状記憶付2倍ヒダオーダーメイドカーテンです。,,形状記憶付2倍ヒダオーダーメイドカーテンです。,,,,,,,,,,,,,,,,,,,,,,,,,,,,,,,,,,,,0,1,0,,1,,9800,9800,,0,,,,,,,,,,,,,,,"2,5",,"1706,1707,1715,1719,1726,1728",,"5,4,3,2,1",,,,
,,,,1,SD27083（グリーン）,1,,,,,,,形状記憶付2倍ヒダオーダーメイドカーテンです。,,形状記憶付2倍ヒダオーダーメイドカーテンです。,,,,,,,,,,,,,,,,,,,,,,,,,,,,,,,,,,,,0,1,0,,1,,9800,9800,,0,,,,,,,,,,,,,,,"2,5",,"1706,1707,1715,1719,1726,1728",,"5,4,3,2,1",,,,
,,,,1,FA21096（ブラウン）,1,,,,,,,遮光2級、形状記憶付2倍ヒダオーダーメイドカーテンです。,,遮光2級、形状記憶付2倍ヒダオーダーメイドカーテンです。,,,,,,,,,,,,,,,,,,,,,,,,,,,,,,,,,,,,0,1,0,,1,,9800,9800,,0,,,,,,,,,,,,,,,"2,5",,"1706,1707,1715,1719,1726,1728,1730",,"5,4,3,2,1",,,,
,,,,1,FB21043（ブラウン）,1,,,,,,,防炎、遮光1級、形状記憶付2倍ヒダオーダーメイドカーテンです。,,防炎、遮光1級、形状記憶付2倍ヒダオーダーメイドカーテンです。,,,,,,,,,,,,,,,,,,,,,,,,,,,,,,,,,,,,0,1,0,,1,,9800,9800,,0,,,,,,,,,,,,,,,"2,5",,"1706,1707,1715,1719,1726,1728,1727,1730",,"5,4,3,2,1",,,,
,,,,1,FB21047（ベージュ）,1,,,,,,,遮光3級、形状記憶付2倍ヒダオーダーメイドカーテンです。,,遮光3級、形状記憶付2倍ヒダオーダーメイドカーテンです。,,,,,,,,,,,,,,,,,,,,,,,,,,,,,,,,,,,,0,1,0,,1,,9800,9800,,0,,,,,,,,,,,,,,,"2,5",,"1706,1707,1715,1719,1726,1728,1730",,"5,4,3,2,1",,,,
,,,,1,FB21073（イエローグリーン）,1,,,,,,,遮光3級、形状記憶付2倍ヒダオーダーメイドカーテンです。,,遮光3級、形状記憶付2倍ヒダオーダーメイドカーテンです。,,,,,,,,,,,,,,,,,,,,,,,,,,,,,,,,,,,,0,1,0,,1,,9800,9800,,0,,,,,,,,,,,,,,,"2,5",,"1706,1707,1715,1719,1726,1728,1730",,"5,4,3,2,1",,,,
,,,,1,FB21074（グレー）,1,,,,,,,遮光3級、形状記憶付2倍ヒダオーダーメイドカーテンです。,,遮光3級、形状記憶付2倍ヒダオーダーメイドカーテンです。,,,,,,,,,,,,,,,,,,,,,,,,,,,,,,,,,,,,0,1,0,,1,,9800,9800,,0,,,,,,,,,,,,,,,"2,5",,"1706,1707,1715,1719,1726,1728,1730",,"5,4,3,2,1",,,,
,,,,1,FB21078（アイボリー）,1,,,,,,,遮光2級、形状記憶付2倍ヒダオーダーメイドカーテンです。,,遮光2級、形状記憶付2倍ヒダオーダーメイドカーテンです。,,,,,,,,,,,,,,,,,,,,,,,,,,,,,,,,,,,,0,1,0,,1,,9800,9800,,0,,,,,,,,,,,,,,,"2,5",,"1706,1707,1715,1719,1726,1728,1730",,"5,4,3,2,1",,,,
,,,,1,FB21079（ブラウン）,1,,,,,,,遮光2級、形状記憶付2倍ヒダオーダーメイドカーテンです。,,遮光2級、形状記憶付2倍ヒダオーダーメイドカーテンです。,,,,,,,,,,,,,,,,,,,,,,,,,,,,,,,,,,,,0,1,0,,1,,9800,9800,,0,,,,,,,,,,,,,,,"2,5",,"1706,1707,1715,1719,1726,1728,1730",,"5,4,3,2,1",,,,
,,,,1,SD27015（ベージュ）,1,,,,,,,遮光2級、形状記憶付2倍ヒダオーダーメイドカーテンです。,,遮光2級、形状記憶付2倍ヒダオーダーメイドカーテンです。,,,,,,,,,,,,,,,,,,,,,,,,,,,,,,,,,,,,0,1,0,,1,,9800,9800,,0,,,,,,,,,,,,,,,"2,5",,"1706,1707,1715,1719,1726,1728,1730",,"5,4,3,2,1",,,,
,,,,1,SD27016（グリーン）,1,,,,,,,遮光2級、形状記憶付2倍ヒダオーダーメイドカーテンです。,,遮光2級、形状記憶付2倍ヒダオーダーメイドカーテンです。,,,,,,,,,,,,,,,,,,,,,,,,,,,,,,,,,,,,0,1,0,,1,,9800,9800,,0,,,,,,,,,,,,,,,"2,5",,"1706,1707,1715,1719,1726,1728,1730",,"5,4,3,2,1",,,,
,,,,1,SD27059（イエローグリーン）,1,,,,,,,遮光2級、形状記憶付2倍ヒダオーダーメイドカーテンです。,,遮光2級、形状記憶付2倍ヒダオーダーメイドカーテンです。,,,,,,,,,,,,,,,,,,,,,,,,,,,,,,,,,,,,0,1,0,,1,,9800,9800,,0,,,,,,,,,,,,,,,"2,5",,"1706,1707,1715,1719,1726,1728,1730",,"5,4,3,2,1",,,,
,,,,1,SD27060（ブルーグリーン）,1,,,,,,,遮光2級、形状記憶付2倍ヒダオーダーメイドカーテンです。,,遮光2級、形状記憶付2倍ヒダオーダーメイドカーテンです。,,,,,,,,,,,,,,,,,,,,,,,,,,,,,,,,,,,,0,1,0,,1,,9800,9800,,0,,,,,,,,,,,,,,,"2,5",,"1706,1707,1715,1719,1726,1728,1730",,"5,4,3,2,1",,,,
,,,,1,SD27088（オレンジ）,1,,,,,,,遮光2級、形状記憶付2倍ヒダオーダーメイドカーテンです。,,遮光2級、形状記憶付2倍ヒダオーダーメイドカーテンです。,,,,,,,,,,,,,,,,,,,,,,,,,,,,,,,,,,,,0,1,0,,1,,9800,9800,,0,,,,,,,,,,,,,,,"2,5",,"1706,1707,1715,1719,1726,1728,1730",,"5,4,3,2,1",,,,
,,,,1,SD27089（グリーン）,1,,,,,,,遮光2級、形状記憶付2倍ヒダオーダーメイドカーテンです。,,遮光2級、形状記憶付2倍ヒダオーダーメイドカーテンです。,,,,,,,,,,,,,,,,,,,,,,,,,,,,,,,,,,,,0,1,0,,1,,9800,9800,,0,,,,,,,,,,,,,,,"2,5",,"1706,1707,1715,1719,1726,1728,1730",,"5,4,3,2,1",,,,
,,,,1,YB22016（ベージュ）,1,,,,,,,遮光2級、形状記憶付2倍ヒダオーダーメイドカーテンです。,,遮光2級、形状記憶付2倍ヒダオーダーメイドカーテンです。,,,,,,,,,,,,,,,,,,,,,,,,,,,,,,,,,,,,0,1,0,,1,,9800,9800,,0,,,,,,,,,,,,,,,"2,5",,"1706,1707,1715,1719,1726,1728,1730",,"5,4,3,2,1",,,,
,,,,1,YB22017（グリーン）,1,,,,,,,遮光2級、形状記憶付2倍ヒダオーダーメイドカーテンです。,,遮光2級、形状記憶付2倍ヒダオーダーメイドカーテンです。,,,,,,,,,,,,,,,,,,,,,,,,,,,,,,,,,,,,0,1,0,,1,,9800,9800,,0,,,,,,,,,,,,,,,"2,5",,"1706,1707,1715,1719,1726,1728,1730",,"5,4,3,2,1",,,,
,,,,1,IH28046（アイボリー）,1,,,,,,,遮光2級、形状記憶付2倍ヒダオーダーメイドカーテンです。,,遮光2級、形状記憶付2倍ヒダオーダーメイドカーテンです。,,,,,,,,,,,,,,,,,,,,,,,,,,,,,,,,,,,,0,1,0,,1,,9800,9800,,0,,,,,,,,,,,,,,,"2,5",,"1706,1707,1715,1719,1726,1728,1730",,"5,4,3,2,1",,,,
,,,,1,IH28047（グリーン）,1,,,,,,,遮光2級、形状記憶付2倍ヒダオーダーメイドカーテンです。,,遮光2級、形状記憶付2倍ヒダオーダーメイドカーテンです。,,,,,,,,,,,,,,,,,,,,,,,,,,,,,,,,,,,,0,1,0,,1,,9800,9800,,0,,,,,,,,,,,,,,,"2,5",,"1706,1707,1715,1719,1726,1728,1730",,"5,4,3,2,1",,,,
,,,,1,IH28048（ネイビー）,1,,,,,,,遮光1級、形状記憶付2倍ヒダオーダーメイドカーテンです。,,遮光1級、形状記憶付2倍ヒダオーダーメイドカーテンです。,,,,,,,,,,,,,,,,,,,,,,,,,,,,,,,,,,,,0,1,0,,1,,9800,9800,,0,,,,,,,,,,,,,,,"2,5",,"1706,1707,1715,1719,1726,1728,1730",,"5,4,3,2,1",,,,
,,,,1,SD27017（ワイン）,1,,,,,,,防炎、遮光1級、形状記憶付2倍ヒダオーダーメイドカーテンです。,,防炎、遮光1級、形状記憶付2倍ヒダオーダーメイドカーテンです。,,,,,,,,,,,,,,,,,,,,,,,,,,,,,,,,,,,,0,1,0,,1,,9800,9800,,0,,,,,,,,,,,,,,,"2,5",,"1706,1707,1715,1719,1726,1728,1727,1730",,"5,4,3,2,1",,,,
,,,,1,SD27018（ピンク）,1,,,,,,,防炎、遮光1級、形状記憶付2倍ヒダオーダーメイドカーテンです。,,防炎、遮光1級、形状記憶付2倍ヒダオーダーメイドカーテンです。,,,,,,,,,,,,,,,,,,,,,,,,,,,,,,,,,,,,0,1,0,,1,,9800,9800,,0,,,,,,,,,,,,,,,"2,5",,"1706,1707,1715,1719,1726,1728,1727,1730",,"5,4,3,2,1",,,,
,,,,1,SD27019（レッド）,1,,,,,,,防炎、遮光1級、形状記憶付2倍ヒダオーダーメイドカーテンです。,,防炎、遮光1級、形状記憶付2倍ヒダオーダーメイドカーテンです。,,,,,,,,,,,,,,,,,,,,,,,,,,,,,,,,,,,,0,1,0,,1,,9800,9800,,0,,,,,,,,,,,,,,,"2,5",,"1706,1707,1715,1719,1726,1728,1727,1730",,"5,4,3,2,1",,,,
,,,,1,SD27020（オレンジ）,1,,,,,,,防炎、遮光1級、形状記憶付2倍ヒダオーダーメイドカーテンです。,,防炎、遮光1級、形状記憶付2倍ヒダオーダーメイドカーテンです。,,,,,,,,,,,,,,,,,,,,,,,,,,,,,,,,,,,,0,1,0,,1,,9800,9800,,0,,,,,,,,,,,,,,,"2,5",,"1706,1707,1715,1719,1726,1728,1727,1730",,"5,4,3,2,1",,,,
,,,,1,SD27021（ライトオレンジ）,1,,,,,,,防炎、遮光1級、形状記憶付2倍ヒダオーダーメイドカーテンです。,,防炎、遮光1級、形状記憶付2倍ヒダオーダーメイドカーテンです。,,,,,,,,,,,,,,,,,,,,,,,,,,,,,,,,,,,,0,1,0,,1,,9800,9800,,0,,,,,,,,,,,,,,,"2,5",,"1706,1707,1715,1719,1726,1728,1727,1730",,"5,4,3,2,1",,,,
,,,,1,SD27022（イエロー）,1,,,,,,,防炎、遮光1級、形状記憶付2倍ヒダオーダーメイドカーテンです。,,防炎、遮光1級、形状記憶付2倍ヒダオーダーメイドカーテンです。,,,,,,,,,,,,,,,,,,,,,,,,,,,,,,,,,,,,0,1,0,,1,,9800,9800,,0,,,,,,,,,,,,,,,"2,5",,"1706,1707,1715,1719,1726,1728,1727,1730",,"5,4,3,2,1",,,,
,,,,1,SD27023（ライトイエロー）,1,,,,,,,防炎、遮光1級、形状記憶付2倍ヒダオーダーメイドカーテンです。,,防炎、遮光1級、形状記憶付2倍ヒダオーダーメイドカーテンです。,,,,,,,,,,,,,,,,,,,,,,,,,,,,,,,,,,,,0,1,0,,1,,9800,9800,,0,,,,,,,,,,,,,,,"2,5",,"1706,1707,1715,1719,1726,1728,1727,1730",,"5,4,3,2,1",,,,
,,,,1,SD27024（ライトベージュ）,1,,,,,,,防炎、遮光1級、形状記憶付2倍ヒダオーダーメイドカーテンです。,,防炎、遮光1級、形状記憶付2倍ヒダオーダーメイドカーテンです。,,,,,,,,,,,,,,,,,,,,,,,,,,,,,,,,,,,,0,1,0,,1,,9800,9800,,0,,,,,,,,,,,,,,,"2,5",,"1706,1707,1715,1719,1726,1728,1727,1730",,"5,4,3,2,1",,,,
,,,,1,SD27025（ベージュ）,1,,,,,,,防炎、遮光1級、形状記憶付2倍ヒダオーダーメイドカーテンです。,,防炎、遮光1級、形状記憶付2倍ヒダオーダーメイドカーテンです。,,,,,,,,,,,,,,,,,,,,,,,,,,,,,,,,,,,,0,1,0,,1,,9800,9800,,0,,,,,,,,,,,,,,,"2,5",,"1706,1707,1715,1719,1726,1728,1727,1730",,"5,4,3,2,1",,,,
,,,,1,SD27026（ライトブラウン）,1,,,,,,,防炎、遮光1級、形状記憶付2倍ヒダオーダーメイドカーテンです。,,防炎、遮光1級、形状記憶付2倍ヒダオーダーメイドカーテンです。,,,,,,,,,,,,,,,,,,,,,,,,,,,,,,,,,,,,0,1,0,,1,,9800,9800,,0,,,,,,,,,,,,,,,"2,5",,"1706,1707,1715,1719,1726,1728,1727,1730",,"5,4,3,2,1",,,,
,,,,1,SD27027（ブラウン）,1,,,,,,,防炎、遮光1級、形状記憶付2倍ヒダオーダーメイドカーテンです。,,防炎、遮光1級、形状記憶付2倍ヒダオーダーメイドカーテンです。,,,,,,,,,,,,,,,,,,,,,,,,,,,,,,,,,,,,0,1,0,,1,,9800,9800,,0,,,,,,,,,,,,,,,"2,5",,"1706,1707,1715,1719,1726,1728,1727,1730",,"5,4,3,2,1",,,,
,,,,1,SD27028（ダークブラウン）,1,,,,,,,防炎、遮光1級、形状記憶付2倍ヒダオーダーメイドカーテンです。,,防炎、遮光1級、形状記憶付2倍ヒダオーダーメイドカーテンです。,,,,,,,,,,,,,,,,,,,,,,,,,,,,,,,,,,,,0,1,0,,1,,9800,9800,,0,,,,,,,,,,,,,,,"2,5",,"1706,1707,1715,1719,1726,1728,1727,1730",,"5,4,3,2,1",,,,
,,,,1,SD27029（イエローグリーン）,1,,,,,,,防炎、遮光1級、形状記憶付2倍ヒダオーダーメイドカーテンです。,,防炎、遮光1級、形状記憶付2倍ヒダオーダーメイドカーテンです。,,,,,,,,,,,,,,,,,,,,,,,,,,,,,,,,,,,,0,1,0,,1,,9800,9800,,0,,,,,,,,,,,,,,,"2,5",,"1706,1707,1715,1719,1726,1728,1727,1730",,"5,4,3,2,1",,,,
,,,,1,SD27030（グリーン）,1,,,,,,,防炎、遮光1級、形状記憶付2倍ヒダオーダーメイドカーテンです。,,防炎、遮光1級、形状記憶付2倍ヒダオーダーメイドカーテンです。,,,,,,,,,,,,,,,,,,,,,,,,,,,,,,,,,,,,0,1,0,,1,,9800,9800,,0,,,,,,,,,,,,,,,"2,5",,"1706,1707,1715,1719,1726,1728,1727,1730",,"5,4,3,2,1",,,,
,,,,1,SD27031（ブルー）,1,,,,,,,防炎、遮光1級、形状記憶付2倍ヒダオーダーメイドカーテンです。,,防炎、遮光1級、形状記憶付2倍ヒダオーダーメイドカーテンです。,,,,,,,,,,,,,,,,,,,,,,,,,,,,,,,,,,,,0,1,0,,1,,9800,9800,,0,,,,,,,,,,,,,,,"2,5",,"1706,1707,1715,1719,1726,1728,1727,1730",,"5,4,3,2,1",,,,
,,,,1,SD27032（ネイビー）,1,,,,,,,防炎、遮光1級、形状記憶付2倍ヒダオーダーメイドカーテンです。,,防炎、遮光1級、形状記憶付2倍ヒダオーダーメイドカーテンです。,,,,,,,,,,,,,,,,,,,,,,,,,,,,,,,,,,,,0,1,0,,1,,9800,9800,,0,,,,,,,,,,,,,,,"2,5",,"1706,1707,1715,1719,1726,1728,1727,1730",,"5,4,3,2,1",,,,
,,,,1,SD27033（ダークグレー）,1,,,,,,,防炎、遮光1級、形状記憶付2倍ヒダオーダーメイドカーテンです。,,防炎、遮光1級、形状記憶付2倍ヒダオーダーメイドカーテンです。,,,,,,,,,,,,,,,,,,,,,,,,,,,,,,,,,,,,0,1,0,,1,,9800,9800,,0,,,,,,,,,,,,,,,"2,5",,"1706,1707,1715,1719,1726,1728,1727,1730",,"5,4,3,2,1",,,,
,,,,1,SD27066（ピンク）,1,,,,,,,遮光2級、形状記憶付2倍ヒダオーダーメイドカーテンです。,,遮光2級、形状記憶付2倍ヒダオーダーメイドカーテンです。,,,,,,,,,,,,,,,,,,,,,,,,,,,,,,,,,,,,0,1,0,,1,,9800,9800,,0,,,,,,,,,,,,,,,"2,5",,"1706,1707,1715,1719,1726,1728,1730",,"5,4,3,2,1",,,,
,,,,1,SD27067（ブラウン）,1,,,,,,,遮光2級、形状記憶付2倍ヒダオーダーメイドカーテンです。,,遮光2級、形状記憶付2倍ヒダオーダーメイドカーテンです。,,,,,,,,,,,,,,,,,,,,,,,,,,,,,,,,,,,,0,1,0,,1,,9800,9800,,0,,,,,,,,,,,,,,,"2,5",,"1706,1707,1715,1719,1726,1728,1730",,"5,4,3,2,1",,,,
,,,,1,SD27068（ベージュ）,1,,,,,,,遮光3級、形状記憶付2倍ヒダオーダーメイドカーテンです。,,遮光3級、形状記憶付2倍ヒダオーダーメイドカーテンです。,,,,,,,,,,,,,,,,,,,,,,,,,,,,,,,,,,,,0,1,0,,1,,9800,9800,,0,,,,,,,,,,,,,,,"2,5",,"1706,1707,1715,1719,1726,1728,1730",,"5,4,3,2,1",,,,
,,,,1,SD27069（アイボリー）,1,,,,,,,遮光3級、形状記憶付2倍ヒダオーダーメイドカーテンです。,,遮光3級、形状記憶付2倍ヒダオーダーメイドカーテンです。,,,,,,,,,,,,,,,,,,,,,,,,,,,,,,,,,,,,0,1,0,,1,,9800,9800,,0,,,,,,,,,,,,,,,"2,5",,"1706,1707,1715,1719,1726,1728,1730",,"5,4,3,2,1",,,,
,,,,1,SD27070（グリーン）,1,,,,,,,遮光2級、形状記憶付2倍ヒダオーダーメイドカーテンです。,,遮光2級、形状記憶付2倍ヒダオーダーメイドカーテンです。,,,,,,,,,,,,,,,,,,,,,,,,,,,,,,,,,,,,0,1,0,,1,,9800,9800,,0,,,,,,,,,,,,,,,"2,5",,"1706,1707,1715,1719,1726,1728,1730",,"5,4,3,2,1",,,,
,,,,1,SD27071（グレー）,1,,,,,,,遮光2級、形状記憶付2倍ヒダオーダーメイドカーテンです。,,遮光2級、形状記憶付2倍ヒダオーダーメイドカーテンです。,,,,,,,,,,,,,,,,,,,,,,,,,,,,,,,,,,,,0,1,0,,1,,9800,9800,,0,,,,,,,,,,,,,,,"2,5",,"1706,1707,1715,1719,1726,1728,1730",,"5,4,3,2,1",,,,
,,,,1,FB21059（ベージュ）,1,,,,,,,遮光2級、形状記憶付2倍ヒダオーダーメイドカーテンです。,,遮光2級、形状記憶付2倍ヒダオーダーメイドカーテンです。,,,,,,,,,,,,,,,,,,,,,,,,,,,,,,,,,,,,0,1,0,,1,,9800,9800,,0,,,,,,,,,,,,,,,"2,5",,"1706,1707,1715,1719,1726,1728,1730",,"5,4,3,2,1",,,,
,,,,1,FB21060（ブラウン）,1,,,,,,,遮光2級、形状記憶付2倍ヒダオーダーメイドカーテンです。,,遮光2級、形状記憶付2倍ヒダオーダーメイドカーテンです。,,,,,,,,,,,,,,,,,,,,,,,,,,,,,,,,,,,,0,1,0,,1,,9800,9800,,0,,,,,,,,,,,,,,,"2,5",,"1706,1707,1715,1719,1726,1728,1730",,"5,4,3,2,1",,,,
,,,,1,FB21061（ネイビー）,1,,,,,,,遮光2級、形状記憶付2倍ヒダオーダーメイドカーテンです。,,遮光2級、形状記憶付2倍ヒダオーダーメイドカーテンです。,,,,,,,,,,,,,,,,,,,,,,,,,,,,,,,,,,,,0,1,0,,1,,9800,9800,,0,,,,,,,,,,,,,,,"2,5",,"1706,1707,1715,1719,1726,1728,1730",,"5,4,3,2,1",,,,
,,,,1,SC27099（アイボリー）,1,,,,,,,形状記憶付2倍ヒダオーダーメイドカーテンです。,,形状記憶付2倍ヒダオーダーメイドカーテンです。,,,,,,,,,,,,,,,,,,,,,,,,,,,,,,,,,,,,0,1,0,,1,,9800,9800,,0,,,,,,,,,,,,,,,"2,5",,"1706,1707,1715,1719,1726,1728",,"5,4,3,2,1",,,,
,,,,1,SD27001（ネイビー）,1,,,,,,,形状記憶付2倍ヒダオーダーメイドカーテンです。,,形状記憶付2倍ヒダオーダーメイドカーテンです。,,,,,,,,,,,,,,,,,,,,,,,,,,,,,,,,,,,,0,1,0,,1,,9800,9800,,0,,,,,,,,,,,,,,,"2,5",,"1706,1707,1715,1719,1726,1728",,"5,4,3,2,1",,,,
,,,,1,SD27004（ブラウン）,1,,,,,,,形状記憶付2倍ヒダオーダーメイドカーテンです。,,形状記憶付2倍ヒダオーダーメイドカーテンです。,,,,,,,,,,,,,,,,,,,,,,,,,,,,,,,,,,,,0,1,0,,1,,9800,9800,,0,,,,,,,,,,,,,,,"2,5",,"1706,1707,1715,1719,1726,1728",,"5,4,3,2,1",,,,
,,,,1,SD27048（アイボリー）,1,,,,,,,遮光3級、形状記憶付2倍ヒダオーダーメイドカーテンです。,,遮光3級、形状記憶付2倍ヒダオーダーメイドカーテンです。,,,,,,,,,,,,,,,,,,,,,,,,,,,,,,,,,,,,0,1,0,,1,,9800,9800,,0,,,,,,,,,,,,,,,"2,5",,"1706,1707,1715,1719,1726,1728,1730",,"5,4,3,2,1",,,,
,,,,1,SD27049（ブラウン）,1,,,,,,,遮光2級、形状記憶付2倍ヒダオーダーメイドカーテンです。,,遮光2級、形状記憶付2倍ヒダオーダーメイドカーテンです。,,,,,,,,,,,,,,,,,,,,,,,,,,,,,,,,,,,,0,1,0,,1,,9800,9800,,0,,,,,,,,,,,,,,,"2,5",,"1706,1707,1715,1719,1726,1728,1730",,"5,4,3,2,1",,,,
,,,,1,SD27055（ブルー）,1,,,,,,,遮光2級、形状記憶付2倍ヒダオーダーメイドカーテンです。,,遮光2級、形状記憶付2倍ヒダオーダーメイドカーテンです。,,,,,,,,,,,,,,,,,,,,,,,,,,,,,,,,,,,,0,1,0,,1,,9800,9800,,0,,,,,,,,,,,,,,,"2,5",,"1706,1707,1715,1719,1726,1728,1730",,"5,4,3,2,1",,,,
,,,,1,SD27056（ブラック）,1,,,,,,,遮光2級、形状記憶付2倍ヒダオーダーメイドカーテンです。,,遮光2級、形状記憶付2倍ヒダオーダーメイドカーテンです。,,,,,,,,,,,,,,,,,,,,,,,,,,,,,,,,,,,,0,1,0,,1,,9800,9800,,0,,,,,,,,,,,,,,,"2,5",,"1706,1707,1715,1719,1726,1728,1730",,"5,4,3,2,1",,,,
,,,,1,SD27077（ベージュ）,1,,,,,,,遮光3級、形状記憶付2倍ヒダオーダーメイドカーテンです。,,遮光3級、形状記憶付2倍ヒダオーダーメイドカーテンです。,,,,,,,,,,,,,,,,,,,,,,,,,,,,,,,,,,,,0,1,0,,1,,9800,9800,,0,,,,,,,,,,,,,,,"2,5",,"1706,1707,1715,1719,1726,1728,1730",,"5,4,3,2,1",,,,
,,,,1,SD27078（ブラウン）,1,,,,,,,遮光2級、形状記憶付2倍ヒダオーダーメイドカーテンです。,,遮光2級、形状記憶付2倍ヒダオーダーメイドカーテンです。,,,,,,,,,,,,,,,,,,,,,,,,,,,,,,,,,,,,0,1,0,,1,,9800,9800,,0,,,,,,,,,,,,,,,"2,5",,"1706,1707,1715,1719,1726,1728,1730",,"5,4,3,2,1",,,,
,,,,1,SD27079（ネイビー）,1,,,,,,,遮光2級、形状記憶付2倍ヒダオーダーメイドカーテンです。,,遮光2級、形状記憶付2倍ヒダオーダーメイドカーテンです。,,,,,,,,,,,,,,,,,,,,,,,,,,,,,,,,,,,,0,1,0,,1,,9800,9800,,0,,,,,,,,,,,,,,,"2,5",,"1706,1707,1715,1719,1726,1728,1730",,"5,4,3,2,1",,,,
,,,,1,IH28049（ベージュ）,1,,,,,,,遮光2級、形状記憶付2倍ヒダオーダーメイドカーテンです。,,遮光2級、形状記憶付2倍ヒダオーダーメイドカーテンです。,,,,,,,,,,,,,,,,,,,,,,,,,,,,,,,,,,,,0,1,0,,1,,9800,9800,,0,,,,,,,,,,,,,,,"2,5",,"1706,1707,1715,1719,1726,1728,1730",,"5,4,3,2,1",,,,
,,,,1,IH28050（ネイビー）,1,,,,,,,遮光2級、形状記憶付2倍ヒダオーダーメイドカーテンです。,,遮光2級、形状記憶付2倍ヒダオーダーメイドカーテンです。,,,,,,,,,,,,,,,,,,,,,,,,,,,,,,,,,,,,0,1,0,,1,,9800,9800,,0,,,,,,,,,,,,,,,"2,5",,"1706,1707,1715,1719,1726,1728,1730",,"5,4,3,2,1",,,,
,,,,1,CO74123（ピンク）,1,,,,,,,防炎、遮熱・断熱、遮光2級、形状記憶付2倍ヒダオーダーメイドカーテンです。,,防炎、遮熱・断熱、遮光2級、形状記憶付2倍ヒダオーダーメイドカーテンです。,,,,,,,,,,,,,,,,,,,,,,,,,,,,,,,,,,,,0,1,0,,1,,14800,14800,,0,,,,,,,,,,,,,,,"2,5",,"1706,1707,1715,1719,1726,1728,1727,1729,1730",,"5,4,3,2,1",,,,
,,,,1,CO74124（グレー）,1,,,,,,,防炎、遮熱・断熱、遮光2級、形状記憶付2倍ヒダオーダーメイドカーテンです。,,防炎、遮熱・断熱、遮光2級、形状記憶付2倍ヒダオーダーメイドカーテンです。,,,,,,,,,,,,,,,,,,,,,,,,,,,,,,,,,,,,0,1,0,,1,,14800,14800,,0,,,,,,,,,,,,,,,"2,5",,"1706,1707,1715,1719,1726,1728,1727,1729,1730",,"5,4,3,2,1",,,,
,,,,1,FA21101（ベージュ）,1,,,,,,,形状記憶付2倍ヒダオーダーメイドカーテンです。,,形状記憶付2倍ヒダオーダーメイドカーテンです。,,,,,,,,,,,,,,,,,,,,,,,,,,,,,,,,,,,,0,1,0,,1,,14800,14800,,0,,,,,,,,,,,,,,,"2,5",,"1706,1707,1715,1719,1726,1728",,"5,4,3,2,1",,,,
,,,,1,FA21102（グリーン）,1,,,,,,,形状記憶付2倍ヒダオーダーメイドカーテンです。,,形状記憶付2倍ヒダオーダーメイドカーテンです。,,,,,,,,,,,,,,,,,,,,,,,,,,,,,,,,,,,,0,1,0,,1,,14800,14800,,0,,,,,,,,,,,,,,,"2,5",,"1706,1707,1715,1719,1726,1728",,"5,4,3,2,1",,,,
,,,,1,SD27132（オレンジ）,1,,,,,,,防炎、形状記憶付2倍ヒダオーダーメイドカーテンです。,,防炎、形状記憶付2倍ヒダオーダーメイドカーテンです。,,,,,,,,,,,,,,,,,,,,,,,,,,,,,,,,,,,,0,1,0,,1,,14800,14800,,0,,,,,,,,,,,,,,,"2,5",,"1706,1707,1715,1719,1726,1728,1727",,"5,4,3,2,1",,,,
,,,,1,SD27133（アイボリー）,1,,,,,,,防炎、形状記憶付2倍ヒダオーダーメイドカーテンです。,,防炎、形状記憶付2倍ヒダオーダーメイドカーテンです。,,,,,,,,,,,,,,,,,,,,,,,,,,,,,,,,,,,,0,1,0,,1,,14800,14800,,0,,,,,,,,,,,,,,,"2,5",,"1706,1707,1715,1719,1726,1728,1727",,"5,4,3,2,1",,,,
,,,,1,SD27134（グリーン）,1,,,,,,,防炎、形状記憶付2倍ヒダオーダーメイドカーテンです。,,防炎、形状記憶付2倍ヒダオーダーメイドカーテンです。,,,,,,,,,,,,,,,,,,,,,,,,,,,,,,,,,,,,0,1,0,,1,,14800,14800,,0,,,,,,,,,,,,,,,"2,5",,"1706,1707,1715,1719,1726,1728,1727",,"5,4,3,2,1",,,,
,,,,1,SD27141（ブラウン）,1,,,,,,,防炎、遮光2級、形状記憶付2倍ヒダオーダーメイドカーテンです。,,防炎、遮光2級、形状記憶付2倍ヒダオーダーメイドカーテンです。,,,,,,,,,,,,,,,,,,,,,,,,,,,,,,,,,,,,0,1,0,,1,,14800,14800,,0,,,,,,,,,,,,,,,"2,5",,"1706,1707,1715,1719,1726,1728,1727,1730",,"5,4,3,2,1",,,,
,,,,1,SD27142（イエローグリーン）,1,,,,,,,防炎、遮光2級、形状記憶付2倍ヒダオーダーメイドカーテンです。,,防炎、遮光2級、形状記憶付2倍ヒダオーダーメイドカーテンです。,,,,,,,,,,,,,,,,,,,,,,,,,,,,,,,,,,,,0,1,0,,1,,14800,14800,,0,,,,,,,,,,,,,,,"2,5",,"1706,1707,1715,1719,1726,1728,1727,1730",,"5,4,3,2,1",,,,
,,,,1,SD27143（ブルーグリーン）,1,,,,,,,防炎、遮光2級、形状記憶付2倍ヒダオーダーメイドカーテンです。,,防炎、遮光2級、形状記憶付2倍ヒダオーダーメイドカーテンです。,,,,,,,,,,,,,,,,,,,,,,,,,,,,,,,,,,,,0,1,0,,1,,14800,14800,,0,,,,,,,,,,,,,,,"2,5",,"1706,1707,1715,1719,1726,1728,1727,1730",,"5,4,3,2,1",,,,
,,,,1,SD27144（パープル）,1,,,,,,,防炎、遮光2級、形状記憶付2倍ヒダオーダーメイドカーテンです。,,防炎、遮光2級、形状記憶付2倍ヒダオーダーメイドカーテンです。,,,,,,,,,,,,,,,,,,,,,,,,,,,,,,,,,,,,0,1,0,,1,,14800,14800,,0,,,,,,,,,,,,,,,"2,5",,"1706,1707,1715,1719,1726,1728,1727,1730",,"5,4,3,2,1",,,,
,,,,1,SD27145（グリーン）,1,,,,,,,防炎、遮光2級、形状記憶付2倍ヒダオーダーメイドカーテンです。,,防炎、遮光2級、形状記憶付2倍ヒダオーダーメイドカーテンです。,,,,,,,,,,,,,,,,,,,,,,,,,,,,,,,,,,,,0,1,0,,1,,14800,14800,,0,,,,,,,,,,,,,,,"2,5",,"1706,1707,1715,1719,1726,1728,1727,1730",,"5,4,3,2,1",,,,
,,,,1,SD27157（オレンジ）,1,,,,,,,防炎、遮光2級、形状記憶付2倍ヒダオーダーメイドカーテンです。,,防炎、遮光2級、形状記憶付2倍ヒダオーダーメイドカーテンです。,,,,,,,,,,,,,,,,,,,,,,,,,,,,,,,,,,,,0,1,0,,1,,14800,14800,,0,,,,,,,,,,,,,,,"2,5",,"1706,1707,1715,1719,1726,1728,1727,1730",,"5,4,3,2,1",,,,
,,,,1,SD27158（アイボリー）,1,,,,,,,防炎、遮光2級、形状記憶付2倍ヒダオーダーメイドカーテンです。,,防炎、遮光2級、形状記憶付2倍ヒダオーダーメイドカーテンです。,,,,,,,,,,,,,,,,,,,,,,,,,,,,,,,,,,,,0,1,0,,1,,14800,14800,,0,,,,,,,,,,,,,,,"2,5",,"1706,1707,1715,1719,1726,1728,1727,1730",,"5,4,3,2,1",,,,
,,,,1,SD27171（イエロー）,1,,,,,,,形状記憶付2倍ヒダオーダーメイドカーテンです。,,形状記憶付2倍ヒダオーダーメイドカーテンです。,,,,,,,,,,,,,,,,,,,,,,,,,,,,,,,,,,,,0,1,0,,1,,14800,14800,,0,,,,,,,,,,,,,,,"2,5",,"1706,1707,1715,1719,1726,1728",,"5,4,3,2,1",,,,
,,,,1,SD27172（グレー）,1,,,,,,,形状記憶付2倍ヒダオーダーメイドカーテンです。,,形状記憶付2倍ヒダオーダーメイドカーテンです。,,,,,,,,,,,,,,,,,,,,,,,,,,,,,,,,,,,,0,1,0,,1,,14800,14800,,0,,,,,,,,,,,,,,,"2,5",,"1706,1707,1715,1719,1726,1728",,"5,4,3,2,1",,,,
,,,,1,SD27173（アイボリー）,1,,,,,,,遮光2級、形状記憶付2倍ヒダオーダーメイドカーテンです。,,遮光2級、形状記憶付2倍ヒダオーダーメイドカーテンです。,,,,,,,,,,,,,,,,,,,,,,,,,,,,,,,,,,,,0,1,0,,1,,14800,14800,,0,,,,,,,,,,,,,,,"2,5",,"1706,1707,1715,1719,1726,1728,1730",,"5,4,3,2,1",,,,
,,,,1,SD27174（ピンク）,1,,,,,,,遮光2級、形状記憶付2倍ヒダオーダーメイドカーテンです。,,遮光2級、形状記憶付2倍ヒダオーダーメイドカーテンです。,,,,,,,,,,,,,,,,,,,,,,,,,,,,,,,,,,,,0,1,0,,1,,14800,14800,,0,,,,,,,,,,,,,,,"2,5",,"1706,1707,1715,1719,1726,1728,1730",,"5,4,3,2,1",,,,
,,,,1,SU25103（グリーン）,1,,,,,,,遮光2級、形状記憶付2倍ヒダオーダーメイドカーテンです。,,遮光2級、形状記憶付2倍ヒダオーダーメイドカーテンです。,,,,,,,,,,,,,,,,,,,,,,,,,,,,,,,,,,,,0,1,0,,1,,14800,14800,,0,,,,,,,,,,,,,,,"2,5",,"1706,1707,1715,1719,1726,1728,1730",,"5,4,3,2,1",,,,
,,,,1,SU25104（ブラック）,1,,,,,,,遮光2級、形状記憶付2倍ヒダオーダーメイドカーテンです。,,遮光2級、形状記憶付2倍ヒダオーダーメイドカーテンです。,,,,,,,,,,,,,,,,,,,,,,,,,,,,,,,,,,,,0,1,0,,1,,14800,14800,,0,,,,,,,,,,,,,,,"2,5",,"1706,1707,1715,1719,1726,1728,1730",,"5,4,3,2,1",,,,
,,,,1,SU25107（ピンク）,1,,,,,,,遮光2級、形状記憶付2倍ヒダオーダーメイドカーテンです。,,遮光2級、形状記憶付2倍ヒダオーダーメイドカーテンです。,,,,,,,,,,,,,,,,,,,,,,,,,,,,,,,,,,,,0,1,0,,1,,14800,14800,,0,,,,,,,,,,,,,,,"2,5",,"1706,1707,1715,1719,1726,1728,1730",,"5,4,3,2,1",,,,
,,,,1,SU25108（ブルーグリーン）,1,,,,,,,遮光2級、形状記憶付2倍ヒダオーダーメイドカーテンです。,,遮光2級、形状記憶付2倍ヒダオーダーメイドカーテンです。,,,,,,,,,,,,,,,,,,,,,,,,,,,,,,,,,,,,0,1,0,,1,,14800,14800,,0,,,,,,,,,,,,,,,"2,5",,"1706,1707,1715,1719,1726,1728,1730",,"5,4,3,2,1",,,,
,,,,1,SU25154（パープル）,1,,,,,,,遮光2級、形状記憶付2倍ヒダオーダーメイドカーテンです。,,遮光2級、形状記憶付2倍ヒダオーダーメイドカーテンです。,,,,,,,,,,,,,,,,,,,,,,,,,,,,,,,,,,,,0,1,0,,1,,14800,14800,,0,,,,,,,,,,,,,,,"2,5",,"1706,1707,1715,1719,1726,1728,1730",,"5,4,3,2,1",,,,
,,,,1,SU25155（ブルー）,1,,,,,,,遮光2級、形状記憶付2倍ヒダオーダーメイドカーテンです。,,遮光2級、形状記憶付2倍ヒダオーダーメイドカーテンです。,,,,,,,,,,,,,,,,,,,,,,,,,,,,,,,,,,,,0,1,0,,1,,14800,14800,,0,,,,,,,,,,,,,,,"2,5",,"1706,1707,1715,1719,1726,1728,1730",,"5,4,3,2,1",,,,
,,,,1,SU25156（ブラウン）,1,,,,,,,遮光2級、形状記憶付2倍ヒダオーダーメイドカーテンです。,,遮光2級、形状記憶付2倍ヒダオーダーメイドカーテンです。,,,,,,,,,,,,,,,,,,,,,,,,,,,,,,,,,,,,0,1,0,,1,,14800,14800,,0,,,,,,,,,,,,,,,"2,5",,"1706,1707,1715,1719,1726,1728,1730",,"5,4,3,2,1",,,,
,,,,1,SU25157（グリーン）,1,,,,,,,遮光2級、形状記憶付2倍ヒダオーダーメイドカーテンです。,,遮光2級、形状記憶付2倍ヒダオーダーメイドカーテンです。,,,,,,,,,,,,,,,,,,,,,,,,,,,,,,,,,,,,0,1,0,,1,,14800,14800,,0,,,,,,,,,,,,,,,"2,5",,"1706,1707,1715,1719,1726,1728,1730",,"5,4,3,2,1",,,,
,,,,1,SU25158（イエロー）,1,,,,,,,遮光2級、形状記憶付2倍ヒダオーダーメイドカーテンです。,,遮光2級、形状記憶付2倍ヒダオーダーメイドカーテンです。,,,,,,,,,,,,,,,,,,,,,,,,,,,,,,,,,,,,0,1,0,,1,,14800,14800,,0,,,,,,,,,,,,,,,"2,5",,"1706,1707,1715,1719,1726,1728,1730",,"5,4,3,2,1",,,,
,,,,1,SU25159（パープル）,1,,,,,,,遮光2級、形状記憶付2倍ヒダオーダーメイドカーテンです。,,遮光2級、形状記憶付2倍ヒダオーダーメイドカーテンです。,,,,,,,,,,,,,,,,,,,,,,,,,,,,,,,,,,,,0,1,0,,1,,14800,14800,,0,,,,,,,,,,,,,,,"2,5",,"1706,1707,1715,1719,1726,1728,1730",,"5,4,3,2,1",,,,
,,,,1,CO74103（アイボリー）,1,,,,,,,遮光1級、形状記憶付2倍ヒダオーダーメイドカーテンです。,,遮光1級、形状記憶付2倍ヒダオーダーメイドカーテンです。,,,,,,,,,,,,,,,,,,,,,,,,,,,,,,,,,,,,0,1,0,,1,,14800,14800,,0,,,,,,,,,,,,,,,"2,5",,"1706,1707,1715,1719,1726,1728,1730",,"5,4,3,2,1",,,,
,,,,1,CO74104（ブラウン）,1,,,,,,,遮光1級、形状記憶付2倍ヒダオーダーメイドカーテンです。,,遮光1級、形状記憶付2倍ヒダオーダーメイドカーテンです。,,,,,,,,,,,,,,,,,,,,,,,,,,,,,,,,,,,,0,1,0,,1,,14800,14800,,0,,,,,,,,,,,,,,,"2,5",,"1706,1707,1715,1719,1726,1728,1730",,"5,4,3,2,1",,,,
,,,,1,CO74125（オレンジ）,1,,,,,,,防炎、遮熱・断熱、遮光2級、形状記憶付2倍ヒダオーダーメイドカーテンです。,,防炎、遮熱・断熱、遮光2級、形状記憶付2倍ヒダオーダーメイドカーテンです。,,,,,,,,,,,,,,,,,,,,,,,,,,,,,,,,,,,,0,1,0,,1,,14800,14800,,0,,,,,,,,,,,,,,,"2,5",,"1706,1707,1715,1719,1726,1728,1727,1729,1730",,"5,4,3,2,1",,,,
,,,,1,CO74126（イエロー）,1,,,,,,,防炎、遮熱・断熱、遮光2級、形状記憶付2倍ヒダオーダーメイドカーテンです。,,防炎、遮熱・断熱、遮光2級、形状記憶付2倍ヒダオーダーメイドカーテンです。,,,,,,,,,,,,,,,,,,,,,,,,,,,,,,,,,,,,0,1,0,,1,,14800,14800,,0,,,,,,,,,,,,,,,"2,5",,"1706,1707,1715,1719,1726,1728,1727,1729,1730",,"5,4,3,2,1",,,,
,,,,1,CO74129（ベージュ）,1,,,,,,,防炎、遮光2級、形状記憶付2倍ヒダオーダーメイドカーテンです。,,防炎、遮光2級、形状記憶付2倍ヒダオーダーメイドカーテンです。,,,,,,,,,,,,,,,,,,,,,,,,,,,,,,,,,,,,0,1,0,,1,,14800,14800,,0,,,,,,,,,,,,,,,"2,5",,"1706,1707,1715,1719,1726,1728,1727,1730",,"5,4,3,2,1",,,,
,,,,1,CO74130（グリーン）,1,,,,,,,防炎、遮光2級、形状記憶付2倍ヒダオーダーメイドカーテンです。,,防炎、遮光2級、形状記憶付2倍ヒダオーダーメイドカーテンです。,,,,,,,,,,,,,,,,,,,,,,,,,,,,,,,,,,,,0,1,0,,1,,14800,14800,,0,,,,,,,,,,,,,,,"2,5",,"1706,1707,1715,1719,1726,1728,1727,1730",,"5,4,3,2,1",,,,
,,,,1,CO74131（ベージュ）,1,,,,,,,防炎、遮光3級、形状記憶付2倍ヒダオーダーメイドカーテンです。,,防炎、遮光3級、形状記憶付2倍ヒダオーダーメイドカーテンです。,,,,,,,,,,,,,,,,,,,,,,,,,,,,,,,,,,,,0,1,0,,1,,14800,14800,,0,,,,,,,,,,,,,,,"2,5",,"1706,1707,1715,1719,1726,1728,1727,1730",,"5,4,3,2,1",,,,
,,,,1,CO74132（ブルーグリーン）,1,,,,,,,防炎、遮光2級、形状記憶付2倍ヒダオーダーメイドカーテンです。,,防炎、遮光2級、形状記憶付2倍ヒダオーダーメイドカーテンです。,,,,,,,,,,,,,,,,,,,,,,,,,,,,,,,,,,,,0,1,0,,1,,14800,14800,,0,,,,,,,,,,,,,,,"2,5",,"1706,1707,1715,1719,1726,1728,1727,1730",,"5,4,3,2,1",,,,
,,,,1,CO74133（グレー）,1,,,,,,,防炎、遮光2級、形状記憶付2倍ヒダオーダーメイドカーテンです。,,防炎、遮光2級、形状記憶付2倍ヒダオーダーメイドカーテンです。,,,,,,,,,,,,,,,,,,,,,,,,,,,,,,,,,,,,0,1,0,,1,,14800,14800,,0,,,,,,,,,,,,,,,"2,5",,"1706,1707,1715,1719,1726,1728,1727,1730",,"5,4,3,2,1",,,,
,,,,1,CO74134（ブルー）,1,,,,,,,防炎、遮光1級、形状記憶付2倍ヒダオーダーメイドカーテンです。,,防炎、遮光1級、形状記憶付2倍ヒダオーダーメイドカーテンです。,,,,,,,,,,,,,,,,,,,,,,,,,,,,,,,,,,,,0,1,0,,1,,14800,14800,,0,,,,,,,,,,,,,,,"2,5",,"1706,1707,1715,1719,1726,1728,1727,1730",,"5,4,3,2,1",,,,
,,,,1,CO74135（イエロー）,1,,,,,,,防炎、遮光3級、形状記憶付2倍ヒダオーダーメイドカーテンです。,,防炎、遮光3級、形状記憶付2倍ヒダオーダーメイドカーテンです。,,,,,,,,,,,,,,,,,,,,,,,,,,,,,,,,,,,,0,1,0,,1,,14800,14800,,0,,,,,,,,,,,,,,,"2,5",,"1706,1707,1715,1719,1726,1728,1727,1730",,"5,4,3,2,1",,,,
,,,,1,CO74136（ブラウン）,1,,,,,,,防炎、遮光1級、形状記憶付2倍ヒダオーダーメイドカーテンです。,,防炎、遮光1級、形状記憶付2倍ヒダオーダーメイドカーテンです。,,,,,,,,,,,,,,,,,,,,,,,,,,,,,,,,,,,,0,1,0,,1,,14800,14800,,0,,,,,,,,,,,,,,,"2,5",,"1706,1707,1715,1719,1726,1728,1727,1730",,"5,4,3,2,1",,,,
,,,,1,FA21162（オレンジ）,1,,,,,,,遮光1級、形状記憶付2倍ヒダオーダーメイドカーテンです。,,遮光1級、形状記憶付2倍ヒダオーダーメイドカーテンです。,,,,,,,,,,,,,,,,,,,,,,,,,,,,,,,,,,,,0,1,0,,1,,14800,14800,,0,,,,,,,,,,,,,,,"2,5",,"1706,1707,1715,1719,1726,1728,1730",,"5,4,3,2,1",,,,
,,,,1,FA21163（グリーン）,1,,,,,,,遮光1級、形状記憶付2倍ヒダオーダーメイドカーテンです。,,遮光1級、形状記憶付2倍ヒダオーダーメイドカーテンです。,,,,,,,,,,,,,,,,,,,,,,,,,,,,,,,,,,,,0,1,0,,1,,14800,14800,,0,,,,,,,,,,,,,,,"2,5",,"1706,1707,1715,1719,1726,1728,1730",,"5,4,3,2,1",,,,
,,,,1,IH28126（アイボリー）,1,,,,,,,遮光3級、形状記憶付2倍ヒダオーダーメイドカーテンです。,,遮光3級、形状記憶付2倍ヒダオーダーメイドカーテンです。,,,,,,,,,,,,,,,,,,,,,,,,,,,,,,,,,,,,0,1,0,,1,,14800,14800,,0,,,,,,,,,,,,,,,"2,5",,"1706,1707,1715,1719,1726,1728,1730",,"5,4,3,2,1",,,,
,,,,1,IH28127（ブラウン）,1,,,,,,,遮光2級、形状記憶付2倍ヒダオーダーメイドカーテンです。,,遮光2級、形状記憶付2倍ヒダオーダーメイドカーテンです。,,,,,,,,,,,,,,,,,,,,,,,,,,,,,,,,,,,,0,1,0,,1,,14800,14800,,0,,,,,,,,,,,,,,,"2,5",,"1706,1707,1715,1719,1726,1728,1730",,"5,4,3,2,1",,,,
,,,,1,SD27139（アイボリー）,1,,,,,,,遮熱・断熱、遮光2級、形状記憶付2倍ヒダオーダーメイドカーテンです。,,遮熱・断熱、遮光2級、形状記憶付2倍ヒダオーダーメイドカーテンです。,,,,,,,,,,,,,,,,,,,,,,,,,,,,,,,,,,,,0,1,0,,1,,14800,14800,,0,,,,,,,,,,,,,,,"2,5",,"1706,1707,1715,1719,1726,1728,1729,1730",,"5,4,3,2,1",,,,
,,,,1,SD27140（グリーン）,1,,,,,,,遮熱・断熱、遮光2級、形状記憶付2倍ヒダオーダーメイドカーテンです。,,遮熱・断熱、遮光2級、形状記憶付2倍ヒダオーダーメイドカーテンです。,,,,,,,,,,,,,,,,,,,,,,,,,,,,,,,,,,,,0,1,0,,1,,14800,14800,,0,,,,,,,,,,,,,,,"2,5",,"1706,1707,1715,1719,1726,1728,1729,1730",,"5,4,3,2,1",,,,
,,,,1,SD27146（ベージュ）,1,,,,,,,防炎、遮光2級、形状記憶付2倍ヒダオーダーメイドカーテンです。,,防炎、遮光2級、形状記憶付2倍ヒダオーダーメイドカーテンです。,,,,,,,,,,,,,,,,,,,,,,,,,,,,,,,,,,,,0,1,0,,1,,14800,14800,,0,,,,,,,,,,,,,,,"2,5",,"1706,1707,1715,1719,1726,1728,1727,1730",,"5,4,3,2,1",,,,
,,,,1,SD27147（ブラウン）,1,,,,,,,防炎、遮光2級、形状記憶付2倍ヒダオーダーメイドカーテンです。,,防炎、遮光2級、形状記憶付2倍ヒダオーダーメイドカーテンです。,,,,,,,,,,,,,,,,,,,,,,,,,,,,,,,,,,,,0,1,0,,1,,14800,14800,,0,,,,,,,,,,,,,,,"2,5",,"1706,1707,1715,1719,1726,1728,1727,1730",,"5,4,3,2,1",,,,
,,,,1,SD27164（オレンジ）,1,,,,,,,防炎、遮光3級、形状記憶付2倍ヒダオーダーメイドカーテンです。,,防炎、遮光3級、形状記憶付2倍ヒダオーダーメイドカーテンです。,,,,,,,,,,,,,,,,,,,,,,,,,,,,,,,,,,,,0,1,0,,1,,14800,14800,,0,,,,,,,,,,,,,,,"2,5",,"1706,1707,1715,1719,1726,1728,1727,1730",,"5,4,3,2,1",,,,
,,,,1,SD27165（イエロー）,1,,,,,,,防炎、遮光3級、形状記憶付2倍ヒダオーダーメイドカーテンです。,,防炎、遮光3級、形状記憶付2倍ヒダオーダーメイドカーテンです。,,,,,,,,,,,,,,,,,,,,,,,,,,,,,,,,,,,,0,1,0,,1,,14800,14800,,0,,,,,,,,,,,,,,,"2,5",,"1706,1707,1715,1719,1726,1728,1727,1730",,"5,4,3,2,1",,,,
,,,,1,SD27166（ピンク）,1,,,,,,,形状記憶付2倍ヒダオーダーメイドカーテンです。,,形状記憶付2倍ヒダオーダーメイドカーテンです。,,,,,,,,,,,,,,,,,,,,,,,,,,,,,,,,,,,,0,1,0,,1,,14800,14800,,0,,,,,,,,,,,,,,,"2,5",,"1706,1707,1715,1719,1726,1728",,"5,4,3,2,1",,,,
,,,,1,SD27167（アイボリー）,1,,,,,,,形状記憶付2倍ヒダオーダーメイドカーテンです。,,形状記憶付2倍ヒダオーダーメイドカーテンです。,,,,,,,,,,,,,,,,,,,,,,,,,,,,,,,,,,,,0,1,0,,1,,14800,14800,,0,,,,,,,,,,,,,,,"2,5",,"1706,1707,1715,1719,1726,1728",,"5,4,3,2,1",,,,
,,,,1,SD27168（グレー）,1,,,,,,,形状記憶付2倍ヒダオーダーメイドカーテンです。,,形状記憶付2倍ヒダオーダーメイドカーテンです。,,,,,,,,,,,,,,,,,,,,,,,,,,,,,,,,,,,,0,1,0,,1,,14800,14800,,0,,,,,,,,,,,,,,,"2,5",,"1706,1707,1715,1719,1726,1728",,"5,4,3,2,1",,,,
,,,,1,SD27169（アイボリー）,1,,,,,,,形状記憶付2倍ヒダオーダーメイドカーテンです。,,形状記憶付2倍ヒダオーダーメイドカーテンです。,,,,,,,,,,,,,,,,,,,,,,,,,,,,,,,,,,,,0,1,0,,1,,14800,14800,,0,,,,,,,,,,,,,,,"2,5",,"1706,1707,1715,1719,1726,1728",,"5,4,3,2,1",,,,
,,,,1,SD27170（グレー）,1,,,,,,,形状記憶付2倍ヒダオーダーメイドカーテンです。,,形状記憶付2倍ヒダオーダーメイドカーテンです。,,,,,,,,,,,,,,,,,,,,,,,,,,,,,,,,,,,,0,1,0,,1,,14800,14800,,0,,,,,,,,,,,,,,,"2,5",,"1706,1707,1715,1719,1726,1728",,"5,4,3,2,1",,,,
,,,,1,SU25141（グリーン）,1,,,,,,,遮光2級、形状記憶付2倍ヒダオーダーメイドカーテンです。,,遮光2級、形状記憶付2倍ヒダオーダーメイドカーテンです。,,,,,,,,,,,,,,,,,,,,,,,,,,,,,,,,,,,,0,1,0,,1,,14800,14800,,0,,,,,,,,,,,,,,,"2,5",,"1706,1707,1715,1719,1726,1728,1730",,"5,4,3,2,1",,,,
,,,,1,YB22111（グリーン）,1,,,,,,,防炎、遮熱・断熱、遮光3級、形状記憶付2倍ヒダオーダーメイドカーテンです。,,防炎、遮熱・断熱、遮光3級、形状記憶付2倍ヒダオーダーメイドカーテンです。,,,,,,,,,,,,,,,,,,,,,,,,,,,,,,,,,,,,0,1,0,,1,,14800,14800,,0,,,,,,,,,,,,,,,"2,5",,"1706,1707,1715,1719,1726,1728,1727,1729,1730",,"5,4,3,2,1",,,,
,,,,1,YB22112（ブラウン）,1,,,,,,,防炎、遮熱・断熱、遮光2級、形状記憶付2倍ヒダオーダーメイドカーテンです。,,防炎、遮熱・断熱、遮光2級、形状記憶付2倍ヒダオーダーメイドカーテンです。,,,,,,,,,,,,,,,,,,,,,,,,,,,,,,,,,,,,0,1,0,,1,,14800,14800,,0,,,,,,,,,,,,,,,"2,5",,"1706,1707,1715,1719,1726,1728,1727,1729,1730",,"5,4,3,2,1",,,,
,,,,1,YB22116（アイボリー）,1,,,,,,,防炎、形状記憶付2倍ヒダオーダーメイドカーテンです。,,防炎、形状記憶付2倍ヒダオーダーメイドカーテンです。,,,,,,,,,,,,,,,,,,,,,,,,,,,,,,,,,,,,0,1,0,,1,,14800,14800,,0,,,,,,,,,,,,,,,"2,5",,"1706,1707,1715,1719,1726,1728,1727",,"5,4,3,2,1",,,,
,,,,1,YB22117（ベージュ）,1,,,,,,,防炎、形状記憶付2倍ヒダオーダーメイドカーテンです。,,防炎、形状記憶付2倍ヒダオーダーメイドカーテンです。,,,,,,,,,,,,,,,,,,,,,,,,,,,,,,,,,,,,0,1,0,,1,,14800,14800,,0,,,,,,,,,,,,,,,"2,5",,"1706,1707,1715,1719,1726,1728,1727",,"5,4,3,2,1",,,,
,,,,1,YB22125（オレンジ）,1,,,,,,,遮熱・断熱、遮光2級、形状記憶付2倍ヒダオーダーメイドカーテンです。,,遮熱・断熱、遮光2級、形状記憶付2倍ヒダオーダーメイドカーテンです。,,,,,,,,,,,,,,,,,,,,,,,,,,,,,,,,,,,,0,1,0,,1,,14800,14800,,0,,,,,,,,,,,,,,,"2,5",,"1706,1707,1715,1719,1726,1728,1729,1730",,"5,4,3,2,1",,,,
,,,,1,YB22126（グリーン）,1,,,,,,,遮熱・断熱、遮光2級、形状記憶付2倍ヒダオーダーメイドカーテンです。,,遮熱・断熱、遮光2級、形状記憶付2倍ヒダオーダーメイドカーテンです。,,,,,,,,,,,,,,,,,,,,,,,,,,,,,,,,,,,,0,1,0,,1,,14800,14800,,0,,,,,,,,,,,,,,,"2,5",,"1706,1707,1715,1719,1726,1728,1729,1730",,"5,4,3,2,1",,,,
,,,,1,YB22127（ベージュ）,1,,,,,,,遮光3級、形状記憶付2倍ヒダオーダーメイドカーテンです。,,遮光3級、形状記憶付2倍ヒダオーダーメイドカーテンです。,,,,,,,,,,,,,,,,,,,,,,,,,,,,,,,,,,,,0,1,0,,1,,14800,14800,,0,,,,,,,,,,,,,,,"2,5",,"1706,1707,1715,1719,1726,1728,1730",,"5,4,3,2,1",,,,
,,,,1,YB22128（グリーン）,1,,,,,,,遮光3級、形状記憶付2倍ヒダオーダーメイドカーテンです。,,遮光3級、形状記憶付2倍ヒダオーダーメイドカーテンです。,,,,,,,,,,,,,,,,,,,,,,,,,,,,,,,,,,,,0,1,0,,1,,14800,14800,,0,,,,,,,,,,,,,,,"2,5",,"1706,1707,1715,1719,1726,1728,1730",,"5,4,3,2,1",,,,
,,,,1,CO74118（アイボリー）,1,,,,,,,防炎、遮熱・断熱、遮光2級、形状記憶付2倍ヒダオーダーメイドカーテンです。,,防炎、遮熱・断熱、遮光2級、形状記憶付2倍ヒダオーダーメイドカーテンです。,,,,,,,,,,,,,,,,,,,,,,,,,,,,,,,,,,,,0,1,0,,1,,14800,14800,,0,,,,,,,,,,,,,,,"2,5",,"1706,1707,1715,1719,1726,1728,1727,1729,1730",,"5,4,3,2,1",,,,
,,,,1,CO74119（ベージュ）,1,,,,,,,防炎、遮熱・断熱、遮光2級、形状記憶付2倍ヒダオーダーメイドカーテンです。,,防炎、遮熱・断熱、遮光2級、形状記憶付2倍ヒダオーダーメイドカーテンです。,,,,,,,,,,,,,,,,,,,,,,,,,,,,,,,,,,,,0,1,0,,1,,14800,14800,,0,,,,,,,,,,,,,,,"2,5",,"1706,1707,1715,1719,1726,1728,1727,1729,1730",,"5,4,3,2,1",,,,
,,,,1,CO74120（ネイビー）,1,,,,,,,防炎、遮熱・断熱、遮光2級、形状記憶付2倍ヒダオーダーメイドカーテンです。,,防炎、遮熱・断熱、遮光2級、形状記憶付2倍ヒダオーダーメイドカーテンです。,,,,,,,,,,,,,,,,,,,,,,,,,,,,,,,,,,,,0,1,0,,1,,14800,14800,,0,,,,,,,,,,,,,,,"2,5",,"1706,1707,1715,1719,1726,1728,1727,1729,1730",,"5,4,3,2,1",,,,
,,,,1,CO74121（ブラウン）,1,,,,,,,防炎、遮熱・断熱、遮光2級、形状記憶付2倍ヒダオーダーメイドカーテンです。,,防炎、遮熱・断熱、遮光2級、形状記憶付2倍ヒダオーダーメイドカーテンです。,,,,,,,,,,,,,,,,,,,,,,,,,,,,,,,,,,,,0,1,0,,1,,14800,14800,,0,,,,,,,,,,,,,,,"2,5",,"1706,1707,1715,1719,1726,1728,1727,1729,1730",,"5,4,3,2,1",,,,
,,,,1,CO74122（グリーン）,1,,,,,,,防炎、遮熱・断熱、遮光2級、形状記憶付2倍ヒダオーダーメイドカーテンです。,,防炎、遮熱・断熱、遮光2級、形状記憶付2倍ヒダオーダーメイドカーテンです。,,,,,,,,,,,,,,,,,,,,,,,,,,,,,,,,,,,,0,1,0,,1,,14800,14800,,0,,,,,,,,,,,,,,,"2,5",,"1706,1707,1715,1719,1726,1728,1727,1729,1730",,"5,4,3,2,1",,,,
,,,,1,CO74137（ワイン）,1,,,,,,,防炎、遮熱・断熱、遮光1級、形状記憶付2倍ヒダオーダーメイドカーテンです。,,防炎、遮熱・断熱、遮光1級、形状記憶付2倍ヒダオーダーメイドカーテンです。,,,,,,,,,,,,,,,,,,,,,,,,,,,,,,,,,,,,0,1,0,,1,,14800,14800,,0,,,,,,,,,,,,,,,"2,5",,"1706,1707,1715,1719,1726,1728,1727,1729,1730",,"5,4,3,2,1",,,,
,,,,1,CO74138（イエローグリーン）,1,,,,,,,防炎、遮熱・断熱、遮光2級、形状記憶付2倍ヒダオーダーメイドカーテンです。,,防炎、遮熱・断熱、遮光2級、形状記憶付2倍ヒダオーダーメイドカーテンです。,,,,,,,,,,,,,,,,,,,,,,,,,,,,,,,,,,,,0,1,0,,1,,14800,14800,,0,,,,,,,,,,,,,,,"2,5",,"1706,1707,1715,1719,1726,1728,1727,1729,1730",,"5,4,3,2,1",,,,
,,,,1,CO74139（グレー）,1,,,,,,,防炎、遮熱・断熱、遮光2級、形状記憶付2倍ヒダオーダーメイドカーテンです。,,防炎、遮熱・断熱、遮光2級、形状記憶付2倍ヒダオーダーメイドカーテンです。,,,,,,,,,,,,,,,,,,,,,,,,,,,,,,,,,,,,0,1,0,,1,,14800,14800,,0,,,,,,,,,,,,,,,"2,5",,"1706,1707,1715,1719,1726,1728,1727,1729,1730",,"5,4,3,2,1",,,,
,,,,1,CO74140（ブラック）,1,,,,,,,防炎、遮熱・断熱、遮光1級、形状記憶付2倍ヒダオーダーメイドカーテンです。,,防炎、遮熱・断熱、遮光1級、形状記憶付2倍ヒダオーダーメイドカーテンです。,,,,,,,,,,,,,,,,,,,,,,,,,,,,,,,,,,,,0,1,0,,1,,14800,14800,,0,,,,,,,,,,,,,,,"2,5",,"1706,1707,1715,1719,1726,1728,1727,1729,1730",,"5,4,3,2,1",,,,
,,,,1,FA21174（ベージュ）,1,,,,,,,遮光1級、形状記憶付2倍ヒダオーダーメイドカーテンです。,,遮光1級、形状記憶付2倍ヒダオーダーメイドカーテンです。,,,,,,,,,,,,,,,,,,,,,,,,,,,,,,,,,,,,0,1,0,,1,,14800,14800,,0,,,,,,,,,,,,,,,"2,5",,"1706,1707,1715,1719,1726,1728,1730",,"5,4,3,2,1",,,,
,,,,1,FA21175（ブルーグリーン）,1,,,,,,,遮光1級、形状記憶付2倍ヒダオーダーメイドカーテンです。,,遮光1級、形状記憶付2倍ヒダオーダーメイドカーテンです。,,,,,,,,,,,,,,,,,,,,,,,,,,,,,,,,,,,,0,1,0,,1,,14800,14800,,0,,,,,,,,,,,,,,,"2,5",,"1706,1707,1715,1719,1726,1728,1730",,"5,4,3,2,1",,,,
,,,,1,FA21176（ワイン）,1,,,,,,,遮光2級、形状記憶付2倍ヒダオーダーメイドカーテンです。,,遮光2級、形状記憶付2倍ヒダオーダーメイドカーテンです。,,,,,,,,,,,,,,,,,,,,,,,,,,,,,,,,,,,,0,1,0,,1,,14800,14800,,0,,,,,,,,,,,,,,,"2,5",,"1706,1707,1715,1719,1726,1728,1730",,"5,4,3,2,1",,,,
,,,,1,FA21177（ブラック）,1,,,,,,,遮光2級、形状記憶付2倍ヒダオーダーメイドカーテンです。,,遮光2級、形状記憶付2倍ヒダオーダーメイドカーテンです。,,,,,,,,,,,,,,,,,,,,,,,,,,,,,,,,,,,,0,1,0,,1,,14800,14800,,0,,,,,,,,,,,,,,,"2,5",,"1706,1707,1715,1719,1726,1728,1730",,"5,4,3,2,1",,,,
,,,,1,SD27126（アイボリー）,1,,,,,,,防炎、遮光2級、形状記憶付2倍ヒダオーダーメイドカーテンです。,,防炎、遮光2級、形状記憶付2倍ヒダオーダーメイドカーテンです。,,,,,,,,,,,,,,,,,,,,,,,,,,,,,,,,,,,,0,1,0,,1,,14800,14800,,0,,,,,,,,,,,,,,,"2,5",,"1706,1707,1715,1719,1726,1728,1727,1730",,"5,4,3,2,1",,,,
,,,,1,SD27127（ブラウン）,1,,,,,,,防炎、遮光1級、形状記憶付2倍ヒダオーダーメイドカーテンです。,,防炎、遮光1級、形状記憶付2倍ヒダオーダーメイドカーテンです。,,,,,,,,,,,,,,,,,,,,,,,,,,,,,,,,,,,,0,1,0,,1,,14800,14800,,0,,,,,,,,,,,,,,,"2,5",,"1706,1707,1715,1719,1726,1728,1727,1730",,"5,4,3,2,1",,,,
,,,,1,SD27128（ネイビー）,1,,,,,,,防炎、遮光1級、形状記憶付2倍ヒダオーダーメイドカーテンです。,,防炎、遮光1級、形状記憶付2倍ヒダオーダーメイドカーテンです。,,,,,,,,,,,,,,,,,,,,,,,,,,,,,,,,,,,,0,1,0,,1,,14800,14800,,0,,,,,,,,,,,,,,,"2,5",,"1706,1707,1715,1719,1726,1728,1727,1730",,"5,4,3,2,1",,,,
,,,,1,SD27129（グレー）,1,,,,,,,防炎、遮光2級、形状記憶付2倍ヒダオーダーメイドカーテンです。,,防炎、遮光2級、形状記憶付2倍ヒダオーダーメイドカーテンです。,,,,,,,,,,,,,,,,,,,,,,,,,,,,,,,,,,,,0,1,0,,1,,14800,14800,,0,,,,,,,,,,,,,,,"2,5",,"1706,1707,1715,1719,1726,1728,1727,1730",,"5,4,3,2,1",,,,
,,,,1,SD27130（ベージュ）,1,,,,,,,防炎、遮光2級、形状記憶付2倍ヒダオーダーメイドカーテンです。,,防炎、遮光2級、形状記憶付2倍ヒダオーダーメイドカーテンです。,,,,,,,,,,,,,,,,,,,,,,,,,,,,,,,,,,,,0,1,0,,1,,14800,14800,,0,,,,,,,,,,,,,,,"2,5",,"1706,1707,1715,1719,1726,1728,1727,1730",,"5,4,3,2,1",,,,
,,,,1,SD27131（グリーン）,1,,,,,,,防炎、遮光2級、形状記憶付2倍ヒダオーダーメイドカーテンです。,,防炎、遮光2級、形状記憶付2倍ヒダオーダーメイドカーテンです。,,,,,,,,,,,,,,,,,,,,,,,,,,,,,,,,,,,,0,1,0,,1,,14800,14800,,0,,,,,,,,,,,,,,,"2,5",,"1706,1707,1715,1719,1726,1728,1727,1730",,"5,4,3,2,1",,,,
,,,,1,SD27135（アイボリー）,1,,,,,,,防炎、遮光3級、形状記憶付2倍ヒダオーダーメイドカーテンです。,,防炎、遮光3級、形状記憶付2倍ヒダオーダーメイドカーテンです。,,,,,,,,,,,,,,,,,,,,,,,,,,,,,,,,,,,,0,1,0,,1,,14800,14800,,0,,,,,,,,,,,,,,,"2,5",,"1706,1707,1715,1719,1726,1728,1727,1730",,"5,4,3,2,1",,,,
,,,,1,SD27136（ブラウン）,1,,,,,,,防炎、遮光2級、形状記憶付2倍ヒダオーダーメイドカーテンです。,,防炎、遮光2級、形状記憶付2倍ヒダオーダーメイドカーテンです。,,,,,,,,,,,,,,,,,,,,,,,,,,,,,,,,,,,,0,1,0,,1,,14800,14800,,0,,,,,,,,,,,,,,,"2,5",,"1706,1707,1715,1719,1726,1728,1727,1730",,"5,4,3,2,1",,,,
,,,,1,SD27137（グリーン）,1,,,,,,,防炎、遮光2級、形状記憶付2倍ヒダオーダーメイドカーテンです。,,防炎、遮光2級、形状記憶付2倍ヒダオーダーメイドカーテンです。,,,,,,,,,,,,,,,,,,,,,,,,,,,,,,,,,,,,0,1,0,,1,,14800,14800,,0,,,,,,,,,,,,,,,"2,5",,"1706,1707,1715,1719,1726,1728,1727,1730",,"5,4,3,2,1",,,,
,,,,1,SD27138（ベージュ）,1,,,,,,,防炎、遮光2級、形状記憶付2倍ヒダオーダーメイドカーテンです。,,防炎、遮光2級、形状記憶付2倍ヒダオーダーメイドカーテンです。,,,,,,,,,,,,,,,,,,,,,,,,,,,,,,,,,,,,0,1,0,,1,,14800,14800,,0,,,,,,,,,,,,,,,"2,5",,"1706,1707,1715,1719,1726,1728,1727,1730",,"5,4,3,2,1",,,,
,,,,1,SD27150（ベージュ）,1,,,,,,,遮光2級、形状記憶付2倍ヒダオーダーメイドカーテンです。,,遮光2級、形状記憶付2倍ヒダオーダーメイドカーテンです。,,,,,,,,,,,,,,,,,,,,,,,,,,,,,,,,,,,,0,1,0,,1,,14800,14800,,0,,,,,,,,,,,,,,,"2,5",,"1706,1707,1715,1719,1726,1728,1730",,"5,4,3,2,1",,,,
,,,,1,SD27151（ブルー）,1,,,,,,,遮光2級、形状記憶付2倍ヒダオーダーメイドカーテンです。,,遮光2級、形状記憶付2倍ヒダオーダーメイドカーテンです。,,,,,,,,,,,,,,,,,,,,,,,,,,,,,,,,,,,,0,1,0,,1,,14800,14800,,0,,,,,,,,,,,,,,,"2,5",,"1706,1707,1715,1719,1726,1728,1730",,"5,4,3,2,1",,,,
,,,,1,SD27154（レッド）,1,,,,,,,遮光2級、形状記憶付2倍ヒダオーダーメイドカーテンです。,,遮光2級、形状記憶付2倍ヒダオーダーメイドカーテンです。,,,,,,,,,,,,,,,,,,,,,,,,,,,,,,,,,,,,0,1,0,,1,,14800,14800,,0,,,,,,,,,,,,,,,"2,5",,"1706,1707,1715,1719,1726,1728,1730",,"5,4,3,2,1",,,,
,,,,1,SD27155（アイボリー）,1,,,,,,,遮光2級、形状記憶付2倍ヒダオーダーメイドカーテンです。,,遮光2級、形状記憶付2倍ヒダオーダーメイドカーテンです。,,,,,,,,,,,,,,,,,,,,,,,,,,,,,,,,,,,,0,1,0,,1,,14800,14800,,0,,,,,,,,,,,,,,,"2,5",,"1706,1707,1715,1719,1726,1728,1730",,"5,4,3,2,1",,,,
,,,,1,SD27156（ブラウン）,1,,,,,,,遮光2級、形状記憶付2倍ヒダオーダーメイドカーテンです。,,遮光2級、形状記憶付2倍ヒダオーダーメイドカーテンです。,,,,,,,,,,,,,,,,,,,,,,,,,,,,,,,,,,,,0,1,0,,1,,14800,14800,,0,,,,,,,,,,,,,,,"2,5",,"1706,1707,1715,1719,1726,1728,1730",,"5,4,3,2,1",,,,
,,,,1,SD27162（グレー）,1,,,,,,,遮光2級、形状記憶付2倍ヒダオーダーメイドカーテンです。,,遮光2級、形状記憶付2倍ヒダオーダーメイドカーテンです。,,,,,,,,,,,,,,,,,,,,,,,,,,,,,,,,,,,,0,1,0,,1,,14800,14800,,0,,,,,,,,,,,,,,,"2,5",,"1706,1707,1715,1719,1726,1728,1730",,"5,4,3,2,1",,,,
,,,,1,SD27163（ブルー）,1,,,,,,,遮光2級、形状記憶付2倍ヒダオーダーメイドカーテンです。,,遮光2級、形状記憶付2倍ヒダオーダーメイドカーテンです。,,,,,,,,,,,,,,,,,,,,,,,,,,,,,,,,,,,,0,1,0,,1,,14800,14800,,0,,,,,,,,,,,,,,,"2,5",,"1706,1707,1715,1719,1726,1728,1730",,"5,4,3,2,1",,,,
,,,,1,SU25113（グレー）,1,,,,,,,遮光2級、形状記憶付2倍ヒダオーダーメイドカーテンです。,,遮光2級、形状記憶付2倍ヒダオーダーメイドカーテンです。,,,,,,,,,,,,,,,,,,,,,,,,,,,,,,,,,,,,0,1,0,,1,,14800,14800,,0,,,,,,,,,,,,,,,"2,5",,"1706,1707,1715,1719,1726,1728,1730",,"5,4,3,2,1",,,,
,,,,1,SU25114（ブラック）,1,,,,,,,遮光2級、形状記憶付2倍ヒダオーダーメイドカーテンです。,,遮光2級、形状記憶付2倍ヒダオーダーメイドカーテンです。,,,,,,,,,,,,,,,,,,,,,,,,,,,,,,,,,,,,0,1,0,,1,,14800,14800,,0,,,,,,,,,,,,,,,"2,5",,"1706,1707,1715,1719,1726,1728,1730",,"5,4,3,2,1",,,,
,,,,1,YB22122（ベージュ）,1,,,,,,,防炎、遮光3級、形状記憶付2倍ヒダオーダーメイドカーテンです。,,防炎、遮光3級、形状記憶付2倍ヒダオーダーメイドカーテンです。,,,,,,,,,,,,,,,,,,,,,,,,,,,,,,,,,,,,0,1,0,,1,,14800,14800,,0,,,,,,,,,,,,,,,"2,5",,"1706,1707,1715,1719,1726,1728,1727,1730",,"5,4,3,2,1",,,,
,,,,1,YB22123（グリーン）,1,,,,,,,防炎、遮光2級、形状記憶付2倍ヒダオーダーメイドカーテンです。,,防炎、遮光2級、形状記憶付2倍ヒダオーダーメイドカーテンです。,,,,,,,,,,,,,,,,,,,,,,,,,,,,,,,,,,,,0,1,0,,1,,14800,14800,,0,,,,,,,,,,,,,,,"2,5",,"1706,1707,1715,1719,1726,1728,1727,1730",,"5,4,3,2,1",,,,
,,,,1,YB22124（グレー）,1,,,,,,,防炎、遮光3級、形状記憶付2倍ヒダオーダーメイドカーテンです。,,防炎、遮光3級、形状記憶付2倍ヒダオーダーメイドカーテンです。,,,,,,,,,,,,,,,,,,,,,,,,,,,,,,,,,,,,0,1,0,,1,,14800,14800,,0,,,,,,,,,,,,,,,"2,5",,"1706,1707,1715,1719,1726,1728,1727,1730",,"5,4,3,2,1",,,,
,,,,1,YB22131（イエロー）,1,,,,,,,遮光2級、形状記憶付2倍ヒダオーダーメイドカーテンです。,,遮光2級、形状記憶付2倍ヒダオーダーメイドカーテンです。,,,,,,,,,,,,,,,,,,,,,,,,,,,,,,,,,,,,0,1,0,,1,,14800,14800,,0,,,,,,,,,,,,,,,"2,5",,"1706,1707,1715,1719,1726,1728,1730",,"5,4,3,2,1",,,,
,,,,1,YB22132（グレー）,1,,,,,,,遮光2級、形状記憶付2倍ヒダオーダーメイドカーテンです。,,遮光2級、形状記憶付2倍ヒダオーダーメイドカーテンです。,,,,,,,,,,,,,,,,,,,,,,,,,,,,,,,,,,,,0,1,0,,1,,14800,14800,,0,,,,,,,,,,,,,,,"2,5",,"1706,1707,1715,1719,1726,1728,1730",,"5,4,3,2,1",,,,
,,,,1,YB22133（ベージュ）,1,,,,,,,遮光3級、形状記憶付2倍ヒダオーダーメイドカーテンです。,,遮光3級、形状記憶付2倍ヒダオーダーメイドカーテンです。,,,,,,,,,,,,,,,,,,,,,,,,,,,,,,,,,,,,0,1,0,,1,,14800,14800,,0,,,,,,,,,,,,,,,"2,5",,"1706,1707,1715,1719,1726,1728,1730",,"5,4,3,2,1",,,,
,,,,1,YB22134（グレー）,1,,,,,,,遮光3級、形状記憶付2倍ヒダオーダーメイドカーテンです。,,遮光3級、形状記憶付2倍ヒダオーダーメイドカーテンです。,,,,,,,,,,,,,,,,,,,,,,,,,,,,,,,,,,,,0,1,0,,1,,14800,14800,,0,,,,,,,,,,,,,,,"2,5",,"1706,1707,1715,1719,1726,1728,1730",,"5,4,3,2,1",,,,
,,,,1,IH28323（ピンク）,1,,,,,,,防炎、遮光2級、形状記憶付2倍ヒダオーダーメイドカーテンです。,,防炎、遮光2級、形状記憶付2倍ヒダオーダーメイドカーテンです。,,,,,,,,,,,,,,,,,,,,,,,,,,,,,,,,,,,,0,1,0,,1,,19800,19800,,0,,,,,,,,,,,,,,,"2,5",,"1706,1707,1715,1719,1726,1728,1727,1730",,"5,4,3,2,1",,,,
,,,,1,IH28324（パープル）,1,,,,,,,防炎、遮光2級、形状記憶付2倍ヒダオーダーメイドカーテンです。,,防炎、遮光2級、形状記憶付2倍ヒダオーダーメイドカーテンです。,,,,,,,,,,,,,,,,,,,,,,,,,,,,,,,,,,,,0,1,0,,1,,19800,19800,,0,,,,,,,,,,,,,,,"2,5",,"1706,1707,1715,1719,1726,1728,1727,1730",,"5,4,3,2,1",,,,
,,,,1,FA21360（アイボリー）,1,,,,,,,形状記憶付2倍ヒダオーダーメイドカーテンです。,,形状記憶付2倍ヒダオーダーメイドカーテンです。,,,,,,,,,,,,,,,,,,,,,,,,,,,,,,,,,,,,0,1,0,,1,,19800,19800,,0,,,,,,,,,,,,,,,"2,5",,"1706,1707,1715,1719,1726,1728",,"5,4,3,2,1",,,,
,,,,1,FA21361（パープル）,1,,,,,,,形状記憶付2倍ヒダオーダーメイドカーテンです。,,形状記憶付2倍ヒダオーダーメイドカーテンです。,,,,,,,,,,,,,,,,,,,,,,,,,,,,,,,,,,,,0,1,0,,1,,19800,19800,,0,,,,,,,,,,,,,,,"2,5",,"1706,1707,1715,1719,1726,1728",,"5,4,3,2,1",,,,
,,,,1,YB22309（ワイン）,1,,,,,,,形状記憶付2倍ヒダオーダーメイドカーテンです。,,形状記憶付2倍ヒダオーダーメイドカーテンです。,,,,,,,,,,,,,,,,,,,,,,,,,,,,,,,,,,,,0,1,0,,1,,19800,19800,,0,,,,,,,,,,,,,,,"2,5",,"1706,1707,1715,1719,1726,1728",,"5,4,3,2,1",,,,
,,,,1,YB22310（グリーン）,1,,,,,,,形状記憶付2倍ヒダオーダーメイドカーテンです。,,形状記憶付2倍ヒダオーダーメイドカーテンです。,,,,,,,,,,,,,,,,,,,,,,,,,,,,,,,,,,,,0,1,0,,1,,19800,19800,,0,,,,,,,,,,,,,,,"2,5",,"1706,1707,1715,1719,1726,1728",,"5,4,3,2,1",,,,
,,,,1,YB22313（ブラウン）,1,,,,,,,遮光2級、形状記憶付2倍ヒダオーダーメイドカーテンです。,,遮光2級、形状記憶付2倍ヒダオーダーメイドカーテンです。,,,,,,,,,,,,,,,,,,,,,,,,,,,,,,,,,,,,0,1,0,,1,,19800,19800,,0,,,,,,,,,,,,,,,"2,5",,"1706,1707,1715,1719,1726,1728,1730",,"5,4,3,2,1",,,,
,,,,1,YB22314（グリーン）,1,,,,,,,遮光2級、形状記憶付2倍ヒダオーダーメイドカーテンです。,,遮光2級、形状記憶付2倍ヒダオーダーメイドカーテンです。,,,,,,,,,,,,,,,,,,,,,,,,,,,,,,,,,,,,0,1,0,,1,,19800,19800,,0,,,,,,,,,,,,,,,"2,5",,"1706,1707,1715,1719,1726,1728,1730",,"5,4,3,2,1",,,,
,,,,1,YB22315（ブルーグリーン）,1,,,,,,,遮光2級、形状記憶付2倍ヒダオーダーメイドカーテンです。,,遮光2級、形状記憶付2倍ヒダオーダーメイドカーテンです。,,,,,,,,,,,,,,,,,,,,,,,,,,,,,,,,,,,,0,1,0,,1,,19800,19800,,0,,,,,,,,,,,,,,,"2,5",,"1706,1707,1715,1719,1726,1728,1730",,"5,4,3,2,1",,,,
,,,,1,YB22316（グレー）,1,,,,,,,遮光2級、形状記憶付2倍ヒダオーダーメイドカーテンです。,,遮光2級、形状記憶付2倍ヒダオーダーメイドカーテンです。,,,,,,,,,,,,,,,,,,,,,,,,,,,,,,,,,,,,0,1,0,,1,,19800,19800,,0,,,,,,,,,,,,,,,"2,5",,"1706,1707,1715,1719,1726,1728,1730",,"5,4,3,2,1",,,,
,,,,1,IH28315（アイボリー）,1,,,,,,,形状記憶付2倍ヒダオーダーメイドカーテンです。,,形状記憶付2倍ヒダオーダーメイドカーテンです。,,,,,,,,,,,,,,,,,,,,,,,,,,,,,,,,,,,,0,1,0,,1,,19800,19800,,0,,,,,,,,,,,,,,,"2,5",,"1706,1707,1715,1719,1726,1728",,"5,4,3,2,1",,,,
,,,,1,IH28316（ベージュ）,1,,,,,,,形状記憶付2倍ヒダオーダーメイドカーテンです。,,形状記憶付2倍ヒダオーダーメイドカーテンです。,,,,,,,,,,,,,,,,,,,,,,,,,,,,,,,,,,,,0,1,0,,1,,19800,19800,,0,,,,,,,,,,,,,,,"2,5",,"1706,1707,1715,1719,1726,1728",,"5,4,3,2,1",,,,
,,,,1,IH28325（アイボリー）,1,,,,,,,遮光3級、形状記憶付2倍ヒダオーダーメイドカーテンです。,,遮光3級、形状記憶付2倍ヒダオーダーメイドカーテンです。,,,,,,,,,,,,,,,,,,,,,,,,,,,,,,,,,,,,0,1,0,,1,,19800,19800,,0,,,,,,,,,,,,,,,"2,5",,"1706,1707,1715,1719,1726,1728,1730",,"5,4,3,2,1",,,,
,,,,1,IH28326（グリーン）,1,,,,,,,遮光1級、形状記憶付2倍ヒダオーダーメイドカーテンです。,,遮光1級、形状記憶付2倍ヒダオーダーメイドカーテンです。,,,,,,,,,,,,,,,,,,,,,,,,,,,,,,,,,,,,0,1,0,,1,,19800,19800,,0,,,,,,,,,,,,,,,"2,5",,"1706,1707,1715,1719,1726,1728,1730",,"5,4,3,2,1",,,,
,,,,1,FA21343（ベージュ）,1,,,,,,,防炎、形状記憶付2倍ヒダオーダーメイドカーテンです。,,防炎、形状記憶付2倍ヒダオーダーメイドカーテンです。,,,,,,,,,,,,,,,,,,,,,,,,,,,,,,,,,,,,0,1,0,,1,,19800,19800,,0,,,,,,,,,,,,,,,"2,5",,"1706,1707,1715,1719,1726,1728,1727",,"5,4,3,2,1",,,,
,,,,1,FA21344（グリーン）,1,,,,,,,防炎、形状記憶付2倍ヒダオーダーメイドカーテンです。,,防炎、形状記憶付2倍ヒダオーダーメイドカーテンです。,,,,,,,,,,,,,,,,,,,,,,,,,,,,,,,,,,,,0,1,0,,1,,19800,19800,,0,,,,,,,,,,,,,,,"2,5",,"1706,1707,1715,1719,1726,1728,1727",,"5,4,3,2,1",,,,
,,,,1,YB22317（ピンク）,1,,,,,,,遮光3級、形状記憶付2倍ヒダオーダーメイドカーテンです。,,遮光3級、形状記憶付2倍ヒダオーダーメイドカーテンです。,,,,,,,,,,,,,,,,,,,,,,,,,,,,,,,,,,,,0,1,0,,1,,19800,19800,,0,,,,,,,,,,,,,,,"2,5",,"1706,1707,1715,1719,1726,1728,1730",,"5,4,3,2,1",,,,
,,,,1,YB22318（アイボリー）,1,,,,,,,遮光3級、形状記憶付2倍ヒダオーダーメイドカーテンです。,,遮光3級、形状記憶付2倍ヒダオーダーメイドカーテンです。,,,,,,,,,,,,,,,,,,,,,,,,,,,,,,,,,,,,0,1,0,,1,,19800,19800,,0,,,,,,,,,,,,,,,"2,5",,"1706,1707,1715,1719,1726,1728,1730",,"5,4,3,2,1",,,,
,,,,1,YB22319（ベージュ）,1,,,,,,,遮光2級、形状記憶付2倍ヒダオーダーメイドカーテンです。,,遮光2級、形状記憶付2倍ヒダオーダーメイドカーテンです。,,,,,,,,,,,,,,,,,,,,,,,,,,,,,,,,,,,,0,1,0,,1,,19800,19800,,0,,,,,,,,,,,,,,,"2,5",,"1706,1707,1715,1719,1726,1728,1730",,"5,4,3,2,1",,,,
,,,,1,YB22320（グリーン）,1,,,,,,,遮光3級、形状記憶付2倍ヒダオーダーメイドカーテンです。,,遮光3級、形状記憶付2倍ヒダオーダーメイドカーテンです。,,,,,,,,,,,,,,,,,,,,,,,,,,,,,,,,,,,,0,1,0,,1,,19800,19800,,0,,,,,,,,,,,,,,,"2,5",,"1706,1707,1715,1719,1726,1728,1730",,"5,4,3,2,1",,,,
,,,,1,YB22321（グレー）,1,,,,,,,遮光3級、形状記憶付2倍ヒダオーダーメイドカーテンです。,,遮光3級、形状記憶付2倍ヒダオーダーメイドカーテンです。,,,,,,,,,,,,,,,,,,,,,,,,,,,,,,,,,,,,0,1,0,,1,,19800,19800,,0,,,,,,,,,,,,,,,"2,5",,"1706,1707,1715,1719,1726,1728,1730",,"5,4,3,2,1",,,,
,,,,1,YB22311（ベージュ）,1,,,,,,,形状記憶付2倍ヒダオーダーメイドカーテンです。,,形状記憶付2倍ヒダオーダーメイドカーテンです。,,,,,,,,,,,,,,,,,,,,,,,,,,,,,,,,,,,,0,1,0,,1,,19800,19800,,0,,,,,,,,,,,,,,,"2,5",,"1706,1707,1715,1719,1726,1728",,"5,4,3,2,1",,,,
,,,,1,YB22312（ネイビー）,1,,,,,,,形状記憶付2倍ヒダオーダーメイドカーテンです。,,形状記憶付2倍ヒダオーダーメイドカーテンです。,,,,,,,,,,,,,,,,,,,,,,,,,,,,,,,,,,,,0,1,0,,1,,19800,19800,,0,,,,,,,,,,,,,,,"2,5",,"1706,1707,1715,1719,1726,1728",,"5,4,3,2,1",,,,
,,,,1,ＩＨ26301（パープル）,1,,,,,,,裏面アクリル樹脂、遮熱・断熱、遮光1級、形状記憶付2倍ヒダオーダーメイドカーテンです。,,裏面アクリル樹脂、遮熱・断熱、遮光1級、形状記憶付2倍ヒダオーダーメイドカーテンです。,,,,,,,,,,,,,,,,,,,,,,,,,,,,,,,,,,,,0,1,0,,1,,19800,19800,,0,,,,,,,,,,,,,,,"2,5",,"1706,1707,1715,1719,1726,1728,1722,1729,1730",,"5,4,3,2,1",,,,
,,,,1,ＩＨ26302（ローズ）,1,,,,,,,裏面アクリル樹脂、遮熱・断熱、遮光1級、形状記憶付2倍ヒダオーダーメイドカーテンです。,,裏面アクリル樹脂、遮熱・断熱、遮光1級、形状記憶付2倍ヒダオーダーメイドカーテンです。,,,,,,,,,,,,,,,,,,,,,,,,,,,,,,,,,,,,0,1,0,,1,,19800,19800,,0,,,,,,,,,,,,,,,"2,5",,"1706,1707,1715,1719,1726,1728,1722,1729,1730",,"5,4,3,2,1",,,,
,,,,1,ＩＨ26303（ピンク）,1,,,,,,,裏面アクリル樹脂、遮熱・断熱、遮光1級、形状記憶付2倍ヒダオーダーメイドカーテンです。,,裏面アクリル樹脂、遮熱・断熱、遮光1級、形状記憶付2倍ヒダオーダーメイドカーテンです。,,,,,,,,,,,,,,,,,,,,,,,,,,,,,,,,,,,,0,1,0,,1,,19800,19800,,0,,,,,,,,,,,,,,,"2,5",,"1706,1707,1715,1719,1726,1728,1722,1729,1730",,"5,4,3,2,1",,,,
,,,,1,ＩＨ26304（イエロー）,1,,,,,,,裏面アクリル樹脂、遮熱・断熱、遮光1級、形状記憶付2倍ヒダオーダーメイドカーテンです。,,裏面アクリル樹脂、遮熱・断熱、遮光1級、形状記憶付2倍ヒダオーダーメイドカーテンです。,,,,,,,,,,,,,,,,,,,,,,,,,,,,,,,,,,,,0,1,0,,1,,19800,19800,,0,,,,,,,,,,,,,,,"2,5",,"1706,1707,1715,1719,1726,1728,1722,1729,1730",,"5,4,3,2,1",,,,
,,,,1,ＩＨ26305（アイボリー）,1,,,,,,,裏面アクリル樹脂、遮熱・断熱、遮光1級、形状記憶付2倍ヒダオーダーメイドカーテンです。,,裏面アクリル樹脂、遮熱・断熱、遮光1級、形状記憶付2倍ヒダオーダーメイドカーテンです。,,,,,,,,,,,,,,,,,,,,,,,,,,,,,,,,,,,,0,1,0,,1,,19800,19800,,0,,,,,,,,,,,,,,,"2,5",,"1706,1707,1715,1719,1726,1728,1722,1729,1730",,"5,4,3,2,1",,,,
,,,,1,ＩＨ26306（ベージュ）,1,,,,,,,裏面アクリル樹脂、遮熱・断熱、遮光1級、形状記憶付2倍ヒダオーダーメイドカーテンです。,,裏面アクリル樹脂、遮熱・断熱、遮光1級、形状記憶付2倍ヒダオーダーメイドカーテンです。,,,,,,,,,,,,,,,,,,,,,,,,,,,,,,,,,,,,0,1,0,,1,,19800,19800,,0,,,,,,,,,,,,,,,"2,5",,"1706,1707,1715,1719,1726,1728,1722,1729,1730",,"5,4,3,2,1",,,,
,,,,1,ＩＨ26307（ライトグレー）,1,,,,,,,裏面アクリル樹脂、遮熱・断熱、遮光1級、形状記憶付2倍ヒダオーダーメイドカーテンです。,,裏面アクリル樹脂、遮熱・断熱、遮光1級、形状記憶付2倍ヒダオーダーメイドカーテンです。,,,,,,,,,,,,,,,,,,,,,,,,,,,,,,,,,,,,0,1,0,,1,,19800,19800,,0,,,,,,,,,,,,,,,"2,5",,"1706,1707,1715,1719,1726,1728,1722,1729,1730",,"5,4,3,2,1",,,,
,,,,1,ＩＨ26308（ダークグレー）,1,,,,,,,裏面アクリル樹脂、遮熱・断熱、遮光1級、形状記憶付2倍ヒダオーダーメイドカーテンです。,,裏面アクリル樹脂、遮熱・断熱、遮光1級、形状記憶付2倍ヒダオーダーメイドカーテンです。,,,,,,,,,,,,,,,,,,,,,,,,,,,,,,,,,,,,0,1,0,,1,,19800,19800,,0,,,,,,,,,,,,,,,"2,5",,"1706,1707,1715,1719,1726,1728,1722,1729,1730",,"5,4,3,2,1",,,,
,,,,1,ＩＨ26309（ブルー）,1,,,,,,,裏面アクリル樹脂、遮熱・断熱、遮光1級、形状記憶付2倍ヒダオーダーメイドカーテンです。,,裏面アクリル樹脂、遮熱・断熱、遮光1級、形状記憶付2倍ヒダオーダーメイドカーテンです。,,,,,,,,,,,,,,,,,,,,,,,,,,,,,,,,,,,,0,1,0,,1,,19800,19800,,0,,,,,,,,,,,,,,,"2,5",,"1706,1707,1715,1719,1726,1728,1722,1729,1730",,"5,4,3,2,1",,,,
,,,,1,ＩＨ26310（ブルーグリーン）,1,,,,,,,裏面アクリル樹脂、遮熱・断熱、遮光1級、形状記憶付2倍ヒダオーダーメイドカーテンです。,,裏面アクリル樹脂、遮熱・断熱、遮光1級、形状記憶付2倍ヒダオーダーメイドカーテンです。,,,,,,,,,,,,,,,,,,,,,,,,,,,,,,,,,,,,0,1,0,,1,,19800,19800,,0,,,,,,,,,,,,,,,"2,5",,"1706,1707,1715,1719,1726,1728,1722,1729,1730",,"5,4,3,2,1",,,,
,,,,1,ＩＨ26311（グリーン）,1,,,,,,,裏面アクリル樹脂、遮熱・断熱、遮光1級、形状記憶付2倍ヒダオーダーメイドカーテンです。,,裏面アクリル樹脂、遮熱・断熱、遮光1級、形状記憶付2倍ヒダオーダーメイドカーテンです。,,,,,,,,,,,,,,,,,,,,,,,,,,,,,,,,,,,,0,1,0,,1,,19800,19800,,0,,,,,,,,,,,,,,,"2,5",,"1706,1707,1715,1719,1726,1728,1722,1729,1730",,"5,4,3,2,1",,,,
,,,,1,ＩＨ26312（ダークグリーン）,1,,,,,,,裏面アクリル樹脂、遮熱・断熱、遮光1級、形状記憶付2倍ヒダオーダーメイドカーテンです。,,裏面アクリル樹脂、遮熱・断熱、遮光1級、形状記憶付2倍ヒダオーダーメイドカーテンです。,,,,,,,,,,,,,,,,,,,,,,,,,,,,,,,,,,,,0,1,0,,1,,19800,19800,,0,,,,,,,,,,,,,,,"2,5",,"1706,1707,1715,1719,1726,1728,1722,1729,1730",,"5,4,3,2,1",,,,
,,,,1,IH28319（アイボリー）,1,,,,,,,防炎、遮光3級、形状記憶付2倍ヒダオーダーメイドカーテンです。,,防炎、遮光3級、形状記憶付2倍ヒダオーダーメイドカーテンです。,,,,,,,,,,,,,,,,,,,,,,,,,,,,,,,,,,,,0,1,0,,1,,19800,19800,,0,,,,,,,,,,,,,,,"2,5",,"1706,1707,1715,1719,1726,1728,1727,1730",,"5,4,3,2,1",,,,
,,,,1,IH28320（ブルー）,1,,,,,,,防炎、遮光2級、形状記憶付2倍ヒダオーダーメイドカーテンです。,,防炎、遮光2級、形状記憶付2倍ヒダオーダーメイドカーテンです。,,,,,,,,,,,,,,,,,,,,,,,,,,,,,,,,,,,,0,1,0,,1,,19800,19800,,0,,,,,,,,,,,,,,,"2,5",,"1706,1707,1715,1719,1726,1728,1727,1730",,"5,4,3,2,1",,,,
,,,,1,IH28321（ダークグレー）,1,,,,,,,防炎、遮光1級、形状記憶付2倍ヒダオーダーメイドカーテンです。,,防炎、遮光1級、形状記憶付2倍ヒダオーダーメイドカーテンです。,,,,,,,,,,,,,,,,,,,,,,,,,,,,,,,,,,,,0,1,0,,1,,19800,19800,,0,,,,,,,,,,,,,,,"2,5",,"1706,1707,1715,1719,1726,1728,1727,1730",,"5,4,3,2,1",,,,
,,,,1,IH28322（ベージュ）,1,,,,,,,防炎、遮光2級、形状記憶付2倍ヒダオーダーメイドカーテンです。,,防炎、遮光2級、形状記憶付2倍ヒダオーダーメイドカーテンです。,,,,,,,,,,,,,,,,,,,,,,,,,,,,,,,,,,,,0,1,0,,1,,19800,19800,,0,,,,,,,,,,,,,,,"2,5",,"1706,1707,1715,1719,1726,1728,1727,1730",,"5,4,3,2,1",,,,
,,,,1,FA21325（ワイン）,1,,,,,,,裏面アクリル樹脂、遮熱・断熱、遮光1級、形状記憶付2倍ヒダオーダーメイドカーテンです。,,裏面アクリル樹脂、遮熱・断熱、遮光1級、形状記憶付2倍ヒダオーダーメイドカーテンです。,,,,,,,,,,,,,,,,,,,,,,,,,,,,,,,,,,,,0,1,0,,1,,19800,19800,,0,,,,,,,,,,,,,,,"2,5",,"1706,1707,1715,1719,1726,1728,1722,1729,1730",,"5,4,3,2,1",,,,
,,,,1,FA21326（アイボリー）,1,,,,,,,裏面アクリル樹脂、遮熱・断熱、遮光1級、形状記憶付2倍ヒダオーダーメイドカーテンです。,,裏面アクリル樹脂、遮熱・断熱、遮光1級、形状記憶付2倍ヒダオーダーメイドカーテンです。,,,,,,,,,,,,,,,,,,,,,,,,,,,,,,,,,,,,0,1,0,,1,,19800,19800,,0,,,,,,,,,,,,,,,"2,5",,"1706,1707,1715,1719,1726,1728,1722,1729,1730",,"5,4,3,2,1",,,,
,,,,1,FA21330（ネイビー）,1,,,,,,,裏面アクリル樹脂、遮熱・断熱、遮光1級、形状記憶付2倍ヒダオーダーメイドカーテンです。,,裏面アクリル樹脂、遮熱・断熱、遮光1級、形状記憶付2倍ヒダオーダーメイドカーテンです。,,,,,,,,,,,,,,,,,,,,,,,,,,,,,,,,,,,,0,1,0,,1,,19800,19800,,0,,,,,,,,,,,,,,,"2,5",,"1706,1707,1715,1719,1726,1728,1722,1729,1730",,"5,4,3,2,1",,,,
,,,,1,FA21331（ブラック）,1,,,,,,,裏面アクリル樹脂、遮熱・断熱、遮光1級、形状記憶付2倍ヒダオーダーメイドカーテンです。,,裏面アクリル樹脂、遮熱・断熱、遮光1級、形状記憶付2倍ヒダオーダーメイドカーテンです。,,,,,,,,,,,,,,,,,,,,,,,,,,,,,,,,,,,,0,1,0,,1,,19800,19800,,0,,,,,,,,,,,,,,,"2,5",,"1706,1707,1715,1719,1726,1728,1722,1729,1730",,"5,4,3,2,1",,,,
,,,,1,CO78307（アイボリー）,1,,,,,,,防炎、遮光3級、形状記憶付2倍ヒダオーダーメイドカーテンです。,,防炎、遮光3級、形状記憶付2倍ヒダオーダーメイドカーテンです。,,,,,,,,,,,,,,,,,,,,,,,,,,,,,,,,,,,,0,1,0,,1,,19800,19800,,0,,,,,,,,,,,,,,,"2,5",,"1706,1707,1715,1719,1726,1728,1727,1730",,"5,4,3,2,1",,,,
,,,,1,CO78308（ネイビー）,1,,,,,,,防炎、遮光1級、形状記憶付2倍ヒダオーダーメイドカーテンです。,,防炎、遮光1級、形状記憶付2倍ヒダオーダーメイドカーテンです。,,,,,,,,,,,,,,,,,,,,,,,,,,,,,,,,,,,,0,1,0,,1,,19800,19800,,0,,,,,,,,,,,,,,,"2,5",,"1706,1707,1715,1719,1726,1728,1727,1730",,"5,4,3,2,1",,,,
,,,,1,CO78309（ブラック）,1,,,,,,,防炎、遮光1級、形状記憶付2倍ヒダオーダーメイドカーテンです。,,防炎、遮光1級、形状記憶付2倍ヒダオーダーメイドカーテンです。,,,,,,,,,,,,,,,,,,,,,,,,,,,,,,,,,,,,0,1,0,,1,,19800,19800,,0,,,,,,,,,,,,,,,"2,5",,"1706,1707,1715,1719,1726,1728,1727,1730",,"5,4,3,2,1",,,,
,,,,1,CO78312（グリーン）,1,,,,,,,防炎、遮光2級、形状記憶付2倍ヒダオーダーメイドカーテンです。,,防炎、遮光2級、形状記憶付2倍ヒダオーダーメイドカーテンです。,,,,,,,,,,,,,,,,,,,,,,,,,,,,,,,,,,,,0,1,0,,1,,19800,19800,,0,,,,,,,,,,,,,,,"2,5",,"1706,1707,1715,1719,1726,1728,1727,1730",,"5,4,3,2,1",,,,
,,,,1,CO78313（グレー）,1,,,,,,,防炎、遮光2級、形状記憶付2倍ヒダオーダーメイドカーテンです。,,防炎、遮光2級、形状記憶付2倍ヒダオーダーメイドカーテンです。,,,,,,,,,,,,,,,,,,,,,,,,,,,,,,,,,,,,0,1,0,,1,,19800,19800,,0,,,,,,,,,,,,,,,"2,5",,"1706,1707,1715,1719,1726,1728,1727,1730",,"5,4,3,2,1",,,,
,,,,1,CO79301（ベージュ）,1,,,,,,,遮光3級、形状記憶付2倍ヒダオーダーメイドカーテンです。,,遮光3級、形状記憶付2倍ヒダオーダーメイドカーテンです。,,,,,,,,,,,,,,,,,,,,,,,,,,,,,,,,,,,,0,1,0,,1,,19800,19800,,0,,,,,,,,,,,,,,,"2,5",,"1706,1707,1715,1719,1726,1728,1730",,"5,4,3,2,1",,,,
,,,,1,CO79302（グリーン）,1,,,,,,,遮光3級、形状記憶付2倍ヒダオーダーメイドカーテンです。,,遮光3級、形状記憶付2倍ヒダオーダーメイドカーテンです。,,,,,,,,,,,,,,,,,,,,,,,,,,,,,,,,,,,,0,1,0,,1,,19800,19800,,0,,,,,,,,,,,,,,,"2,5",,"1706,1707,1715,1719,1726,1728,1730",,"5,4,3,2,1",,,,
,,,,1,TA5001（アイボリー）,1,,,,,,,ミラー、形状記憶付1.5倍ヒダオーダーメイドカーテンです。,,ミラー、形状記憶付1.5倍ヒダオーダーメイドカーテンです。,,,,,,,,,,,,,,,,,,,,,,,,,,,,,,,,,,,,0,1,0,,1,,3980,3980,,0,,,,,,,,,,,,,,,"2,5",,"1706,1715,1716,1719,1726,1721,1728",,"5,4,3,2,1",,,,
,,,,1,TA5002（アイボリー）,1,,,,,,,ミラー、形状記憶付1.5倍ヒダオーダーメイドカーテンです。,,ミラー、形状記憶付1.5倍ヒダオーダーメイドカーテンです。,,,,,,,,,,,,,,,,,,,,,,,,,,,,,,,,,,,,0,1,0,,1,,3980,3980,,0,,,,,,,,,,,,,,,"2,5",,"1706,1715,1716,1719,1726,1721,1728",,"5,4,3,2,1",,,,
,,,,1,TA5003（アイボリー）,1,,,,,,,ミラー、形状記憶付1.5倍ヒダオーダーメイドカーテンです。,,ミラー、形状記憶付1.5倍ヒダオーダーメイドカーテンです。,,,,,,,,,,,,,,,,,,,,,,,,,,,,,,,,,,,,0,1,0,,1,,3980,3980,,0,,,,,,,,,,,,,,,"2,5",,"1706,1715,1716,1719,1726,1721,1728",,"5,4,3,2,1",,,,
,,,,1,TA15008（アイボリー）,1,,,,,,,ミラー、形状記憶付2倍ヒダオーダーメイドカーテンです。,,ミラー、形状記憶付2倍ヒダオーダーメイドカーテンです。,,,,,,,,,,,,,,,,,,,,,,,,,,,,,,,,,,,,0,1,0,,1,,5800,5800,,0,,,,,,,,,,,,,,,"2,5",,"1706,1715,1716,1719,1726,1721,1728",,"5,4,3,2,1",,,,
,,,,1,TA15009（アイボリー）,1,,,,,,,ミラー、形状記憶付2倍ヒダオーダーメイドカーテンです。,,ミラー、形状記憶付2倍ヒダオーダーメイドカーテンです。,,,,,,,,,,,,,,,,,,,,,,,,,,,,,,,,,,,,0,1,0,,1,,5800,5800,,0,,,,,,,,,,,,,,,"2,5",,"1706,1715,1716,1719,1726,1721,1728",,"5,4,3,2,1",,,,
,,,,1,TA15012（アイボリー）,1,,,,,,,ミラー、形状記憶付2倍ヒダオーダーメイドカーテンです。,,ミラー、形状記憶付2倍ヒダオーダーメイドカーテンです。,,,,,,,,,,,,,,,,,,,,,,,,,,,,,,,,,,,,0,1,0,,1,,5800,5800,,0,,,,,,,,,,,,,,,"2,5",,"1706,1715,1716,1719,1726,1721,1728",,"5,4,3,2,1",,,,
,,,,1,TA15014（ベージュ）,1,,,,,,,ミラー、形状記憶付2倍ヒダオーダーメイドカーテンです。,,ミラー、形状記憶付2倍ヒダオーダーメイドカーテンです。,,,,,,,,,,,,,,,,,,,,,,,,,,,,,,,,,,,,0,1,0,,1,,5800,5800,,0,,,,,,,,,,,,,,,"2,5",,"1706,1715,1716,1719,1726,1721,1728",,"5,4,3,2,1",,,,
,,,,1,TA15015（グリーン）,1,,,,,,,ミラー、形状記憶付2倍ヒダオーダーメイドカーテンです。,,ミラー、形状記憶付2倍ヒダオーダーメイドカーテンです。,,,,,,,,,,,,,,,,,,,,,,,,,,,,,,,,,,,,0,1,0,,1,,5800,5800,,0,,,,,,,,,,,,,,,"2,5",,"1706,1715,1716,1719,1726,1721,1728",,"5,4,3,2,1",,,,
,,,,1,TA15016（ブルー）,1,,,,,,,ミラー、形状記憶付2倍ヒダオーダーメイドカーテンです。,,ミラー、形状記憶付2倍ヒダオーダーメイドカーテンです。,,,,,,,,,,,,,,,,,,,,,,,,,,,,,,,,,,,,0,1,0,,1,,5800,5800,,0,,,,,,,,,,,,,,,"2,5",,"1706,1715,1716,1719,1726,1721,1728",,"5,4,3,2,1",,,,
,,,,1,SC17003（アイボリー）,1,,,,,,,ミラー、形状記憶付2倍ヒダオーダーメイドカーテンです。,,ミラー、形状記憶付2倍ヒダオーダーメイドカーテンです。,,,,,,,,,,,,,,,,,,,,,,,,,,,,,,,,,,,,0,1,0,,1,,5800,5800,,0,,,,,,,,,,,,,,,"2,5",,"1706,1715,1716,1719,1726,1721,1728",,"5,4,3,2,1",,,,
,,,,1,SC17004（アイボリー）,1,,,,,,,ミラー、形状記憶付2倍ヒダオーダーメイドカーテンです。,,ミラー、形状記憶付2倍ヒダオーダーメイドカーテンです。,,,,,,,,,,,,,,,,,,,,,,,,,,,,,,,,,,,,0,1,0,,1,,5800,5800,,0,,,,,,,,,,,,,,,"2,5",,"1706,1715,1716,1719,1726,1721,1728",,"5,4,3,2,1",,,,
,,,,1,SC17005（ベージュ）,1,,,,,,,ミラー、形状記憶付2倍ヒダオーダーメイドカーテンです。,,ミラー、形状記憶付2倍ヒダオーダーメイドカーテンです。,,,,,,,,,,,,,,,,,,,,,,,,,,,,,,,,,,,,0,1,0,,1,,5800,5800,,0,,,,,,,,,,,,,,,"2,5",,"1706,1715,1716,1719,1726,1721,1728",,"5,4,3,2,1",,,,
,,,,1,KZ13017（アイボリー）,1,,,,,,,ミラー、形状記憶付2倍ヒダオーダーメイドカーテンです。,,ミラー、形状記憶付2倍ヒダオーダーメイドカーテンです。,,,,,,,,,,,,,,,,,,,,,,,,,,,,,,,,,,,,0,1,0,,1,,5800,5800,,0,,,,,,,,,,,,,,,"2,5",,"1706,1715,1716,1719,1726,1721,1728",,"5,4,3,2,1",,,,
,,,,1,KZ13020（アイボリー）,1,,,,,,,ミラー、形状記憶付2倍ヒダオーダーメイドカーテンです。,,ミラー、形状記憶付2倍ヒダオーダーメイドカーテンです。,,,,,,,,,,,,,,,,,,,,,,,,,,,,,,,,,,,,0,1,0,,1,,5800,5800,,0,,,,,,,,,,,,,,,"2,5",,"1706,1715,1716,1719,1726,1721,1728",,"5,4,3,2,1",,,,
,,,,1,KZ13023（アイボリー）,1,,,,,,,ミラー、形状記憶付2倍ヒダオーダーメイドカーテンです。,,ミラー、形状記憶付2倍ヒダオーダーメイドカーテンです。,,,,,,,,,,,,,,,,,,,,,,,,,,,,,,,,,,,,0,1,0,,1,,5800,5800,,0,,,,,,,,,,,,,,,"2,5",,"1706,1715,1716,1719,1726,1721,1728",,"5,4,3,2,1",,,,
,,,,1,KZ13024（アイボリー）,1,,,,,,,ミラー、形状記憶付2倍ヒダオーダーメイドカーテンです。,,ミラー、形状記憶付2倍ヒダオーダーメイドカーテンです。,,,,,,,,,,,,,,,,,,,,,,,,,,,,,,,,,,,,0,1,0,,1,,5800,5800,,0,,,,,,,,,,,,,,,"2,5",,"1706,1715,1716,1719,1726,1721,1728",,"5,4,3,2,1",,,,
,,,,1,SA16010（アイボリー）,1,,,,,,,透けにくい、遮熱・断熱、形状記憶付2倍ヒダオーダーメイドカーテンです。,,透けにくい、遮熱・断熱、形状記憶付2倍ヒダオーダーメイドカーテンです。,,,,,,,,,,,,,,,,,,,,,,,,,,,,,,,,,,,,0,1,0,,1,,5800,5800,,0,,,,,,,,,,,,,,,"2,5",,"1706,1715,1716,1719,1726,1731,1728,1729",,"5,4,3,2,1",,,,
,,,,1,SA16015（アイボリー）,1,,,,,,,ミラー、形状記憶付2倍ヒダオーダーメイドカーテンです。,,ミラー、形状記憶付2倍ヒダオーダーメイドカーテンです。,,,,,,,,,,,,,,,,,,,,,,,,,,,,,,,,,,,,0,1,0,,1,,5800,5800,,0,,,,,,,,,,,,,,,"2,5",,"1706,1715,1716,1719,1726,1721,1728",,"5,4,3,2,1",,,,
,,,,1,SA16017（アイボリー）,1,,,,,,,防炎、ミラー、形状記憶付2倍ヒダオーダーメイドカーテンです。,,防炎、ミラー、形状記憶付2倍ヒダオーダーメイドカーテンです。,,,,,,,,,,,,,,,,,,,,,,,,,,,,,,,,,,,,0,1,0,,1,,5800,5800,,0,,,,,,,,,,,,,,,"2,5",,"1706,1715,1716,1719,1726,1721,1727,1728",,"5,4,3,2,1",,,,
,,,,1,SA16020（アイボリー）,1,,,,,,,ミラー、形状記憶付2倍ヒダオーダーメイドカーテンです。,,ミラー、形状記憶付2倍ヒダオーダーメイドカーテンです。,,,,,,,,,,,,,,,,,,,,,,,,,,,,,,,,,,,,0,1,0,,1,,5800,5800,,0,,,,,,,,,,,,,,,"2,5",,"1706,1715,1716,1719,1726,1721,1728",,"5,4,3,2,1",,,,
,,,,1,SA16022（アイボリー）,1,,,,,,,ミラー、形状記憶付2倍ヒダオーダーメイドカーテンです。,,ミラー、形状記憶付2倍ヒダオーダーメイドカーテンです。,,,,,,,,,,,,,,,,,,,,,,,,,,,,,,,,,,,,0,1,0,,1,,5800,5800,,0,,,,,,,,,,,,,,,"2,5",,"1706,1715,1716,1719,1726,1721,1728",,"5,4,3,2,1",,,,
,,,,1,SA16024（アイボリー）,1,,,,,,,ミラー、形状記憶付2倍ヒダオーダーメイドカーテンです。,,ミラー、形状記憶付2倍ヒダオーダーメイドカーテンです。,,,,,,,,,,,,,,,,,,,,,,,,,,,,,,,,,,,,0,1,0,,1,,5800,5800,,0,,,,,,,,,,,,,,,"2,5",,"1706,1715,1716,1719,1726,1721,1728",,"5,4,3,2,1",,,,
,,,,1,SA16110（ホワイト）,1,,,,,,,透けにくい、遮熱・断熱、形状記憶付2倍ヒダオーダーメイドカーテンです。,,透けにくい、遮熱・断熱、形状記憶付2倍ヒダオーダーメイドカーテンです。,,,,,,,,,,,,,,,,,,,,,,,,,,,,,,,,,,,,0,1,0,,1,,7980,7980,,0,,,,,,,,,,,,,,,"2,5",,"1706,1715,1716,1719,1726,1731,1728,1729",,"5,4,3,2,1",,,,
,,,,1,SA16111（アイボリー）,1,,,,,,,透けにくい、遮熱・断熱、形状記憶付2倍ヒダオーダーメイドカーテンです。,,透けにくい、遮熱・断熱、形状記憶付2倍ヒダオーダーメイドカーテンです。,,,,,,,,,,,,,,,,,,,,,,,,,,,,,,,,,,,,0,1,0,,1,,7980,7980,,0,,,,,,,,,,,,,,,"2,5",,"1706,1715,1716,1719,1726,1731,1728,1729",,"5,4,3,2,1",,,,
,,,,1,KZ13141（アイボリー）,1,,,,,,,形状記憶付2倍ヒダオーダーメイドカーテンです。,,形状記憶付2倍ヒダオーダーメイドカーテンです。,,,,,,,,,,,,,,,,,,,,,,,,,,,,,,,,,,,,0,1,0,,1,,7980,7980,,0,,,,,,,,,,,,,,,"2,5",,"1706,1715,1716,1719,1726,1728",,"5,4,3,2,1",,,,
,,,,1,KZ13142（オレンジ）,1,,,,,,,形状記憶付2倍ヒダオーダーメイドカーテンです。,,形状記憶付2倍ヒダオーダーメイドカーテンです。,,,,,,,,,,,,,,,,,,,,,,,,,,,,,,,,,,,,0,1,0,,1,,7980,7980,,0,,,,,,,,,,,,,,,"2,5",,"1706,1715,1716,1719,1726,1728",,"5,4,3,2,1",,,,
,,,,1,KZ13143（アイボリー）,1,,,,,,,防炎、透けにくい、遮熱・断熱、形状記憶付2倍ヒダオーダーメイドカーテンです。,,防炎、透けにくい、遮熱・断熱、形状記憶付2倍ヒダオーダーメイドカーテンです。,,,,,,,,,,,,,,,,,,,,,,,,,,,,,,,,,,,,0,1,0,,1,,7980,7980,,0,,,,,,,,,,,,,,,"2,5",,"1706,1715,1716,1719,1726,1727,1728,1729,1731",,"5,4,3,2,1",,,,
,,,,1,KZ13144（アイボリー）,1,,,,,,,ミラー、遮熱・断熱、形状記憶付2倍ヒダオーダーメイドカーテンです。,,ミラー、遮熱・断熱、形状記憶付2倍ヒダオーダーメイドカーテンです。,,,,,,,,,,,,,,,,,,,,,,,,,,,,,,,,,,,,0,1,0,,1,,7980,7980,,0,,,,,,,,,,,,,,,"2,5",,"1706,1715,1716,1719,1726,1721,1728,1729",,"5,4,3,2,1",,,,
,,,,1,KZ13145（アイボリー）,1,,,,,,,ミラー、遮熱・断熱、形状記憶付2倍ヒダオーダーメイドカーテンです。,,ミラー、遮熱・断熱、形状記憶付2倍ヒダオーダーメイドカーテンです。,,,,,,,,,,,,,,,,,,,,,,,,,,,,,,,,,,,,0,1,0,,1,,7980,7980,,0,,,,,,,,,,,,,,,"2,5",,"1706,1715,1716,1719,1726,1721,1728,1729",,"5,4,3,2,1",,,,
,,,,1,TA15109（アイボリー）,1,,,,,,,透けにくい、形状記憶付2倍ヒダオーダーメイドカーテンです。,,透けにくい、形状記憶付2倍ヒダオーダーメイドカーテンです。,,,,,,,,,,,,,,,,,,,,,,,,,,,,,,,,,,,,0,1,0,,1,,7980,7980,,0,,,,,,,,,,,,,,,"2,5",,"1706,1715,1716,1719,1726,1728,1731",,"5,4,3,2,1",,,,
,,,,1,TA15117（アイボリー）,1,,,,,,,ミラー、遮熱・断熱、形状記憶付2倍ヒダオーダーメイドカーテンです。,,ミラー、遮熱・断熱、形状記憶付2倍ヒダオーダーメイドカーテンです。,,,,,,,,,,,,,,,,,,,,,,,,,,,,,,,,,,,,0,1,0,,1,,7980,7980,,0,,,,,,,,,,,,,,,"2,5",,"1706,1715,1716,1719,1726,1721,1728,1729",,"5,4,3,2,1",,,,
,,,,1,TA15122（ベージュ）,1,,,,,,,ミラー、遮熱・断熱、形状記憶付2倍ヒダオーダーメイドカーテンです。,,ミラー、遮熱・断熱、形状記憶付2倍ヒダオーダーメイドカーテンです。,,,,,,,,,,,,,,,,,,,,,,,,,,,,,,,,,,,,0,1,0,,1,,7980,7980,,0,,,,,,,,,,,,,,,"2,5",,"1706,1715,1716,1719,1726,1721,1728,1729",,"5,4,3,2,1",,,,
,,,,1,TA15123（アイボリー）,1,,,,,,,防炎、ミラー、形状記憶付2倍ヒダオーダーメイドカーテンです。,,防炎、ミラー、形状記憶付2倍ヒダオーダーメイドカーテンです。,,,,,,,,,,,,,,,,,,,,,,,,,,,,,,,,,,,,0,1,0,,1,,7980,7980,,0,,,,,,,,,,,,,,,"2,5",,"1706,1715,1716,1719,1726,1721,1727,1728",,"5,4,3,2,1",,,,
,,,,1,TA15125（アイボリー）,1,,,,,,,ミラー、遮熱・断熱、形状記憶付2倍ヒダオーダーメイドカーテンです。,,ミラー、遮熱・断熱、形状記憶付2倍ヒダオーダーメイドカーテンです。,,,,,,,,,,,,,,,,,,,,,,,,,,,,,,,,,,,,0,1,0,,1,,7980,7980,,0,,,,,,,,,,,,,,,"2,5",,"1706,1715,1716,1719,1726,1721,1728,1729",,"5,4,3,2,1",,,,
,,,,1,TA15127（アイボリー）,1,,,,,,,ミラー、遮熱・断熱、形状記憶付2倍ヒダオーダーメイドカーテンです。,,ミラー、遮熱・断熱、形状記憶付2倍ヒダオーダーメイドカーテンです。,,,,,,,,,,,,,,,,,,,,,,,,,,,,,,,,,,,,0,1,0,,1,,7980,7980,,0,,,,,,,,,,,,,,,"2,5",,"1706,1715,1716,1719,1726,1721,1728,1729",,"5,4,3,2,1",,,,
,,,,1,TA15129（ベージュ）,1,,,,,,,ミラー、遮熱・断熱、形状記憶付2倍ヒダオーダーメイドカーテンです。,,ミラー、遮熱・断熱、形状記憶付2倍ヒダオーダーメイドカーテンです。,,,,,,,,,,,,,,,,,,,,,,,,,,,,,,,,,,,,0,1,0,,1,,7980,7980,,0,,,,,,,,,,,,,,,"2,5",,"1706,1715,1716,1719,1726,1721,1728,1729",,"5,4,3,2,1",,,,
,,,,1,TA15130（アイボリー）,1,,,,,,,ミラー、遮熱・断熱、形状記憶付2倍ヒダオーダーメイドカーテンです。,,ミラー、遮熱・断熱、形状記憶付2倍ヒダオーダーメイドカーテンです。,,,,,,,,,,,,,,,,,,,,,,,,,,,,,,,,,,,,0,1,0,,1,,7980,7980,,0,,,,,,,,,,,,,,,"2,5",,"1706,1715,1716,1719,1726,1721,1728,1729",,"5,4,3,2,1",,,,
,,,,1,TA15131（ベージュ）,1,,,,,,,ミラー、遮熱・断熱、形状記憶付2倍ヒダオーダーメイドカーテンです。,,ミラー、遮熱・断熱、形状記憶付2倍ヒダオーダーメイドカーテンです。,,,,,,,,,,,,,,,,,,,,,,,,,,,,,,,,,,,,0,1,0,,1,,7980,7980,,0,,,,,,,,,,,,,,,"2,5",,"1706,1715,1716,1719,1726,1721,1728,1729",,"5,4,3,2,1",,,,
,,,,1,SC17105（アイボリー）,1,,,,,,,ミラー、遮熱・断熱、形状記憶付2倍ヒダオーダーメイドカーテンです。,,ミラー、遮熱・断熱、形状記憶付2倍ヒダオーダーメイドカーテンです。,,,,,,,,,,,,,,,,,,,,,,,,,,,,,,,,,,,,0,1,0,,1,,7980,7980,,0,,,,,,,,,,,,,,,"2,5",,"1706,1715,1716,1719,1726,1721,1728,1729",,"5,4,3,2,1",,,,
,,,,1,SC17109（アイボリー）,1,,,,,,,ミラー、形状記憶付2倍ヒダオーダーメイドカーテンです。,,ミラー、形状記憶付2倍ヒダオーダーメイドカーテンです。,,,,,,,,,,,,,,,,,,,,,,,,,,,,,,,,,,,,0,1,0,,1,,7980,7980,,0,,,,,,,,,,,,,,,"2,5",,"1706,1715,1716,1719,1726,1721,1728",,"5,4,3,2,1",,,,
,,,,1,SC17114（アイボリー）,1,,,,,,,ミラー、遮熱・断熱、形状記憶付2倍ヒダオーダーメイドカーテンです。,,ミラー、遮熱・断熱、形状記憶付2倍ヒダオーダーメイドカーテンです。,,,,,,,,,,,,,,,,,,,,,,,,,,,,,,,,,,,,0,1,0,,1,,7980,7980,,0,,,,,,,,,,,,,,,"2,5",,"1706,1715,1716,1719,1726,1721,1728,1729",,"5,4,3,2,1",,,,
,,,,1,SC17115（アイボリー）,1,,,,,,,ミラー、遮熱・断熱、形状記憶付2倍ヒダオーダーメイドカーテンです。,,ミラー、遮熱・断熱、形状記憶付2倍ヒダオーダーメイドカーテンです。,,,,,,,,,,,,,,,,,,,,,,,,,,,,,,,,,,,,0,1,0,,1,,7980,7980,,0,,,,,,,,,,,,,,,"2,5",,"1706,1715,1716,1719,1726,1721,1728,1729",,"5,4,3,2,1",,,,
,,,,1,SC17116（ベージュ）,1,,,,,,,ミラー、遮熱・断熱、形状記憶付2倍ヒダオーダーメイドカーテンです。,,ミラー、遮熱・断熱、形状記憶付2倍ヒダオーダーメイドカーテンです。,,,,,,,,,,,,,,,,,,,,,,,,,,,,,,,,,,,,0,1,0,,1,,7980,7980,,0,,,,,,,,,,,,,,,"2,5",,"1706,1715,1716,1719,1726,1721,1728,1729",,"5,4,3,2,1",,,,
,,,,1,SC17117（アイボリー）,1,,,,,,,ミラー、遮熱・断熱、形状記憶付2倍ヒダオーダーメイドカーテンです。,,ミラー、遮熱・断熱、形状記憶付2倍ヒダオーダーメイドカーテンです。,,,,,,,,,,,,,,,,,,,,,,,,,,,,,,,,,,,,0,1,0,,1,,7980,7980,,0,,,,,,,,,,,,,,,"2,5",,"1706,1715,1716,1719,1726,1721,1728,1729",,"5,4,3,2,1",,,,
,,,,1,SC17118（アイボリー）,1,,,,,,,遮熱・断熱、形状記憶付2倍ヒダオーダーメイドカーテンです。,,遮熱・断熱、形状記憶付2倍ヒダオーダーメイドカーテンです。,,,,,,,,,,,,,,,,,,,,,,,,,,,,,,,,,,,,0,1,0,,1,,7980,7980,,0,,,,,,,,,,,,,,,"2,5",,"1706,1715,1716,1719,1726,1728,1729",,"5,4,3,2,1",,,,
,,,,1,SC17119（ゴールド）,1,,,,,,,遮熱・断熱、形状記憶付2倍ヒダオーダーメイドカーテンです。,,遮熱・断熱、形状記憶付2倍ヒダオーダーメイドカーテンです。,,,,,,,,,,,,,,,,,,,,,,,,,,,,,,,,,,,,0,1,0,,1,,7980,7980,,0,,,,,,,,,,,,,,,"2,5",,"1706,1715,1716,1719,1726,1728,1729",,"5,4,3,2,1",,,,
,,,,1,SC17120（ホワイト）,1,,,,,,,ミラー、遮熱・断熱、形状記憶付2倍ヒダオーダーメイドカーテンです。,,ミラー、遮熱・断熱、形状記憶付2倍ヒダオーダーメイドカーテンです。,,,,,,,,,,,,,,,,,,,,,,,,,,,,,,,,,,,,0,1,0,,1,,7980,7980,,0,,,,,,,,,,,,,,,"2,5",,"1706,1715,1716,1719,1726,1721,1728,1729",,"5,4,3,2,1",,,,
,,,,1,SC17121（ホワイト）,1,,,,,,,透けにくい、遮熱・断熱、形状記憶付2倍ヒダオーダーメイドカーテンです。,,透けにくい、遮熱・断熱、形状記憶付2倍ヒダオーダーメイドカーテンです。,,,,,,,,,,,,,,,,,,,,,,,,,,,,,,,,,,,,0,1,0,,1,,7980,7980,,0,,,,,,,,,,,,,,,"2,5",,"1706,1715,1716,1719,1726,1731,1728,1729",,"5,4,3,2,1",,,,
,,,,1,CO84102（アイボリー）,1,,,,,,,防炎、ミラー、形状記憶付2倍ヒダオーダーメイドカーテンです。,,防炎、ミラー、形状記憶付2倍ヒダオーダーメイドカーテンです。,,,,,,,,,,,,,,,,,,,,,,,,,,,,,,,,,,,,0,1,0,,1,,7980,7980,,0,,,,,,,,,,,,,,,"2,5",,"1706,1715,1716,1719,1726,1721,1727,1728",,"5,4,3,2,1",,,,
,,,,1,CO84202（アイボリー）,1,,,,,,,防炎、ミラー、形状記憶付2倍ヒダオーダーメイドカーテンです。,,防炎、ミラー、形状記憶付2倍ヒダオーダーメイドカーテンです。,,,,,,,,,,,,,,,,,,,,,,,,,,,,,,,,,,,,0,1,0,,1,,9800,9800,,0,,,,,,,,,,,,,,,"2,5",,"1706,1715,1716,1719,1726,1721,1727,1728",,"5,4,3,2,1",,,,
,,,,1,IH18212（ブラウン）,1,,,,,,,形状記憶付2倍ヒダオーダーメイドカーテンです。,,形状記憶付2倍ヒダオーダーメイドカーテンです。,,,,,,,,,,,,,,,,,,,,,,,,,,,,,,,,,,,,0,1,0,,1,,9800,9800,,0,,,,,,,,,,,,,,,"2,5",,"1706,1715,1716,1719,1726,1728",,"5,4,3,2,1",,,,
,,,,1,IH18216（アイボリー）,1,,,,,,,防炎、ミラー、形状記憶付2倍ヒダオーダーメイドカーテンです。,,防炎、ミラー、形状記憶付2倍ヒダオーダーメイドカーテンです。,,,,,,,,,,,,,,,,,,,,,,,,,,,,,,,,,,,,0,1,0,,1,,9800,9800,,0,,,,,,,,,,,,,,,"2,5",,"1706,1715,1716,1719,1726,1721,1727,1728",,"5,4,3,2,1",,,,
,,,,1,IH18222（アイボリー）,1,,,,,,,ミラー、遮熱・断熱、形状記憶付2倍ヒダオーダーメイドカーテンです。,,ミラー、遮熱・断熱、形状記憶付2倍ヒダオーダーメイドカーテンです。,,,,,,,,,,,,,,,,,,,,,,,,,,,,,,,,,,,,0,1,0,,1,,9800,9800,,0,,,,,,,,,,,,,,,"2,5",,"1706,1715,1716,1719,1726,1721,1728,1729",,"5,4,3,2,1",,,,
,,,,1,KZ13248（アイボリー）,1,,,,,,,防炎、ミラー、形状記憶付2倍ヒダオーダーメイドカーテンです。,,防炎、ミラー、形状記憶付2倍ヒダオーダーメイドカーテンです。,,,,,,,,,,,,,,,,,,,,,,,,,,,,,,,,,,,,0,1,0,,1,,9800,9800,,0,,,,,,,,,,,,,,,"2,5",,"1706,1715,1716,1719,1726,1721,1727,1728",,"5,4,3,2,1",,,,
,,,,1,KZ13249（アイボリー）,1,,,,,,,防炎、ミラー、形状記憶付2倍ヒダオーダーメイドカーテンです。,,防炎、ミラー、形状記憶付2倍ヒダオーダーメイドカーテンです。,,,,,,,,,,,,,,,,,,,,,,,,,,,,,,,,,,,,0,1,0,,1,,9800,9800,,0,,,,,,,,,,,,,,,"2,5",,"1706,1715,1716,1719,1726,1721,1727,1728",,"5,4,3,2,1",,,,
,,,,1,KZ13253（アイボリー）,1,,,,,,,遮熱・断熱、形状記憶付2倍ヒダオーダーメイドカーテンです。,,遮熱・断熱、形状記憶付2倍ヒダオーダーメイドカーテンです。,,,,,,,,,,,,,,,,,,,,,,,,,,,,,,,,,,,,0,1,0,,1,,9800,9800,,0,,,,,,,,,,,,,,,"2,5",,"1706,1715,1716,1719,1726,1728,1729",,"5,4,3,2,1",,,,
,,,,1,KZ13255（アイボリー）,1,,,,,,,形状記憶付2倍ヒダオーダーメイドカーテンです。,,形状記憶付2倍ヒダオーダーメイドカーテンです。,,,,,,,,,,,,,,,,,,,,,,,,,,,,,,,,,,,,0,1,0,,1,,9800,9800,,0,,,,,,,,,,,,,,,"2,5",,"1706,1715,1716,1719,1726,1728",,"5,4,3,2,1",,,,
,,,,1,KZ13256（グリーン）,1,,,,,,,形状記憶付2倍ヒダオーダーメイドカーテンです。,,形状記憶付2倍ヒダオーダーメイドカーテンです。,,,,,,,,,,,,,,,,,,,,,,,,,,,,,,,,,,,,0,1,0,,1,,9800,9800,,0,,,,,,,,,,,,,,,"2,5",,"1706,1715,1716,1719,1726,1728",,"5,4,3,2,1",,,,
,,,,1,KZ13257（ピンク）,1,,,,,,,2倍ヒダオーダーメイドカーテンです。,,2倍ヒダオーダーメイドカーテンです。,,,,,,,,,,,,,,,,,,,,,,,,,,,,,,,,,,,,0,1,0,,1,,9800,9800,,0,,,,,,,,,,,,,,,"2,5",,"1706,1715,1716,1719,1726",,"5,4,3,2,1",,,,
,,,,1,SA16201（アイボリー）,1,,,,,,,ミラー、遮熱・断熱、形状記憶付2倍ヒダオーダーメイドカーテンです。,,ミラー、遮熱・断熱、形状記憶付2倍ヒダオーダーメイドカーテンです。,,,,,,,,,,,,,,,,,,,,,,,,,,,,,,,,,,,,0,1,0,,1,,9800,9800,,0,,,,,,,,,,,,,,,"2,5",,"1706,1715,1716,1719,1726,1721,1728,1729",,"5,4,3,2,1",,,,
,,,,1,SA16202（ベージュ）,1,,,,,,,ミラー、遮熱・断熱、形状記憶付2倍ヒダオーダーメイドカーテンです。,,ミラー、遮熱・断熱、形状記憶付2倍ヒダオーダーメイドカーテンです。,,,,,,,,,,,,,,,,,,,,,,,,,,,,,,,,,,,,0,1,0,,1,,9800,9800,,0,,,,,,,,,,,,,,,"2,5",,"1706,1715,1716,1719,1726,1721,1728,1729",,"5,4,3,2,1",,,,
,,,,1,SA16203（アイボリー）,1,,,,,,,防炎、2倍ヒダオーダーメイドカーテンです。,,防炎、2倍ヒダオーダーメイドカーテンです。,,,,,,,,,,,,,,,,,,,,,,,,,,,,,,,,,,,,0,1,0,,1,,9800,9800,,0,,,,,,,,,,,,,,,"2,5",,"1706,1715,1716,1719,1726,1727",,"5,4,3,2,1",,,,
,,,,1,SA16204（ベージュ）,1,,,,,,,防炎、2倍ヒダオーダーメイドカーテンです。,,防炎、2倍ヒダオーダーメイドカーテンです。,,,,,,,,,,,,,,,,,,,,,,,,,,,,,,,,,,,,0,1,0,,1,,9800,9800,,0,,,,,,,,,,,,,,,"2,5",,"1706,1715,1716,1719,1726,1727",,"5,4,3,2,1",,,,
,,,,1,SC17209（ホワイト）,1,,,,,,,形状記憶付2倍ヒダオーダーメイドカーテンです。,,形状記憶付2倍ヒダオーダーメイドカーテンです。,,,,,,,,,,,,,,,,,,,,,,,,,,,,,,,,,,,,0,1,0,,1,,9800,9800,,0,,,,,,,,,,,,,,,"2,5",,"1706,1715,1716,1719,1726,1728",,"5,4,3,2,1",,,,
,,,,1,SC17211（ホワイト）,1,,,,,,,防炎、形状記憶付2倍ヒダオーダーメイドカーテンです。,,防炎、形状記憶付2倍ヒダオーダーメイドカーテンです。,,,,,,,,,,,,,,,,,,,,,,,,,,,,,,,,,,,,0,1,0,,1,,9800,9800,,0,,,,,,,,,,,,,,,"2,5",,"1706,1715,1716,1719,1726,1727,1728",,"5,4,3,2,1",,,,
,,,,1,SC17212（アイボリー）,1,,,,,,,防炎、形状記憶付2倍ヒダオーダーメイドカーテンです。,,防炎、形状記憶付2倍ヒダオーダーメイドカーテンです。,,,,,,,,,,,,,,,,,,,,,,,,,,,,,,,,,,,,0,1,0,,1,,9800,9800,,0,,,,,,,,,,,,,,,"2,5",,"1706,1715,1716,1719,1726,1727,1728",,"5,4,3,2,1",,,,
,,,,1,SC17213（アイボリー）,1,,,,,,,防炎、遮熱・断熱、形状記憶付2倍ヒダオーダーメイドカーテンです。,,防炎、遮熱・断熱、形状記憶付2倍ヒダオーダーメイドカーテンです。,,,,,,,,,,,,,,,,,,,,,,,,,,,,,,,,,,,,0,1,0,,1,,9800,9800,,0,,,,,,,,,,,,,,,"2,5",,"1706,1715,1716,1719,1726,1727,1728,1729",,"5,4,3,2,1",,,,
,,,,1,SC17217（ベージュ）,1,,,,,,,防炎、ミラー、形状記憶付2倍ヒダオーダーメイドカーテンです。,,防炎、ミラー、形状記憶付2倍ヒダオーダーメイドカーテンです。,,,,,,,,,,,,,,,,,,,,,,,,,,,,,,,,,,,,0,1,0,,1,,9800,9800,,0,,,,,,,,,,,,,,,"2,5",,"1706,1715,1716,1719,1726,1721,1727,1728",,"5,4,3,2,1",,,,
,,,,1,SC17218（グリーン）,1,,,,,,,防炎、ミラー、形状記憶付2倍ヒダオーダーメイドカーテンです。,,防炎、ミラー、形状記憶付2倍ヒダオーダーメイドカーテンです。,,,,,,,,,,,,,,,,,,,,,,,,,,,,,,,,,,,,0,1,0,,1,,9800,9800,,0,,,,,,,,,,,,,,,"2,5",,"1706,1715,1716,1719,1726,1721,1727,1728",,"5,4,3,2,1",,,,
,,,,1,SC17227（アイボリー）,1,,,,,,,防炎、遮熱・断熱、形状記憶付2倍ヒダオーダーメイドカーテンです。,,防炎、遮熱・断熱、形状記憶付2倍ヒダオーダーメイドカーテンです。,,,,,,,,,,,,,,,,,,,,,,,,,,,,,,,,,,,,0,1,0,,1,,9800,9800,,0,,,,,,,,,,,,,,,"2,5",,"1706,1715,1716,1719,1726,1727,1728,1729",,"5,4,3,2,1",,,,
,,,,1,SC17231（アイボリー）,1,,,,,,,防炎、ミラー、形状記憶付2倍ヒダオーダーメイドカーテンです。,,防炎、ミラー、形状記憶付2倍ヒダオーダーメイドカーテンです。,,,,,,,,,,,,,,,,,,,,,,,,,,,,,,,,,,,,0,1,0,,1,,9800,9800,,0,,,,,,,,,,,,,,,"2,5",,"1706,1715,1716,1719,1726,1721,1727,1728",,"5,4,3,2,1",,,,
,,,,1,SC17233（アイボリー）,1,,,,,,,防炎、遮熱・断熱、形状記憶付2倍ヒダオーダーメイドカーテンです。,,防炎、遮熱・断熱、形状記憶付2倍ヒダオーダーメイドカーテンです。,,,,,,,,,,,,,,,,,,,,,,,,,,,,,,,,,,,,0,1,0,,1,,9800,9800,,0,,,,,,,,,,,,,,,"2,5",,"1706,1715,1716,1719,1726,1727,1728,1729",,"5,4,3,2,1",,,,
,,,,1,SC17244（アイボリー）,1,,,,,,,ミラー、遮熱・断熱、形状記憶付2倍ヒダオーダーメイドカーテンです。,,ミラー、遮熱・断熱、形状記憶付2倍ヒダオーダーメイドカーテンです。,,,,,,,,,,,,,,,,,,,,,,,,,,,,,,,,,,,,0,1,0,,1,,9800,9800,,0,,,,,,,,,,,,,,,"2,5",,"1706,1715,1716,1719,1726,1721,1728,1729",,"5,4,3,2,1",,,,
,,,,1,SC17245（アイボリー）,1,,,,,,,防炎、ミラー、形状記憶付2倍ヒダオーダーメイドカーテンです。,,防炎、ミラー、形状記憶付2倍ヒダオーダーメイドカーテンです。,,,,,,,,,,,,,,,,,,,,,,,,,,,,,,,,,,,,0,1,0,,1,,9800,9800,,0,,,,,,,,,,,,,,,"2,5",,"1706,1715,1716,1719,1726,1721,1727,1728",,"5,4,3,2,1",,,,
,,,,1,SC17246（アイボリー）,1,,,,,,,ミラー、遮熱・断熱、形状記憶付2倍ヒダオーダーメイドカーテンです。,,ミラー、遮熱・断熱、形状記憶付2倍ヒダオーダーメイドカーテンです。,,,,,,,,,,,,,,,,,,,,,,,,,,,,,,,,,,,,0,1,0,,1,,9800,9800,,0,,,,,,,,,,,,,,,"2,5",,"1706,1715,1716,1719,1726,1721,1728,1729",,"5,4,3,2,1",,,,
,,,,1,SC17247（アイボリー）,1,,,,,,,防炎、ミラー、形状記憶付2倍ヒダオーダーメイドカーテンです。,,防炎、ミラー、形状記憶付2倍ヒダオーダーメイドカーテンです。,,,,,,,,,,,,,,,,,,,,,,,,,,,,,,,,,,,,0,1,0,,1,,9800,9800,,0,,,,,,,,,,,,,,,"2,5",,"1706,1715,1716,1719,1726,1721,1727,1728",,"5,4,3,2,1",,,,
,,,,1,SC17248（アイボリー）,1,,,,,,,防炎、ミラー、形状記憶付2倍ヒダオーダーメイドカーテンです。,,防炎、ミラー、形状記憶付2倍ヒダオーダーメイドカーテンです。,,,,,,,,,,,,,,,,,,,,,,,,,,,,,,,,,,,,0,1,0,,1,,9800,9800,,0,,,,,,,,,,,,,,,"2,5",,"1706,1715,1716,1719,1726,1721,1727,1728",,"5,4,3,2,1",,,,
,,,,1,SC17249（グリーン）,1,,,,,,,防炎、ミラー、形状記憶付2倍ヒダオーダーメイドカーテンです。,,防炎、ミラー、形状記憶付2倍ヒダオーダーメイドカーテンです。,,,,,,,,,,,,,,,,,,,,,,,,,,,,,,,,,,,,0,1,0,,1,,9800,9800,,0,,,,,,,,,,,,,,,"2,5",,"1706,1715,1716,1719,1726,1721,1727,1728",,"5,4,3,2,1",,,,
,,,,1,SC17250（アイボリー）,1,,,,,,,ミラー、遮熱・断熱、形状記憶付2倍ヒダオーダーメイドカーテンです。,,ミラー、遮熱・断熱、形状記憶付2倍ヒダオーダーメイドカーテンです。,,,,,,,,,,,,,,,,,,,,,,,,,,,,,,,,,,,,0,1,0,,1,,9800,9800,,0,,,,,,,,,,,,,,,"2,5",,"1706,1715,1716,1719,1726,1721,1728,1729",,"5,4,3,2,1",,,,
,,,,1,SC17251（アイボリー）,1,,,,,,,防炎、形状記憶付2倍ヒダオーダーメイドカーテンです。,,防炎、形状記憶付2倍ヒダオーダーメイドカーテンです。,,,,,,,,,,,,,,,,,,,,,,,,,,,,,,,,,,,,0,1,0,,1,,9800,9800,,0,,,,,,,,,,,,,,,"2,5",,"1706,1715,1716,1719,1726,1727,1728",,"5,4,3,2,1",,,,
,,,,1,SC17252（ベージュ）,1,,,,,,,防炎、形状記憶付2倍ヒダオーダーメイドカーテンです。,,防炎、形状記憶付2倍ヒダオーダーメイドカーテンです。,,,,,,,,,,,,,,,,,,,,,,,,,,,,,,,,,,,,0,1,0,,1,,9800,9800,,0,,,,,,,,,,,,,,,"2,5",,"1706,1715,1716,1719,1726,1727,1728",,"5,4,3,2,1",,,,
,,,,1,SC17253（アイボリー）,1,,,,,,,防炎、透けにくい、遮熱・断熱、形状記憶付2倍ヒダオーダーメイドカーテンです。,,防炎、透けにくい、遮熱・断熱、形状記憶付2倍ヒダオーダーメイドカーテンです。,,,,,,,,,,,,,,,,,,,,,,,,,,,,,,,,,,,,0,1,0,,1,,9800,9800,,0,,,,,,,,,,,,,,,"2,5",,"1706,1715,1716,1719,1726,1727,1728,1729,1731",,"5,4,3,2,1",,,,
,,,,1,SC17254（アイボリー）,1,,,,,,,形状記憶付2倍ヒダオーダーメイドカーテンです。,,形状記憶付2倍ヒダオーダーメイドカーテンです。,,,,,,,,,,,,,,,,,,,,,,,,,,,,,,,,,,,,0,1,0,,1,,9800,9800,,0,,,,,,,,,,,,,,,"2,5",,"1706,1715,1716,1719,1726,1728",,"5,4,3,2,1",,,,
,,,,1,SC17255（ベージュ）,1,,,,,,,形状記憶付2倍ヒダオーダーメイドカーテンです。,,形状記憶付2倍ヒダオーダーメイドカーテンです。,,,,,,,,,,,,,,,,,,,,,,,,,,,,,,,,,,,,0,1,0,,1,,9800,9800,,0,,,,,,,,,,,,,,,"2,5",,"1706,1715,1716,1719,1726,1728",,"5,4,3,2,1",,,,
,,,,1,TA 15224（アイボリー）,1,,,,,,,形状記憶付2倍ヒダオーダーメイドカーテンです。,,形状記憶付2倍ヒダオーダーメイドカーテンです。,,,,,,,,,,,,,,,,,,,,,,,,,,,,,,,,,,,,0,1,0,,1,,9800,9800,,0,,,,,,,,,,,,,,,"2,5",,"1706,1715,1716,1719,1726,1728",,"5,4,3,2,1",,,,
,,,,1,TA 15225（ベージュ）,1,,,,,,,形状記憶付2倍ヒダオーダーメイドカーテンです。,,形状記憶付2倍ヒダオーダーメイドカーテンです。,,,,,,,,,,,,,,,,,,,,,,,,,,,,,,,,,,,,0,1,0,,1,,9800,9800,,0,,,,,,,,,,,,,,,"2,5",,"1706,1715,1716,1719,1726,1728",,"5,4,3,2,1",,,,
,,,,1,TA15232（ベージュ）,1,,,,,,,ミラー、形状記憶付2倍ヒダオーダーメイドカーテンです。,,ミラー、形状記憶付2倍ヒダオーダーメイドカーテンです。,,,,,,,,,,,,,,,,,,,,,,,,,,,,,,,,,,,,0,1,0,,1,,9800,9800,,0,,,,,,,,,,,,,,,"2,5",,"1706,1715,1716,1719,1726,1721,1728",,"5,4,3,2,1",,,,
,,,,1,TA15240（アイボリー）,1,,,,,,,裾ウェイト、形状記憶付2倍ヒダオーダーメイドカーテンです。,,裾ウェイト、形状記憶付2倍ヒダオーダーメイドカーテンです。,,,,,,,,,,,,,,,,,,,,,,,,,,,,,,,,,,,,0,1,0,,1,,9800,9800,,0,,,,,,,,,,,,,,,"2,5",,"1706,1715,1716,1719,1726,1728",,"5,4,3,2,1",,,,
,,,,1,TA15245（アイボリー）,1,,,,,,,ミラー、裾ウェイト、形状記憶付2倍ヒダオーダーメイドカーテンです。,,ミラー、裾ウェイト、形状記憶付2倍ヒダオーダーメイドカーテンです。,,,,,,,,,,,,,,,,,,,,,,,,,,,,,,,,,,,,0,1,0,,1,,9800,9800,,0,,,,,,,,,,,,,,,"2,5",,"1706,1715,1716,1719,1726,1721,1728",,"5,4,3,2,1",,,,
,,,,1,TA15252（アイボリー）,1,,,,,,,遮熱・断熱、形状記憶付2倍ヒダオーダーメイドカーテンです。,,遮熱・断熱、形状記憶付2倍ヒダオーダーメイドカーテンです。,,,,,,,,,,,,,,,,,,,,,,,,,,,,,,,,,,,,0,1,0,,1,,9800,9800,,0,,,,,,,,,,,,,,,"2,5",,"1706,1715,1716,1719,1726,1728,1729",,"5,4,3,2,1",,,,
,,,,1,TA15254（アイボリー）,1,,,,,,,裾ウェイト、形状記憶付2倍ヒダオーダーメイドカーテンです。,,裾ウェイト、形状記憶付2倍ヒダオーダーメイドカーテンです。,,,,,,,,,,,,,,,,,,,,,,,,,,,,,,,,,,,,0,1,0,,1,,9800,9800,,0,,,,,,,,,,,,,,,"2,5",,"1706,1715,1716,1719,1726,1728",,"5,4,3,2,1",,,,
,,,,1,TA15255（グレー）,1,,,,,,,裾ウェイト、形状記憶付2倍ヒダオーダーメイドカーテンです。,,裾ウェイト、形状記憶付2倍ヒダオーダーメイドカーテンです。,,,,,,,,,,,,,,,,,,,,,,,,,,,,,,,,,,,,0,1,0,,1,,9800,9800,,0,,,,,,,,,,,,,,,"2,5",,"1706,1715,1716,1719,1726,1728",,"5,4,3,2,1",,,,
,,,,1,TA15256（ベージュ）,1,,,,,,,裾ウェイト、形状記憶付2倍ヒダオーダーメイドカーテンです。,,裾ウェイト、形状記憶付2倍ヒダオーダーメイドカーテンです。,,,,,,,,,,,,,,,,,,,,,,,,,,,,,,,,,,,,0,1,0,,1,,9800,9800,,0,,,,,,,,,,,,,,,"2,5",,"1706,1715,1716,1719,1726,1728",,"5,4,3,2,1",,,,
,,,,1,TA15257（ブルー）,1,,,,,,,裾ウェイト、形状記憶付2倍ヒダオーダーメイドカーテンです。,,裾ウェイト、形状記憶付2倍ヒダオーダーメイドカーテンです。,,,,,,,,,,,,,,,,,,,,,,,,,,,,,,,,,,,,0,1,0,,1,,9800,9800,,0,,,,,,,,,,,,,,,"2,5",,"1706,1715,1716,1719,1726,1728",,"5,4,3,2,1",,,,
,,,,1,YB19201（アイボリー）,1,,,,,,,形状記憶付2倍ヒダオーダーメイドカーテンです。,,形状記憶付2倍ヒダオーダーメイドカーテンです。,,,,,,,,,,,,,,,,,,,,,,,,,,,,,,,,,,,,0,1,0,,1,,9800,9800,,0,,,,,,,,,,,,,,,"2,5",,"1706,1715,1716,1719,1726,1728",,"5,4,3,2,1",,,,
,,,,1,YB19202（グレー）,1,,,,,,,形状記憶付2倍ヒダオーダーメイドカーテンです。,,形状記憶付2倍ヒダオーダーメイドカーテンです。,,,,,,,,,,,,,,,,,,,,,,,,,,,,,,,,,,,,0,1,0,,1,,9800,9800,,0,,,,,,,,,,,,,,,"2,5",,"1706,1715,1716,1719,1726,1728",,"5,4,3,2,1",,,,
,,,,1,SC17306（アイボリー）,1,,,,,,,透けにくい、形状記憶付2倍ヒダオーダーメイドカーテンです。,,透けにくい、形状記憶付2倍ヒダオーダーメイドカーテンです。,,,,,,,,,,,,,,,,,,,,,,,,,,,,,,,,,,,,0,1,0,,1,,14800,14800,,0,,,,,,,,,,,,,,,"2,5",,"1706,1715,1716,1719,1726,1728,1731",,"5,4,3,2,1",,,,
,,,,1,SC17318（アイボリー）,1,,,,,,,防炎、遮熱・断熱、形状記憶付2倍ヒダオーダーメイドカーテンです。,,防炎、遮熱・断熱、形状記憶付2倍ヒダオーダーメイドカーテンです。,,,,,,,,,,,,,,,,,,,,,,,,,,,,,,,,,,,,0,1,0,,1,,14800,14800,,0,,,,,,,,,,,,,,,"2,5",,"1706,1715,1716,1719,1726,1727,1728,1729",,"5,4,3,2,1",,,,
,,,,1,SC17328（グレー）,1,,,,,,,形状記憶付2倍ヒダオーダーメイドカーテンです。,,形状記憶付2倍ヒダオーダーメイドカーテンです。,,,,,,,,,,,,,,,,,,,,,,,,,,,,,,,,,,,,0,1,0,,1,,14800,14800,,0,,,,,,,,,,,,,,,"2,5",,"1706,1715,1716,1719,1726,1728",,"5,4,3,2,1",,,,
,,,,1,SC17329（アイボリー）,1,,,,,,,遮熱・断熱、形状記憶付2倍ヒダオーダーメイドカーテンです。,,遮熱・断熱、形状記憶付2倍ヒダオーダーメイドカーテンです。,,,,,,,,,,,,,,,,,,,,,,,,,,,,,,,,,,,,0,1,0,,1,,14800,14800,,0,,,,,,,,,,,,,,,"2,5",,"1706,1715,1716,1719,1726,1728,1729",,"5,4,3,2,1",,,,
,,,,1,SC17330（アイボリー）,1,,,,,,,形状記憶付2倍ヒダオーダーメイドカーテンです。,,形状記憶付2倍ヒダオーダーメイドカーテンです。,,,,,,,,,,,,,,,,,,,,,,,,,,,,,,,,,,,,0,1,0,,1,,14800,14800,,0,,,,,,,,,,,,,,,"2,5",,"1706,1715,1716,1719,1726,1728",,"5,4,3,2,1",,,,
,,,,1,SC17331（グリーン）,1,,,,,,,形状記憶付2倍ヒダオーダーメイドカーテンです。,,形状記憶付2倍ヒダオーダーメイドカーテンです。,,,,,,,,,,,,,,,,,,,,,,,,,,,,,,,,,,,,0,1,0,,1,,14800,14800,,0,,,,,,,,,,,,,,,"2,5",,"1706,1715,1716,1719,1726,1728",,"5,4,3,2,1",,,,
,,,,1,SC17332（アイボリー）,1,,,,,,,形状記憶付2倍ヒダオーダーメイドカーテンです。,,形状記憶付2倍ヒダオーダーメイドカーテンです。,,,,,,,,,,,,,,,,,,,,,,,,,,,,,,,,,,,,0,1,0,,1,,14800,14800,,0,,,,,,,,,,,,,,,"2,5",,"1706,1715,1716,1719,1726,1728",,"5,4,3,2,1",,,,
,,,,1,SC17333（アイボリー）,1,,,,,,,形状記憶付2倍ヒダオーダーメイドカーテンです。,,形状記憶付2倍ヒダオーダーメイドカーテンです。,,,,,,,,,,,,,,,,,,,,,,,,,,,,,,,,,,,,0,1,0,,1,,14800,14800,,0,,,,,,,,,,,,,,,"2,5",,"1706,1715,1716,1719,1726,1728",,"5,4,3,2,1",,,,
,,,,1,IH18320（アイボリー）,1,,,,,,,遮熱・断熱、形状記憶付2倍ヒダオーダーメイドカーテンです。,,遮熱・断熱、形状記憶付2倍ヒダオーダーメイドカーテンです。,,,,,,,,,,,,,,,,,,,,,,,,,,,,,,,,,,,,0,1,0,,1,,14800,14800,,0,,,,,,,,,,,,,,,"2,5",,"1706,1715,1716,1719,1726,1728,1729",,"5,4,3,2,1",,,,
,,,,1,TA15313（ベージュ）,1,,,,,,,形状記憶付2倍ヒダオーダーメイドカーテンです。,,形状記憶付2倍ヒダオーダーメイドカーテンです。,,,,,,,,,,,,,,,,,,,,,,,,,,,,,,,,,,,,0,1,0,,1,,14800,14800,,0,,,,,,,,,,,,,,,"2,5",,"1706,1715,1716,1719,1726,1728",,"5,4,3,2,1",,,,
,,,,1,TA15314（ベージュ）,1,,,,,,,裾ウェイト、形状記憶付2倍ヒダオーダーメイドカーテンです。,,裾ウェイト、形状記憶付2倍ヒダオーダーメイドカーテンです。,,,,,,,,,,,,,,,,,,,,,,,,,,,,,,,,,,,,0,1,0,,1,,14800,14800,,0,,,,,,,,,,,,,,,"2,5",,"1706,1715,1716,1719,1726,1728",,"5,4,3,2,1",,,,
,,,,1,TA15315（ブルー）,1,,,,,,,裾ウェイト、形状記憶付2倍ヒダオーダーメイドカーテンです。,,裾ウェイト、形状記憶付2倍ヒダオーダーメイドカーテンです。,,,,,,,,,,,,,,,,,,,,,,,,,,,,,,,,,,,,0,1,0,,1,,14800,14800,,0,,,,,,,,,,,,,,,"2,5",,"1706,1715,1716,1719,1726,1728",,"5,4,3,2,1",,,,
,,,,1,TA15316（アイボリー）,1,,,,,,,形状記憶付2倍ヒダオーダーメイドカーテンです。,,形状記憶付2倍ヒダオーダーメイドカーテンです。,,,,,,,,,,,,,,,,,,,,,,,,,,,,,,,,,,,,0,1,0,,1,,14800,14800,,0,,,,,,,,,,,,,,,"2,5",,"1706,1715,1716,1719,1726,1728",,"5,4,3,2,1",,,,
,,,,1,TA15317（ベージュ）,1,,,,,,,形状記憶付2倍ヒダオーダーメイドカーテンです。,,形状記憶付2倍ヒダオーダーメイドカーテンです。,,,,,,,,,,,,,,,,,,,,,,,,,,,,,,,,,,,,0,1,0,,1,,14800,14800,,0,,,,,,,,,,,,,,,"2,5",,"1706,1715,1716,1719,1726,1728",,"5,4,3,2,1",,,,
,,,,1,TA15318（グレー）,1,,,,,,,形状記憶付2倍ヒダオーダーメイドカーテンです。,,形状記憶付2倍ヒダオーダーメイドカーテンです。,,,,,,,,,,,,,,,,,,,,,,,,,,,,,,,,,,,,0,1,0,,1,,14800,14800,,0,,,,,,,,,,,,,,,"2,5",,"1706,1715,1716,1719,1726,1728",,"5,4,3,2,1",,,,
,,,,1,YB19306（グリーン）,1,,,,,,,裾ウェイト、形状記憶付2倍ヒダオーダーメイドカーテンです。,,裾ウェイト、形状記憶付2倍ヒダオーダーメイドカーテンです。,,,,,,,,,,,,,,,,,,,,,,,,,,,,,,,,,,,,0,1,0,,1,,14800,14800,,0,,,,,,,,,,,,,,,"2,5",,"1706,1715,1716,1719,1726,1728",,"5,4,3,2,1",,,,
,,,,1,YB19307（ブルー）,1,,,,,,,裾ウェイト、形状記憶付2倍ヒダオーダーメイドカーテンです。,,裾ウェイト、形状記憶付2倍ヒダオーダーメイドカーテンです。,,,,,,,,,,,,,,,,,,,,,,,,,,,,,,,,,,,,0,1,0,,1,,14800,14800,,0,,,,,,,,,,,,,,,"2,5",,"1706,1715,1716,1719,1726,1728",,"5,4,3,2,1",,,,
,,,,1,YB19308（グリーン）,1,,,,,,,裾ウェイト、形状記憶付2倍ヒダオーダーメイドカーテンです。,,裾ウェイト、形状記憶付2倍ヒダオーダーメイドカーテンです。,,,,,,,,,,,,,,,,,,,,,,,,,,,,,,,,,,,,0,1,0,,1,,14800,14800,,0,,,,,,,,,,,,,,,"2,5",,"1706,1715,1716,1719,1726,1728",,"5,4,3,2,1",,,,
,,,,1,YB19309（アイボリー）,1,,,,,,,裾ウェイト、形状記憶付2倍ヒダオーダーメイドカーテンです。,,裾ウェイト、形状記憶付2倍ヒダオーダーメイドカーテンです。,,,,,,,,,,,,,,,,,,,,,,,,,,,,,,,,,,,,0,1,0,,1,,14800,14800,,0,,,,,,,,,,,,,,,"2,5",,"1706,1715,1716,1719,1726,1728",,"5,4,3,2,1",,,,
,,,,1,KZ13315（アイボリー）,1,,,,,,,裾ウェイト、形状記憶付2倍ヒダオーダーメイドカーテンです。,,裾ウェイト、形状記憶付2倍ヒダオーダーメイドカーテンです。,,,,,,,,,,,,,,,,,,,,,,,,,,,,,,,,,,,,0,1,0,,1,,14800,14800,,0,,,,,,,,,,,,,,,"2,5",,"1706,1715,1716,1719,1726,1728",,"5,4,3,2,1",,,,
,,,,1,KZ13316（パープル）,1,,,,,,,裾ウェイト、形状記憶付2倍ヒダオーダーメイドカーテンです。,,裾ウェイト、形状記憶付2倍ヒダオーダーメイドカーテンです。,,,,,,,,,,,,,,,,,,,,,,,,,,,,,,,,,,,,0,1,0,,1,,14800,14800,,0,,,,,,,,,,,,,,,"2,5",,"1706,1715,1716,1719,1726,1728",,"5,4,3,2,1",,,,
,,,,1,KZ13317（ブルー）,1,,,,,,,裾ウェイト、形状記憶付2倍ヒダオーダーメイドカーテンです。,,裾ウェイト、形状記憶付2倍ヒダオーダーメイドカーテンです。,,,,,,,,,,,,,,,,,,,,,,,,,,,,,,,,,,,,0,1,0,,1,,14800,14800,,0,,,,,,,,,,,,,,,"2,5",,"1706,1715,1716,1719,1726,1728",,"5,4,3,2,1",,,,
,,,,1,CO85301（オレンジ）,1,,,,,,,形状記憶付2倍ヒダオーダーメイドカーテンです。,,形状記憶付2倍ヒダオーダーメイドカーテンです。,,,,,,,,,,,,,,,,,,,,,,,,,,,,,,,,,,,,0,1,0,,1,,14800,14800,,0,,,,,,,,,,,,,,,"2,5",,"1706,1715,1716,1719,1726,1728",,"5,4,3,2,1",,,,
,,,,1,ＩＨ14301（ピンク）,1,,,,,,,形状記憶付2倍ヒダオーダーメイドカーテンです。,,形状記憶付2倍ヒダオーダーメイドカーテンです。,,,,,,,,,,,,,,,,,,,,,,,,,,,,,,,,,,,,0,1,0,,1,,14800,14800,,0,,,,,,,,,,,,,,,"2,5",,"1706,1715,1716,1719,1726,1728",,"5,4,3,2,1",,,,
,,,,1,ＩＨ14302（ベージュ）,1,,,,,,,形状記憶付2倍ヒダオーダーメイドカーテンです。,,形状記憶付2倍ヒダオーダーメイドカーテンです。,,,,,,,,,,,,,,,,,,,,,,,,,,,,,,,,,,,,0,1,0,,1,,14800,14800,,0,,,,,,,,,,,,,,,"2,5",,"1706,1715,1716,1719,1726,1728",,"5,4,3,2,1",,,,
,,,,1,ＩＨ14303（グリーン）,1,,,,,,,形状記憶付2倍ヒダオーダーメイドカーテンです。,,形状記憶付2倍ヒダオーダーメイドカーテンです。,,,,,,,,,,,,,,,,,,,,,,,,,,,,,,,,,,,,0,1,0,,1,,14800,14800,,0,,,,,,,,,,,,,,,"2,5",,"1706,1715,1716,1719,1726,1728",,"5,4,3,2,1",,,,
,,,,1,ＩＨ14304（ブルー）,1,,,,,,,形状記憶付2倍ヒダオーダーメイドカーテンです。,,形状記憶付2倍ヒダオーダーメイドカーテンです。,,,,,,,,,,,,,,,,,,,,,,,,,,,,,,,,,,,,0,1,0,,1,,14800,14800,,0,,,,,,,,,,,,,,,"2,5",,"1706,1715,1716,1719,1726,1728",,"5,4,3,2,1",,,,
,,,,1,ＩＨ14305（グレー）,1,,,,,,,形状記憶付2倍ヒダオーダーメイドカーテンです。,,形状記憶付2倍ヒダオーダーメイドカーテンです。,,,,,,,,,,,,,,,,,,,,,,,,,,,,,,,,,,,,0,1,0,,1,,14800,14800,,0,,,,,,,,,,,,,,,"2,5",,"1706,1715,1716,1719,1726,1728",,"5,4,3,2,1",,,,
,,,,1,CO85504（ベージュ）,1,,,,,,,防炎、形状記憶付2倍ヒダオーダーメイドカーテンです。,,防炎、形状記憶付2倍ヒダオーダーメイドカーテンです。,,,,,,,,,,,,,,,,,,,,,,,,,,,,,,,,,,,,0,1,0,,1,,19800,19800,,0,,,,,,,,,,,,,,,"2,5",,"1706,1715,1716,1719,1726,1727,1728",,"5,4,3,2,1",,,,
,,,,1,CO85505（グリーン）,1,,,,,,,防炎、形状記憶付2倍ヒダオーダーメイドカーテンです。,,防炎、形状記憶付2倍ヒダオーダーメイドカーテンです。,,,,,,,,,,,,,,,,,,,,,,,,,,,,,,,,,,,,0,1,0,,1,,19800,19800,,0,,,,,,,,,,,,,,,"2,5",,"1706,1715,1716,1719,1726,1727,1728",,"5,4,3,2,1",,,,
,,,,1,CO85506（アイボリー）,1,,,,,,,防炎、形状記憶付2倍ヒダオーダーメイドカーテンです。,,防炎、形状記憶付2倍ヒダオーダーメイドカーテンです。,,,,,,,,,,,,,,,,,,,,,,,,,,,,,,,,,,,,0,1,0,,1,,19800,19800,,0,,,,,,,,,,,,,,,"2,5",,"1706,1715,1716,1719,1726,1727,1728",,"5,4,3,2,1",,,,
,,,,1,TA15504（アイボリー）,1,,,,,,,形状記憶付2倍ヒダオーダーメイドカーテンです。,,形状記憶付2倍ヒダオーダーメイドカーテンです。,,,,,,,,,,,,,,,,,,,,,,,,,,,,,,,,,,,,0,1,0,,1,,19800,19800,,0,,,,,,,,,,,,,,,"2,5",,"1706,1715,1716,1719,1726,1728",,"5,4,3,2,1",,,,
,,,,1,KZ13603（アイボリー）,1,,,,,,,裾ウェイト、2倍ヒダオーダーメイドカーテンです。,,裾ウェイト、2倍ヒダオーダーメイドカーテンです。,,,,,,,,,,,,,,,,,,,,,,,,,,,,,,,,,,,,0,1,0,,1,,25800,25800,,0,,,,,,,,,,,,,,,"2,5",,"1706,1715,1716,1719,1726",,"5,4,3,2,1",,,,
