商品ID,商品規格ID,親規格分類ID,規格分類ID,メーカーID,商品名,表示ステータス(公開・非公開),コメント2,検索ワード(コメント3),コメント4,コメント5,コメント6,備考欄(SHOP専用),一覧-メインコメント,一覧-メイン画像,詳細-メインコメント,詳細-メイン画像,詳細-メイン拡大画像,詳細-サブタイトル(1),詳細-サブコメント(1),詳細-サブ画像(1),詳細-サブ拡大画像(1),詳細-サブタイトル(2),詳細-サブコメント(2),詳細-サブ画像(2),詳細-サブ拡大画像(2),詳細-サブタイトル(3),詳細-サブコメント(3),詳細-サブ画像(3),詳細-サブ拡大画像(3),詳細-サブタイトル(4),詳細-サブコメント(4),詳細-サブ画像(4),詳細-サブ拡大画像(4),詳細-サブタイトル(5),詳細-サブコメント(5),詳細-サブ画像(5),詳細-サブ拡大画像(5),詳細-サブタイトル(6),詳細-サブコメント(6),詳細-サブ画像(6),詳細-サブ拡大画像(6),詳細-サブタイトル(7),詳細-サブコメント(7),詳細-サブ画像(7),詳細-サブ拡大画像(7),詳細-サブタイトル(8),詳細-サブコメント(8),詳細-サブ画像(8),詳細-サブ拡大画像(8),発送日目安ID,削除フラグ,商品種別ID,商品コード,在庫数,在庫無制限フラグ,販売制限数,通常価格,販売価格,送料,ポイント付与率,ダウンロードファイル名,ダウンロード実ファイル,関連商品ID(1),関連商品コメント(1),関連商品ID(2),関連商品コメント(2),関連商品ID(3),関連商品コメント(3),関連商品ID(4),関連商品コメント(4),関連商品ID(5),関連商品コメント(5),関連商品ID(6),関連商品コメント(6),商品ステータス,商品ステータス名,カテゴリID,カテゴリ名,オプション設定,オーダー商品ID,オーダー商品フラグ,会員ランク別購入不可設定
,,,,1,YB22131,1,,YB22131,,,,,麻ライクな表情のある遮光生地に、幾何柄風にデザイン化した花柄をプリントしました。主張しすぎないデザインですので様々な薄地とのコーディネートが楽しめます。,YB22131/YB22131_1.jpg,"          <div class=""productCaution"">
            <h2>ご注意</h2>
            <div>
            
            </div>
          </div>
      <article class=""productDetails"">
      <h2><span>この商品の特長</span></h2>
      <h3 class=""textOrenge""><span><img src=""<!--{$TPL_URLPATH}-->img/icon/shade.png"" alt=""遮光性""></span>高い遮光性　(遮光1級)</h3>
      <dl>
      	<dt><img src=""<!--{$TPL_URLPATH}-->img/products/shade001.png"" data-original=""<!--{$TPL_URLPATH}-->img/products/shade001.png"" alt="""" class=""lazy""></dt>
        <dd><h4>99.99%の遮光率</h4>
        <h5>シャッターや雨戸に一番近い<br>人の表情が判別できない暗さ、外の明るさをほぼ感じない。</h5>
        <p>あああああああああああああああああああああああああああああああああああああああああああああああああああああああああああああああああああああああああああああああああああああああああああああああああああああああああああああああああああああああああああああああああああああああああああああああああああああああああああああああああああああああああああああああああああああああああああああああああああああああああああああああああああああああああああああああああああああああああああああああああああああああ</p>
        </dd>
      </dl>
      <h3 class=""textGreen""><span><img src=""<!--{$TPL_URLPATH}-->img/icon/shape.png"" alt=""形状記憶力""></span>形状記憶力がすごい!</h3>
      <dl>
      	<dt><img src=""<!--{$TPL_URLPATH}-->img/products/shade001.png"" data-original=""<!--{$TPL_URLPATH}-->img/products/shade001.png"" alt="""" class=""lazy""></dt>
        <dd><h4 class=""f16""><strong>カーテンじゅうたん王国の形状記憶加工は</strong></h4>
        <h5>丸みのある、なめらかな美しいウェーブ。カーテン特有の裾広がりを抑え閉じたときのおさまりもきれいです。</h5>
        <div class=""bgSilver"">
        	<dl>
            	<dt><img src=""<!--{$TPL_URLPATH}-->img/products/shape002.png"" data-original=""<!--{$TPL_URLPATH}-->img/products/shape002.png"" alt="""" class=""lazy""></dt>
                <dd>一般的な形状安定加工は丸みのあるウェーブがなくカーテン特有の裾広がりが出てしまうものもあります。</dd>
            </dl>
        </div>
        </dd>
      </dl>
      <h3 class=""textblue""><span><img src=""<!--{$TPL_URLPATH}-->img/icon/wash.png"" alt=""洗濯""></span>洗濯できて型崩れしにくい!</h3>
      <p class=""alignC""><img src=""<!--{$TPL_URLPATH}-->/img/products/wash001.png"" alt=""洗濯できて型崩れしにくい!""></p>
      <p>&nbsp;</p>
      <dl>
      	<dt><img src=""<!--{$TPL_URLPATH}-->img/products/option001.png"" alt=""""></dt>
        <dd>
        <p>オプション</p>
        <h4>同じ素材で作れる!</h4>
        <p>あああああああああああああああああああああああああああああああああああああああああああああああああああああああああああああああああああああああああああああああああああああああああああああああああああああああああああああああああああああああああああああああああああああああああああああああああああああああああああああああああああああああああああああああああああああああああああああああああああああああああああああああああああああああああああああああああああああああああああああああああああああああ</p>
        </dd>
      </dl>
      </article>",YB22131/YB22131_1.jpg,YB22131/YB22131_1.jpg,,,YB22131/YB22131_1.jpg,YB22131/YB22131_1.jpg,,,YB22131/YB22131_2.jpg,YB22131/YB22131_2.jpg,,,YB22131/YB22131_3.jpg,YB22131/YB22131_3.jpg,,,YB22131/YB22131_4.jpg,YB22131/YB22131_4.jpg,,,YB22131/YB22131_5.jpg,YB22131/YB22131_5.jpg,,,YB22131/YB22131_6.jpg,YB22131/YB22131_6.jpg,,,,,,,,,,0,1,0,,1,,100,100,,0,,,,,,,,,,,,,,,"1,2,3,4,5","NEW,オススメ,送料無料,再入荷,人気！！",1706,カーテン,"5,4,3,2,1",,,
