商品ID,商品規格ID,親規格分類ID,規格分類ID,メーカーID,商品名,表示ステータス(公開・非公開),コメント2,検索ワード(コメント3),コメント4,コメント5,コメント6,備考欄(SHOP専用),一覧-メインコメント,一覧-メイン画像,詳細-メインコメント,詳細-メイン画像,詳細-メイン拡大画像,詳細-サブタイトル(1),詳細-サブコメント(1),詳細-サブ画像(1),詳細-サブ拡大画像(1),詳細-サブタイトル(2),詳細-サブコメント(2),詳細-サブ画像(2),詳細-サブ拡大画像(2),詳細-サブタイトル(3),詳細-サブコメント(3),詳細-サブ画像(3),詳細-サブ拡大画像(3),詳細-サブタイトル(4),詳細-サブコメント(4),詳細-サブ画像(4),詳細-サブ拡大画像(4),詳細-サブタイトル(5),詳細-サブコメント(5),詳細-サブ画像(5),詳細-サブ拡大画像(5),詳細-サブタイトル(6),詳細-サブコメント(6),詳細-サブ画像(6),詳細-サブ拡大画像(6),詳細-サブタイトル(7),詳細-サブコメント(7),詳細-サブ画像(7),詳細-サブ拡大画像(7),詳細-サブタイトル(8),詳細-サブコメント(8),詳細-サブ画像(8),詳細-サブ拡大画像(8),発送日目安ID,削除フラグ,商品種別ID,商品コード,在庫数,在庫無制限フラグ,販売制限数,通常価格,販売価格,送料,ポイント付与率,ダウンロードファイル名,ダウンロード実ファイル,関連商品ID(1),関連商品コメント(1),関連商品ID(2),関連商品コメント(2),関連商品ID(3),関連商品コメント(3),関連商品ID(4),関連商品コメント(4),関連商品ID(5),関連商品コメント(5),関連商品ID(6),関連商品コメント(6),商品ステータス,商品ステータス名,カテゴリID,カテゴリ名,オプション設定,オーダー商品ID,オーダー商品フラグ,会員ランク別購入不可設定,通常価格_1
,,,,1,アッシュ （アイボリー）,1,,"無地,アイボリー,遮光,既製,形状記憶,1.5倍ヒダ,厚地カーテン",,,,,遮光2級形状記憶付1.5倍ヒダカーテンです。,ashIV/ashIV_1.jpg,"しっとりとした生地厚とシャンタン調の表面感が、どんなお部屋にもマッチする無地調の1.5倍ヒダカーテンです。
遮光機能もついて安心してお使い頂けます。",ashIV/ashIV_1.jpg,ashIV/ashIV_1.jpg,,,ashIV/ashIV_1.jpg,ashIV/ashIV_1.jpg,200:400,,ashIV/ashIV_2.jpg,ashIV/ashIV_2.jpg,,,ashIV/ashIV_3.jpg,ashIV/ashIV_3.jpg,,,ashIV/ashIV_4.jpg,ashIV/ashIV_4.jpg,,,ashIV/ashIV_5.jpg,ashIV/ashIV_5.jpg,,,,,,,,,,,,,,0,1,TBC302A,,1,,,3980,,0,,,,,,,,,,,,,,,"2,5",,"1706,1707,1708,1715,1726,1728,1730",,"4,3,2,1",1,,,
,,,,1,アッシュ （グリーン）,1,,"無地,グリーン,遮光,既製,形状記憶,1.5倍ヒダ,厚地カーテン",,,,,遮光2級形状記憶付1.5倍ヒダカーテンです。,ashG/ashG_1.jpg,"しっとりとした生地厚とシャンタン調の表面感が、どんなお部屋にもマッチする無地調の1.5倍ヒダカーテンです。
遮光機能もついて安心してお使い頂けます。",ashG/ashG_1.jpg,ashG/ashG_1.jpg,,,ashG/ashG_1.jpg,ashG/ashG_1.jpg,200:400,,ashG/ashG_2.jpg,ashG/ashG_2.jpg,,,ashG/ashG_3.jpg,ashG/ashG_3.jpg,,,ashG/ashG_4.jpg,ashG/ashG_4.jpg,,,ashG/ashG_5.jpg,ashG/ashG_5.jpg,,,,,,,,,,,,,,0,1,TBC302C,,1,,,3980,,0,,,,,,,,,,,,,,,"2,5",,"1706,1707,1708,1715,1726,1728,1730",,"4,3,2,1",1,,,
,,,,1,アッシュ （ネイビー）,1,,"無地,ネイビー,遮光,既製,形状記憶,1.5倍ヒダ,厚地カーテン",,,,,遮光2級形状記憶付1.5倍ヒダカーテンです。,ashNV/ashNV_1.jpg,"しっとりとした生地厚とシャンタン調の表面感が、どんなお部屋にもマッチする無地調の1.5倍ヒダカーテンです。
遮光機能もついて安心してお使い頂けます。",ashNV/ashNV_1.jpg,ashNV/ashNV_1.jpg,,,ashNV/ashNV_1.jpg,ashNV/ashNV_1.jpg,200:400,,ashNV/ashNV_2.jpg,ashNV/ashNV_2.jpg,,,ashNV/ashNV_3.jpg,ashNV/ashNV_3.jpg,,,ashNV/ashNV_4.jpg,ashNV/ashNV_4.jpg,,,ashNV/ashNV_5.jpg,ashNV/ashNV_5.jpg,,,,,,,,,,,,,,0,1,TBC302D,,1,,,3980,,0,,,,,,,,,,,,,,,"2,5",,"1706,1707,1708,1715,1726,1728,1730",,"4,3,2,1",1,,,
,,,,1,アッシュ （ベージュ）,1,,"無地,ベージュ,遮光,既製,形状記憶,1.5倍ヒダ,厚地カーテン",,,,,遮光2級形状記憶付1.5倍ヒダカーテンです。,ashBE/ashBE_1.jpg,"しっとりとした生地厚とシャンタン調の表面感が、どんなお部屋にもマッチする無地調の1.5倍ヒダカーテンです。
遮光機能もついて安心してお使い頂けます。",ashBE/ashBE_1.jpg,ashBE/ashBE_1.jpg,,,ashBE/ashBE_1.jpg,ashBE/ashBE_1.jpg,200:400,,ashBE/ashBE_2.jpg,ashBE/ashBE_2.jpg,,,ashBE/ashBE_3.jpg,ashBE/ashBE_3.jpg,,,ashBE/ashBE_4.jpg,ashBE/ashBE_4.jpg,,,ashBE/ashBE_5.jpg,ashBE/ashBE_5.jpg,,,,,,,,,,,,,,0,1,TBC302B,,1,,,3980,,0,,,,,,,,,,,,,,,"2,5",,"1706,1707,1708,1715,1726,1728,1730",,"4,3,2,1",1,,,
,,,,1,ウィッティー （ブルー）,1,,"カジュアル,ブルー,遮光,既製,形状記憶,1.5倍ヒダ,厚地カーテン",,,,,遮光2級形状記憶付1.5倍ヒダカーテンです。,withyBL/withyBL_1.jpg,"白い雲とカモメの爽快な遮光2級1.5倍ヒダカーテンです。
子供部屋に安心してお使い頂けます。",withyBL/withyBL_1.jpg,withyBL/withyBL_1.jpg,,,withyBL/withyBL_1.jpg,withyBL/withyBL_1.jpg,200:400,,withyBL/withyBL_2.jpg,withyBL/withyBL_2.jpg,,,withyBL/withyBL_3.jpg,withyBL/withyBL_3.jpg,,,withyBL/withyBL_4.jpg,withyBL/withyBL_4.jpg,,,withyBL/withyBL_5.jpg,withyBL/withyBL_5.jpg,,,,,,,,,,,,,,0,1,YUD318A,,1,,,3980,,0,,,,,,,,,,,,,,,"2,5",,"1706,1707,1713,1715,1726,1728,1730",,"4,3,2,1",1,,,
,,,,1,ウルク （アイボリー）,1,,"無地,アイボリー,遮光,既製,形状記憶,1.5倍ヒダ,厚地カーテン",,,,,遮光3級形状記憶付1.5倍ヒダカーテンです。,urukuIV/urukuIV_1.jpg,"表面に素材感のある無地調の遮光1.5倍ヒダカーテンです。
ナチュラル感のある商品です。 ",urukuIV/urukuIV_1.jpg,urukuIV/urukuIV_1.jpg,,,urukuIV/urukuIV_1.jpg,urukuIV/urukuIV_1.jpg,200:400,,urukuIV/urukuIV_2.jpg,urukuIV/urukuIV_2.jpg,,,urukuIV/urukuIV_3.jpg,urukuIV/urukuIV_3.jpg,,,urukuIV/urukuIV_4.jpg,urukuIV/urukuIV_4.jpg,,,urukuIV/urukuIV_5.jpg,urukuIV/urukuIV_5.jpg,,,urukuIV/urukuIV_6.jpg,urukuIV/urukuIV_6.jpg,,,,,,,,,,0,1,SFD304A,,1,,,3980,,0,,,,,,,,,,,,,,,"2,5",,"1706,1707,1708,1715,1726,1728,1730",,"4,3,2,1",1,,,
,,,,1,ウルク （グリーン）,1,,"無地,グリーン,遮光,既製,形状記憶,1.5倍ヒダ,厚地カーテン",,,,,遮光3級形状記憶付1.5倍ヒダカーテンです。,urukuG/urukuG_1.jpg,"表面に素材感のある無地調の遮光1.5倍ヒダカーテンです。
ナチュラル感のある商品です。 ",urukuG/urukuG_1.jpg,urukuG/urukuG_1.jpg,,,urukuG/urukuG_1.jpg,urukuG/urukuG_1.jpg,200:400,,urukuG/urukuG_2.jpg,urukuG/urukuG_2.jpg,,,urukuG/urukuG_3.jpg,urukuG/urukuG_3.jpg,,,urukuG/urukuG_4.jpg,urukuG/urukuG_4.jpg,,,urukuG/urukuG_5.jpg,urukuG/urukuG_5.jpg,,,urukuG/urukuG_6.jpg,urukuG/urukuG_6.jpg,,,,,,,,,,0,1,SFD304D,,1,,,3980,,0,,,,,,,,,,,,,,,"2,5",,"1706,1707,1708,1715,1726,1728,1730",,"4,3,2,1",1,,,
,,,,1,ウルク （ブラウン）,1,,"無地,ブラウン,遮光,既製,形状記憶,1.5倍ヒダ,厚地カーテン",,,,,遮光3級形状記憶付1.5倍ヒダカーテンです。,urukuBR/urukuBR_1.jpg,"表面に素材感のある無地調の遮光1.5倍ヒダカーテンです。
ナチュラル感のある商品です。 ",urukuBR/urukuBR_1.jpg,urukuBR/urukuBR_1.jpg,,,urukuBR/urukuBR_1.jpg,urukuBR/urukuBR_1.jpg,200:400,,urukuBR/urukuBR_2.jpg,urukuBR/urukuBR_2.jpg,,,urukuBR/urukuBR_3.jpg,urukuBR/urukuBR_3.jpg,,,urukuBR/urukuBR_4.jpg,urukuBR/urukuBR_4.jpg,,,urukuBR/urukuBR_5.jpg,urukuBR/urukuBR_5.jpg,,,urukuBR/urukuBR_6.jpg,urukuBR/urukuBR_6.jpg,,,,,,,,,,0,1,SFD304C,,1,,,3980,,0,,,,,,,,,,,,,,,"2,5",,"1706,1707,1708,1715,1726,1728,1730",,"4,3,2,1",1,,,
,,,,1,ウルク （ブラック）,1,,"無地,ブラック,遮光,既製,形状記憶,1.5倍ヒダ,厚地カーテン",,,,,遮光2級形状記憶付1.5倍ヒダカーテンです。,urukuBK/urukuBK_1.jpg,"表面に素材感のある無地調の遮光1.5倍ヒダカーテンです。
ナチュラル感のある商品です。 ",urukuBK/urukuBK_1.jpg,urukuBK/urukuBK_1.jpg,,,urukuBK/urukuBK_1.jpg,urukuBK/urukuBK_1.jpg,200:400,,urukuBK/urukuBK_2.jpg,urukuBK/urukuBK_2.jpg,,,urukuBK/urukuBK_3.jpg,urukuBK/urukuBK_3.jpg,,,urukuBK/urukuBK_4.jpg,urukuBK/urukuBK_4.jpg,,,urukuBK/urukuBK_5.jpg,urukuBK/urukuBK_5.jpg,,,urukuBK/urukuBK_6.jpg,urukuBK/urukuBK_6.jpg,,,,,,,,,,0,1,SFD304F,,1,,,3980,,0,,,,,,,,,,,,,,,"2,5",,"1706,1707,1708,1715,1726,1728,1730",,"4,3,2,1",1,,,
,,,,1,ウルク （ブルー）,1,,"無地,ブルー,遮光,既製,形状記憶,1.5倍ヒダ,厚地カーテン",,,,,遮光3級形状記憶付1.5倍ヒダカーテンです。,urukuBL/urukuBL_1.jpg,"表面に素材感のある無地調の遮光1.5倍ヒダカーテンです。
ナチュラル感のある商品です。 ",urukuBL/urukuBL_1.jpg,urukuBL/urukuBL_1.jpg,,,urukuBL/urukuBL_1.jpg,urukuBL/urukuBL_1.jpg,200:400,,urukuBL/urukuBL_2.jpg,urukuBL/urukuBL_2.jpg,,,urukuBL/urukuBL_3.jpg,urukuBL/urukuBL_3.jpg,,,urukuBL/urukuBL_4.jpg,urukuBL/urukuBL_4.jpg,,,urukuBL/urukuBL_5.jpg,urukuBL/urukuBL_5.jpg,,,urukuBL/urukuBL_6.jpg,urukuBL/urukuBL_6.jpg,,,,,,,,,,0,1,SFD304E,,1,,,3980,,0,,,,,,,,,,,,,,,"2,5",,"1706,1707,1708,1715,1726,1728,1730",,"4,3,2,1",1,,,
,,,,1,ウルク （ベージュ）,1,,"無地,ベージュ,遮光,既製,形状記憶,1.5倍ヒダ,厚地カーテン",,,,,遮光3級形状記憶付1.5倍ヒダカーテンです。,urukuBE/urukuBE_1.jpg,"表面に素材感のある無地調の遮光1.5倍ヒダカーテンです。
ナチュラル感のある商品です。 ",urukuBE/urukuBE_1.jpg,urukuBE/urukuBE_1.jpg,,,urukuBE/urukuBE_1.jpg,urukuBE/urukuBE_1.jpg,200:400,,urukuBE/urukuBE_2.jpg,urukuBE/urukuBE_2.jpg,,,urukuBE/urukuBE_3.jpg,urukuBE/urukuBE_3.jpg,,,urukuBE/urukuBE_4.jpg,urukuBE/urukuBE_4.jpg,,,urukuBE/urukuBE_5.jpg,urukuBE/urukuBE_5.jpg,,,urukuBE/urukuBE_6.jpg,urukuBE/urukuBE_6.jpg,,,,,,,,,,0,1,SFD304B,,1,,,3980,,0,,,,,,,,,,,,,,,"2,5",,"1706,1707,1708,1715,1726,1728,1730",,"4,3,2,1",1,,,
,,,,1,エオン （アイボリー）,1,,"カジュアル,アイボリー,遮光,既製,形状記憶,1.5倍ヒダ,厚地カーテン",,,,,遮光1級形状記憶付1.5倍ヒダカーテンです。,eon2IV/eon2IV_1.jpg,女性が好みのガーリーなモチーフを箔プリントで仕上げた1級遮光の1.5倍ヒダカーテンです。ペアレースのエオンレースと合わせてお使い下さい。,eon2IV/eon2IV_1.jpg,eon2IV/eon2IV_1.jpg,,,eon2IV/eon2IV_1.jpg,eon2IV/eon2IV_1.jpg,200:400,,eon2IV/eon2IV_2.jpg,eon2IV/eon2IV_2.jpg,,,eon2IV/eon2IV_3.jpg,eon2IV/eon2IV_3.jpg,,,eon2IV/eon2IV_4.jpg,eon2IV/eon2IV_4.jpg,,,eon2IV/eon2IV_5.jpg,eon2IV/eon2IV_5.jpg,,,,,,,,,,,,,,0,1,MAD401A,,1,,,3980,,0,,,,,,,,,,,,,,,"2,5",,"1706,1707,1713,1715,1726,1728,1730",,"4,3,2,1",1,,,
,,,,1,エオン （ブルー）,1,,"カジュアル,ブルー,遮光,既製,形状記憶,1.5倍ヒダ,厚地カーテン",,,,,遮光1級形状記憶付1.5倍ヒダカーテンです。,eon2BL/eon2BL_1.jpg,女性が好みのガーリーなモチーフを箔プリントで仕上げた1級遮光の1.5倍ヒダカーテンです。ペアレースのエオンレースと合わせてお使い下さい。,eon2BL/eon2BL_1.jpg,eon2BL/eon2BL_1.jpg,,,eon2BL/eon2BL_1.jpg,eon2BL/eon2BL_1.jpg,200:400,,eon2BL/eon2BL_2.jpg,eon2BL/eon2BL_2.jpg,,,eon2BL/eon2BL_3.jpg,eon2BL/eon2BL_3.jpg,,,eon2BL/eon2BL_4.jpg,eon2BL/eon2BL_4.jpg,,,eon2BL/eon2BL_5.jpg,eon2BL/eon2BL_5.jpg,,,,,,,,,,,,,,0,1,MAD401B,,1,,,3980,,0,,,,,,,,,,,,,,,"2,5",,"1706,1707,1713,1715,1726,1728,1730",,"4,3,2,1",1,,,
,,,,1,ガート （ピンク）,1,,"カジュアル,ピンク,既製,形状記憶,1.5倍ヒダ",,,,,形状記憶付1.5倍ヒダカーテンです。,gartPI/gartPI_1.jpg,"表情が可愛く、お茶目なネコをモチーフにした子供部屋にお薦めのカジュアルな1.5倍ヒダカーテンです。
朝、お子様が自然の光で目覚められるように遮光機能をあえて外し、地厚な温かみのあるしっかりとした生地にプリントしました。
お部屋が明るく軽快なイメージに変わります。",gartPI/gartPI_1.jpg,gartPI/gartPI_1.jpg,,,gartPI/gartPI_1.jpg,gartPI/gartPI_1.jpg,200:400,,gartPI/gartPI_2.jpg,gartPI/gartPI_2.jpg,,,gartPI/gartPI_3.jpg,gartPI/gartPI_3.jpg,,,gartPI/gartPI_4.jpg,gartPI/gartPI_4.jpg,,,gartPI/gartPI_5.jpg,gartPI/gartPI_5.jpg,,,,,,,,,,,,,,0,1,YUD321A,,1,,,3980,,0,,,,,,,,,,,,,,,"2,5",,"1706,1707,1713,1715,1726,1728",,"4,3,2,1",1,,,
,,,,1,クリーパー （ブラウン）,1,,"モダン,ブラウン,遮光,既製,形状記憶,1.5倍ヒダ,厚地カーテン",,,,,遮光1級形状記憶付1.5倍ヒダカーテンです。,kuripa2BR/kuripa2BR_1.jpg,モダンで大胆なエンボスをほどこした遮光1級の1.5倍ヒダカーテンです。,kuripa2BR/kuripa2BR_1.jpg,kuripa2BR/kuripa2BR_1.jpg,,,kuripa2BR/kuripa2BR_1.jpg,kuripa2BR/kuripa2BR_1.jpg,200:400,,kuripa2BR/kuripa2BR_2.jpg,kuripa2BR/kuripa2BR_2.jpg,,,kuripa2BR/kuripa2BR_3.jpg,kuripa2BR/kuripa2BR_3.jpg,,,kuripa2BR/kuripa2BR_4.jpg,kuripa2BR/kuripa2BR_4.jpg,,,kuripa2BR/kuripa2BR_5.jpg,kuripa2BR/kuripa2BR_5.jpg,,,,,,,,,,,,,,0,1,KMD402A,,1,,,3980,,0,,,,,,,,,,,,,,,"2,5",,"1706,1707,1710,1715,1726,1728",,"4,3,2,1",1,,,
,,,,1,クリーパー （ブラック）,1,,"モダン,ブラック,遮光,既製,形状記憶,1.5倍ヒダ,厚地カーテン",,,,,遮光1級形状記憶付1.5倍ヒダカーテンです。,kuripa2BK/kuripa2BK_1.jpg,モダンで大胆なエンボスをほどこした遮光1級の1.5倍ヒダカーテンです。,kuripa2BK/kuripa2BK_1.jpg,kuripa2BK/kuripa2BK_1.jpg,,,kuripa2BK/kuripa2BK_1.jpg,kuripa2BK/kuripa2BK_1.jpg,200:400,,kuripa2BK/kuripa2BK_2.jpg,kuripa2BK/kuripa2BK_2.jpg,,,kuripa2BK/kuripa2BK_3.jpg,kuripa2BK/kuripa2BK_3.jpg,,,kuripa2BK/kuripa2BK_4.jpg,kuripa2BK/kuripa2BK_4.jpg,,,kuripa2BK/kuripa2BK_5.jpg,kuripa2BK/kuripa2BK_5.jpg,,,,,,,,,,,,,,0,1,KMD402B,,1,,,3980,,0,,,,,,,,,,,,,,,"2,5",,"1706,1707,1710,1715,1726,1728",,"4,3,2,1",1,,,
,,,,1,クルサール （ネイビー）,1,,"ナチュラル,ネイビー,遮光,既製,形状記憶,1.5倍ヒダ,厚地カーテン",,,,,遮光3級形状記憶付1.5倍ヒダカーテンです。,kurusarNV/kurusarNV_1.jpg,"シンプルでスッキリとしたチェック柄の遮光1.5倍ヒダカーテンです。
カジュアルなお部屋にも、子供部屋にもお薦めです。 ",kurusarNV/kurusarNV_1.jpg,kurusarNV/kurusarNV_1.jpg,,,kurusarNV/kurusarNV_1.jpg,kurusarNV/kurusarNV_1.jpg,200:400,,kurusarNV/kurusarNV_2.jpg,kurusarNV/kurusarNV_2.jpg,,,kurusarNV/kurusarNV_3.jpg,kurusarNV/kurusarNV_3.jpg,,,kurusarNV/kurusarNV_4.jpg,kurusarNV/kurusarNV_4.jpg,,,kurusarNV/kurusarNV_5.jpg,kurusarNV/kurusarNV_5.jpg,,,kurusarNV/kurusarNV_6.jpg,kurusarNV/kurusarNV_6.jpg,,,,,,,,,,0,1,YUD322B,,1,,,3980,,0,,,,,,,,,,,,,,,"2,5",,"1706,1707,1709,1715,1726,1728,1730",,"4,3,2,1",1,,,
,,,,1,クルサール （ベージュ）,1,,"ナチュラル,ベージュ,遮光,既製,形状記憶,1.5倍ヒダ,厚地カーテン",,,,,遮光3級形状記憶付1.5倍ヒダカーテンです。,kurusarBE/kurusarBE_1.jpg,"シンプルでスッキリとしたチェック柄の遮光1.5倍ヒダカーテンです。
カジュアルなお部屋にも、子供部屋にもお薦めです。 ",kurusarBE/kurusarBE_1.jpg,kurusarBE/kurusarBE_1.jpg,,,kurusarBE/kurusarBE_1.jpg,kurusarBE/kurusarBE_1.jpg,200:400,,kurusarBE/kurusarBE_2.jpg,kurusarBE/kurusarBE_2.jpg,,,kurusarBE/kurusarBE_3.jpg,kurusarBE/kurusarBE_3.jpg,,,kurusarBE/kurusarBE_4.jpg,kurusarBE/kurusarBE_4.jpg,,,kurusarBE/kurusarBE_5.jpg,kurusarBE/kurusarBE_5.jpg,,,kurusarBE/kurusarBE_6.jpg,kurusarBE/kurusarBE_6.jpg,,,,,,,,,,0,1,YUD322A,,1,,,3980,,0,,,,,,,,,,,,,,,"2,5",,"1706,1707,1709,1715,1726,1728,1730",,"4,3,2,1",1,,,
,,,,1,スリジェ （アイボリー）,1,,"エレガント,アイボリー,既製,形状記憶,1.5倍ヒダ",,,,,形状記憶付1.5倍ヒダカーテンです。,surijeIV/surijeIV_1.jpg,"フリーハンドタッチで可愛くお花をプリントしました。
生地に手持ち感があるので、安心してお使い頂けます。
箔プリントのキラキラ感も女子に人気の1.5倍ヒダカーテンです。",surijeIV/surijeIV_1.jpg,surijeIV/surijeIV_1.jpg,,,surijeIV/surijeIV_1.jpg,surijeIV/surijeIV_1.jpg,200:400,,surijeIV/surijeIV_2.jpg,surijeIV/surijeIV_2.jpg,,,surijeIV/surijeIV_3.jpg,surijeIV/surijeIV_3.jpg,,,surijeIV/surijeIV_4.jpg,surijeIV/surijeIV_4.jpg,,,surijeIV/surijeIV_5.jpg,surijeIV/surijeIV_5.jpg,,,,,,,,,,,,,,0,1,SFD303B,,1,,,3980,,0,,,,,,,,,,,,,,,"2,5",,"1706,1707,1711,1715,1726,1728",,"4,3,2,1",1,,,
,,,,1,スリジェ （ピンク）,1,,"エレガント,ピンク,既製,形状記憶,1.5倍ヒダ",,,,,形状記憶付1.5倍ヒダカーテンです。,surijePI/surijePI_1.jpg,"フリーハンドタッチで可愛くお花をプリントしました。
生地に手持ち感があるので、安心してお使い頂けます。
箔プリントのキラキラ感も女子に人気の1.5倍ヒダカーテンです。",surijePI/surijePI_1.jpg,surijePI/surijePI_1.jpg,,,surijePI/surijePI_1.jpg,surijePI/surijePI_1.jpg,200:400,,surijePI/surijePI_2.jpg,surijePI/surijePI_2.jpg,,,surijePI/surijePI_3.jpg,surijePI/surijePI_3.jpg,,,surijePI/surijePI_4.jpg,surijePI/surijePI_4.jpg,,,surijePI/surijePI_5.jpg,surijePI/surijePI_5.jpg,,,,,,,,,,,,,,0,1,SFD303A,,1,,,3980,,0,,,,,,,,,,,,,,,"2,5",,"1706,1707,1711,1715,1726,1728",,"4,3,2,1",1,,,
,,,,1,トルッコ （グリーン）,1,,"エレガント,グリーン,遮光,既製,形状記憶,1.5倍ヒダ,厚地カーテン",,,,,遮光3級形状記憶付1.5倍ヒダカーテンです。,torukkoG/torukkoG_1.jpg,"鏡や香水瓶、ロゴをポップなイラストで表現しました。
遮光機能付なので、女性のお部屋にも安心してお使い頂ける1.5倍ヒダカーテンです。 ",torukkoG/torukkoG_1.jpg,torukkoG/torukkoG_1.jpg,,,torukkoG/torukkoG_1.jpg,torukkoG/torukkoG_1.jpg,200:400,,torukkoG/torukkoG_2.jpg,torukkoG/torukkoG_2.jpg,,,torukkoG/torukkoG_3.jpg,torukkoG/torukkoG_3.jpg,,,torukkoG/torukkoG_4.jpg,torukkoG/torukkoG_4.jpg,,,torukkoG/torukkoG_5.jpg,torukkoG/torukkoG_5.jpg,,,,,,,,,,,,,,0,1,YUD323B,,1,,,3980,,0,,,,,,,,,,,,,,,"2,5",,"1706,1707,1711,1715,1726,1728,1730",,"4,3,2,1",1,,,
,,,,1,トルッコ （ピンク）,1,,"エレガント,ピンク,遮光,既製,形状記憶,1.5倍ヒダ,厚地カーテン",,,,,遮光3級形状記憶付1.5倍ヒダカーテンです。,torukkoPI/torukkoPI_1.jpg,"鏡や香水瓶、ロゴをポップなイラストで表現しました。
遮光機能付なので、女性のお部屋にも安心してお使い頂ける1.5倍ヒダカーテンです。 ",torukkoPI/torukkoPI_1.jpg,torukkoPI/torukkoPI_1.jpg,,,torukkoPI/torukkoPI_1.jpg,torukkoPI/torukkoPI_1.jpg,200:400,,torukkoPI/torukkoPI_2.jpg,torukkoPI/torukkoPI_2.jpg,,,torukkoPI/torukkoPI_3.jpg,torukkoPI/torukkoPI_3.jpg,,,torukkoPI/torukkoPI_4.jpg,torukkoPI/torukkoPI_4.jpg,,,torukkoPI/torukkoPI_5.jpg,torukkoPI/torukkoPI_5.jpg,,,,,,,,,,,,,,0,1,YUD323A,,1,,,3980,,0,,,,,,,,,,,,,,,"2,5",,"1706,1707,1711,1715,1726,1728,1730",,"4,3,2,1",1,,,
,,,,1,フォマージュ （イエロー）,1,,"カジュアル,イエロー,遮光,既製,形状記憶,1.5倍ヒダ,厚地カーテン",,,,,遮光2級形状記憶付1.5倍ヒダカーテンです。,fomajuYE/fomajuYE_1.jpg,"スッキリと爽快で可愛らしく、ドットでサークルを構成しています。
幾何にもお花にも見えるカジュアルな雰囲気です。
イエローとブルーのシンプルなカラーリングは今流行の新しい雰囲気の北欧インテリアのイメージを作ってくれる1.5倍ヒダカーテンです。",fomajuYE/fomajuYE_1.jpg,fomajuYE/fomajuYE_1.jpg,,,fomajuYE/fomajuYE_1.jpg,fomajuYE/fomajuYE_1.jpg,200:400,,fomajuYE/fomajuYE_2.jpg,fomajuYE/fomajuYE_2.jpg,,,fomajuYE/fomajuYE_3.jpg,fomajuYE/fomajuYE_3.jpg,,,fomajuYE/fomajuYE_4.jpg,fomajuYE/fomajuYE_4.jpg,,,fomajuYE/fomajuYE_5.jpg,fomajuYE/fomajuYE_5.jpg,,,,,,,,,,,,,,0,1,YUD320A,,1,,,3980,,0,,,,,,,,,,,,,,,"2,5",,"1706,1707,1713,1715,1726,1728,1730",,"4,3,2,1",1,,,
,,,,1,フリオ （ピンク）,1,,"エレガント,ピンク,遮光,既製,形状記憶,1.5倍ヒダ,厚地カーテン",,,,,遮光2級形状記憶付1.5倍ヒダカーテンです。,hurioPI/hurioPI_1.jpg,"自然の中にある草花をイラストタッチで描いたナチュラルな柄域の1.5倍ヒダカーテンです。
部分的に水彩風のアクセントを効かせ、瑞々しい印象に仕上げました。 ",hurioPI/hurioPI_1.jpg,hurioPI/hurioPI_1.jpg,,,hurioPI/hurioPI_1.jpg,hurioPI/hurioPI_1.jpg,200:400,,hurioPI/hurioPI_2.jpg,hurioPI/hurioPI_2.jpg,,,hurioPI/hurioPI_3.jpg,hurioPI/hurioPI_3.jpg,,,hurioPI/hurioPI_4.jpg,hurioPI/hurioPI_4.jpg,,,hurioPI/hurioPI_5.jpg,hurioPI/hurioPI_5.jpg,,,,,,,,,,,,,,0,1,YUD315A,,1,,,3980,,0,,,,,,,,,,,,,,,"2,5",,"1706,1707,1715,1711,1728,1726,1730",,"4,3,2,1",1,,,
,,,,1,フリオ （ブルー）,1,,"エレガント,ブルー,遮光,既製,形状記憶,1.5倍ヒダ,厚地カーテン",,,,,遮光2級形状記憶付1.5倍ヒダカーテンです。,hurioBL/hurioBL_1.jpg,"自然の中にある草花をイラストタッチで描いたナチュラルな柄域の1.5倍ヒダカーテンです。
部分的に水彩風のアクセントを効かせ、瑞々しい印象に仕上げました。 ",hurioBL/hurioBL_1.jpg,hurioBL/hurioBL_1.jpg,,,hurioBL/hurioBL_1.jpg,hurioBL/hurioBL_1.jpg,200:400,,hurioBL/hurioBL_2.jpg,hurioBL/hurioBL_2.jpg,,,hurioBL/hurioBL_3.jpg,hurioBL/hurioBL_3.jpg,,,hurioBL/hurioBL_4.jpg,hurioBL/hurioBL_4.jpg,,,hurioBL/hurioBL_5.jpg,hurioBL/hurioBL_5.jpg,,,,,,,,,,,,,,0,1,YUD315B,,1,,,3980,,0,,,,,,,,,,,,,,,"2,5",,"1706,1707,1715,1711,1728,1726,1730",,"4,3,2,1",1,,,
,,,,1,プレッソ （ネイビー）,1,,"カジュアル,ネイビー,遮光,既製,形状記憶,1.5倍ヒダ,厚地カーテン",,,,,遮光1級形状記憶付1.5倍ヒダカーテンです。,presoNV/presoNV_1.jpg,"箔プリントできらめく星柄のカーテンです。
子供部屋だけではなく、プライベートルームにもお使い頂ける遮光1級1.5倍ヒダカーテンです。 
ペアレースのプレッソレース2と合わせてお使いください。",presoNV/presoNV_1.jpg,presoNV/presoNV_1.jpg,,,presoNV/presoNV_1.jpg,presoNV/presoNV_1.jpg,200:400,,presoNV/presoNV_2.jpg,presoNV/presoNV_2.jpg,,,presoNV/presoNV_3.jpg,presoNV/presoNV_3.jpg,,,presoNV/presoNV_4.jpg,presoNV/presoNV_4.jpg,,,presoNV/presoNV_5.jpg,presoNV/presoNV_5.jpg,,,,,,,,,,,,,,0,1,TBC303A,,1,,,3980,,0,,,,,,,,,,,,,,,"2,5",,"1706,1707,1715,1713,1726,1728,1730",,"4,3,2,1",1,,,
,,,,1,プレッソ （ブラック）,1,,"カジュアル,ブラック,遮光,既製,形状記憶,1.5倍ヒダ,厚地カーテン",,,,,遮光1級形状記憶付1.5倍ヒダカーテンです。,presoBK/presoBK_1.jpg,"箔プリントできらめく星柄のカーテンです。
子供部屋だけではなく、プライベートルームにもお使い頂ける遮光1級1.5倍ヒダカーテンです。 ",presoBK/presoBK_1.jpg,presoBK/presoBK_1.jpg,,,presoBK/presoBK_1.jpg,presoBK/presoBK_1.jpg,200:400,,presoBK/presoBK_2.jpg,presoBK/presoBK_2.jpg,,,presoBK/presoBK_3.jpg,presoBK/presoBK_3.jpg,,,presoBK/presoBK_4.jpg,presoBK/presoBK_4.jpg,,,presoBK/presoBK_5.jpg,presoBK/presoBK_5.jpg,,,,,,,,,,,,,,0,1,TBC303B,,1,,,3980,,0,,,,,,,,,,,,,,,"2,5",,"1706,1707,1715,1713,1726,1728,1730",,"4,3,2,1",1,,,
,,,,1,ポプシクル （グリーン）,1,,"無地,グリーン,遮光,既製,形状記憶,1.5倍ヒダ,厚地カーテン",,,,,遮光2級形状記憶付1.5倍ヒダカーテンです。,popsikruG/popsikruG_1.jpg,カジュアルな感覚で子供部屋に使って頂きたい遮光2級1.5倍ヒダカーテンです。,popsikruG/popsikruG_1.jpg,popsikruG/popsikruG_1.jpg,,,popsikruG/popsikruG_1.jpg,popsikruG/popsikruG_1.jpg,200:400,,popsikruG/popsikruG_2.jpg,popsikruG/popsikruG_2.jpg,,,popsikruG/popsikruG_3.jpg,popsikruG/popsikruG_3.jpg,,,popsikruG/popsikruG_4.jpg,popsikruG/popsikruG_4.jpg,,,popsikruG/popsikruG_5.jpg,popsikruG/popsikruG_5.jpg,,,popsikruG/popsikruG_6.jpg,popsikruG/popsikruG_6.jpg,,,,,,,,,,0,1,SCD307B,,1,,,3980,,0,,,,,,,,,,,,,,,"2,5",,"1706,1707,1715,1708,1726,1728,1730",,"4,3,2,1",1,,,
,,,,1,ポプシクル （ネイビー）,1,,"無地,ネイビー,遮光,既製,形状記憶,1.5倍ヒダ,厚地カーテン",,,,,遮光2級形状記憶付1.5倍ヒダカーテンです。,popsikruNV/popsikruNV_1.jpg,カジュアルな感覚で子供部屋に使って頂きたい遮光2級1.5倍ヒダカーテンです。,popsikruNV/popsikruNV_1.jpg,popsikruNV/popsikruNV_1.jpg,,,popsikruNV/popsikruNV_1.jpg,popsikruNV/popsikruNV_1.jpg,200:400,,popsikruNV/popsikruNV_2.jpg,popsikruNV/popsikruNV_2.jpg,,,popsikruNV/popsikruNV_3.jpg,popsikruNV/popsikruNV_3.jpg,,,popsikruNV/popsikruNV_4.jpg,popsikruNV/popsikruNV_4.jpg,,,popsikruNV/popsikruNV_5.jpg,popsikruNV/popsikruNV_5.jpg,,,popsikruNV/popsikruNV_6.jpg,popsikruNV/popsikruNV_6.jpg,,,,,,,,,,0,1,SCD307C,,1,,,3980,,0,,,,,,,,,,,,,,,"2,5",,"1706,1707,1715,1708,1726,1728,1730",,"4,3,2,1",1,,,
,,,,1,ポプシクル （ピンク）,1,,"無地,ピンク,遮光,既製,形状記憶,1.5倍ヒダ,厚地カーテン",,,,,遮光2級形状記憶付1.5倍ヒダカーテンです。,popsikruPI/popsikruPI_1.jpg,カジュアルな感覚で子供部屋に使って頂きたい遮光2級1.5倍ヒダカーテンです。,popsikruPI/popsikruPI_1.jpg,popsikruPI/popsikruPI_1.jpg,,,popsikruPI/popsikruPI_1.jpg,popsikruPI/popsikruPI_1.jpg,200:400,,popsikruPI/popsikruPI_2.jpg,popsikruPI/popsikruPI_2.jpg,,,popsikruPI/popsikruPI_3.jpg,popsikruPI/popsikruPI_3.jpg,,,popsikruPI/popsikruPI_4.jpg,popsikruPI/popsikruPI_4.jpg,,,popsikruPI/popsikruPI_5.jpg,popsikruPI/popsikruPI_5.jpg,,,popsikruPI/popsikruPI_6.jpg,popsikruPI/popsikruPI_6.jpg,,,,,,,,,,0,1,SCD307A,,1,,,3980,,0,,,,,,,,,,,,,,,"2,5",,"1706,1707,1715,1708,1726,1728,1730",,"4,3,2,1",1,,,
,,,,1,ポム （オレンジ）,1,,"ナチュラル,オレンジ,遮光,既製,形状記憶,1.5倍ヒダ,厚地カーテン",,,,,遮光2級形状記憶付1.5倍ヒダカーテンです。,pom2OR/pom2OR_1.jpg,"大胆に木のシルエットをプリントしました。
カラフルな葉っぱがとても楽しい雰囲気です。
北欧調のオシャレな遮光2級1.5倍ヒダカーテンです。 ",pom2OR/pom2OR_1.jpg,pom2OR/pom2OR_1.jpg,,,pom2OR/pom2OR_1.jpg,pom2OR/pom2OR_1.jpg,200:400,,pom2OR/pom2OR_2.jpg,pom2OR/pom2OR_2.jpg,,,pom2OR/pom2OR_3.jpg,pom2OR/pom2OR_3.jpg,,,pom2OR/pom2OR_4.jpg,pom2OR/pom2OR_4.jpg,,,pom2OR/pom2OR_5.jpg,pom2OR/pom2OR_5.jpg,,,pom2OR/pom2OR_6.jpg,pom2OR/pom2OR_6.jpg,,,,,,,,,,0,1,YUD419A,,1,,,3980,,0,,,,,,,,,,,,,,,"2,5",,"1706,1707,1715,1709,1726,1728,1730",,"4,3,2,1",1,,,
,,,,1,ポム （グリーン）,1,,"ナチュラル,グリーン,遮光,既製,形状記憶,1.5倍ヒダ,厚地カーテン",,,,,遮光2級形状記憶付1.5倍ヒダカーテンです。,pom2G/pom2G_1.jpg,"大胆に木のシルエットをプリントしました。
カラフルな葉っぱがとても楽しい雰囲気です。
北欧調のオシャレな遮光2級1.5倍ヒダカーテンです。 ",pom2G/pom2G_1.jpg,pom2G/pom2G_1.jpg,,,pom2G/pom2G_1.jpg,pom2G/pom2G_1.jpg,200:400,,pom2G/pom2G_2.jpg,pom2G/pom2G_2.jpg,,,pom2G/pom2G_3.jpg,pom2G/pom2G_3.jpg,,,pom2G/pom2G_4.jpg,pom2G/pom2G_4.jpg,,,pom2G/pom2G_5.jpg,pom2G/pom2G_5.jpg,,,pom2G/pom2G_6.jpg,pom2G/pom2G_6.jpg,,,,,,,,,,0,1,YUD419B,,1,,,3980,,0,,,,,,,,,,,,,,,"2,5",,"1706,1707,1715,1709,1726,1728,1730",,"4,3,2,1",1,,,
,,,,1,マリーノ （イエローグリーン）,1,,"モダン,イエローグリーン,遮光,既製,形状記憶,1.5倍ヒダ,厚地カーテン",,,,,遮光2級形状記憶付1.5倍ヒダカーテンです。,marinoYG/marinoYG_1.jpg,"シンプルでスッキリとしたモダンなイメージの遮光2級1.5倍ヒダカーテンです。
",marinoYG/marinoYG_1.jpg,marinoYG/marinoYG_1.jpg,,,marinoYG/marinoYG_1.jpg,marinoYG/marinoYG_1.jpg,200:400,,marinoYG/marinoYG_2.jpg,marinoYG/marinoYG_2.jpg,,,marinoYG/marinoYG_3.jpg,marinoYG/marinoYG_3.jpg,,,marinoYG/marinoYG_4.jpg,marinoYG/marinoYG_4.jpg,,,marinoYG/marinoYG_5.jpg,marinoYG/marinoYG_5.jpg,,,,,,,,,,,,,,0,1,YUD317A,,1,,,3980,,0,,,,,,,,,,,,,,,"2,5",,"1706,1707,1715,1710,1726,1728,1730",,"4,3,2,1",1,,,
,,,,1,マリーノ （ブラウン）,1,,"モダン,ブラウン,遮光,既製,形状記憶,1.5倍ヒダ,厚地カーテン",,,,,遮光2級形状記憶付1.5倍ヒダカーテンです。,marinoBR/marinoBR_1.jpg,"シンプルでスッキリとしたモダンなイメージの遮光2級1.5倍ヒダカーテンです。
",marinoBR/marinoBR_1.jpg,marinoBR/marinoBR_1.jpg,,,marinoBR/marinoBR_1.jpg,marinoBR/marinoBR_1.jpg,200:400,,marinoBR/marinoBR_2.jpg,marinoBR/marinoBR_2.jpg,,,marinoBR/marinoBR_3.jpg,marinoBR/marinoBR_3.jpg,,,marinoBR/marinoBR_4.jpg,marinoBR/marinoBR_4.jpg,,,marinoBR/marinoBR_5.jpg,marinoBR/marinoBR_5.jpg,,,,,,,,,,,,,,0,1,YUD317B,,1,,,3980,,0,,,,,,,,,,,,,,,"2,5",,"1706,1707,1715,1710,1726,1728,1730",,"4,3,2,1",1,,,
,,,,1,リザード （ブラック）,1,,"モダン,ブラック,遮光,既製,形状記憶,1.5倍ヒダ,厚地カーテン",,,,,遮光2級形状記憶付1.5倍ヒダカーテンです。,rizadoBK/rizadoBK_1.jpg,"大胆なサークル柄とモノトーンのカラーリングの遮光2級1.5倍ヒダカーテンです。
スッキリとした白さがよりモダンなお部屋にマッチします。 ",rizadoBK/rizadoBK_1.jpg,rizadoBK/rizadoBK_1.jpg,,,rizadoBK/rizadoBK_1.jpg,rizadoBK/rizadoBK_1.jpg,200:400,,rizadoBK/rizadoBK_2.jpg,rizadoBK/rizadoBK_2.jpg,,,rizadoBK/rizadoBK_3.jpg,rizadoBK/rizadoBK_3.jpg,,,rizadoBK/rizadoBK_4.jpg,rizadoBK/rizadoBK_4.jpg,,,rizadoBK/rizadoBK_5.jpg,rizadoBK/rizadoBK_5.jpg,,,,,,,,,,,,,,0,1,YUD319B,,1,,,3980,,0,,,,,,,,,,,,,,,"2,5",,"1706,1707,1715,1710,1726,1728,1730",,"4,3,2,1",1,,,
,,,,1,リザード （ワイン）,1,,"モダン,ワイン,遮光,既製,形状記憶,1.5倍ヒダ,厚地カーテン",,,,,遮光2級形状記憶付1.5倍ヒダカーテンです。,rizadoWI/rizadoWI_1.jpg,"大胆なサークル柄とモノトーンのカラーリングの遮光2級1.5倍ヒダカーテンです。
スッキリとした白さがよりモダンなお部屋にマッチします。 ",rizadoWI/rizadoWI_1.jpg,rizadoWI/rizadoWI_1.jpg,,,rizadoWI/rizadoWI_1.jpg,rizadoWI/rizadoWI_1.jpg,200:400,,rizadoWI/rizadoWI_2.jpg,rizadoWI/rizadoWI_2.jpg,,,rizadoWI/rizadoWI_3.jpg,rizadoWI/rizadoWI_3.jpg,,,rizadoWI/rizadoWI_4.jpg,rizadoWI/rizadoWI_4.jpg,,,rizadoWI/rizadoWI_5.jpg,rizadoWI/rizadoWI_5.jpg,,,,,,,,,,,,,,0,1,YUD319A,,1,,,3980,,0,,,,,,,,,,,,,,,"2,5",,"1706,1707,1715,1710,1726,1728,1730",,"4,3,2,1",1,,,
,,,,1,リヨン （グリーン）,1,,"ナチュラル,グリーン,遮光,既製,形状記憶,1.5倍ヒダ,厚地カーテン",,,,,遮光2級形状記憶付1.5倍ヒダカーテンです。,riyonG/riyonG_1.jpg,"パネル柄の爽やかな遮光2級1.5倍ヒダカーテンです。
新緑をイメージしたグリーン配色とお部屋を優しい印象にしてくれるピンク配色の2色で展開しています。
絵を飾る感覚でお楽しみ下さい。 ",riyonG/riyonG_1.jpg,riyonG/riyonG_1.jpg,,,riyonG/riyonG_1.jpg,riyonG/riyonG_1.jpg,200:400,,,,,,,,,,,,,,,,,,,,,,,,,,,,,0,1,TBC301B,,1,,,3980,,0,,,,,,,,,,,,,,,"2,5",,"1706,1707,1715,1709,1726,1728,1730",,"4,3,2,1",1,,,
,,,,1,リヨン （ピンク）,1,,"ナチュラル,ピンク,遮光,既製,形状記憶,1.5倍ヒダ,厚地カーテン",,,,,遮光2級形状記憶付1.5倍ヒダカーテンです。,riyonPI/riyonPI_1.jpg,"パネル柄の爽やかな遮光2級1.5倍ヒダカーテンです。
新緑をイメージしたグリーン配色とお部屋を優しい印象にしてくれるピンク配色の2色で展開しています。
絵を飾る感覚でお楽しみ下さい。 ",riyonPI/riyonPI_1.jpg,riyonPI/riyonPI_1.jpg,,,riyonPI/riyonPI_1.jpg,riyonPI/riyonPI_1.jpg,200:400,,,,,,,,,,,,,,,,,,,,,,,,,,,,,0,1,TBC301A,,1,,,3980,,0,,,,,,,,,,,,,,,"2,5",,"1706,1707,1715,1709,1726,1728,1730",,"4,3,2,1",1,,,
,,,,1,ロートレック （アイボリー）,1,,"モダン,アイボリー,遮光,既製,形状記憶,1.5倍ヒダ,厚地カーテン",,,,,遮光1級形状記憶付1.5倍ヒダカーテンです。,rotorekIV/rotorekIV_1.jpg,ドットがウェーブを描いて並ぶシンプルなパターンをエンボスで表現したモダンテイストの遮光1級1.5倍ヒダカーテンです。,rotorekIV/rotorekIV_1.jpg,rotorekIV/rotorekIV_1.jpg,,,rotorekIV/rotorekIV_1.jpg,rotorekIV/rotorekIV_1.jpg,200:400,,rotorekIV/rotorekIV_2.jpg,rotorekIV/rotorekIV_2.jpg,,,rotorekIV/rotorekIV_3.jpg,rotorekIV/rotorekIV_3.jpg,,,rotorekIV/rotorekIV_4.jpg,rotorekIV/rotorekIV_4.jpg,,,rotorekIV/rotorekIV_5.jpg,rotorekIV/rotorekIV_5.jpg,,,rotorekIV/rotorekIV_6.jpg,rotorekIV/rotorekIV_6.jpg,,,,,,,,,,0,1,KMD401C,,1,,,3980,,0,,,,,,,,,,,,,,,"2,5",,"1706,1707,1715,1710,1726,1728,1730",,"4,3,2,1",1,,,
,,,,1,ロートレック （グリーン）,1,,"モダン,グリーン,遮光,既製,形状記憶,1.5倍ヒダ,厚地カーテン",,,,,遮光1級形状記憶付1.5倍ヒダカーテンです。,rotorekG/rotorekG_1.jpg,ドットがウェーブを描いて並ぶシンプルなパターンをエンボスで表現したモダンテイストの遮光1級1.5倍ヒダカーテンです。,rotorekG/rotorekG_1.jpg,rotorekG/rotorekG_1.jpg,,,rotorekG/rotorekG_1.jpg,rotorekG/rotorekG_1.jpg,200:400,,rotorekG/rotorekG_2.jpg,rotorekG/rotorekG_2.jpg,,,rotorekG/rotorekG_3.jpg,rotorekG/rotorekG_3.jpg,,,rotorekG/rotorekG_4.jpg,rotorekG/rotorekG_4.jpg,,,rotorekG/rotorekG_5.jpg,rotorekG/rotorekG_5.jpg,,,rotorekG/rotorekG_6.jpg,rotorekG/rotorekG_6.jpg,,,,,,,,,,0,1,KMD401D,,1,,,3980,,0,,,,,,,,,,,,,,,"2,5",,"1706,1707,1715,1710,1726,1728,1730",,"4,3,2,1",1,,,
,,,,1,ロートレック （ブラウン）,1,,"モダン,ブラウン,遮光,既製,形状記憶,1.5倍ヒダ,厚地カーテン",,,,,遮光1級形状記憶付1.5倍ヒダカーテンです。,rotorekBR/rotorekBR_1.jpg,ドットがウェーブを描いて並ぶシンプルなパターンをエンボスで表現したモダンテイストの遮光1級1.5倍ヒダカーテンです。,rotorekBR/rotorekBR_1.jpg,rotorekBR/rotorekBR_1.jpg,,,rotorekBR/rotorekBR_1.jpg,rotorekBR/rotorekBR_1.jpg,200:400,,rotorekBR/rotorekBR_2.jpg,rotorekBR/rotorekBR_2.jpg,,,rotorekBR/rotorekBR_3.jpg,rotorekBR/rotorekBR_3.jpg,,,rotorekBR/rotorekBR_4.jpg,rotorekBR/rotorekBR_4.jpg,,,rotorekBR/rotorekBR_5.jpg,rotorekBR/rotorekBR_5.jpg,,,rotorekBR/rotorekBR_6.jpg,rotorekBR/rotorekBR_6.jpg,,,,,,,,,,0,1,KMD401A,,1,,,3980,,0,,,,,,,,,,,,,,,"2,5",,"1706,1707,1715,1710,1726,1728,1730",,"4,3,2,1",1,,,
,,,,1,ワルフィス （ブルー）,1,,"カジュアル,ブルー,遮光,既製,形状記憶,1.5倍ヒダ,厚地カーテン",,,,,遮光2級形状記憶付1.5倍ヒダカーテンです。,warfisBL/warfisBL_1.jpg,"爽やかな海中のイメージです。
「クジラと海藻」のゆったりとした世界観を白とブルーのコントラストで描きました。
夢のある楽しい子供部屋になりそうな商品です。
遮光２級1.5倍ヒダカーテンです。",warfisBL/warfisBL_1.jpg,warfisBL/warfisBL_1.jpg,,,warfisBL/warfisBL_1.jpg,warfisBL/warfisBL_1.jpg,200:400,,warfisBL/warfisBL_2.jpg,warfisBL/warfisBL_2.jpg,,,warfisBL/warfisBL_3.jpg,warfisBL/warfisBL_3.jpg,,,warfisBL/warfisBL_4.jpg,warfisBL/warfisBL_4.jpg,,,warfisBL/warfisBL_5.jpg,warfisBL/warfisBL_5.jpg,,,,,,,,,,,,,,0,1,TBC305A,,1,,,3980,,0,,,,,,,,,,,,,,,"2,5",,"1706,1707,1715,1713,1726,1728,1730",,"4,3,2,1",1,,,
,,,,1,カルボス （アイボリー）,1,,"ナチュラル,アイボリー,遮熱,断熱,遮光,既製,形状記憶,1.5倍ヒダ,厚地カーテン",,,,,"遮熱・断熱,遮光2級形状記憶付1.5倍ヒダカーテンです。",karubosIV/karubosIV_1.jpg,ナチュラルな素材感のある生地に葉のシルエットをプリントし、実のカラーにアクセントを効かせている1.5倍ヒダカーテンです。 ,karubosIV/karubosIV_1.jpg,karubosIV/karubosIV_1.jpg,,,karubosIV/karubosIV_1.jpg,karubosIV/karubosIV_1.jpg,200:400,,karubosIV/karubosIV_2.jpg,karubosIV/karubosIV_2.jpg,,,karubosIV/karubosIV_3.jpg,karubosIV/karubosIV_3.jpg,,,karubosIV/karubosIV_4.jpg,karubosIV/karubosIV_4.jpg,,,karubosIV/karubosIV_5.jpg,karubosIV/karubosIV_5.jpg,,,karubosIV/karubosIV_6.jpg,karubosIV/karubosIV_6.jpg,,,,,,,,,,0,1,TBC502A,,1,,,4980,,0,,,,,,,,,,,,,,,"2,5",,"1706,1707,1715,1709,1726,1728,1729,1730",,"4,3,2,1",1,,,
,,,,1,カルボス （グリーン）,1,,"ナチュラル,グリーン,遮熱,断熱,遮光,既製,形状記憶,1.5倍ヒダ,厚地カーテン",,,,,"遮熱・断熱,遮光2級形状記憶付1.5倍ヒダカーテンです。",karubosG/karubosG_1.jpg,ナチュラルな素材感のある生地に葉のシルエットをプリントし、実のカラーにアクセントを効かせている1.5倍ヒダカーテンです。 ,karubosG/karubosG_1.jpg,karubosG/karubosG_1.jpg,,,karubosG/karubosG_1.jpg,karubosG/karubosG_1.jpg,200:400,,karubosG/karubosG_2.jpg,karubosG/karubosG_2.jpg,,,karubosG/karubosG_3.jpg,karubosG/karubosG_3.jpg,,,karubosG/karubosG_4.jpg,karubosG/karubosG_4.jpg,,,karubosG/karubosG_5.jpg,karubosG/karubosG_5.jpg,,,karubosG/karubosG_6.jpg,karubosG/karubosG_6.jpg,,,,,,,,,,0,1,TBC502B,,1,,,4980,,0,,,,,,,,,,,,,,,"2,5",,"1706,1707,1715,1709,1726,1728,1729,1730",,"4,3,2,1",1,,,
,,,,1,クレスト （ブラウン）,1,,"モダン,ブラウン,遮光,既製,形状記憶,1.5倍ヒダ,厚地カーテン",,,,,遮光3級形状記憶付1.5倍ヒダカーテンです。,crestBR/crestBR_1.jpg,シャンタン調の遮光生地に葉っぱ柄をくっきりとフロッキープリントした遮光3級1.5倍ヒダカーテンです。,crestBR/crestBR_1.jpg,crestBR/crestBR_1.jpg,,,crestBR/crestBR_1.jpg,crestBR/crestBR_1.jpg,200:400,,crestBR/crestBR_2.jpg,crestBR/crestBR_2.jpg,,,crestBR/crestBR_3.jpg,crestBR/crestBR_3.jpg,,,crestBR/crestBR_4.jpg,crestBR/crestBR_4.jpg,,,crestBR/crestBR_5.jpg,crestBR/crestBR_5.jpg,,,,,,,,,,,,,,0,1,SFD404A,,1,,,4980,,0,,,,,,,,,,,,,,,"2,5",,"1706,1707,1715,1710,1726,1728,1730",,"4,3,2,1",1,,,
,,,,1,クレスト （ブラック）,1,,"モダン,ブラック,遮光,既製,形状記憶,1.5倍ヒダ,厚地カーテン",,,,,遮光3級形状記憶付1.5倍ヒダカーテンです。,crestBK/crestBK_1.jpg,シャンタン調の遮光生地に葉っぱ柄をくっきりとフロッキープリントした遮光3級1.5倍ヒダカーテンです。,crestBK/crestBK_1.jpg,crestBK/crestBK_1.jpg,,,crestBK/crestBK_1.jpg,crestBK/crestBK_1.jpg,200:400,,crestBK/crestBK_2.jpg,crestBK/crestBK_2.jpg,,,crestBK/crestBK_3.jpg,crestBK/crestBK_3.jpg,,,crestBK/crestBK_4.jpg,crestBK/crestBK_4.jpg,,,crestBK/crestBK_5.jpg,crestBK/crestBK_5.jpg,,,,,,,,,,,,,,0,1,SFD404B,,1,,,4980,,0,,,,,,,,,,,,,,,"2,5",,"1706,1707,1715,1710,1726,1728,1730",,"4,3,2,1",1,,,
,,,,1,コルサ （ブラック）,1,,"ナチュラル,ブラック,遮光,既製,形状記憶,1.5倍ヒダ,厚地カーテン",,,,,遮光2級形状記憶付1.5倍ヒダカーテンです。,korusaBK/korusaBK_1.jpg,"トロピカルなモチーフをモダンに表現した大胆でスッキリとした1.5倍ヒダパネルカーテンです。
モチーフと色を合わせた無地のタッセルもアクセントになっています。",korusaBK/korusaBK_1.jpg,korusaBK/korusaBK_1.jpg,,,korusaBK/korusaBK_1.jpg,korusaBK/korusaBK_1.jpg,200:400,,,,,,,,,,,,,,,,,,,,,,,,,,,,,0,1,MAD402B,,1,,,4980,,0,,,,,,,,,,,,,,,"2,5",,"1706,1707,1715,1709,1726,1728,1730",,"4,3,2,1",1,,,
,,,,1,サマク （ブルー）,1,,"カジュアル,ブルー,既製,形状記憶,1.5倍ヒダ",,,,,形状記憶付1.5倍ヒダカーテンです。,samacBL/samacBL_1.jpg,"ざっくりとした素材感のある生地に「サボテン」のモチーフを刺繍しました。
トロピカルなモチーフが流行っている中で、形が可愛い「サボテン」は遊び心もあり、気軽にお使い頂ける1.5倍ヒダカーテンです。",samacBL/samacBL_1.jpg,samacBL/samacBL_1.jpg,,,samacBL/samacBL_1.jpg,samacBL/samacBL_1.jpg,200:400,,samacBL/samacBL_2.jpg,samacBL/samacBL_2.jpg,,,samacBL/samacBL_3.jpg,samacBL/samacBL_3.jpg,,,samacBL/samacBL_4.jpg,samacBL/samacBL_4.jpg,,,samacBL/samacBL_5.jpg,samacBL/samacBL_5.jpg,,,,,,,,,,,,,,0,1,KZD437A,,1,,,4980,,0,,,,,,,,,,,,,,,"2,5",,"1706,1707,1715,1713,1726,1728",,"4,3,2,1",1,,,
,,,,1,サラーナ （ネイビー）,1,,"ネイビー,遮熱,断熱,遮光,既製,形状記憶,1.5倍ヒダ,厚地カーテン",,,,,"遮熱・断熱,遮光2級形状記憶付1.5倍ヒダカーテンです。",saranaNV/saranaNV_1.jpg,大胆な花のシルエットでモダンな雰囲気の遮光2級1.5倍ヒダカーテンです。 ,saranaNV/saranaNV_1.jpg,saranaNV/saranaNV_1.jpg,,,saranaNV/saranaNV_1.jpg,saranaNV/saranaNV_1.jpg,200:400,,saranaNV/saranaNV_2.jpg,saranaNV/saranaNV_2.jpg,,,saranaNV/saranaNV_3.jpg,saranaNV/saranaNV_3.jpg,,,saranaNV/saranaNV_4.jpg,saranaNV/saranaNV_4.jpg,,,saranaNV/saranaNV_5.jpg,saranaNV/saranaNV_5.jpg,,,,,,,,,,,,,,0,1,TBC501B,,1,,,4980,,0,,,,,,,,,,,,,,,"2,5",,"1706,1707,1715,1710,1726,1728,1729,1730",,"4,3,2,1",1,,,
,,,,1,サラーナ （ブラウン）,1,,"ブラウン,遮熱,断熱,遮光,既製,形状記憶,1.5倍ヒダ,厚地カーテン",,,,,"遮熱・断熱,遮光2級形状記憶付1.5倍ヒダカーテンです。",saranaBR/saranaBR_1.jpg,大胆な花のシルエットでモダンな雰囲気の遮光2級1.5倍ヒダカーテンです。 ,saranaBR/saranaBR_1.jpg,saranaBR/saranaBR_1.jpg,,,saranaBR/saranaBR_1.jpg,saranaBR/saranaBR_1.jpg,200:400,,saranaBR/saranaBR_2.jpg,saranaBR/saranaBR_2.jpg,,,saranaBR/saranaBR_3.jpg,saranaBR/saranaBR_3.jpg,,,saranaBR/saranaBR_4.jpg,saranaBR/saranaBR_4.jpg,,,saranaBR/saranaBR_5.jpg,saranaBR/saranaBR_5.jpg,,,,,,,,,,,,,,0,1,TBC501A,,1,,,4980,,0,,,,,,,,,,,,,,,"2,5",,"1706,1707,1715,1710,1726,1728,1729,1730",,"4,3,2,1",1,,,
,,,,1,スキアー （グリーン）,1,,"グリーン,遮熱,断熱,遮光,既製,形状記憶,1.5倍ヒダ,厚地カーテン",,,,,"遮熱・断熱,遮光2級形状記憶付1.5倍ヒダカーテンです。",sukiaG/sukiaG_1.jpg,エレガントで使い易い更紗柄をシルエットで表現した遮熱、遮光２級の機能を持った1.5倍ヒダカーテンです。,sukiaG/sukiaG_1.jpg,sukiaG/sukiaG_1.jpg,,,sukiaG/sukiaG_1.jpg,sukiaG/sukiaG_1.jpg,200:400,,sukiaG/sukiaG_2.jpg,sukiaG/sukiaG_2.jpg,,,sukiaG/sukiaG_3.jpg,sukiaG/sukiaG_3.jpg,,,sukiaG/sukiaG_4.jpg,sukiaG/sukiaG_4.jpg,,,sukiaG/sukiaG_5.jpg,sukiaG/sukiaG_5.jpg,,,,,,,,,,,,,,0,1,KZD535B,,1,,,4980,,0,,,,,,,,,,,,,,,"2,5",,"1706,1707,1715,1711,1726,1728,1729,1730",,"4,3,2,1",1,,,
,,,,1,スキアー （ローズ）,1,,"ローズ,遮熱,断熱,遮光,既製,形状記憶,1.5倍ヒダ,厚地カーテン",,,,,"遮熱・断熱,遮光2級形状記憶付1.5倍ヒダカーテンです。",sukiaRO/sukiaRO_1.jpg,エレガントで使い易い更紗柄をシルエットで表現した遮熱、遮光２級の機能を持った1.5倍ヒダカーテンです。,sukiaRO/sukiaRO_1.jpg,sukiaRO/sukiaRO_1.jpg,,,sukiaRO/sukiaRO_1.jpg,sukiaRO/sukiaRO_1.jpg,200:400,,sukiaRO/sukiaRO_2.jpg,sukiaRO/sukiaRO_2.jpg,,,sukiaRO/sukiaRO_3.jpg,sukiaRO/sukiaRO_3.jpg,,,sukiaRO/sukiaRO_4.jpg,sukiaRO/sukiaRO_4.jpg,,,sukiaRO/sukiaRO_5.jpg,sukiaRO/sukiaRO_5.jpg,,,,,,,,,,,,,,0,1,KZD535A,,1,,,4980,,0,,,,,,,,,,,,,,,"2,5",,"1706,1707,1715,1711,1726,1728,1729,1730",,"4,3,2,1",1,,,
,,,,1,ソンブル （イエロー）,1,,"無地,イエロー,遮光,既製,形状記憶,1.5倍ヒダ,厚地カーテン",,,,,遮光2級形状記憶付1.5倍ヒダカーテンです。,sonbulYE/sonbulYE_1.jpg,"シンプルに今どきのインテリアに合わせて頂きたい遮光2級1.5倍ヒダカーテンです。
ヴィンテージ感覚にも、カフェスタイル風にもアレンジして頂けます。",sonbulYE/sonbulYE_1.jpg,sonbulYE/sonbulYE_1.jpg,,,sonbulYE/sonbulYE_1.jpg,sonbulYE/sonbulYE_1.jpg,200:400,,sonbulYE/sonbulYE_2.jpg,sonbulYE/sonbulYE_2.jpg,,,sonbulYE/sonbulYE_3.jpg,sonbulYE/sonbulYE_3.jpg,,,sonbulYE/sonbulYE_4.jpg,sonbulYE/sonbulYE_4.jpg,,,sonbulYE/sonbulYE_5.jpg,sonbulYE/sonbulYE_5.jpg,,,sonbulYE/sonbulYE_6.jpg,sonbulYE/sonbulYE_6.jpg,,,,,,,,,,0,1,YUD425F,,1,,,4980,,0,,,,,,,,,,,,,,,"2,5",,"1706,1707,1715,1708,1726,1728,1730",,"4,3,2,1",1,,,
,,,,1,ソンブル （オレンジ）,1,,"無地,オレンジ,遮光,既製,形状記憶,1.5倍ヒダ,厚地カーテン",,,,,遮光2級形状記憶付1.5倍ヒダカーテンです。,sonbulOR/sonbulOR_1.jpg,"シンプルに今どきのインテリアに合わせて頂きたい遮光2級1.5倍ヒダカーテンです。
ヴィンテージ感覚にも、カフェスタイル風にもアレンジして頂けます。",sonbulOR/sonbulOR_1.jpg,sonbulOR/sonbulOR_1.jpg,,,sonbulOR/sonbulOR_1.jpg,sonbulOR/sonbulOR_1.jpg,200:400,,sonbulOR/sonbulOR_2.jpg,sonbulOR/sonbulOR_2.jpg,,,sonbulOR/sonbulOR_3.jpg,sonbulOR/sonbulOR_3.jpg,,,sonbulOR/sonbulOR_4.jpg,sonbulOR/sonbulOR_4.jpg,,,sonbulOR/sonbulOR_5.jpg,sonbulOR/sonbulOR_5.jpg,,,sonbulOR/sonbulOR_6.jpg,sonbulOR/sonbulOR_6.jpg,,,,,,,,,,0,1,YUD425E,,1,,,4980,,0,,,,,,,,,,,,,,,"2,5",,"1706,1707,1715,1708,1726,1728,1730",,"4,3,2,1",1,,,
,,,,1,ソンブル （グリーン）,1,,"無地,グリーン,遮光,既製,形状記憶,1.5倍ヒダ,厚地カーテン",,,,,遮光2級形状記憶付1.5倍ヒダカーテンです。,sonbulG/sonbulG_1.jpg,"シンプルに今どきのインテリアに合わせて頂きたい遮光2級1.5倍ヒダカーテンです。
ヴィンテージ感覚にも、カフェスタイル風にもアレンジして頂けます。",sonbulG/sonbulG_1.jpg,sonbulG/sonbulG_1.jpg,,,sonbulG/sonbulG_1.jpg,sonbulG/sonbulG_1.jpg,200:400,,sonbulG/sonbulG_2.jpg,sonbulG/sonbulG_2.jpg,,,sonbulG/sonbulG_3.jpg,sonbulG/sonbulG_3.jpg,,,sonbulG/sonbulG_4.jpg,sonbulG/sonbulG_4.jpg,,,sonbulG/sonbulG_5.jpg,sonbulG/sonbulG_5.jpg,,,sonbulG/sonbulG_6.jpg,sonbulG/sonbulG_6.jpg,,,,,,,,,,0,1,YUD425D,,1,,,4980,,0,,,,,,,,,,,,,,,"2,5",,"1706,1707,1715,1708,1726,1728,1730",,"4,3,2,1",1,,,
,,,,1,ソンブル （グレー）,1,,"無地,グレー,遮光,既製,形状記憶,1.5倍ヒダ,厚地カーテン",,,,,遮光2級形状記憶付1.5倍ヒダカーテンです。,sonbulGRY/sonbulGRY_1.jpg,"シンプルに今どきのインテリアに合わせて頂きたい遮光2級1.5倍ヒダカーテンです。
ヴィンテージ感覚にも、カフェスタイル風にもアレンジして頂けます。",sonbulGRY/sonbulGRY_1.jpg,sonbulGRY/sonbulGRY_1.jpg,,,sonbulGRY/sonbulGRY_1.jpg,sonbulGRY/sonbulGRY_1.jpg,200:400,,sonbulGRY/sonbulGRY_2.jpg,sonbulGRY/sonbulGRY_2.jpg,,,sonbulGRY/sonbulGRY_3.jpg,sonbulGRY/sonbulGRY_3.jpg,,,sonbulGRY/sonbulGRY_4.jpg,sonbulGRY/sonbulGRY_4.jpg,,,sonbulGRY/sonbulGRY_5.jpg,sonbulGRY/sonbulGRY_5.jpg,,,sonbulGRY/sonbulGRY_6.jpg,sonbulGRY/sonbulGRY_6.jpg,,,,,,,,,,0,1,YUD425B,,1,,,4980,,0,,,,,,,,,,,,,,,"2,5",,"1706,1707,1715,1708,1726,1728,1730",,"4,3,2,1",1,,,
,,,,1,ソンブル （ネイビー）,1,,"無地,ネイビー,遮光,既製,形状記憶,1.5倍ヒダ,厚地カーテン",,,,,遮光2級形状記憶付1.5倍ヒダカーテンです。,sonbulNV/sonbulNV_1.jpg,"シンプルに今どきのインテリアに合わせて頂きたい遮光2級1.5倍ヒダカーテンです。
ヴィンテージ感覚にも、カフェスタイル風にもアレンジして頂けます。",sonbulNV/sonbulNV_1.jpg,sonbulNV/sonbulNV_1.jpg,,,sonbulNV/sonbulNV_1.jpg,sonbulNV/sonbulNV_1.jpg,200:400,,sonbulNV/sonbulNV_2.jpg,sonbulNV/sonbulNV_2.jpg,,,sonbulNV/sonbulNV_3.jpg,sonbulNV/sonbulNV_3.jpg,,,sonbulNV/sonbulNV_4.jpg,sonbulNV/sonbulNV_4.jpg,,,sonbulNV/sonbulNV_5.jpg,sonbulNV/sonbulNV_5.jpg,,,sonbulNV/sonbulNV_6.jpg,sonbulNV/sonbulNV_6.jpg,,,,,,,,,,0,1,YUD425A,,1,,,4980,,0,,,,,,,,,,,,,,,"2,5",,"1706,1707,1715,1708,1726,1728,1730",,"4,3,2,1",1,,,
,,,,1,ソンブル （ブラウン）,1,,"無地,ブラウン,遮光,既製,形状記憶,1.5倍ヒダ,厚地カーテン",,,,,遮光2級形状記憶付1.5倍ヒダカーテンです。,sonbulBR/sonbulBR_1.jpg,"シンプルに今どきのインテリアに合わせて頂きたい遮光2級1.5倍ヒダカーテンです。
ヴィンテージ感覚にも、カフェスタイル風にもアレンジして頂けます。",sonbulBR/sonbulBR_1.jpg,sonbulBR/sonbulBR_1.jpg,,,sonbulBR/sonbulBR_1.jpg,sonbulBR/sonbulBR_1.jpg,200:400,,sonbulBR/sonbulBR_2.jpg,sonbulBR/sonbulBR_2.jpg,,,sonbulBR/sonbulBR_3.jpg,sonbulBR/sonbulBR_3.jpg,,,sonbulBR/sonbulBR_4.jpg,sonbulBR/sonbulBR_4.jpg,,,sonbulBR/sonbulBR_5.jpg,sonbulBR/sonbulBR_5.jpg,,,sonbulBR/sonbulBR_6.jpg,sonbulBR/sonbulBR_6.jpg,,,,,,,,,,0,1,YUD425C,,1,,,4980,,0,,,,,,,,,,,,,,,"2,5",,"1706,1707,1715,1708,1726,1728,1730",,"4,3,2,1",1,,,
,,,,1,ダリア （アイボリー）,1,,"無地,アイボリー,遮熱,断熱,遮光,既製,形状記憶,1.5倍ヒダ,厚地カーテン",,,,,"遮熱・断熱,遮光2級形状記憶付1.5倍ヒダカーテンです。",dariaIV/dariaIV_1.jpg,遮熱と遮光2級機能を兼ね備えたベーシックな1.5倍ヒダカーテンです。,dariaIV/dariaIV_1.jpg,dariaIV/dariaIV_1.jpg,,,dariaIV/dariaIV_1.jpg,dariaIV/dariaIV_1.jpg,200:400,,dariaIV/dariaIV_2.jpg,dariaIV/dariaIV_2.jpg,,,dariaIV/dariaIV_3.jpg,dariaIV/dariaIV_3.jpg,,,dariaIV/dariaIV_4.jpg,dariaIV/dariaIV_4.jpg,,,dariaIV/dariaIV_5.jpg,dariaIV/dariaIV_5.jpg,,,dariaIV/dariaIV_6.jpg,dariaIV/dariaIV_6.jpg,,,,,,,,,,0,1,KZD529C,,1,,,4980,,0,,,,,,,,,,,,,,,"2,5",,"1706,1707,1715,1708,1726,1728,1729,1730",,"4,3,2,1",1,,,
,,,,1,ダリア （グリーン）,1,,"無地,グリーン,遮熱,断熱,遮光,既製,形状記憶,1.5倍ヒダ,厚地カーテン",,,,,"遮熱・断熱,遮光2級形状記憶付1.5倍ヒダカーテンです。",dariaG/dariaG_1.jpg,遮熱と遮光2級機能を兼ね備えたベーシックな1.5倍ヒダカーテンです。,dariaG/dariaG_1.jpg,dariaG/dariaG_1.jpg,,,dariaG/dariaG_1.jpg,dariaG/dariaG_1.jpg,200:400,,dariaG/dariaG_2.jpg,dariaG/dariaG_2.jpg,,,dariaG/dariaG_3.jpg,dariaG/dariaG_3.jpg,,,dariaG/dariaG_4.jpg,dariaG/dariaG_4.jpg,,,dariaG/dariaG_5.jpg,dariaG/dariaG_5.jpg,,,dariaG/dariaG_6.jpg,dariaG/dariaG_6.jpg,,,,,,,,,,0,1,KZD529D,,1,,,4980,,0,,,,,,,,,,,,,,,"2,5",,"1706,1707,1715,1708,1726,1728,1729,1730",,"4,3,2,1",1,,,
,,,,1,ダリア （ブラウン）,1,,"無地,ブラウン,遮熱,断熱,遮光,既製,形状記憶,1.5倍ヒダ,厚地カーテン",,,,,"遮熱・断熱,遮光1級形状記憶付1.5倍ヒダカーテンです。",dariaBR/dariaBR_1.jpg,遮熱と遮光1級機能を兼ね備えたベーシックな1.5倍ヒダカーテンです。,dariaBR/dariaBR_1.jpg,dariaBR/dariaBR_1.jpg,,,dariaBR/dariaBR_1.jpg,dariaBR/dariaBR_1.jpg,200:400,,dariaBR/dariaBR_2.jpg,dariaBR/dariaBR_2.jpg,,,dariaBR/dariaBR_3.jpg,dariaBR/dariaBR_3.jpg,,,dariaBR/dariaBR_4.jpg,dariaBR/dariaBR_4.jpg,,,dariaBR/dariaBR_5.jpg,dariaBR/dariaBR_5.jpg,,,dariaBR/dariaBR_6.jpg,dariaBR/dariaBR_6.jpg,,,,,,,,,,0,1,KZD529B,,1,,,4980,,0,,,,,,,,,,,,,,,"2,5",,"1706,1707,1715,1708,1726,1728,1729,1730",,"4,3,2,1",1,,,
,,,,1,ダリア （ブルー）,1,,"無地,ブルー,遮熱,断熱,遮光,既製,形状記憶,1.5倍ヒダ,厚地カーテン",,,,,"遮熱・断熱,遮光2級形状記憶付1.5倍ヒダカーテンです。",dariaBL/dariaBL_1.jpg,遮熱と遮光2級機能を兼ね備えたベーシックな1.5倍ヒダカーテンです。,dariaBL/dariaBL_1.jpg,dariaBL/dariaBL_1.jpg,,,dariaBL/dariaBL_1.jpg,dariaBL/dariaBL_1.jpg,200:400,,dariaBL/dariaBL_2.jpg,dariaBL/dariaBL_2.jpg,,,dariaBL/dariaBL_3.jpg,dariaBL/dariaBL_3.jpg,,,dariaBL/dariaBL_4.jpg,dariaBL/dariaBL_4.jpg,,,dariaBL/dariaBL_5.jpg,dariaBL/dariaBL_5.jpg,,,dariaBL/dariaBL_6.jpg,dariaBL/dariaBL_6.jpg,,,,,,,,,,0,1,KZD529E,,1,,,4980,,0,,,,,,,,,,,,,,,"2,5",,"1706,1707,1715,1708,1726,1728,1729,1730",,"4,3,2,1",1,,,
,,,,1,パテック （アイボリー）,1,,"ナチュラル,アイボリー,既製,形状記憶,1.5倍ヒダ",,,,,形状記憶付1.5倍ヒダカーテンです。,patec2IV/patec2IV_1.jpg,パステルカラーのボンボンがついた意匠糸と少し光沢のあるリング糸を入れ込んださりげなくかわいい印象の1.5倍ヒダカーテンです。,patec2IV/patec2IV_1.jpg,patec2IV/patec2IV_1.jpg,,,patec2IV/patec2IV_1.jpg,patec2IV/patec2IV_1.jpg,200:400,,patec2IV/patec2IV_2.jpg,patec2IV/patec2IV_2.jpg,,,patec2IV/patec2IV_3.jpg,patec2IV/patec2IV_3.jpg,,,patec2IV/patec2IV_4.jpg,patec2IV/patec2IV_4.jpg,,,patec2IV/patec2IV_5.jpg,patec2IV/patec2IV_5.jpg,,,patec2IV/patec2IV_6.jpg,patec2IV/patec2IV_6.jpg,,,,,,,,,,0,1,KZD421A,,1,,,4980,,0,,,,,,,,,,,,,,,"2,5",,"1706,1707,1715,1709,1726,1728",,"4,3,2,1",1,,,
,,,,1,フィーユ （アイボリー）,1,,"クラシック,アイボリー,遮光,既製,形状記憶,1.5倍ヒダ,厚地カーテン",,,,,遮光3級形状記憶付1.5倍ヒダカーテンです。,fiyuIV/fiyuIV_1.jpg,ゆったりとしたオーナメントの柄域をブライト感のある色で織り上げたエレガントなジャガードの遮光3級1.5倍ヒダカーテンです。,fiyuIV/fiyuIV_1.jpg,fiyuIV/fiyuIV_1.jpg,,,fiyuIV/fiyuIV_1.jpg,fiyuIV/fiyuIV_1.jpg,200:400,,fiyuIV/fiyuIV_2.jpg,fiyuIV/fiyuIV_2.jpg,,,fiyuIV/fiyuIV_3.jpg,fiyuIV/fiyuIV_3.jpg,,,fiyuIV/fiyuIV_4.jpg,fiyuIV/fiyuIV_4.jpg,,,fiyuIV/fiyuIV_5.jpg,fiyuIV/fiyuIV_5.jpg,,,,,,,,,,,,,,0,1,YUD422A,,1,,,4980,,0,,,,,,,,,,,,,,,"2,5",,"1706,1707,1715,1712,1726,1728,1730",,"4,3,2,1",1,,,
,,,,1,フィーユ （グリーン）,1,,"クラシック,グリーン,遮光,既製,形状記憶,1.5倍ヒダ,厚地カーテン",,,,,遮光3級形状記憶付1.5倍ヒダカーテンです。,fiyuG/fiyuG_1.jpg,ゆったりとしたオーナメントの柄域をブライト感のある色で織り上げたエレガントなジャガードの遮光3級1.5倍ヒダカーテンです。,fiyuG/fiyuG_1.jpg,fiyuG/fiyuG_1.jpg,,,fiyuG/fiyuG_1.jpg,fiyuG/fiyuG_1.jpg,200:400,,fiyuG/fiyuG_2.jpg,fiyuG/fiyuG_2.jpg,,,fiyuG/fiyuG_3.jpg,fiyuG/fiyuG_3.jpg,,,fiyuG/fiyuG_4.jpg,fiyuG/fiyuG_4.jpg,,,fiyuG/fiyuG_5.jpg,fiyuG/fiyuG_5.jpg,,,,,,,,,,,,,,0,1,YUD422B,,1,,,4980,,0,,,,,,,,,,,,,,,"2,5",,"1706,1707,1715,1712,1726,1728,1730",,"4,3,2,1",1,,,
,,,,1,フロン （アイボリー）,1,,"モダン,アイボリー,遮光,既製,形状記憶,1.5倍ヒダ,厚地カーテン",,,,,遮光2級形状記憶付1.5倍ヒダカーテンです。,furonIV/furonIV_1.jpg,"シンプルに幾何柄をプリントした遮光2級1.5倍ヒダカーテンです。
白ラッカーでラインを浮き立たせたアクセントを付けています。
モダンな感覚のお部屋にお薦めです。 ",furonIV/furonIV_1.jpg,furonIV/furonIV_1.jpg,,,furonIV/furonIV_1.jpg,furonIV/furonIV_1.jpg,200:400,,furonIV/furonIV_2.jpg,furonIV/furonIV_2.jpg,,,furonIV/furonIV_3.jpg,furonIV/furonIV_3.jpg,,,furonIV/furonIV_4.jpg,furonIV/furonIV_4.jpg,,,furonIV/furonIV_5.jpg,furonIV/furonIV_5.jpg,,,,,,,,,,,,,,0,1,SCD417A,,1,,,4980,,0,,,,,,,,,,,,,,,"2,5",,"1706,1707,1715,1710,1726,1728,1730",,"4,3,2,1",1,,,
,,,,1,フロン （グレー）,1,,"モダン,グレー,遮光,既製,形状記憶,1.5倍ヒダ,厚地カーテン",,,,,遮光2級形状記憶付1.5倍ヒダカーテンです。,furonGRY/furonGRY_1.jpg,"シンプルに幾何柄をプリントした遮光2級1.5倍ヒダカーテンです。
白ラッカーでラインを浮き立たせたアクセントを付けています。
モダンな感覚のお部屋にお薦めです。 ",furonGRY/furonGRY_1.jpg,furonGRY/furonGRY_1.jpg,,,furonGRY/furonGRY_1.jpg,furonGRY/furonGRY_1.jpg,200:400,,furonGRY/furonGRY_2.jpg,furonGRY/furonGRY_2.jpg,,,furonGRY/furonGRY_3.jpg,furonGRY/furonGRY_3.jpg,,,furonGRY/furonGRY_4.jpg,furonGRY/furonGRY_4.jpg,,,furonGRY/furonGRY_5.jpg,furonGRY/furonGRY_5.jpg,,,,,,,,,,,,,,0,1,SCD417B,,1,,,4980,,0,,,,,,,,,,,,,,,"2,5",,"1706,1707,1715,1710,1726,1728,1730",,"4,3,2,1",1,,,
,,,,1,リオナ （ブラウン）,1,,"エレガント,ブラウン,遮光,既製,形状記憶,1.5倍ヒダ,厚地カーテン",,,,,遮光2級形状記憶付1.5倍ヒダカーテンです。,rionaBR/rionaBR_1.jpg,"アニマルシルエットとカジュアルなモチーフを切り紙タッチでプリントした1.5倍ヒダカーテンです。
窓辺にちょっとした可愛いカーテンとしてお薦めです。 ",rionaBR/rionaBR_1.jpg,rionaBR/rionaBR_1.jpg,,,rionaBR/rionaBR_1.jpg,rionaBR/rionaBR_1.jpg,200:400,,rionaBR/rionaBR_2.jpg,rionaBR/rionaBR_2.jpg,,,rionaBR/rionaBR_3.jpg,rionaBR/rionaBR_3.jpg,,,rionaBR/rionaBR_4.jpg,rionaBR/rionaBR_4.jpg,,,rionaBR/rionaBR_5.jpg,rionaBR/rionaBR_5.jpg,,,,,,,,,,,,,,0,1,TBC405A,,1,,,4980,,0,,,,,,,,,,,,,,,"2,5",,"1706,1707,1715,1711,1726,1728,1730",,"4,3,2,1",1,,,
,,,,1,リオナ （ブルー）,1,,"エレガント,ブルー,遮光,既製,形状記憶,1.5倍ヒダ,厚地カーテン",,,,,遮光2級形状記憶付1.5倍ヒダカーテンです。,rionaBL/rionaBL_1.jpg,"アニマルシルエットとカジュアルなモチーフを切り紙タッチでプリントした1.5倍ヒダカーテンです。
窓辺にちょっとした可愛いカーテンとしてお薦めです。 ",rionaBL/rionaBL_1.jpg,rionaBL/rionaBL_1.jpg,,,rionaBL/rionaBL_1.jpg,rionaBL/rionaBL_1.jpg,200:400,,rionaBL/rionaBL_2.jpg,rionaBL/rionaBL_2.jpg,,,rionaBL/rionaBL_3.jpg,rionaBL/rionaBL_3.jpg,,,rionaBL/rionaBL_4.jpg,rionaBL/rionaBL_4.jpg,,,rionaBL/rionaBL_5.jpg,rionaBL/rionaBL_5.jpg,,,,,,,,,,,,,,0,1,TBC405B,,1,,,4980,,0,,,,,,,,,,,,,,,"2,5",,"1706,1707,1715,1711,1726,1728,1730",,"4,3,2,1",1,,,
,,,,1,ルシーン （ネイビー）,1,,"カジュアル,ネイビー,遮光,既製,形状記憶,1.5倍ヒダ,厚地カーテン",,,,,遮光2級形状記憶付1.5倍ヒダカーテンです。,rusin2NV/rusin2NV_1.jpg,"月と星をデニム調の生地に刺繍した子供部屋にもお薦め頂ける1.5倍ヒダカーテンです。
シルバーとゴールドの光りもアクセントになり、楽しい雰囲気をかもしだしています。
ペアレースのルシーンレースと合わせてお使いください。",rusin2NV/rusin2NV_1.jpg,rusin2NV/rusin2NV_1.jpg,,,rusin2NV/rusin2NV_1.jpg,rusin2NV/rusin2NV_1.jpg,200:400,,rusin2NV/rusin2NV_2.jpg,rusin2NV/rusin2NV_2.jpg,,,rusin2NV/rusin2NV_3.jpg,rusin2NV/rusin2NV_3.jpg,,,rusin2NV/rusin2NV_4.jpg,rusin2NV/rusin2NV_4.jpg,,,rusin2NV/rusin2NV_5.jpg,rusin2NV/rusin2NV_5.jpg,,,,,,,,,,,,,,0,1,KZD435B,,1,,,4980,,0,,,,,,,,,,,,,,,"2,5",,"1706,1707,1715,1713,1726,1728",,"4,3,2,1",1,,,
,,,,1,レーテ （グレー）,1,,"エレガント,グレー,遮光,既製,形状記憶,1.5倍ヒダ,厚地カーテン",,,,,遮光2級形状記憶付1.5倍ヒダカーテンです。,rateGRY/rateGRY_1.jpg,"女性らしい優しい曲線のジャガード1.5倍ヒダカーテンです。
オーロラに光る糸でキラキラ感を全体的に出しています。 ",rateGRY/rateGRY_1.jpg,rateGRY/rateGRY_1.jpg,,,rateGRY/rateGRY_1.jpg,rateGRY/rateGRY_1.jpg,200:400,,rateGRY/rateGRY_2.jpg,rateGRY/rateGRY_2.jpg,,,rateGRY/rateGRY_3.jpg,rateGRY/rateGRY_3.jpg,,,rateGRY/rateGRY_4.jpg,rateGRY/rateGRY_4.jpg,,,rateGRY/rateGRY_5.jpg,rateGRY/rateGRY_5.jpg,,,,,,,,,,,,,,0,1,YUD426B,,1,,,4980,,0,,,,,,,,,,,,,,,"2,5",,"1706,1707,1715,1711,1726,1728",,"4,3,2,1",1,,,
,,,,1,レーテ （ピンク）,1,,"エレガント,ピンク,遮光,既製,形状記憶,1.5倍ヒダ,厚地カーテン",,,,,遮光2級形状記憶付1.5倍ヒダカーテンです。,ratePI/ratePI_1.jpg,"女性らしい優しい曲線のジャガード1.5倍ヒダカーテンです。
オーロラに光る糸でキラキラ感を全体的に出しています。 ",ratePI/ratePI_1.jpg,ratePI/ratePI_1.jpg,,,ratePI/ratePI_1.jpg,ratePI/ratePI_1.jpg,200:400,,ratePI/ratePI_2.jpg,ratePI/ratePI_2.jpg,,,ratePI/ratePI_3.jpg,ratePI/ratePI_3.jpg,,,ratePI/ratePI_4.jpg,ratePI/ratePI_4.jpg,,,ratePI/ratePI_5.jpg,ratePI/ratePI_5.jpg,,,,,,,,,,,,,,0,1,YUD426A,,1,,,4980,,0,,,,,,,,,,,,,,,"2,5",,"1706,1707,1715,1711,1726,1728",,"4,3,2,1",1,,,
,,,,1,レパード （イエロー）,1,,"カジュアル,イエロー,遮光,既製,形状記憶,1.5倍ヒダ,厚地カーテン",,,,,遮光2級形状記憶付1.5倍ヒダカーテンです。,repadYE/repadYE_1.jpg,"大小の三角形をプリントしたカジュアルな遮光2級1.5倍ヒダカーテンです。
イエローとグレー、ネイビーとターコイズブルーの色の組み合わせは、今のトレンドです。
少しレトロな印象のお部屋にもナチュラルなインテリアにもマッチします。 ",repadYE/repadYE_1.jpg,repadYE/repadYE_1.jpg,,,repadYE/repadYE_1.jpg,repadYE/repadYE_1.jpg,200:400,,repadYE/repadYE_2.jpg,repadYE/repadYE_2.jpg,,,repadYE/repadYE_3.jpg,repadYE/repadYE_3.jpg,,,repadYE/repadYE_4.jpg,repadYE/repadYE_4.jpg,,,repadYE/repadYE_5.jpg,repadYE/repadYE_5.jpg,,,,,,,,,,,,,,0,1,TBC404A,,1,,,4980,,0,,,,,,,,,,,,,,,"2,5",,"1706,1707,1715,1713,1726,1728,1730",,"4,3,2,1",1,,,
,,,,1,レパード （ブルー）,1,,"カジュアル,ブルー,遮光,既製,形状記憶,1.5倍ヒダ,厚地カーテン",,,,,遮光2級形状記憶付1.5倍ヒダカーテンです。,repadBL/repadBL_1.jpg,"大小の三角形をプリントしたカジュアルな遮光2級1.5倍ヒダカーテンです。
イエローとグレー、ネイビーとターコイズブルーの色の組み合わせは、今のトレンドです。
少しレトロな印象のお部屋にもナチュラルなインテリアにもマッチします。 ",repadBL/repadBL_1.jpg,repadBL/repadBL_1.jpg,,,repadBL/repadBL_1.jpg,repadBL/repadBL_1.jpg,200:400,,repadBL/repadBL_2.jpg,repadBL/repadBL_2.jpg,,,repadBL/repadBL_3.jpg,repadBL/repadBL_3.jpg,,,repadBL/repadBL_4.jpg,repadBL/repadBL_4.jpg,,,repadBL/repadBL_5.jpg,repadBL/repadBL_5.jpg,,,,,,,,,,,,,,0,1,TBC404B,,1,,,4980,,0,,,,,,,,,,,,,,,"2,5",,"1706,1707,1715,1713,1726,1728,1730",,"4,3,2,1",1,,,
,,,,1,レンク （アイボリー）,1,,"無地,アイボリー,既製,形状記憶,1.5倍ヒダ",,,,,形状記憶付1.5倍ヒダカーテンです。,renkIV/renkIV_1.jpg,"自然素材の雰囲気を持った無地調の1.5倍ヒダカーテンです。
手持ち感があり、優しい風合いと素朴な生地感を持った使い易い商品です。 ",renkIV/renkIV_1.jpg,renkIV/renkIV_1.jpg,,,renkIV/renkIV_1.jpg,renkIV/renkIV_1.jpg,200:400,,renkIV/renkIV_2.jpg,renkIV/renkIV_2.jpg,,,renkIV/renkIV_3.jpg,renkIV/renkIV_3.jpg,,,renkIV/renkIV_4.jpg,renkIV/renkIV_4.jpg,,,renkIV/renkIV_5.jpg,renkIV/renkIV_5.jpg,,,renkIV/renkIV_6.jpg,renkIV/renkIV_6.jpg,,,,,,,,,,0,1,SCD416A,,1,,,4980,,0,,,,,,,,,,,,,,,"2,5",,"1706,1707,1715,1708,1726,1728",,"4,3,2,1",1,,,
,,,,1,レンク （イエロー）,1,,"無地,イエロー,既製,形状記憶,1.5倍ヒダ",,,,,形状記憶付1.5倍ヒダカーテンです。,renkYE/renkYE_1.jpg,"自然素材の雰囲気を持った無地調の1.5倍ヒダカーテンです。
手持ち感があり、優しい風合いと素朴な生地感を持った使い易い商品です。 ",renkYE/renkYE_1.jpg,renkYE/renkYE_1.jpg,,,renkYE/renkYE_1.jpg,renkYE/renkYE_1.jpg,200:400,,renkYE/renkYE_2.jpg,renkYE/renkYE_2.jpg,,,renkYE/renkYE_3.jpg,renkYE/renkYE_3.jpg,,,renkYE/renkYE_4.jpg,renkYE/renkYE_4.jpg,,,renkYE/renkYE_5.jpg,renkYE/renkYE_5.jpg,,,renkYE/renkYE_6.jpg,renkYE/renkYE_6.jpg,,,,,,,,,,0,1,SCD416B,,1,,,4980,,0,,,,,,,,,,,,,,,"2,5",,"1706,1707,1715,1708,1726,1728",,"4,3,2,1",1,,,
,,,,1,レンク （グレー）,1,,"無地,グレー,既製,形状記憶,1.5倍ヒダ",,,,,形状記憶付1.5倍ヒダカーテンです。,renkGRY/renkGRY_1.jpg,"自然素材の雰囲気を持った無地調の1.5倍ヒダカーテンです。
手持ち感があり、優しい風合いと素朴な生地感を持った使い易い商品です。 ",renkGRY/renkGRY_1.jpg,renkGRY/renkGRY_1.jpg,,,renkGRY/renkGRY_1.jpg,renkGRY/renkGRY_1.jpg,200:400,,renkGRY/renkGRY_2.jpg,renkGRY/renkGRY_2.jpg,,,renkGRY/renkGRY_3.jpg,renkGRY/renkGRY_3.jpg,,,renkGRY/renkGRY_4.jpg,renkGRY/renkGRY_4.jpg,,,renkGRY/renkGRY_5.jpg,renkGRY/renkGRY_5.jpg,,,renkGRY/renkGRY_6.jpg,renkGRY/renkGRY_6.jpg,,,,,,,,,,0,1,SCD416D,,1,,,4980,,0,,,,,,,,,,,,,,,"2,5",,"1706,1707,1715,1708,1726,1728",,"4,3,2,1",1,,,
,,,,1,レンク （ブルー）,1,,"無地,ブルー,既製,形状記憶,1.5倍ヒダ",,,,,形状記憶付1.5倍ヒダカーテンです。,renkBL/renkBL_1.jpg,"自然素材の雰囲気を持った無地調の1.5倍ヒダカーテンです。
手持ち感があり、優しい風合いと素朴な生地感を持った使い易い商品です。 ",renkBL/renkBL_1.jpg,renkBL/renkBL_1.jpg,,,renkBL/renkBL_1.jpg,renkBL/renkBL_1.jpg,200:400,,renkBL/renkBL_2.jpg,renkBL/renkBL_2.jpg,,,renkBL/renkBL_3.jpg,renkBL/renkBL_3.jpg,,,renkBL/renkBL_4.jpg,renkBL/renkBL_4.jpg,,,renkBL/renkBL_5.jpg,renkBL/renkBL_5.jpg,,,renkBL/renkBL_6.jpg,renkBL/renkBL_6.jpg,,,,,,,,,,0,1,SCD416C,,1,,,4980,,0,,,,,,,,,,,,,,,"2,5",,"1706,1707,1715,1708,1726,1728",,"4,3,2,1",1,,,
,,,,1,ロント （アイボリー）,1,,"モダン,アイボリー,遮光,既製,形状記憶,1.5倍ヒダ,厚地カーテン",,,,,遮光3級形状記憶付1.5倍ヒダカーテンです。,rontIV/rontIV_1.jpg,"使い易い無地調のサークル柄です。
サークルのラインを光沢のある糸で浮き立たせ、モダンな印象の遮光3級1.5倍ヒダカーテンです。",rontIV/rontIV_1.jpg,rontIV/rontIV_1.jpg,,,rontIV/rontIV_1.jpg,rontIV/rontIV_1.jpg,200:400,,rontIV/rontIV_2.jpg,rontIV/rontIV_2.jpg,,,rontIV/rontIV_3.jpg,rontIV/rontIV_3.jpg,,,rontIV/rontIV_4.jpg,rontIV/rontIV_4.jpg,,,rontIV/rontIV_5.jpg,rontIV/rontIV_5.jpg,,,,,,,,,,,,,,0,1,YUD421A,,1,,,4980,,0,,,,,,,,,,,,,,,"2,5",,"1706,1707,1715,1710,1726,1728,1730",,"4,3,2,1",1,,,
,,,,1,ロント （ブラック）,1,,"モダン,ブラック,遮光,既製,形状記憶,1.5倍ヒダ,厚地カーテン",,,,,遮光2級形状記憶付1.5倍ヒダカーテンです。,rontBK/rontBK_1.jpg,"使い易い無地調のサークル柄です。
サークルのラインを光沢のある糸で浮き立たせ、モダンな印象の遮光3級1.5倍ヒダカーテンです。",rontBK/rontBK_1.jpg,rontBK/rontBK_1.jpg,,,rontBK/rontBK_1.jpg,rontBK/rontBK_1.jpg,200:400,,rontBK/rontBK_2.jpg,rontBK/rontBK_2.jpg,,,rontBK/rontBK_3.jpg,rontBK/rontBK_3.jpg,,,rontBK/rontBK_4.jpg,rontBK/rontBK_4.jpg,,,rontBK/rontBK_5.jpg,rontBK/rontBK_5.jpg,,,,,,,,,,,,,,0,1,YUD421B,,1,,,4980,,0,,,,,,,,,,,,,,,"2,5",,"1706,1707,1715,1710,1726,1728,1730",,"4,3,2,1",1,,,
,,,,1,アンティコ （アイボリー）,1,,"エレガント,アイボリー,裏地付,遮光,既製,形状記憶,1.5倍ヒダ,厚地カーテン",,,,,遮光3級裏地付形状記憶付1.5倍ヒダカーテンです。,anthicoIV/anthicoIV_1.jpg,"可愛い小花やツタが一面に織り込まれ、ぷくぷくとした表情豊かな商品です。
無地調なので使い易く、お部屋を明るい雰囲気で包んでくれる遮光3級の1.5倍ヒダカーテンです。",anthicoIV/anthicoIV_1.jpg,anthicoIV/anthicoIV_1.jpg,,,anthicoIV/anthicoIV_1.jpg,anthicoIV/anthicoIV_1.jpg,200:400,,anthicoIV/anthicoIV_2.jpg,anthicoIV/anthicoIV_2.jpg,,,anthicoIV/anthicoIV_3.jpg,anthicoIV/anthicoIV_3.jpg,,,anthicoIV/anthicoIV_4.jpg,anthicoIV/anthicoIV_4.jpg,,,anthicoIV/anthicoIV_5.jpg,anthicoIV/anthicoIV_5.jpg,,,,,,,,,,,,,,0,1,YUD509B,,1,,,5980,,0,,,,,,,,,,,,,,,"2,5",,"1706,1707,1715,1711,1724,1726,1728,1730",,"4,3,2,1",1,,,
,,,,1,アンティコ （ピンク）,1,,"エレガント,ピンク,裏地付,遮光,既製,形状記憶,1.5倍ヒダ,厚地カーテン",,,,,遮光3級裏地付形状記憶付1.5倍ヒダカーテンです。,anthicoPI/anthicoPI_1.jpg,"可愛い小花やツタが一面に織り込まれ、ぷくぷくとした表情豊かな商品です。
無地調なので使い易く、お部屋を明るい雰囲気で包んでくれる遮光3級の1.5倍ヒダカーテンです。",anthicoPI/anthicoPI_1.jpg,anthicoPI/anthicoPI_1.jpg,,,anthicoPI/anthicoPI_1.jpg,anthicoPI/anthicoPI_1.jpg,200:400,,anthicoPI/anthicoPI_2.jpg,anthicoPI/anthicoPI_2.jpg,,,anthicoPI/anthicoPI_3.jpg,anthicoPI/anthicoPI_3.jpg,,,anthicoPI/anthicoPI_4.jpg,anthicoPI/anthicoPI_4.jpg,,,anthicoPI/anthicoPI_5.jpg,anthicoPI/anthicoPI_5.jpg,,,,,,,,,,,,,,0,1,YUD509A,,1,,,5980,,0,,,,,,,,,,,,,,,"2,5",,"1706,1707,1715,1711,1724,1726,1728,1730",,"4,3,2,1",1,,,
,,,,1,タリス （アイボリー）,1,,"モダン,アイボリー,裏地付,遮光,既製,形状記憶,1.5倍ヒダ,厚地カーテン",,,,,遮光3級裏地付形状記憶付1.5倍ヒダカーテンです。,tarisIV/tarisIV_1.jpg,"ゆったりとした曲線のシックな無地調の遮光3級1.5倍ヒダカーテンです。
地の部分は少しエクセーヌを思わせる表情をもたせ高級感を出し、柄部分は光沢糸で目立たせています。",tarisIV/tarisIV_1.jpg,tarisIV/tarisIV_1.jpg,,,tarisIV/tarisIV_1.jpg,tarisIV/tarisIV_1.jpg,200:400,,tarisIV/tarisIV_2.jpg,tarisIV/tarisIV_2.jpg,,,tarisIV/tarisIV_3.jpg,tarisIV/tarisIV_3.jpg,,,tarisIV/tarisIV_4.jpg,tarisIV/tarisIV_4.jpg,,,tarisIV/tarisIV_5.jpg,tarisIV/tarisIV_5.jpg,,,,,,,,,,,,,,0,1,YUD508A,,1,,,5980,,0,,,,,,,,,,,,,,,"2,5",,"1706,1707,1715,1710,1724,1726,1728,1730",,"4,3,2,1",1,,,
,,,,1,タリス （ブラック）,1,,"モダン,ブラック,裏地付,遮光2級裏地付形状記憶付1.5倍ヒダカーテンです。",,,,,遮光2級裏地付形状記憶付1.5倍ヒダカーテンです。,tarisBK/tarisBK_1.jpg,"ゆったりとした曲線のシックな無地調の遮光2級1.5倍ヒダカーテンです。
地の部分は少しエクセーヌを思わせる表情をもたせ高級感を出し、柄部分は光沢糸で目立たせています。",tarisBK/tarisBK_1.jpg,tarisBK/tarisBK_1.jpg,,,tarisBK/tarisBK_1.jpg,tarisBK/tarisBK_1.jpg,200:400,,tarisBK/tarisBK_2.jpg,tarisBK/tarisBK_2.jpg,,,tarisBK/tarisBK_3.jpg,tarisBK/tarisBK_3.jpg,,,tarisBK/tarisBK_4.jpg,tarisBK/tarisBK_4.jpg,,,tarisBK/tarisBK_5.jpg,tarisBK/tarisBK_5.jpg,,,,,,,,,,,,,,0,1,YUD508B,,1,,,5980,,0,,,,,,,,,,,,,,,"2,5",,"1706,1707,1715,1710,1724,1726,1728,1730",,"4,3,2,1",1,,,
,,,,1,ディラ （アイボリー）,1,,"ナチュラル,アイボリー,裏地付,遮光,既製,形状記憶,1.5倍ヒダ,厚地カーテン",,,,,遮光3級裏地付形状記憶付1.5倍ヒダカーテンです。,dhiraIV/dhiraIV_1.jpg,"葉柄のシルエットを織り上げました。
地紋と柄の葉が陰影になり、深みが出ており、シンプルにナチュラルなお部屋を演出してくれる遮光3級1.5倍ヒダカーテンです。",dhiraIV/dhiraIV_1.jpg,dhiraIV/dhiraIV_1.jpg,,,dhiraIV/dhiraIV_1.jpg,dhiraIV/dhiraIV_1.jpg,200:400,,dhiraIV/dhiraIV_2.jpg,dhiraIV/dhiraIV_2.jpg,,,dhiraIV/dhiraIV_3.jpg,dhiraIV/dhiraIV_3.jpg,,,dhiraIV/dhiraIV_4.jpg,dhiraIV/dhiraIV_4.jpg,,,dhiraIV/dhiraIV_5.jpg,dhiraIV/dhiraIV_5.jpg,,,dhiraIV/dhiraIV_6.jpg,dhiraIV/dhiraIV_6.jpg,,,,,,,,,,0,1,YUD704A,,1,,,5980,,0,,,,,,,,,,,,,,,"2,5",,"1706,1707,1715,1709,1724,1726,1728",,"4,3,2,1",1,,,
,,,,1,ディラ （グリーン）,1,,"ナチュラル,グリーン,裏地付,遮光,既製,形状記憶,1.5倍ヒダ,厚地カーテン",,,,,遮光3級裏地付形状記憶付1.5倍ヒダカーテンです。,dhiraG/dhiraG_1.jpg,"葉柄のシルエットを織り上げました。
地紋と柄の葉が陰影になり、深みが出ており、シンプルにナチュラルなお部屋を演出してくれる遮光3級1.5倍ヒダカーテンです。",dhiraG/dhiraG_1.jpg,dhiraG/dhiraG_1.jpg,,,dhiraG/dhiraG_1.jpg,dhiraG/dhiraG_1.jpg,200:400,,dhiraG/dhiraG_2.jpg,dhiraG/dhiraG_2.jpg,,,dhiraG/dhiraG_3.jpg,dhiraG/dhiraG_3.jpg,,,dhiraG/dhiraG_4.jpg,dhiraG/dhiraG_4.jpg,,,dhiraG/dhiraG_5.jpg,dhiraG/dhiraG_5.jpg,,,dhiraG/dhiraG_6.jpg,dhiraG/dhiraG_6.jpg,,,,,,,,,,0,1,YUD704B,,1,,,5980,,0,,,,,,,,,,,,,,,"2,5",,"1706,1707,1715,1709,1724,1726,1728",,"4,3,2,1",1,,,
,,,,1,プレステージ （アイボリー）,1,,"無地,アイボリー,遮熱,断熱,防炎,遮光,既製,形状記憶,1.5倍ヒダ,厚地カーテン",,,,,防炎、遮熱・断熱、遮光1級形状記憶付1.5倍ヒダカーテンです。,prestage2IV/prestage2IV_1.jpg,"透けにくいポリエステル糸を2重に織り上げ、素材感のある風合いに仕上げました。
あらゆる機能が付いた人気の1.5倍ヒダカーテンです。",prestage2IV/prestage2IV_1.jpg,prestage2IV/prestage2IV_1.jpg,,,prestage2IV/prestage2IV_1.jpg,prestage2IV/prestage2IV_1.jpg,200:400,,prestage2IV/prestage2IV_2.jpg,prestage2IV/prestage2IV_2.jpg,,,prestage2IV/prestage2IV_3.jpg,prestage2IV/prestage2IV_3.jpg,,,prestage2IV/prestage2IV_4.jpg,prestage2IV/prestage2IV_4.jpg,,,prestage2IV/prestage2IV_5.jpg,prestage2IV/prestage2IV_5.jpg,,,prestage2IV/prestage2IV_6.jpg,prestage2IV/prestage2IV_6.jpg,,,,,,,,,,0,1,KZD513B,,1,,,5980,,0,,,,,,,,,,,,,,,"2,5",,"1706,1707,1715,1708,1726,1727,1728,1729,1730",,"4,3,2,1",1,,,
,,,,1,プレステージ （イエロー）,1,,"無地,イエロー,遮熱,断熱,防炎,遮光,既製,形状記憶,1.5倍ヒダ,厚地カーテン",,,,,防炎、遮熱・断熱、遮光1級形状記憶付1.5倍ヒダカーテンです。,prestage2YE/prestage2YE_1.jpg,"透けにくいポリエステル糸を2重に織り上げ、素材感のある風合いに仕上げました。
あらゆる機能が付いた人気の1.5倍ヒダカーテンです。",prestage2YE/prestage2YE_1.jpg,prestage2YE/prestage2YE_1.jpg,,,prestage2YE/prestage2YE_1.jpg,prestage2YE/prestage2YE_1.jpg,200:400,,prestage2YE/prestage2YE_2.jpg,prestage2YE/prestage2YE_2.jpg,,,prestage2YE/prestage2YE_3.jpg,prestage2YE/prestage2YE_3.jpg,,,prestage2YE/prestage2YE_4.jpg,prestage2YE/prestage2YE_4.jpg,,,prestage2YE/prestage2YE_5.jpg,prestage2YE/prestage2YE_5.jpg,,,,,,,,,,,,,,0,1,KZD513D,,1,,,5980,,0,,,,,,,,,,,,,,,"2,5",,"1706,1707,1715,1708,1726,1727,1728,1729,1730",,"4,3,2,1",1,,,
,,,,1,プレステージ （オレンジ）,1,,"無地,オレンジ,遮熱,断熱,防炎,遮光,既製,形状記憶,1.5倍ヒダ,厚地カーテン",,,,,防炎、遮熱・断熱、遮光1級形状記憶付1.5倍ヒダカーテンです。,prestage2OR/prestage2OR_1.jpg,"透けにくいポリエステル糸を2重に織り上げ、素材感のある風合いに仕上げました。
あらゆる機能が付いた人気の1.5倍ヒダカーテンです。",prestage2OR/prestage2OR_1.jpg,prestage2OR/prestage2OR_1.jpg,,,prestage2OR/prestage2OR_1.jpg,prestage2OR/prestage2OR_1.jpg,200:400,,prestage2OR/prestage2OR_2.jpg,prestage2OR/prestage2OR_2.jpg,,,prestage2OR/prestage2OR_3.jpg,prestage2OR/prestage2OR_3.jpg,,,prestage2OR/prestage2OR_4.jpg,prestage2OR/prestage2OR_4.jpg,,,prestage2OR/prestage2OR_5.jpg,prestage2OR/prestage2OR_5.jpg,,,prestage2OR/prestage2OR_6.jpg,prestage2OR/prestage2OR_6.jpg,,,,,,,,,,0,1,KZD513H,,1,,,5980,,0,,,,,,,,,,,,,,,"2,5",,"1706,1707,1715,1708,1726,1727,1728,1729,1730",,"4,3,2,1",1,,,
,,,,1,プレステージ （グリーン）,1,,"無地,グリーン,遮熱,断熱,防炎,遮光,既製,形状記憶,1.5倍ヒダ,厚地カーテン",,,,,防炎、遮熱・断熱、遮光1級形状記憶付1.5倍ヒダカーテンです。,prestage2G/prestage2G_1.jpg,"透けにくいポリエステル糸を2重に織り上げ、素材感のある風合いに仕上げました。
あらゆる機能が付いた人気の1.5倍ヒダカーテンです。",prestage2G/prestage2G_1.jpg,prestage2G/prestage2G_1.jpg,,,prestage2G/prestage2G_1.jpg,prestage2G/prestage2G_1.jpg,200:400,,prestage2G/prestage2G_2.jpg,prestage2G/prestage2G_2.jpg,,,prestage2G/prestage2G_3.jpg,prestage2G/prestage2G_3.jpg,,,prestage2G/prestage2G_4.jpg,prestage2G/prestage2G_4.jpg,,,prestage2G/prestage2G_5.jpg,prestage2G/prestage2G_5.jpg,,,prestage2G/prestage2G_6.jpg,prestage2G/prestage2G_6.jpg,,,,,,,,,,0,1,KZD513F,,1,,,5980,,0,,,,,,,,,,,,,,,"2,5",,"1706,1707,1715,1708,1726,1727,1728,1729,1730",,"4,3,2,1",1,,,
,,,,1,プレステージ （ネイビー）,1,,"無地,ネイビー,遮熱,断熱,防炎,遮光,既製,形状記憶,1.5倍ヒダ,厚地カーテン",,,,,防炎、遮熱・断熱、遮光1級形状記憶付1.5倍ヒダカーテンです。,prestage2NV/prestage2NV_1.jpg,"透けにくいポリエステル糸を2重に織り上げ、素材感のある風合いに仕上げました。
あらゆる機能が付いた人気の1.5倍ヒダカーテンです。",prestage2NV/prestage2NV_1.jpg,prestage2NV/prestage2NV_1.jpg,,,prestage2NV/prestage2NV_1.jpg,prestage2NV/prestage2NV_1.jpg,200:400,,prestage2NV/prestage2NV_2.jpg,prestage2NV/prestage2NV_2.jpg,,,prestage2NV/prestage2NV_3.jpg,prestage2NV/prestage2NV_3.jpg,,,prestage2NV/prestage2NV_4.jpg,prestage2NV/prestage2NV_4.jpg,,,prestage2NV/prestage2NV_5.jpg,prestage2NV/prestage2NV_5.jpg,,,prestage2NV/prestage2NV_6.jpg,prestage2NV/prestage2NV_6.jpg,,,,,,,,,,0,1,KZD513J,,1,,,5980,,0,,,,,,,,,,,,,,,"2,5",,"1706,1707,1715,1708,1726,1727,1728,1729,1730",,"4,3,2,1",1,,,
,,,,1,プレステージ （ブラウン）,1,,"無地,ブラウン,遮熱,断熱,防炎,遮光,既製,形状記憶,1.5倍ヒダ,厚地カーテン",,,,,防炎、遮熱・断熱、遮光1級形状記憶付1.5倍ヒダカーテンです。,prestage2BR/prestage2BR_1.jpg,"透けにくいポリエステル糸を2重に織り上げ、素材感のある風合いに仕上げました。
あらゆる機能が付いた人気の1.5倍ヒダカーテンです。",prestage2BR/prestage2BR_1.jpg,prestage2BR/prestage2BR_1.jpg,,,prestage2BR/prestage2BR_1.jpg,prestage2BR/prestage2BR_1.jpg,200:400,,prestage2BR/prestage2BR_2.jpg,prestage2BR/prestage2BR_2.jpg,,,prestage2BR/prestage2BR_3.jpg,prestage2BR/prestage2BR_3.jpg,,,prestage2BR/prestage2BR_4.jpg,prestage2BR/prestage2BR_4.jpg,,,prestage2BR/prestage2BR_5.jpg,prestage2BR/prestage2BR_5.jpg,,,prestage2BR/prestage2BR_6.jpg,prestage2BR/prestage2BR_6.jpg,,,,,,,,,,0,1,KZD513K,,1,,,5980,,0,,,,,,,,,,,,,,,"2,5",,"1706,1707,1715,1708,1726,1727,1728,1729,1730",,"4,3,2,1",1,,,
,,,,1,プレステージ （ブルー）,1,,"無地,ブルー,遮熱,断熱,防炎,遮光,既製,形状記憶,1.5倍ヒダ,厚地カーテン",,,,,防炎、遮熱・断熱、遮光1級形状記憶付1.5倍ヒダカーテンです。,prestage2BL/prestage2BL_1.jpg,"透けにくいポリエステル糸を2重に織り上げ、素材感のある風合いに仕上げました。
あらゆる機能が付いた人気の1.5倍ヒダカーテンです。",prestage2BL/prestage2BL_1.jpg,prestage2BL/prestage2BL_1.jpg,,,prestage2BL/prestage2BL_1.jpg,prestage2BL/prestage2BL_1.jpg,200:400,,prestage2BL/prestage2BL_2.jpg,prestage2BL/prestage2BL_2.jpg,,,prestage2BL/prestage2BL_3.jpg,prestage2BL/prestage2BL_3.jpg,,,prestage2BL/prestage2BL_4.jpg,prestage2BL/prestage2BL_4.jpg,,,prestage2BL/prestage2BL_5.jpg,prestage2BL/prestage2BL_5.jpg,,,prestage2BL/prestage2BL_6.jpg,prestage2BL/prestage2BL_6.jpg,,,,,,,,,,0,1,KZD513G,,1,,,5980,,0,,,,,,,,,,,,,,,"2,5",,"1706,1707,1715,1708,1726,1727,1728,1729,1730",,"4,3,2,1",1,,,
,,,,1,プレステージ （ベージュ）,1,,"無地,ベージュ,遮熱,断熱,防炎,遮光,既製,形状記憶,1.5倍ヒダ,厚地カーテン",,,,,防炎、遮熱・断熱、遮光1級形状記憶付1.5倍ヒダカーテンです。,prestage2BE/prestage2BE_1.jpg,"透けにくいポリエステル糸を2重に織り上げ、素材感のある風合いに仕上げました。
あらゆる機能が付いた人気の1.5倍ヒダカーテンです。",prestage2BE/prestage2BE_1.jpg,prestage2BE/prestage2BE_1.jpg,,,prestage2BE/prestage2BE_1.jpg,prestage2BE/prestage2BE_1.jpg,200:400,,prestage2BE/prestage2BE_2.jpg,prestage2BE/prestage2BE_2.jpg,,,prestage2BE/prestage2BE_3.jpg,prestage2BE/prestage2BE_3.jpg,,,prestage2BE/prestage2BE_4.jpg,prestage2BE/prestage2BE_4.jpg,,,prestage2BE/prestage2BE_5.jpg,prestage2BE/prestage2BE_5.jpg,,,prestage2BE/prestage2BE_6.jpg,prestage2BE/prestage2BE_6.jpg,,,,,,,,,,0,1,KZD513C,,1,,,5980,,0,,,,,,,,,,,,,,,"2,5",,"1706,1707,1715,1708,1726,1727,1728,1729,1730",,"4,3,2,1",1,,,
,,,,1,プレステージ （ライトグリーン）,1,,"無地,ライトグリーン,遮熱,断熱,防炎,遮光,既製,形状記憶,1.5倍ヒダ,厚地カーテン",,,,,防炎、遮熱・断熱、遮光1級形状記憶付1.5倍ヒダカーテンです。,prestage2LG/prestage2LG_1.jpg,"透けにくいポリエステル糸を2重に織り上げ、素材感のある風合いに仕上げました。
あらゆる機能が付いた人気の1.5倍ヒダカーテンです。",prestage2LG/prestage2LG_1.jpg,prestage2LG/prestage2LG_1.jpg,,,prestage2LG/prestage2LG_1.jpg,prestage2LG/prestage2LG_1.jpg,200:400,,prestage2LG/prestage2LG_2.jpg,prestage2LG/prestage2LG_2.jpg,,,prestage2LG/prestage2LG_3.jpg,prestage2LG/prestage2LG_3.jpg,,,prestage2LG/prestage2LG_4.jpg,prestage2LG/prestage2LG_4.jpg,,,prestage2LG/prestage2LG_5.jpg,prestage2LG/prestage2LG_5.jpg,,,prestage2LG/prestage2LG_6.jpg,prestage2LG/prestage2LG_6.jpg,,,,,,,,,,0,1,KZD513E,,1,,,5980,,0,,,,,,,,,,,,,,,"2,5",,"1706,1707,1715,1708,1726,1727,1728,1729,1730",,"4,3,2,1",1,,,
,,,,1,プレステージ （ライトブラウン）,1,,"無地,ライトブラウン,遮熱,断熱,防炎,遮光,既製,形状記憶,1.5倍ヒダ,厚地カーテン",,,,,防炎、遮熱・断熱、遮光1級形状記憶付1.5倍ヒダカーテンです。,prestage2LBR/prestage2LBR_1.jpg,"透けにくいポリエステル糸を2重に織り上げ、素材感のある風合いに仕上げました。
あらゆる機能が付いた人気の1.5倍ヒダカーテンです。",prestage2LBR/prestage2LBR_1.jpg,prestage2LBR/prestage2LBR_1.jpg,,,prestage2LBR/prestage2LBR_1.jpg,prestage2LBR/prestage2LBR_1.jpg,200:400,,prestage2LBR/prestage2LBR_2.jpg,prestage2LBR/prestage2LBR_2.jpg,,,prestage2LBR/prestage2LBR_3.jpg,prestage2LBR/prestage2LBR_3.jpg,,,prestage2LBR/prestage2LBR_4.jpg,prestage2LBR/prestage2LBR_4.jpg,,,prestage2LBR/prestage2LBR_5.jpg,prestage2LBR/prestage2LBR_5.jpg,,,prestage2LBR/prestage2LBR_6.jpg,prestage2LBR/prestage2LBR_6.jpg,,,,,,,,,,0,1,KZD513M,,1,,,5980,,0,,,,,,,,,,,,,,,"2,5",,"1706,1707,1715,1708,1726,1727,1728,1729,1730",,"4,3,2,1",1,,,
,,,,1,プレステージ （ローズ）,1,,"無地,ローズ,遮熱,断熱,防炎,遮光,既製,形状記憶,1.5倍ヒダ,厚地カーテン",,,,,防炎、遮熱・断熱、遮光1級形状記憶付1.5倍ヒダカーテンです。,prestage2RO/prestage2RO_1.jpg,"透けにくいポリエステル糸を2重に織り上げ、素材感のある風合いに仕上げました。
あらゆる機能が付いた人気の1.5倍ヒダカーテンです。",prestage2RO/prestage2RO_1.jpg,prestage2RO/prestage2RO_1.jpg,,,prestage2RO/prestage2RO_1.jpg,prestage2RO/prestage2RO_1.jpg,200:400,,prestage2RO/prestage2RO_2.jpg,prestage2RO/prestage2RO_2.jpg,,,prestage2RO/prestage2RO_3.jpg,prestage2RO/prestage2RO_3.jpg,,,prestage2RO/prestage2RO_4.jpg,prestage2RO/prestage2RO_4.jpg,,,prestage2RO/prestage2RO_5.jpg,prestage2RO/prestage2RO_5.jpg,,,prestage2RO/prestage2RO_6.jpg,prestage2RO/prestage2RO_6.jpg,,,,,,,,,,0,1,KZD513A,,1,,,5980,,0,,,,,,,,,,,,,,,"2,5",,"1706,1707,1715,1708,1726,1727,1728,1729,1730",,"4,3,2,1",1,,,
,,,,1,ミンスク （グレー）,1,,"ナチュラル,グレー,裏地付,遮光,既製,形状記憶,1.5倍ヒダ,厚地カーテン",,,,,遮光3級裏地付形状記憶付1.5倍ヒダカーテンです。,minskuGRY/minskuGRY_1.jpg,"北欧調の葉のシルエットをジャガードで織り上げました裏地付遮光3級1.5倍ヒダカーテンです。
横に光る糸をアクセントに入れて、全体的に高級感を持たせています。",minskuGRY/minskuGRY_1.jpg,minskuGRY/minskuGRY_1.jpg,,,minskuGRY/minskuGRY_1.jpg,minskuGRY/minskuGRY_1.jpg,200:400,,minskuGRY/minskuGRY_2.jpg,minskuGRY/minskuGRY_2.jpg,,,minskuGRY/minskuGRY_3.jpg,minskuGRY/minskuGRY_3.jpg,,,minskuGRY/minskuGRY_4.jpg,minskuGRY/minskuGRY_4.jpg,,,minskuGRY/minskuGRY_5.jpg,minskuGRY/minskuGRY_5.jpg,,,,,,,,,,,,,,0,1,YUD706B,,1,,,5980,,0,,,,,,,,,,,,,,,"2,5",,"1706,1707,1715,1709,1726,1724,1728,1730",,"4,3,2,1",1,,,
,,,,1,ミンスク （ネイビー）,1,,"ナチュラル,ネイビー,裏地付,遮光,既製,形状記憶,1.5倍ヒダ,厚地カーテン",,,,,遮光3級裏地付形状記憶付1.5倍ヒダカーテンです。,minskuNV/minskuNV_1.jpg,"北欧調の葉のシルエットをジャガードで織り上げました裏地付遮光3級1.5倍ヒダカーテンです。
横に光る糸をアクセントに入れて、全体的に高級感を持たせています。",minskuNV/minskuNV_1.jpg,minskuNV/minskuNV_1.jpg,,,minskuNV/minskuNV_1.jpg,minskuNV/minskuNV_1.jpg,200:400,,minskuNV/minskuNV_2.jpg,minskuNV/minskuNV_2.jpg,,,minskuNV/minskuNV_3.jpg,minskuNV/minskuNV_3.jpg,,,minskuNV/minskuNV_4.jpg,minskuNV/minskuNV_4.jpg,,,minskuNV/minskuNV_5.jpg,minskuNV/minskuNV_5.jpg,,,,,,,,,,,,,,0,1,YUD706A,,1,,,5980,,0,,,,,,,,,,,,,,,"2,5",,"1706,1707,1715,1709,1726,1724,1728,1730",,"4,3,2,1",1,,,
,,,,1,レサン （アイボリー）,1,,"モダン,アイボリー,裏地付,遮光,既製,形状記憶,1.5倍ヒダ,厚地カーテン",,,,,遮光3級裏地付形状記憶付1.5倍ヒダカーテンです。,resanIV/resanIV_1.jpg,"サークル柄を無地調に織り上げた裏地付遮光3級1.5倍ヒダカーテンです。
横糸の光沢糸の効果で柄が浮いて見えます。
",resanIV/resanIV_1.jpg,resanIV/resanIV_1.jpg,,,resanIV/resanIV_1.jpg,resanIV/resanIV_1.jpg,200:400,,resanIV/resanIV_2.jpg,resanIV/resanIV_2.jpg,,,resanIV/resanIV_3.jpg,resanIV/resanIV_3.jpg,,,resanIV/resanIV_4.jpg,resanIV/resanIV_4.jpg,,,resanIV/resanIV_5.jpg,resanIV/resanIV_5.jpg,,,,,,,,,,,,,,0,1,YUD703A,,1,,,5980,,0,,,,,,,,,,,,,,,"2,5",,"1706,1707,1715,1710,1724,1726,1728,1730",,"4,3,2,1",1,,,
,,,,1,レサン （ブラウン）,1,,"モダン,ブラウン,裏地付,遮光,既製,形状記憶,1.5倍ヒダ,厚地カーテン",,,,,遮光3級裏地付形状記憶付1.5倍ヒダカーテンです。,resanBR/resanBR_1.jpg,"サークル柄を無地調に織り上げた裏地付遮光3級1.5倍ヒダカーテンです。
横糸の光沢糸の効果で柄が浮いて見えます。
",resanBR/resanBR_1.jpg,resanBR/resanBR_1.jpg,,,resanBR/resanBR_1.jpg,resanBR/resanBR_1.jpg,200:400,,resanBR/resanBR_2.jpg,resanBR/resanBR_2.jpg,,,resanBR/resanBR_3.jpg,resanBR/resanBR_3.jpg,,,resanBR/resanBR_4.jpg,resanBR/resanBR_4.jpg,,,resanBR/resanBR_5.jpg,resanBR/resanBR_5.jpg,,,,,,,,,,,,,,0,1,YUD703B,,1,,,5980,,0,,,,,,,,,,,,,,,"2,5",,"1706,1707,1715,1710,1724,1726,1728,1730",,"4,3,2,1",1,,,
,,,,1,ジェナ （ブルー）,1,,"クラシック,ブルー,裏地付,遮光,既製,形状記憶,1.5倍ヒダ,厚地カーテン",,,,,遮光3級裏地付形状記憶付1.5倍ヒダカーテンです。,jenaRO/jenaRO_1.jpg,クラシックで落ち着きのあるリビングに最適なジャガード織りのカーテンです。裏地付で遮光3級もついている為、快適なお部屋を演出できる1.5倍ヒダカーテンです。,jenaRO/jenaRO_1.jpg,jenaRO/jenaRO_1.jpg,,,jenaRO/jenaRO_1.jpg,jenaRO/jenaRO_1.jpg,200:400,,jenaRO/jenaRO_2.jpg,jenaRO/jenaRO_2.jpg,,,jenaRO/jenaRO_3.jpg,jenaRO/jenaRO_3.jpg,,,jenaRO/jenaRO_4.jpg,jenaRO/jenaRO_4.jpg,,,jenaRO/jenaRO_5.jpg,jenaRO/jenaRO_5.jpg,,,,,,,,,,,,,,0,1,YUD707B,,1,,,7980,,0,,,,,,,,,,,,,,,"2,5",,"1706,1707,1715,1712,1724,1726,1728,1730",,"4,3,2,1",1,,,
,,,,1,ジェナ （ローズ）,1,,"クラシック,ローズ,裏地付,遮光,既製,形状記憶,1.5倍ヒダ,厚地カーテン",,,,,遮光3級裏地付形状記憶付1.5倍ヒダカーテンです。,jenaBL/jenaBL_1.jpg,クラシックで落ち着きのあるリビングに最適なジャガード織りのカーテンです。裏地付で遮光3級もついている為、快適なお部屋を演出できる1.5倍ヒダカーテンです。,jenaBL/jenaBL_1.jpg,jenaBL/jenaBL_1.jpg,,,jenaBL/jenaBL_1.jpg,jenaBL/jenaBL_1.jpg,200:400,,jenaBL/jenaBL_2.jpg,jenaBL/jenaBL_2.jpg,,,jenaBL/jenaBL_3.jpg,jenaBL/jenaBL_3.jpg,,,jenaBL/jenaBL_4.jpg,jenaBL/jenaBL_4.jpg,,,jenaBL/jenaBL_5.jpg,jenaBL/jenaBL_5.jpg,,,,,,,,,,,,,,0,1,YUD707A,,1,,,7980,,0,,,,,,,,,,,,,,,"2,5",,"1706,1707,1715,1712,1724,1726,1728,1730",,"4,3,2,1",1,,,
,,,,1,セシル （アイボリー）,1,,"エレガント,アイボリー,裏地付,遮光,既製,形状記憶,1.5倍ヒダ,厚地カーテン",,,,,遮光3級裏地付形状記憶付1.5倍ヒダカーテンです。,cecileIV/cecileIV_1.jpg,"唐草のクラッシックな柄をしっかりと織り上げた、裏地付遮光3級の1.5倍ヒダカーテンです。
太い横糸が重厚感をだし、オーロラの光が軽やかさを演出しています。
",cecileIV/cecileIV_1.jpg,cecileIV/cecileIV_1.jpg,,,cecileIV/cecileIV_1.jpg,cecileIV/cecileIV_1.jpg,200:400,,cecileIV/cecileIV_2.jpg,cecileIV/cecileIV_2.jpg,,,cecileIV/cecileIV_3.jpg,cecileIV/cecileIV_3.jpg,,,cecileIV/cecileIV_4.jpg,cecileIV/cecileIV_4.jpg,,,cecileIV/cecileIV_5.jpg,cecileIV/cecileIV_5.jpg,,,,,,,,,,,,,,0,1,YUD705A,,1,,,7980,,0,,,,,,,,,,,,,,,"2,5",,"1706,1707,1715,1711,1724,1726,1728,1730",,"4,3,2,1",1,,,
,,,,1,セシル （オレンジ）,1,,"エレガント,オレンジ,裏地付,遮光,既製,形状記憶,1.5倍ヒダ,厚地カーテン",,,,,遮光3級裏地付形状記憶付1.5倍ヒダカーテンです。,cecileOR/cecileOR_1.jpg,"唐草のクラッシックな柄をしっかりと織り上げた、裏地付遮光3級の1.5倍ヒダカーテンです。
太い横糸が重厚感をだし、オーロラの光が軽やかさを演出しています。
",cecileOR/cecileOR_1.jpg,cecileOR/cecileOR_1.jpg,,,cecileOR/cecileOR_1.jpg,cecileOR/cecileOR_1.jpg,200:400,,cecileOR/cecileOR_2.jpg,cecileOR/cecileOR_2.jpg,,,cecileOR/cecileOR_3.jpg,cecileOR/cecileOR_3.jpg,,,cecileOR/cecileOR_4.jpg,cecileOR/cecileOR_4.jpg,,,cecileOR/cecileOR_5.jpg,cecileOR/cecileOR_5.jpg,,,,,,,,,,,,,,0,1,YUD705B,,1,,,7980,,0,,,,,,,,,,,,,,,"2,5",,"1706,1707,1715,1711,1724,1726,1728,1730",,"4,3,2,1",1,,,
,,,,1,パルフェ （アイボリー）,1,,"クラシック,アイボリー,裏地付,遮光2級裏地付形状記憶付1.5倍ヒダカーテンです。",,,,,遮光2級裏地付形状記憶付1.5倍ヒダカーテンです。,parufe2IV/parufe2IV_1.jpg,"高級感のあるオーナメント柄のカーテンです。
所々にラメ糸が入ってキラキラと光っています。
裏地付遮光3級の1.5倍ヒダカーテンです。",parufe2IV/parufe2IV_1.jpg,parufe2IV/parufe2IV_1.jpg,,,parufe2IV/parufe2IV_1.jpg,parufe2IV/parufe2IV_1.jpg,200:400,,parufe2IV/parufe2IV_2.jpg,parufe2IV/parufe2IV_2.jpg,,,parufe2IV/parufe2IV_3.jpg,parufe2IV/parufe2IV_3.jpg,,,parufe2IV/parufe2IV_4.jpg,parufe2IV/parufe2IV_4.jpg,,,parufe2IV/parufe2IV_5.jpg,parufe2IV/parufe2IV_5.jpg,,,,,,,,,,,,,,0,1,SCD703A,,1,,,7980,,0,,,,,,,,,,,,,,,"2,5",,"1706,1707,1715,1712,1724,1726,1728,1730",,"4,3,2,1",1,,,
,,,,1,パルフェ （グリーン）,1,,"クラシック,グリーン,裏地付,遮光2級裏地付形状記憶付1.5倍ヒダカーテンです。",,,,,遮光2級裏地付形状記憶付1.5倍ヒダカーテンです。,parufe2G/parufe2G_1.jpg,"高級感のあるオーナメント柄のカーテンです。
所々にラメ糸が入ってキラキラと光っています。
裏地付遮光3級の1.5倍ヒダカーテンです。",parufe2G/parufe2G_1.jpg,parufe2G/parufe2G_1.jpg,,,parufe2G/parufe2G_1.jpg,parufe2G/parufe2G_1.jpg,200:400,,parufe2G/parufe2G_2.jpg,parufe2G/parufe2G_2.jpg,,,parufe2G/parufe2G_3.jpg,parufe2G/parufe2G_3.jpg,,,parufe2G/parufe2G_4.jpg,parufe2G/parufe2G_4.jpg,,,parufe2G/parufe2G_5.jpg,parufe2G/parufe2G_5.jpg,,,,,,,,,,,,,,0,1,SCD703B,,1,,,7980,,0,,,,,,,,,,,,,,,"2,5",,"1706,1707,1715,1712,1724,1726,1728,1730",,"4,3,2,1",1,,,
,,,,1,ターシュ （アイボリー）,1,,"アイボリー,ミラー,既製,1.5倍ヒダ,レースカーテン",,,,,ミラー1.5倍ヒダレースカーテンです。,tashuIV/tashuIV_1.jpg,カジュアルなストライプの1.5倍ヒダミラーカーテンです。 ,tashuIV/tashuIV_1.jpg,tashuIV/tashuIV_1.jpg,,,tashuIV/tashuIV_1.jpg,tashuIV/tashuIV_1.jpg,200:400,,tashuIV/tashuIV_2.jpg,tashuIV/tashuIV_2.jpg,,,,,,,,,,,,,,,,,,,,,,,,,,0,1,KZL106A,,1,,,1980,,0,,,,,,,,,,,,,,,"2,5",,"1706,1707,1715,1716,1726,1721",,"5,4,3,2,1",1,,,
,,,,1,ホープ （アイボリー）,1,,"アイボリー,ミラー,既製,1.5倍ヒダ,レースカーテン",,,,,ミラー1.5倍ヒダレースカーテンです。,hopeIV/hopeIV_1.jpg,カジュアルなストライプ調の1.5倍ヒダミラーカーテンです。 ,hopeIV/hopeIV_1.jpg,hopeIV/hopeIV_1.jpg,,,hopeIV/hopeIV_1.jpg,hopeIV/hopeIV_1.jpg,200:400,,hopeIV/hopeIV_2.jpg,hopeIV/hopeIV_2.jpg,,,,,,,,,,,,,,,,,,,,,,,,,,0,1,KZL105B,,1,,,1980,,0,,,,,,,,,,,,,,,"2,5",,"1706,1707,1715,1716,1726,1721",,"5,4,3,2,1",1,,,
,,,,1,イッシュ （ネイビー）,1,,"ネイビー,ミラー,遮熱,断熱,既製,1.5倍ヒダ,レースカーテン",,,,,遮熱・断熱、ミラー1.5倍ヒダレースカーテンです。,isshuNV/isshuNV_1.jpg,"ヨコボーダーが爽やかで軽快な1.5倍ヒダレースカーテンです。
遮熱・断熱、ミラー効果のある商品です。
無地調のドレープカーテンに良く合います。 ",isshuNV/isshuNV_1.jpg,isshuNV/isshuNV_1.jpg,,,isshuNV/isshuNV_1.jpg,isshuNV/isshuNV_1.jpg,200:400,,isshuNV/isshuNV_2.jpg,isshuNV/isshuNV_2.jpg,,,,,,,,,,,,,,,,,,,,,,,,,,0,1,AOL204A,,1,,,2980,,0,,,,,,,,,,,,,,,"2,5",,"1706,1707,1715,1716,1726,1721,1729",,"5,4,3,2,1",1,,,
,,,,1,ウニック （ベージュ）,1,,"ベージュ,透けにくい,遮熱,断熱,既製,1.5倍ヒダ,レースカーテン",,,,,遮熱・断熱、透けにくい1.5倍ヒダレースカーテンです。,unikkuBE/unikkuBE_1.jpg,素材感のある糸を入れ込んだ、ランダムな横段の1.5倍ヒダボイルカーテンです。,unikkuBE/unikkuBE_1.jpg,unikkuBE/unikkuBE_1.jpg,,,unikkuBE/unikkuBE_1.jpg,unikkuBE/unikkuBE_1.jpg,200:400,,unikkuBE/unikkuBE_2.jpg,unikkuBE/unikkuBE_2.jpg,,,unikkuBE/unikkuBE_3.jpg,unikkuBE/unikkuBE_3.jpg,,,unikkuBE/unikkuBE_4.jpg,unikkuBE/unikkuBE_4.jpg,,,,,,,,,,,,,,,,,,0,1,SCL206A,,1,,,2980,,0,,,,,,,,,,,,,,,"2,5",,"1706,1707,1715,1716,1726,1731,1729",,"5,4,3,2,1",1,,,
,,,,1,エオンレース （アイボリー）,1,,"アイボリー,透けにくい,既製,1.5倍ヒダ,レースカーテン",,,,,透けにくい1.5倍ヒダレースカーテンです。,eonlaceIV/eonlaceIV_1.jpg,"エオンカーテンと同じ柄をボイル地に箔プリントした1.5倍ヒダレースカーテンです。
透けにくいので安心してお使い頂けます。",eonlaceIV/eonlaceIV_1.jpg,eonlaceIV/eonlaceIV_1.jpg,,,eonlaceIV/eonlaceIV_1.jpg,eonlaceIV/eonlaceIV_1.jpg,200:400,,eonlaceIV/eonlaceIV_2.jpg,eonlaceIV/eonlaceIV_2.jpg,,,,,,,,,,,,,,,,,,,,,,,,,,0,1,MAL202A,,1,,,2980,,0,,,,,,,,,,,,,,,"2,5",,"1706,1707,1715,1716,1726,1731",,"5,4,3,2,1",1,,,
,,,,1,エポス （アイボリー）,1,,"アイボリー,ミラー,遮熱,断熱,既製,1.5倍ヒダ,レースカーテン",,,,,遮熱・断熱、ミラー1.5倍ヒダレースカーテンです。,eposuIV/eposuIV_1.jpg,"エンブロイダリーのような1.5倍ヒダレースカーテンです。
ゆったりとした曲線の流れがとても綺麗なエレガントな雰囲気の遮熱、ミラーの商品です。 ",eposuIV/eposuIV_1.jpg,eposuIV/eposuIV_1.jpg,,,eposuIV/eposuIV_1.jpg,eposuIV/eposuIV_1.jpg,200:400,,eposuIV/eposuIV_2.jpg,eposuIV/eposuIV_2.jpg,,,,,,,,,,,,,,,,,,,,,,,,,,0,1,AOL201A,,1,,,2980,,0,,,,,,,,,,,,,,,"2,5",,"1706,1707,1715,1716,1726,1721,1729",,"5,4,3,2,1",1,,,
,,,,1,エレオン （アイボリー）,1,,"アイボリー,ミラー,遮熱,断熱,防炎,既製,1.5倍ヒダ,レースカーテン",,,,,防炎、遮熱・断熱、ミラー1.5倍ヒダレースカーテンです。,ereonIV/ereonIV_1.jpg,防炎、遮熱、断熱、ミラーの機能をもった葉柄の1.5ヒダレースカーテンです。,ereonIV/ereonIV_1.jpg,ereonIV/ereonIV_1.jpg,,,ereonIV/ereonIV_1.jpg,ereonIV/ereonIV_1.jpg,200:400,,ereonIV/ereonIV_2.jpg,ereonIV/ereonIV_2.jpg,,,,,,,,,,,,,,,,,,,,,,,,,,0,1,SCL204A,,1,,,2980,,0,,,,,,,,,,,,,,,"2,5",,"1706,1707,1715,1716,1726,1721,1727,1729",,"5,4,3,2,1",1,,,
,,,,1,オブロン （アイボリー）,1,,"アイボリー,透けにくい,遮熱,断熱,防炎,既製,1.5倍ヒダ,レースカーテン",,,,,防炎、遮熱・断熱、透けにくい1.5倍ヒダレースカーテンです。,oburonIV/oburonIV_1.jpg,"横糸に麻ライクな糸を使い、素材感を表現した1.5倍ヒダレースカーテンです。
無地調なので使い易く、遮熱断熱、防炎機能も付いたお買い得な商品です。 ",oburonIV/oburonIV_1.jpg,oburonIV/oburonIV_1.jpg,,,oburonIV/oburonIV_1.jpg,oburonIV/oburonIV_1.jpg,200:400,,oburonIV/oburonIV_2.jpg,oburonIV/oburonIV_2.jpg,,,,,,,,,,,,,,,,,,,,,,,,,,0,1,SAL211A,,1,,,2980,,0,,,,,,,,,,,,,,,"2,5",,"1706,1707,1715,1716,1726,1729,1731,1727",,"5,4,3,2,1",1,,,
,,,,1,オリゾン （アイボリー）,1,,"アイボリー,ミラー,UVカット,遮熱,断熱,防炎,既製,1.5倍ヒダ,レースカーテン",,,,,防炎、遮熱・断熱、ミラー、ＵＶカット1.5倍ヒダレースカーテンです。,orizonIV/orizonIV_1.jpg,"防炎、遮熱、断熱機能をもった使い易い無地調の1.5倍ヒダレースカーテンです。
ボリューム感もあり、安心してお使い頂けます。",orizonIV/orizonIV_1.jpg,orizonIV/orizonIV_1.jpg,,,orizonIV/orizonIV_1.jpg,orizonIV/orizonIV_1.jpg,200:400,,orizonIV/orizonIV_2.jpg,orizonIV/orizonIV_2.jpg,,,,,,,,,,,,,,,,,,,,,,,,,,0,1,KZL217A,,1,,,2980,,0,,,,,,,,,,,,,,,"2,5",,"1706,1707,1715,1716,1726,1721,1723,1727,1729",,"5,4,3,2,1",1,,,
,,,,1,カステート （アイボリー）,1,,"アイボリー,透けにくい,既製,1.5倍ヒダ,レースカーテン",,,,,花粉キャッチ、透けにくい1.5倍ヒダレースカーテンです。,casutetoIV/casutetoIV_1.jpg,花粉キャッチ機能が付いた透けにくい1.5倍ヒダレースカーテンです。,casutetoIV/casutetoIV_1.jpg,casutetoIV/casutetoIV_1.jpg,,,casutetoIV/casutetoIV_1.jpg,casutetoIV/casutetoIV_1.jpg,200:400,,casutetoIV/casutetoIV_2.jpg,casutetoIV/casutetoIV_2.jpg,,,,,,,,,,,,,,,,,,,,,,,,,,0,1,SAL210A,,1,,,2980,,0,,,,,,,,,,,,,,,"2,5",,"1706,1707,1715,1716,1726,1731",,"5,4,3,2,1",1,,,
,,,,1,キュール （アイボリー）,1,,"アイボリー,UVカット,ミラー,遮熱,断熱,既製,1.5倍ヒダ,レースカーテン",,,,,遮熱・断熱、ミラー、ＵＶカット1.5倍ヒダレースカーテンです。,kyuruIV/kyuruIV_1.jpg,"遮熱、黒ずみ防止機能をもたせました。
ラメ糸を縦に挿入してストライプにしています。
機能もデザイン性も兼ね備えた1.5倍ヒダレースカーテンです。 ",kyuruIV/kyuruIV_1.jpg,kyuruIV/kyuruIV_1.jpg,,,kyuruIV/kyuruIV_1.jpg,kyuruIV/kyuruIV_1.jpg,200:400,,kyuruIV/kyuruIV_2.jpg,kyuruIV/kyuruIV_2.jpg,,,,,,,,,,,,,,,,,,,,,,,,,,0,1,KZL212A,,1,,,2980,,0,,,,,,,,,,,,,,,"2,5",,"1706,1707,1715,1716,1726,1721,1729,1723",,"5,4,3,2,1",1,,,
,,,,1,クアトロ （アイボリー）,1,,"アイボリー,UVカット,透けにくい,既製,1.5倍ヒダ,レースカーテン",,,,,透けにくい、ＵＶカット1.5倍ヒダレースカーテンです。,quatroIV/quatroIV_1.jpg,"遮像機能を持ちながらお部屋に光を採り入れ、ＵＶ効果もある機能満載な1.5倍ヒダレースカーテンです。
タテのストライプにオーナメントの柄がついて、より高級感を出しています。 ",quatroIV/quatroIV_1.jpg,quatroIV/quatroIV_1.jpg,,,quatroIV/quatroIV_1.jpg,quatroIV/quatroIV_1.jpg,200:400,,quatroIV/quatroIV_2.jpg,quatroIV/quatroIV_2.jpg,,,,,,,,,,,,,,,,,,,,,,,,,,0,1,KZL221A,,1,,,2980,,0,,,,,,,,,,,,,,,"2,5",,"1706,1707,1715,1716,1726,1731,1723",,"5,4,3,2,1",1,,,
,,,,1,クープ （アイボリー）,1,,"アイボリー,透けにくい,遮熱,断熱,防炎,既製,1.5倍ヒダ,レースカーテン",,,,,防炎、遮熱・断熱、透けにくい1.5倍ヒダレースカーテンです。,kupuIV/kupuIV_1.jpg,遮熱、防炎、制菌機能をもった使い易いストライプの1.5倍ヒダレースカーテンです。 ,kupuIV/kupuIV_1.jpg,kupuIV/kupuIV_1.jpg,,,kupuIV/kupuIV_1.jpg,kupuIV/kupuIV_1.jpg,200:400,,kupuIV/kupuIV_2.jpg,kupuIV/kupuIV_2.jpg,,,,,,,,,,,,,,,,,,,,,,,,,,0,1,KZL220A,,1,,,2980,,0,,,,,,,,,,,,,,,"2,5",,"1706,1707,1715,1716,1726,1727,1729,1731",,"5,4,3,2,1",1,,,
,,,,1,クッカ （イエロー）,1,,"イエロー,既製,1.5倍ヒダ,レースカーテン",,,,,1.5倍ヒダレースカーテンです。,kukkaYE/kukkaYE_1.jpg,"さりげない優しい小花柄をツタの流れと一緒にボイル生地に刺繍しました。
フローリングのナチュラルな雰囲気のお部屋にも、少し白っぽい女性好みのお部屋にも合わせて頂ける1.5倍ヒダレースカーテンです。 ",kukkaYE/kukkaYE_1.jpg,kukkaYE/kukkaYE_1.jpg,,,kukkaYE/kukkaYE_1.jpg,kukkaYE/kukkaYE_1.jpg,200:400,,kukkaYE/kukkaYE_2.jpg,kukkaYE/kukkaYE_2.jpg,,,,,,,,,,,,,,,,,,,,,,,,,,0,1,KZL224A,,1,,,2980,,0,,,,,,,,,,,,,,,"2,5",,"1706,1707,1715,1716,1726",,"5,4,3,2,1",1,,,
,,,,1,グロー （アイボリー）,1,,"アイボリー,UVカット,透けにくい,既製,1.5倍ヒダ,レースカーテン",,,,,透けにくい、ＵＶカット1.5倍ヒダレースカーテンです。,growIV/growIV_1.jpg,気になる紫外線をカットするUVカット機能、外部からの視線をカットする遮像機能、室内に明るい光を取り入れる採光機能を備えた1.5倍ヒダレースカーテンです。 ,growIV/growIV_1.jpg,growIV/growIV_1.jpg,,,growIV/growIV_1.jpg,growIV/growIV_1.jpg,200:400,,growIV/growIV_2.jpg,growIV/growIV_2.jpg,,,,,,,,,,,,,,,,,,,,,,,,,,0,1,KZL219A,,1,,,2980,,0,,,,,,,,,,,,,,,"2,5",,"1706,1707,1715,1716,1726,1731,1723",,"5,4,3,2,1",1,,,
,,,,1,シーン （アイボリー）,1,,"アイボリー,ミラー,既製,1.5倍ヒダ,レースカーテン",,,,,花粉キャッチ、ミラー1.5倍ヒダレースカーテンです。,seenIV/seenIV_1.jpg,使いやすいボーダー柄の1.5倍ヒダレースカーテンです。,seenIV/seenIV_1.jpg,seenIV/seenIV_1.jpg,,,seenIV/seenIV_1.jpg,seenIV/seenIV_1.jpg,200:400,,seenIV/seenIV_2.jpg,seenIV/seenIV_2.jpg,,,,,,,,,,,,,,,,,,,,,,,,,,0,1,SCL208A,,1,,,2980,,0,,,,,,,,,,,,,,,"2,5",,"1706,1707,1715,1716,1726,1721",,"5,4,3,2,1",1,,,
,,,,1,タブレーテ （グレー）,1,,"グレー,ミラー,既製,1.5倍ヒダ,レースカーテン",,,,,ミラー1.5倍ヒダレースカーテンです。,tabreteGRY/tabreteGRY_1.jpg,"リーフのシルエットをプリントした1.5倍ヒダのレースカーテンです。
どちらの配色にも合うようにモノトーン調のカラーでモダンにアレンジしています。 ",tabreteGRY/tabreteGRY_1.jpg,tabreteGRY/tabreteGRY_1.jpg,,,tabreteGRY/tabreteGRY_1.jpg,tabreteGRY/tabreteGRY_1.jpg,200:400,,tabreteGRY/tabreteGRY_2.jpg,tabreteGRY/tabreteGRY_2.jpg,,,,,,,,,,,,,,,,,,,,,,,,,,0,1,KZL347A,,1,,,2980,,0,,,,,,,,,,,,,,,"2,5",,"1706,1707,1715,1716,1726,1721",,"5,4,3,2,1",1,,,
,,,,1,ビアンコ （アイボリー）,1,,"アイボリー,既製,1.5倍ヒダ,レースカーテン",,,,,1.5倍ヒダレースカーテンです。,biancoIV/biancoIV_1.jpg,"シルバーを巻き付けた糸をドット＆ラインで使いやすい1.5倍ヒダレースカーテンです。
ベーシックに合わせやすいアイボリー色と薄いブルー色で、カジュアルなカーテンとコーディネートしてお使い頂けます。",biancoIV/biancoIV_1.jpg,biancoIV/biancoIV_1.jpg,,,biancoIV/biancoIV_1.jpg,biancoIV/biancoIV_1.jpg,200:400,,biancoIV/biancoIV_2.jpg,biancoIV/biancoIV_2.jpg,,,,,,,,,,,,,,,,,,,,,,,,,,0,1,AOL301A,,1,,,2980,,0,,,,,,,,,,,,,,,"2,5",,"1706,1707,1715,1716,1726,1721",,"5,4,3,2,1",1,,,
,,,,1,プチドロップ （アイボリー）,1,,"アイボリー,ミラー,遮熱,断熱,既製,1.5倍ヒダ,レースカーテン",,,,,遮熱・断熱、ミラー1.5倍ヒダレースカーテンです。,putidropIV/putidropIV_1.jpg,"レインボーのカラーで染めた小さな数珠モールを入れ込んだ1.5倍ヒダレースカーテンです。
無地調のドレープと合わせてお使い頂くと、よりレースカーテンが引き立ちます。 ",putidropIV/putidropIV_1.jpg,putidropIV/putidropIV_1.jpg,,,putidropIV/putidropIV_1.jpg,putidropIV/putidropIV_1.jpg,200:400,,putidropIV/putidropIV_2.jpg,putidropIV/putidropIV_2.jpg,,,,,,,,,,,,,,,,,,,,,,,,,,0,1,AOL203A,,1,,,2980,,0,,,,,,,,,,,,,,,"2,5",,"1706,1707,1715,1716,1726,1721,1729",,"5,4,3,2,1",1,,,
,,,,1,プレッソレース （シルバー）,1,,"シルバー,既製,1.5倍ヒダ,レースカーテン",,,,,1.5倍ヒダレースカーテンです。,pressolaceSV/pressolaceSV_1.jpg,"プレッソカーテンのペアになる1.5倍ヒダレースカーテンです。
透けにくい素材に箔プリントしました。 ",pressolaceSV/pressolaceSV_1.jpg,pressolaceSV/pressolaceSV_1.jpg,,,pressolaceSV/pressolaceSV_1.jpg,pressolaceSV/pressolaceSV_1.jpg,200:400,,pressolaceSV/pressolaceSV_2.jpg,pressolaceSV/pressolaceSV_2.jpg,,,,,,,,,,,,,,,,,,,,,,,,,,0,1,MAL203A,,1,,,2980,,0,,,,,,,,,,,,,,,"2,5",,"1706,1707,1715,1716,1726",,"5,4,3,2,1",1,,,
,,,,1,マリスタ （アイボリー）,1,,"アイボリー,UVカット,ミラー,遮熱,断熱,既製,1.5倍ヒダ,レースカーテン",,,,,遮熱・断熱、ミラー、ＵＶカット1.5倍ヒダレースカーテンです。,maristaIV/maristaIV_1.jpg,"遮熱・防虫加工をもった1.5倍ヒダレースカーテンです。
ストライプ調の合わせやすい柄行きです。 ",maristaIV/maristaIV_1.jpg,maristaIV/maristaIV_1.jpg,,,maristaIV/maristaIV_1.jpg,maristaIV/maristaIV_1.jpg,200:400,,maristaIV/maristaIV_2.jpg,maristaIV/maristaIV_2.jpg,,,,,,,,,,,,,,,,,,,,,,,,,,0,1,SCL203A,,1,,,2980,,0,,,,,,,,,,,,,,,"2,5",,"1706,1707,1715,1716,1726,1721,1729,1723",,"5,4,3,2,1",1,,,
,,,,1,ミストラル （アイボリー）,1,,"アイボリー,ミラー,遮熱,断熱,既製,1.5倍ヒダ,レースカーテン",,,,,遮熱・断熱、ミラー1.5倍ヒダレースカーテンです。,mistralIV/mistralIV_1.jpg,"オーナメントの柄に落下版という手法でボリュームを持たせた、上品で落ち着きのある1.5倍ヒダレースカーテンです。
使い易いストライプ調なので、お部屋をスッキリと見せてくれます。 ",mistralIV/mistralIV_1.jpg,mistralIV/mistralIV_1.jpg,,,mistralIV/mistralIV_1.jpg,mistralIV/mistralIV_1.jpg,200:400,,mistralIV/mistralIV_2.jpg,mistralIV/mistralIV_2.jpg,,,,,,,,,,,,,,,,,,,,,,,,,,0,1,AOL202A,,1,,,2980,,0,,,,,,,,,,,,,,,"2,5",,"1706,1707,1715,1716,1726,1721,1729",,"5,4,3,2,1",1,,,
,,,,1,メルチェ （グリーン）,1,,"グリーン,ミラー,遮熱,断熱,既製,1.5倍ヒダ,レースカーテン",,,,,遮熱・断熱、ミラー1.5倍ヒダレースカーテンです。,merucheG/merucheG_1.jpg,"小さな葉の流れを3色の糸で編んだ1.5倍ヒダレースカーテンです。
シルバーの光と爽やかなグリーンの印象が新鮮です。",merucheG/merucheG_1.jpg,merucheG/merucheG_1.jpg,,,merucheG/merucheG_1.jpg,merucheG/merucheG_1.jpg,200:400,,merucheG/merucheG_2.jpg,merucheG/merucheG_2.jpg,,,,,,,,,,,,,,,,,,,,,,,,,,0,1,AOL302A,,1,,,2980,,0,,,,,,,,,,,,,,,"2,5",,"1706,1707,1715,1716,1726,1721,1729",,"5,4,3,2,1",1,,,
,,,,1,メルレット （オレンジ）,1,,"オレンジ,既製,1.5倍ヒダ,レースカーテン",,,,,1.5倍ヒダレースカーテンです。,merurettoOR/merurettoOR_1.jpg,"ガーランドと鳥をボイル生地に刺繍したカジュアルな1.5倍ヒダレースカーテンです。
オレンジ、黄緑、イエローの３色で刺繍をしているので、より楽しい印象です。
生地にスパンボイルを使用して、より優しい雰囲気をかもし出しています。 ",merurettoOR/merurettoOR_1.jpg,merurettoOR/merurettoOR_1.jpg,,,merurettoOR/merurettoOR_1.jpg,merurettoOR/merurettoOR_1.jpg,200:400,,merurettoOR/merurettoOR_2.jpg,merurettoOR/merurettoOR_2.jpg,,,,,,,,,,,,,,,,,,,,,,,,,,0,1,KZL225A,,1,,,2980,,0,,,,,,,,,,,,,,,"2,5",,"1706,1707,1715,1716,1726",,"5,4,3,2,1",1,,,
,,,,1,ラーギル （アイボリー）,1,,"アイボリー,既製,1.5倍ヒダ,レースカーテン",,,,,1.5倍ヒダレースカーテンです。,ragilIV/ragilIV_1.jpg,"素材感があり、自然素材の様な1.5倍ヒダボイルカーテンです。
先染め糸を使って織り上げていますので、微妙な深みが出ています。",ragilIV/ragilIV_1.jpg,ragilIV/ragilIV_1.jpg,,,ragilIV/ragilIV_1.jpg,ragilIV/ragilIV_1.jpg,200:400,,ragilIV/ragilIV_2.jpg,ragilIV/ragilIV_2.jpg,,,,,,,,,,,,,,,,,,,,,,,,,,0,1,SCL205A,,1,,,2980,,0,,,,,,,,,,,,,,,"2,5",,"1706,1707,1715,1716,1726",,"5,4,3,2,1",1,,,
,,,,1,ラーギル （グレー）,1,,"グレー,既製,1.5倍ヒダ,レースカーテン",,,,,1.5倍ヒダレースカーテンです。,ragilGRY/ragilGRY_1.jpg,"素材感があり、自然素材の様な1.5倍ヒダボイルカーテンです。
先染め糸を使って織り上げていますので、微妙な深みが出ています。",ragilGRY/ragilGRY_1.jpg,ragilGRY/ragilGRY_1.jpg,,,ragilGRY/ragilGRY_1.jpg,ragilGRY/ragilGRY_1.jpg,200:400,,ragilGRY/ragilGRY_2.jpg,ragilGRY/ragilGRY_2.jpg,,,,,,,,,,,,,,,,,,,,,,,,,,0,1,SCL205C,,1,,,2980,,0,,,,,,,,,,,,,,,"2,5",,"1706,1707,1715,1716,1726",,"5,4,3,2,1",1,,,
,,,,1,ラーギル （ブルー）,1,,"ブルー,既製,1.5倍ヒダ,レースカーテン",,,,,1.5倍ヒダレースカーテンです。,ragilBL/ragilBL_1.jpg,"素材感があり、自然素材の様な1.5倍ヒダボイルカーテンです。
先染め糸を使って織り上げていますので、微妙な深みが出ています。",ragilBL/ragilBL_1.jpg,ragilBL/ragilBL_1.jpg,,,ragilBL/ragilBL_1.jpg,ragilBL/ragilBL_1.jpg,200:400,,ragilBL/ragilBL_2.jpg,ragilBL/ragilBL_2.jpg,,,,,,,,,,,,,,,,,,,,,,,,,,0,1,SCL205B,,1,,,2980,,0,,,,,,,,,,,,,,,"2,5",,"1706,1707,1715,1716,1726",,"5,4,3,2,1",1,,,
,,,,1,ラスター （ホワイト）,1,,"ホワイト,ミラー,遮熱,断熱,既製,1.5倍ヒダ,レースカーテン",,,,,遮熱・断熱、ミラー1.5倍ヒダレースカーテンです。,rasutaWH/rasutaWH_1.jpg,"細かいヨコ畝(ぼう)のベーシックな多機能な1.5倍ヒダレースカーテンです。
遮熱、断熱、ミラーの3つの機能を合わせ持っています。",rasutaWH/rasutaWH_1.jpg,rasutaWH/rasutaWH_1.jpg,,,rasutaWH/rasutaWH_1.jpg,rasutaWH/rasutaWH_1.jpg,200:400,,rasutaWH/rasutaWH_2.jpg,rasutaWH/rasutaWH_2.jpg,,,,,,,,,,,,,,,,,,,,,,,,,,0,1,SAL322A,,1,,,2980,,0,,,,,,,,,,,,,,,"2,5",,"1706,1707,1715,1716,1726,1721,1729",,"5,4,3,2,1",1,,,
,,,,1,ラント （グレー）,1,,"グレー,透けにくい,遮熱,断熱,既製,1.5倍ヒダ,レースカーテン",,,,,遮熱・断熱、透けにくい1.5倍ヒダレースカーテンです。,rantoGRY/rantoGRY_1.jpg,"モノトーンに絣染めした糸をアクセントに入れたモダンな感覚の遮熱1.5倍ヒダレースカーテンです。
無地調のドレープカーテンと合わせてお使い頂くと、洗練されたインテリアを演出出来ます。 ",rantoGRY/rantoGRY_1.jpg,rantoGRY/rantoGRY_1.jpg,,,rantoGRY/rantoGRY_1.jpg,rantoGRY/rantoGRY_1.jpg,200:400,,rantoGRY/rantoGRY_2.jpg,rantoGRY/rantoGRY_2.jpg,,,,,,,,,,,,,,,,,,,,,,,,,,0,1,SCL207A,,1,,,2980,,0,,,,,,,,,,,,,,,"2,5",,"1706,1707,1715,1716,1726,1729,1731",,"5,4,3,2,1",1,,,
,,,,1,ルプール （アイボリー）,1,,"アイボリー,ミラー,遮熱,断熱,既製,1.5倍ヒダ,レースカーテン",,,,,遮熱・断熱、ミラー1.5倍ヒダレースカーテンです。,rupoolIV/rupoolIV_1.jpg,"柔らかい曲線の遮熱付きの1.5倍ヒダレースカーテンです。
「トルッコ」「レーテ」のドレープカーテンと合わせてお使い頂くと、エレガントなお部屋を演出出来ます。
無地調のドレープカーテンと合わせてお使い頂くと曲線がアクセントとなります。",rupoolIV/rupoolIV_1.jpg,rupoolIV/rupoolIV_1.jpg,,,rupoolIV/rupoolIV_1.jpg,rupoolIV/rupoolIV_1.jpg,200:400,,rupoolIV/rupoolIV_2.jpg,rupoolIV/rupoolIV_2.jpg,,,,,,,,,,,,,,,,,,,,,,,,,,0,1,YUL202A,,1,,,2980,,0,,,,,,,,,,,,,,,"2,5",,"1706,1707,1715,1716,1726,1721,1729",,"5,4,3,2,1",1,,,
,,,,1,アブソルート （アイボリー）,1,,"アイボリー,ミラー,既製,2倍ヒダ,レースカーテン",,,,,ミラー、2倍ヒダレースカーテンです。,absolutoIV/absolutoIV_1.jpg,光触媒効果により繊維上の細菌増殖を抑制し、防臭・防汚機能を併せ持つ多機能２倍ヒダレースカーテンです。 ,absolutoIV/absolutoIV_1.jpg,absolutoIV/absolutoIV_1.jpg,,,absolutoIV/absolutoIV_1.jpg,absolutoIV/absolutoIV_1.jpg,200:400,,absolutoIV/absolutoIV_2.jpg,absolutoIV/absolutoIV_2.jpg,,,,,,,,,,,,,,,,,,,,,,,,,,0,1,KZL328A,,1,,,3980,,0,,,,,,,,,,,,,,,"2,5",,"1706,1707,1715,1716,1726,1721",,"5,4,3,2,1",1,,,
,,,,1,コンフィ （ホワイト）,1,,"ホワイト,UVカット,遮熱,断熱,防炎,既製,1.5倍ヒダ,レースカーテン",,,,,防炎、遮熱・断熱、ＵＶカット1.5倍ヒダレースカーテンです。,comfyWH/comfyWH_1.jpg,"遮熱、防炎、アレルゲン抑制、ＵＶカット、遮像機能を持った多機能1.5倍ヒダレースカーテンです。
無地調なので、どんなドレープカーテンにも合わせやすい商品です。 ",comfyWH/comfyWH_1.jpg,comfyWH/comfyWH_1.jpg,,,comfyWH/comfyWH_1.jpg,comfyWH/comfyWH_1.jpg,200:400,,comfyWH/comfyWH_2.jpg,comfyWH/comfyWH_2.jpg,,,,,,,,,,,,,,,,,,,,,,,,,,0,1,YUL303A,,1,,,3980,,0,,,,,,,,,,,,,,,"2,5",,"1706,1707,1715,1716,1726,1723,1729",,"5,4,3,2,1",1,,,
,,,,1,ジャミール （ベージュ）,1,,"ベージュ,既製,1.5倍ヒダ,レースカーテン",,,,,1.5倍ヒダレースカーテンです。,jamiruBE/jamiruBE_1.jpg,"「リンゴ」と「洋ナシ」のフルーツを可愛くタッチ感をつけて刺繍しました。
生地にシャリ感があり、素材感を感じて頂けるボイル生地を使用しています。
無地調の厚地カーテンとの相性が抜群な1.5倍ヒダレースカーテンです。",jamiruBE/jamiruBE_1.jpg,jamiruBE/jamiruBE_1.jpg,,,jamiruBE/jamiruBE_1.jpg,jamiruBE/jamiruBE_1.jpg,200:400,,,,,,,,,,,,,,,,,,,,,,,,,,,,,0,1,KZL359A,,1,,,3980,,0,,,,,,,,,,,,,,,"2,5",,"1706,1707,1715,1716,1726",,"5,4,3,2,1",1,,,
,,,,1,パナル （アイボリー）,1,,"アイボリー,既製,1.5倍ヒダ,レースカーテン",,,,,1.5倍ヒダレースカーテンです。,panaruIV/panaruIV_1.jpg,"スギ花粉アレルゲン低減効果、消臭効果(生活臭)、カーテンに付着した抗菌抗ウィルス効果(吸着分解)を発揮する1.5倍ヒダレースカーテンです。
薬剤は食品添加物に認可されている成分で構成され、化学反応によって、細菌・ウイルス・アレルゲン等のタンパク質や臭いを吸着分解します。
人にも環境にも優しいカーテンです。 ",panaruIV/panaruIV_1.jpg,panaruIV/panaruIV_1.jpg,,,panaruIV/panaruIV_1.jpg,panaruIV/panaruIV_1.jpg,200:400,,panaruIV/panaruIV_2.jpg,panaruIV/panaruIV_2.jpg,,,,,,,,,,,,,,,,,,,,,,,,,,0,1,SAL327A,,1,,,3980,,0,,,,,,,,,,,,,,,"2,5",,"1706,1707,1715,1716,1726",,"5,4,3,2,1",1,,,
,,,,1,バレリー （アイボリー）,1,,"アイボリー,ミラー,遮熱,断熱,既製,1.5倍ヒダ,レースカーテン",,,,,遮熱・断熱、ミラー1.5倍ヒダレースカーテンです。,varelyIV/varelyIV_1.jpg,"ボリューム感あるレースカーテンです。
無地調のドレープにも柄物のみ合わせやすい商品です。
遮熱、ミラー、防汚機能が付いた1.5倍ヒダレースカーテンです。 ",varelyIV/varelyIV_1.jpg,varelyIV/varelyIV_1.jpg,,,varelyIV/varelyIV_1.jpg,varelyIV/varelyIV_1.jpg,200:400,,varelyIV/varelyIV_2.jpg,varelyIV/varelyIV_2.jpg,,,,,,,,,,,,,,,,,,,,,,,,,,0,1,SCL307A,,1,,,3980,,0,,,,,,,,,,,,,,,"2,5",,"1706,1707,1715,1716,1726,1721,1729",,"5,4,3,2,1",1,,,
,,,,1,フォルマ （アイボリー）,1,,"アイボリー,ミラー,UVカット,遮熱,断熱,防炎,既製,2倍ヒダ,レースカーテン",,,,,防炎、遮熱・断熱、ミラー、ＵＶカット2倍ヒダレースカーテンです。,forumaIV/forumaIV_1.jpg,防炎・ミラー・遮熱・断熱等を付加した２倍ヒダレースカーテンです。 ,forumaIV/forumaIV_1.jpg,forumaIV/forumaIV_1.jpg,,,forumaIV/forumaIV_1.jpg,forumaIV/forumaIV_1.jpg,200:400,,forumaIV/forumaIV_2.jpg,forumaIV/forumaIV_2.jpg,,,,,,,,,,,,,,,,,,,,,,,,,,0,1,SAL319A,,1,,,3980,,0,,,,,,,,,,,,,,,"2,5",,"1706,1707,1715,1716,1726,1721,1723,1727,1729",,"5,4,3,2,1",1,,,
,,,,1,ルシーンレース （アイボリー）,1,,"アイボリー,既製,1.5倍ヒダ,レースカーテン",,,,,1.5倍ヒダレースカーテンです。,ruseenlaceIV/ruseenlaceIV_1.jpg,"月と星のモチーフを刺繍した1.5倍ヒダレースカーテンです。
同柄のマッチドレープ「ルシーン」とも合わせてお使いください。",ruseenlaceIV/ruseenlaceIV_1.jpg,ruseenlaceIV/ruseenlaceIV_1.jpg,,,ruseenlaceIV/ruseenlaceIV_1.jpg,ruseenlaceIV/ruseenlaceIV_1.jpg,200:400,,ruseenlaceIV/ruseenlaceIV_2.jpg,ruseenlaceIV/ruseenlaceIV_2.jpg,,,,,,,,,,,,,,,,,,,,,,,,,,0,1,KZL355A,,1,,,3980,,0,,,,,,,,,,,,,,,"2,5",,"1706,1707,1715,1716,1726",,"5,4,3,2,1",1,,,
,,,,1,アレー （グリーン）,1,,"グリーン,既製,1.5倍ヒダ,レースカーテン",,,,,シームレス1.5倍ヒダレースカーテンです。,arayG/arayG_1.jpg,"とても凝った感じで緻密感のあるリーフの刺繍を裾に施しています。
是非リビングルームでお使い頂きたい1.5倍ヒダレースカーテンです。",arayG/arayG_1.jpg,arayG/arayG_1.jpg,,,arayG/arayG_1.jpg,arayG/arayG_1.jpg,200:400,,arayG/arayG_2.jpg,arayG/arayG_2.jpg,,,,,,,,,,,,,,,,,,,,,,,,,,0,1,KZL509A,,1,,,5980,,0,,,,,,,,,,,,,,,"2,5",,"1706,1707,1715,1716,1726",,"5,4,3,2,1",1,,,
,,,,1,シャロット （アイボリー）,1,,"アイボリー,既製,2倍ヒダ,レースカーテン",,,,,シームレス2倍ヒダレースカーテンです。,sharottoIV/sharottoIV_1.jpg,シームレスなので継ぎ目が無く、きれいな仕上がりの2倍ヒダレースカーテンです。 ,sharottoIV/sharottoIV_1.jpg,sharottoIV/sharottoIV_1.jpg,,,sharottoIV/sharottoIV_1.jpg,sharottoIV/sharottoIV_1.jpg,200:400,,sharottoIV/sharottoIV_2.jpg,sharottoIV/sharottoIV_2.jpg,,,,,,,,,,,,,,,,,,,,,,,,,,0,1,KZL502A,,1,,,5980,,0,,,,,,,,,,,,,,,"2,5",,"1706,1707,1715,1716,1726",,"5,4,3,2,1",1,,,
,,,,1,モントル （アイボリー）,1,,"アイボリー,既製,2倍ヒダ,レースカーテン",,,,,シームレス2倍ヒダレースカーテンです。,montoruIV/montoruIV_1.jpg,"裾のエンブロイダリーが可愛いエレガントな2倍ヒダレースカーテンです。
シームレスですので、綺麗なドレープ感でお部屋をコーディネートしてくれます。 ",montoruIV/montoruIV_1.jpg,montoruIV/montoruIV_1.jpg,,,montoruIV/montoruIV_1.jpg,montoruIV/montoruIV_1.jpg,200:400,,,,,,,,,,,,,,,,,,,,,,,,,,,,,0,1,KZL507A,,1,,,5980,,0,,,,,,,,,,,,,,,"2,5",,"1706,1707,1715,1716,1726",,"5,4,3,2,1",1,,,
