商品ID,商品規格ID,親規格分類ID,規格分類ID,メーカーID,商品名,表示ステータス(公開・非公開),コメント2,検索ワード(コメント3),コメント4,コメント5,コメント6,備考欄(SHOP専用),一覧-メインコメント,一覧-メイン画像,詳細-メインコメント,詳細-メイン画像,詳細-メイン拡大画像,詳細-サブタイトル(1),詳細-サブコメント(1),詳細-サブ画像(1),詳細-サブ拡大画像(1),詳細-サブタイトル(2),詳細-サブコメント(2),詳細-サブ画像(2),詳細-サブ拡大画像(2),詳細-サブタイトル(3),詳細-サブコメント(3),詳細-サブ画像(3),詳細-サブ拡大画像(3),詳細-サブタイトル(4),詳細-サブコメント(4),詳細-サブ画像(4),詳細-サブ拡大画像(4),詳細-サブタイトル(5),詳細-サブコメント(5),詳細-サブ画像(5),詳細-サブ拡大画像(5),詳細-サブタイトル(6),詳細-サブコメント(6),詳細-サブ画像(6),詳細-サブ拡大画像(6),詳細-サブタイトル(7),詳細-サブコメント(7),詳細-サブ画像(7),詳細-サブ拡大画像(7),詳細-サブタイトル(8),詳細-サブコメント(8),詳細-サブ画像(8),詳細-サブ拡大画像(8),発送日目安ID,削除フラグ,商品種別ID,商品コード,在庫数,在庫無制限フラグ,販売制限数,通常価格,販売価格,送料,ポイント付与率,ダウンロードファイル名,ダウンロード実ファイル,関連商品ID(1),関連商品コメント(1),関連商品ID(2),関連商品コメント(2),関連商品ID(3),関連商品コメント(3),関連商品ID(4),関連商品コメント(4),関連商品ID(5),関連商品コメント(5),関連商品ID(6),関連商品コメント(6),商品ステータス,商品ステータス名,カテゴリID,カテゴリ名,オプション設定,オーダー商品ID,オーダー商品フラグ,会員ランク別購入不可設定,通常価格_1
,,,,1,フォマージュ （ブルー）,1,,"セール,安い,既製,厚地,1.5倍ヒダ,形状記憶,",,,,,遮光2級形状記憶付1.5倍ヒダカーテンです。,fomajuBL/fomajuBL_1.jpg,遮光2級形状記憶付1.5倍ヒダカーテンです。,fomajuBL/fomajuBL_1.jpg,fomajuBL/fomajuBL_1.jpg,,,fomajuBL/fomajuBL_1.jpg,fomajuBL/fomajuBL_1.jpg,200:400,,fomajuBL/fomajuBL_2.jpg,fomajuBL/fomajuBL_2.jpg,,,fomajuBL/fomajuBL_3.jpg,fomajuBL/fomajuBL_3.jpg,,,fomajuBL/fomajuBL_4.jpg,fomajuBL/fomajuBL_4.jpg,,,fomajuBL/fomajuBL_5.jpg,fomajuBL/fomajuBL_5.jpg,,,,,,,,,,,,,,0,1,fomajuBL,,1,,,3980,,0,,,,,,,,,,,,,,,"2,5",,1706,,"4,3,2,1",1,,,
,,,,1,ポルト （ピンク）,1,,"セール,安い,既製,厚地,1.5倍ヒダ,形状記憶,",,,,,遮光2級形状記憶付1.5倍ヒダカーテンです。,porutoPI/porutoPI_1.jpg,遮光2級形状記憶付1.5倍ヒダカーテンです。,porutoPI/porutoPI_1.jpg,porutoPI/porutoPI_1.jpg,,,porutoPI/porutoPI_1.jpg,porutoPI/porutoPI_1.jpg,200:400,,porutoPI/porutoPI_2.jpg,porutoPI/porutoPI_2.jpg,,,porutoPI/porutoPI_3.jpg,porutoPI/porutoPI_3.jpg,,,porutoPI/porutoPI_4.jpg,porutoPI/porutoPI_4.jpg,,,porutoPI/porutoPI_5.jpg,porutoPI/porutoPI_5.jpg,,,,,,,,,,,,,,0,1,porutoPI,,1,,,3980,,0,,,,,,,,,,,,,,,"2,5",,1706,,"4,3,2,1",1,,,
,,,,1,ザフラ （イエロー）,1,,"セール,安い,既製,厚地,1.5倍ヒダ,形状記憶,",,,,,遮光2級形状記憶付1.5倍ヒダカーテンです。,zafraYE/zafraYE_1.jpg,遮光2級形状記憶付1.5倍ヒダカーテンです。,zafraYE/zafraYE_1.jpg,zafraYE/zafraYE_1.jpg,,,zafraYE/zafraYE_1.jpg,zafraYE/zafraYE_1.jpg,200:400,,zafraYE/zafraYE_2.jpg,zafraYE/zafraYE_2.jpg,,,zafraYE/zafraYE_3.jpg,zafraYE/zafraYE_3.jpg,,,zafraYE/zafraYE_4.jpg,zafraYE/zafraYE_4.jpg,,,zafraYE/zafraYE_5.jpg,zafraYE/zafraYE_5.jpg,,,,,,,,,,,,,,0,1,zafraYE,,1,,,4980,,0,,,,,,,,,,,,,,,"2,5",,1706,,"4,3,2,1",1,,,
,,,,1,パトリシア （パープル）,1,,"セール,安い,既製,厚地,1.5倍ヒダ,形状記憶,",,,,,遮光2級裏地付形状記憶付1.5倍ヒダカーテンです。,patriciaPU/patriciaPU_1.jpg,遮光2級裏地付形状記憶付1.5倍ヒダカーテンです。,patriciaPU/patriciaPU_1.jpg,patriciaPU/patriciaPU_1.jpg,,,patriciaPU/patriciaPU_1.jpg,patriciaPU/patriciaPU_1.jpg,200:400,,patriciaPU/patriciaPU_2.jpg,patriciaPU/patriciaPU_2.jpg,,,patriciaPU/patriciaPU_3.jpg,patriciaPU/patriciaPU_3.jpg,,,patriciaPU/patriciaPU_4.jpg,patriciaPU/patriciaPU_4.jpg,,,patriciaPU/patriciaPU_5.jpg,patriciaPU/patriciaPU_5.jpg,,,,,,,,,,,,,,0,1,patriciaPU,,1,,,5980,,0,,,,,,,,,,,,,,,"2,5",,1706,,"4,3,2,1",1,,,
,,,,1,パトリシア （ベージュ）,1,,"セール,安い,既製,厚地,1.5倍ヒダ,形状記憶,",,,,,遮光2級裏地付形状記憶付1.5倍ヒダカーテンです。,patriciaBE/patriciaBE_1.jpg,遮光2級裏地付形状記憶付1.5倍ヒダカーテンです。,patriciaBE/patriciaBE_1.jpg,patriciaBE/patriciaBE_1.jpg,,,patriciaBE/patriciaBE_1.jpg,patriciaBE/patriciaBE_1.jpg,200:400,,patriciaBE/patriciaBE_2.jpg,patriciaBE/patriciaBE_2.jpg,,,patriciaBE/patriciaBE_3.jpg,patriciaBE/patriciaBE_3.jpg,,,patriciaBE/patriciaBE_4.jpg,patriciaBE/patriciaBE_4.jpg,,,patriciaBE/patriciaBE_5.jpg,patriciaBE/patriciaBE_5.jpg,,,,,,,,,,,,,,0,1,patriciaBE,,1,,,5980,,0,,,,,,,,,,,,,,,"2,5",,1706,,"4,3,2,1",1,,,
,,,,1,カウラ （グレー）,1,,"セール,安い,既製,レース,1.5倍ヒダ",,,,,1.5倍ヒダレースカーテンです。,kauraGRY/kauraGRY_1.jpg,1.5倍ヒダレースカーテンです。,kauraGRY/kauraGRY_1.jpg,kauraGRY/kauraGRY_1.jpg,,,kauraGRY/kauraGRY_1.jpg,kauraGRY/kauraGRY_1.jpg,200:400,,kauraGRY/kauraGRY_2.jpg,kauraGRY/kauraGRY_2.jpg,,,,,,,,,,,,,,,,,,,,,,,,,,0,1,kauraGRY,,1,,,2980,,0,,,,,,,,,,,,,,,"2,5",,1706,,"4,3,2,1",1,,,
,,,,1,キュイール（ﾍﾞｰｼﾞｭ）,1,,"セール,安い,ラグ,半額",,,,,起毛した手触りの良い薄手のラグです。,kyuierBE/kyuierBE_1.jpg,起毛した手触りの良い薄手のラグです。,kyuierBE/kyuierBE_1.jpg,kyuierBE/kyuierBE_1.jpg,,,kyuierBE/kyuierBE_1.jpg,kyuierBE/kyuierBE_1.jpg,,,,,,,,,,,,,,,,,,,,,,,,,,,,,,,,kyuierBE,,1,,,0,,0,,,,,,,,,,,,,,,2,,1714,,,0,,,
,,,,1,キュイール（ﾌﾞﾗｳﾝ）,1,,"セール,安い,ラグ,半額",,,,,起毛した手触りの良い薄手のラグです。,kyuierBR/kyuierBR_1.jpg,起毛した手触りの良い薄手のラグです。,kyuierBR/kyuierBR_1.jpg,kyuierBR/kyuierBR_1.jpg,,,kyuierBR/kyuierBR_1.jpg,kyuierBR/kyuierBR_1.jpg,,,,,,,,,,,,,,,,,,,,,,,,,,,,,,,,kyuierBR,,1,,,0,,0,,,,,,,,,,,,,,,2,,1714,,,0,,,
,,,,1,ラディエ（ｺｰﾗﾙ）,1,,"セール,安い,ラグ,半額",,,,,素材感のある毛足が特徴のラグです。,radhieCO/radhieCO_1.jpg,素材感のある毛足が特徴のラグです。,radhieCO/radhieCO_1.jpg,radhieCO/radhieCO_1.jpg,,,radhieCO/radhieCO_1.jpg,radhieCO/radhieCO_1.jpg,,,,,,,,,,,,,,,,,,,,,,,,,,,,,,,,radhieCO,,1,,,0,,0,,,,,,,,,,,,,,,2,,1714,,,0,,,
,,,,1,ラディエ（ﾍﾞｰｼﾞｭ）,1,,"セール,安い,ラグ,半額",,,,,素材感のある毛足が特徴のラグです。,radhieBE/radhieBE_1.jpg,素材感のある毛足が特徴のラグです。,radhieBE/radhieBE_1.jpg,radhieBE/radhieBE_1.jpg,,,radhieBE/radhieBE_1.jpg,radhieBE/radhieBE_1.jpg,,,,,,,,,,,,,,,,,,,,,,,,,,,,,,,,radhieBE,,1,,,0,,0,,,,,,,,,,,,,,,2,,1714,,,0,,,
,,,,1,ラディエ（ｸﾞﾘｰﾝ）,1,,"セール,安い,ラグ,半額",,,,,素材感のある毛足が特徴のラグです。,radhieG/radhieG_1.jpg,素材感のある毛足が特徴のラグです。,radhieG/radhieG_1.jpg,radhieG/radhieG_1.jpg,,,radhieG/radhieG_1.jpg,radhieG/radhieG_1.jpg,,,,,,,,,,,,,,,,,,,,,,,,,,,,,,,,radhieG,,1,,,0,,0,,,,,,,,,,,,,,,2,,1714,,,0,,,
,,,,1,ラディエ（ﾊﾟｰﾌﾟﾙ）,1,,"セール,安い,ラグ,半額",,,,,素材感のある毛足が特徴のラグです。,radhiePU/radhiePU_1.jpg,素材感のある毛足が特徴のラグです。,radhiePU/radhiePU_1.jpg,radhiePU/radhiePU_1.jpg,,,radhiePU/radhiePU_1.jpg,radhiePU/radhiePU_1.jpg,,,,,,,,,,,,,,,,,,,,,,,,,,,,,,,,radhiePU,,1,,,0,,0,,,,,,,,,,,,,,,2,,1714,,,0,,,
,,,,1,サミィ（ｱｲﾎﾞﾘｰ）,1,,"セール,安い,ラグ,半額",,,,,優しい肌触りの薄めのホットカバーです。,samyIV_1/samyIV_1_1.jpg,優しい肌触りの薄めのホットカバーです。,samyIV_1/samyIV_1_1.jpg,samyIV_1/samyIV_1_1.jpg,,,samyIV_1/samyIV_1_1.jpg,samyIV_1/samyIV_1_1.jpg,,,,,,,,,,,,,,,,,,,,,,,,,,,,,,,,samyIV_1,,1,,,0,,0,,,,,,,,,,,,,,,2,,1714,,,0,,,
,,,,1,サミィ（ｸﾞﾘｰﾝ）,1,,"セール,安い,ラグ,半額",,,,,優しい肌触りの薄めのホットカバーです。,samyG_1/samyG_1_1.jpg,優しい肌触りの薄めのホットカバーです。,samyG_1/samyG_1_1.jpg,samyG_1/samyG_1_1.jpg,,,samyG_1/samyG_1_1.jpg,samyG_1/samyG_1_1.jpg,,,,,,,,,,,,,,,,,,,,,,,,,,,,,,,,samyG_1,,1,,,0,,0,,,,,,,,,,,,,,,2,,1714,,,0,,,
,,,,1,サミィ（ｸﾞﾚｰ）,1,,"セール,安い,ラグ,半額",,,,,優しい肌触りの薄めのホットカバーです。,samyGRY_1/samyGRY_1_1.jpg,優しい肌触りの薄めのホットカバーです。,samyGRY_1/samyGRY_1_1.jpg,samyGRY_1/samyGRY_1_1.jpg,,,samyGRY_1/samyGRY_1_1.jpg,samyGRY_1/samyGRY_1_1.jpg,,,,,,,,,,,,,,,,,,,,,,,,,,,,,,,,samyGRY_1,,1,,,0,,0,,,,,,,,,,,,,,,2,,1714,,,0,,,
