商品ID,商品規格ID,オプション設定
201,19544,"6,5,4,3,2,1"
201,19545,"6,5,4,3,2,1"
201,19546,"6,5,4,3,2,1"
201,19547,"6,5,4,3,2,1"
201,19548,"6,5,4,3,2,1"
201,19549,"6,5,4,3,2,1"
201,19550,"6,5,4,3,2,1"
201,19551,"6,5,4,3,2,1"
201,19552,"6,5,4,3,2,1"
201,19553,"6,5,4,3,2,1"
201,19554,"6,5,4,3,2,1"
201,19555,"6,5,4,3,2,1"
201,19556,"6,5,4,3,2,1"
201,19557,"6,5,4,3,2,1"
201,19558,"6,5,4,3,2,1"
201,19559,"6,5,4,3,2,1"
201,19560,"6,5,4,3,2,1"
201,19561,"6,5,4,3,2,1"
201,19562,"6,5,4,3,2,1"
201,19563,"6,5,4,3,2,1"
201,19564,"6,5,4,3,2,1"
