商品ID,商品規格ID,親規格分類ID,親規格分類名,規格分類ID,商品名,表示ステータス(公開・非公開),コメント2,検索ワード(コメント3),コメント4,コメント5,コメント6,備考欄(SHOP専用),一覧-メインコメント,一覧-メイン画像,詳細-メインコメント,詳細-メイン画像,詳細-メイン拡大画像,詳細-サブタイトル(1),詳細-サブコメント(1),詳細-サブ画像(1),詳細-サブ拡大画像(1),詳細-サブタイトル(2),詳細-サブコメント(2),詳細-サブ画像(2),詳細-サブ拡大画像(2),詳細-サブタイトル(3),詳細-サブコメント(3),詳細-サブ画像(3),詳細-サブ拡大画像(3),詳細-サブタイトル(4),詳細-サブコメント(4),詳細-サブ画像(4),詳細-サブ拡大画像(4),詳細-サブタイトル(5),詳細-サブコメント(5),詳細-サブ画像(5),詳細-サブ拡大画像(5),詳細-サブタイトル(6),詳細-サブコメント(6),詳細-サブ画像(6),詳細-サブ拡大画像(6),詳細-サブタイトル(7),詳細-サブコメント(7),詳細-サブ画像(7),詳細-サブ拡大画像(7),詳細-サブタイトル(8),詳細-サブコメント(8),詳細-サブ画像(8),詳細-サブ拡大画像(8),発送日目安ID,削除フラグ,商品種別ID,商品コード,在庫数,在庫無制限フラグ,販売制限数,通常価格,販売価格,送料,ポイント付与率,ダウンロードファイル名,ダウンロード実ファイル,関連商品ID(1),関連商品コメント(1),関連商品ID(2),関連商品コメント(2),関連商品ID(3),関連商品コメント(3),関連商品ID(4),関連商品コメント(4),関連商品ID(5),関連商品コメント(5),関連商品ID(6),関連商品コメント(6),商品ステータス,商品ステータス名,カテゴリID,カテゴリ名,オプション設定,オーダー商品ID,オーダー商品フラグ,会員ランク別購入不可設定,通常価格_1
,,,,,メルモ（オレンジ）,1,,"オレンジ,カーペット,ラグ,ホットカバー",,,,,インド綿に温かみのあるウールを加えた、素材感のあるカジュアルなラグでホットカバーにも使用できます。,,インド綿に温かみのあるウールを加えた、素材感のあるカジュアルなラグでホットカバーにも使用できます。,merumoOR/merumoOR_1.jpg,merumoOR/merumoOR_1.jpg,,,merumoOR/merumoOR_1.jpg,merumoOR/merumoOR_1.jpg,,,,,,,,,,,,,,,,,,,,,,,,,,,,,,0,1,0,,1,,7980,7980,,0,,,,,,,,,,,,,,,"2,5",,"1714,1748,1761,1762",,,0,,,
,,,,,メルモ（グリーン）,1,,"グリーン,カーペット,ラグ,ホットカバー",,,,,インド綿に温かみのあるウールを加えた、素材感のあるカジュアルなラグでホットカバーにも使用できます。,,インド綿に温かみのあるウールを加えた、素材感のあるカジュアルなラグでホットカバーにも使用できます。,merumoG/merumoG_1.jpg,merumoG/merumoG_1.jpg,,,merumoG/merumoG_1.jpg,merumoG/merumoG_1.jpg,,,,,,,,,,,,,,,,,,,,,,,,,,,,,,0,1,0,,1,,7980,7980,,0,,,,,,,,,,,,,,,"2,5",,"1714,1748,1761,1762",,,0,,,
,,,,,リフラ（ベージュ）,1,,"ベージュ,洗える,カーペット,ラグ,ホットカバー",,,,,肌触りなめらか！ヘムでデザインをプラスしたボニュームしっかりの洗えるラグでホットカバーにも使用できます。,,肌触りなめらか！ヘムでデザインをプラスしたボニュームしっかりの洗えるラグでホットカバーにも使用できます。,rifuraBE/rifuraBE_1.jpg,rifuraBE/rifuraBE_1.jpg,,,rifuraBE/rifuraBE_1.jpg,rifuraBE/rifuraBE_1.jpg,,,,,,,,,,,,,,,,,,,,,,,,,,,,,,0,1,0,,1,,10800,10800,,0,,,,,,,,,,,,,,,"2,5",,"1714,1726,1748,1761,1762",,,0,,,
,,,,,リフラ（ブルー）,1,,"ブルー,洗える,カーペット,ラグ,ホットカバー",,,,,肌触りなめらか！ヘムでデザインをプラスしたボニュームしっかりの洗えるラグでホットカバーにも使用できます。,,肌触りなめらか！ヘムでデザインをプラスしたボニュームしっかりの洗えるラグでホットカバーにも使用できます。,rifuraBL/rifuraBL_1.jpg,rifuraBL/rifuraBL_1.jpg,,,rifuraBL/rifuraBL_1.jpg,rifuraBL/rifuraBL_1.jpg,,,,,,,,,,,,,,,,,,,,,,,,,,,,,,0,1,0,,1,,10800,10800,,0,,,,,,,,,,,,,,,"2,5",,"1714,1726,1748,1761,1762",,,0,,,
,,,,,リフラ（ワイン）,1,,"ワイン,洗える,カーペット,ラグ,ホットカバー",,,,,肌触りなめらか！ヘムでデザインをプラスしたボニュームしっかりの洗えるラグでホットカバーにも使用できます。,,肌触りなめらか！ヘムでデザインをプラスしたボニュームしっかりの洗えるラグでホットカバーにも使用できます。,rifuraWI/rifuraWI_1.jpg,rifuraWI/rifuraWI_1.jpg,,,rifuraWI/rifuraWI_1.jpg,rifuraWI/rifuraWI_1.jpg,,,,,,,,,,,,,,,,,,,,,,,,,,,,,,0,1,0,,1,,10800,10800,,0,,,,,,,,,,,,,,,"2,5",,"1714,1726,1748,1761,1762",,,0,,,
,,,,,ポプリ（ベージュ）,1,,"ベージュ,洗える,カーペット,ラグ,ホットカバー",,,,,洗える、フランネル素材の滑らかなタッチ感の吸湿発熱・消臭機能ラグでホットカバーにも使用できます。,,洗える、フランネル素材の滑らかなタッチ感の吸湿発熱・消臭機能ラグでホットカバーにも使用できます。,popuriBE/popuriBE_1.jpg,popuriBE/popuriBE_1.jpg,,,popuriBE/popuriBE_1.jpg,popuriBE/popuriBE_1.jpg,,,,,,,,,,,,,,,,,,,,,,,,,,,,,,0,1,0,,1,,5980,5980,,0,,,,,,,,,,,,,,,"2,5",,"1714,1726,1748,1761,1762",,,0,,,
,,,,,ポプリ（ブラウン）,1,,"ブラウン,洗える,カーペット,ラグ,ホットカバー",,,,,洗える、フランネル素材の滑らかなタッチ感の吸湿発熱・消臭機能ラグでホットカバーにも使用できます。,,洗える、フランネル素材の滑らかなタッチ感の吸湿発熱・消臭機能ラグでホットカバーにも使用できます。,popuriBR/popuriBR_1.jpg,popuriBR/popuriBR_1.jpg,,,popuriBR/popuriBR_1.jpg,popuriBR/popuriBR_1.jpg,,,,,,,,,,,,,,,,,,,,,,,,,,,,,,0,1,0,,1,,5980,5980,,0,,,,,,,,,,,,,,,"2,5",,"1714,1726,1748,1761,1762",,,0,,,
,,,,,スフレ（ベージュ）,1,,"ベージュ,カーペット,ラグ,ホットカバー",,,,,もちもちした伸縮性のある記事を使い、ポコポコしたふくらみにこだわったキルトラグでホットカバーにも使用できます。,,もちもちした伸縮性のある記事を使い、ポコポコしたふくらみにこだわったキルトラグでホットカバーにも使用できます。,sufureBE/sufureBE_1.jpg,sufureBE/sufureBE_1.jpg,,,sufureBE/sufureBE_1.jpg,sufureBE/sufureBE_1.jpg,,,,,,,,,,,,,,,,,,,,,,,,,,,,,,0,1,0,,1,,5980,5980,,0,,,,,,,,,,,,,,,"2,5",,"1714,1748,1761,1762",,,0,,,
,,,,,スフレ（ネイビー）,1,,"ネイビー,カーペット,ラグ,ホットカバー",,,,,もちもちした伸縮性のある記事を使い、ポコポコしたふくらみにこだわったキルトラグでホットカバーにも使用できます。,,もちもちした伸縮性のある記事を使い、ポコポコしたふくらみにこだわったキルトラグでホットカバーにも使用できます。,sufureNV/sufureNV_1.jpg,sufureNV/sufureNV_1.jpg,,,sufureNV/sufureNV_1.jpg,sufureNV/sufureNV_1.jpg,,,,,,,,,,,,,,,,,,,,,,,,,,,,,,0,1,0,,1,,5980,5980,,0,,,,,,,,,,,,,,,"2,5",,"1714,1748,1761,1762",,,0,,,
,,,,,スフレ（マスタード）,1,,"マスタード,カーペット,ラグ,ホットカバー",,,,,もちもちした伸縮性のある記事を使い、ポコポコしたふくらみにこだわったキルトラグでホットカバーにも使用できます。,,もちもちした伸縮性のある記事を使い、ポコポコしたふくらみにこだわったキルトラグでホットカバーにも使用できます。,sufureMA/sufureMA_1.jpg,sufureMA/sufureMA_1.jpg,,,sufureMA/sufureMA_1.jpg,sufureMA/sufureMA_1.jpg,,,,,,,,,,,,,,,,,,,,,,,,,,,,,,0,1,0,,1,,5980,5980,,0,,,,,,,,,,,,,,,"2,5",,"1714,1748,1761,1762",,,0,,,
,,,,,ルーツ（ブラック）,1,,"ブラック,洗える,カーペット,ラグ,ホットカバー",,,,,キリム柄をかわいくアレンジした、優しい肌触りのウォッシャブルラグです。,,キリム柄をかわいくアレンジした、優しい肌触りのウォッシャブルラグです。,rootsBK/rootsBK_1.jpg,rootsBK/rootsBK_1.jpg,,,rootsBK/rootsBK_1.jpg,rootsBK/rootsBK_1.jpg,,,,,,,,,,,,,,,,,,,,,,,,,,,,,,0,1,0,,1,,5980,5980,,0,,,,,,,,,,,,,,,"2,5",,"1714,1726,1748,1761",,,0,,,
,,,,,ルーツ（レッド）,1,,"レッド,洗える,カーペット,ラグ,ホットカバー",,,,,キリム柄をかわいくアレンジした、優しい肌触りのウォッシャブルラグです。,,キリム柄をかわいくアレンジした、優しい肌触りのウォッシャブルラグです。,rootsRE/rootsRE_1.jpg,rootsRE/rootsRE_1.jpg,,,rootsRE/rootsRE_1.jpg,rootsRE/rootsRE_1.jpg,,,,,,,,,,,,,,,,,,,,,,,,,,,,,,0,1,0,,1,,5980,5980,,0,,,,,,,,,,,,,,,"2,5",,"1714,1726,1748,1761",,,0,,,
,,,,,ラセット（ベージュ）,1,,"ベージュ,洗える,カーペット,ラグ,ホットカバー",,,,,葉をモチーフにした、カラフルで肌触りの優しいウォッシャブルラグです。,,葉をモチーフにした、カラフルで肌触りの優しいウォッシャブルラグです。,rasetBE/rasetBE_1.jpg,rasetBE/rasetBE_1.jpg,,,rasetBE/rasetBE_1.jpg,rasetBE/rasetBE_1.jpg,,,,,,,,,,,,,,,,,,,,,,,,,,,,,,0,1,0,,1,,5980,5980,,0,,,,,,,,,,,,,,,"2,5",,"1714,1726,1748,1761",,,0,,,
,,,,,ラセット（グレー）,1,,"グレー,洗える,カーペット,ラグ,ホットカバー",,,,,葉をモチーフにした、カラフルで肌触りの優しいウォッシャブルラグです。,,葉をモチーフにした、カラフルで肌触りの優しいウォッシャブルラグです。,rasetGRY/rasetGRY_1.jpg,rasetGRY/rasetGRY_1.jpg,,,rasetGRY/rasetGRY_1.jpg,rasetGRY/rasetGRY_1.jpg,,,,,,,,,,,,,,,,,,,,,,,,,,,,,,0,1,0,,1,,5980,5980,,0,,,,,,,,,,,,,,,"2,5",,"1714,1726,1748,1761",,,0,,,
,,,,,おともだち（グリーン）,1,,"グリーン,クッション性,防音性,カーペット,ラグ,ホットカバー",,,,,ウレタンの厚みが13あり、ラグとしてもクッション性と防音性もあるハイクオリティな仕上がりになっています。,,ウレタンの厚みが13あり、ラグとしてもクッション性と防音性もあるハイクオリティな仕上がりになっています。,otomodachiG/otomodachiG_1.jpg,otomodachiG/otomodachiG_1.jpg,,,otomodachiG/otomodachiG_1.jpg,otomodachiG/otomodachiG_1.jpg,,,,,,,,,,,,,,,,,,,,,,,,,,,,,,0,1,0,,1,,19800,19800,,0,,,,,,,,,,,,,,,"2,5",,"1714,1722,1748,1761",,,0,,,
,,,,,ジジとコスモス（ピンク）,1,,"ピンク,クッション性,防音性,カーペット,ラグ,ホットカバー",,,,,ウレタンの厚みが13あり、ラグとしてもクッション性と防音性もあるハイクオリティな仕上がりになっています。,,ウレタンの厚みが13あり、ラグとしてもクッション性と防音性もあるハイクオリティな仕上がりになっています。,jijiPI/jijiPI_1.jpg,jijiPI/jijiPI_1.jpg,,,jijiPI/jijiPI_1.jpg,jijiPI/jijiPI_1.jpg,,,,,,,,,,,,,,,,,,,,,,,,,,,,,,0,1,0,,1,,14800,14800,,0,,,,,,,,,,,,,,,"2,5",,"1714,1722,1748,1761",,,0,,,
,,,,,レッドチェック（レッド）,1,,"レッド,カーペット,ラグ,ホットカバー",,,,,ブリティッシュなタータンチェックがおしゃれなラグです。,,ブリティッシュなタータンチェックがおしゃれなラグです。,,,,,,,,,,,,,,,,,,,,,,,,,,,,,,,,,,,,0,1,0,,1,,5980,5980,,0,,,,,,,,,,,,,,,"2,5",,"1714,1748,1761",,,0,,,
,,,,,ラビリンス（ベージュ）,1,,"ベージュ,クッション性,防音性,カーペット,ラグ,ホットカバー",,,,,じんわり沈む13の低反発ウレタン入りの防音性ラグ。人気の幾何柄でおしゃれになります。,,じんわり沈む13の低反発ウレタン入りの防音性ラグ。人気の幾何柄でおしゃれになります。,labyrinthBE/labyrinthBE_1.jpg,labyrinthBE/labyrinthBE_1.jpg,,,labyrinthBE/labyrinthBE_1.jpg,labyrinthBE/labyrinthBE_1.jpg,,,,,,,,,,,,,,,,,,,,,,,,,,,,,,0,1,0,,1,,10800,10800,,0,,,,,,,,,,,,,,,"2,5",,"1714,1722,1748,1761",,,0,,,
,,,,,ラビリンス（グリーン）,1,,"グリーン,クッション性,防音性,カーペット,ラグ,ホットカバー",,,,,じんわり沈む13の低反発ウレタン入りの防音性ラグ。人気の幾何柄でおしゃれになります。,,じんわり沈む13の低反発ウレタン入りの防音性ラグ。人気の幾何柄でおしゃれになります。,labyrinthG/labyrinthG_1.jpg,labyrinthG/labyrinthG_1.jpg,,,labyrinthG/labyrinthG_1.jpg,labyrinthG/labyrinthG_1.jpg,,,,,,,,,,,,,,,,,,,,,,,,,,,,,,0,1,0,,1,,10800,10800,,0,,,,,,,,,,,,,,,"2,5",,"1714,1722,1748,1761",,,0,,,
,,,,,ブライユ（グレー）,1,,"グレー,洗える,カーペット,ラグ,ホットカバー",,,,,シンプルなドットデザインで洗濯機で丸洗いもできます。,,シンプルなドットデザインで洗濯機で丸洗いもできます。,braiyuGRY/braiyuGRY_1.jpg,braiyuGRY/braiyuGRY_1.jpg,,,braiyuGRY/braiyuGRY_1.jpg,braiyuGRY/braiyuGRY_1.jpg,,,,,,,,,,,,,,,,,,,,,,,,,,,,,,0,1,0,,1,,5980,5980,,0,,,,,,,,,,,,,,,"2,5",,"1714,1726,1748,1761",,,0,,,
,,,,,ブライユ（ブラウン）,1,,"ブラウン,洗える,カーペット,ラグ,ホットカバー",,,,,シンプルなドットデザインで洗濯機で丸洗いもできます。,,シンプルなドットデザインで洗濯機で丸洗いもできます。,braiyuBR/braiyuBR_1.jpg,braiyuBR/braiyuBR_1.jpg,,,braiyuBR/braiyuBR_1.jpg,braiyuBR/braiyuBR_1.jpg,,,,,,,,,,,,,,,,,,,,,,,,,,,,,,0,1,0,,1,,5980,5980,,0,,,,,,,,,,,,,,,"2,5",,"1714,1726,1748,1761",,,0,,,
,,,,,ブリエ（グレー）,1,,"グレー,クッション性,防音性,カーペット,ラグ,ホットカバー",,,,,大き目リーフの北欧柄。ジャガードタイプの防音性ホットカバーです。,,大き目リーフの北欧柄。ジャガードタイプの防音性ホットカバーです。,burieGRY/burieGRY_1.jpg,burieGRY/burieGRY_1.jpg,,,burieGRY/burieGRY_1.jpg,burieGRY/burieGRY_1.jpg,,,,,,,,,,,,,,,,,,,,,,,,,,,,,,0,1,0,,1,,3980,3980,,0,,,,,,,,,,,,,,,"2,5",,"1714,1722,1748,1761",,,0,,,
,,,,,ブリエ（アイボリー）,1,,"アイボリー,クッション性,防音性,カーペット,ラグ,ホットカバー",,,,,大き目リーフの北欧柄。ジャガードタイプの防音性ホットカバーです。,,大き目リーフの北欧柄。ジャガードタイプの防音性ホットカバーです。,burieIV/burieIV_1.jpg,burieIV/burieIV_1.jpg,,,burieIV/burieIV_1.jpg,burieIV/burieIV_1.jpg,,,,,,,,,,,,,,,,,,,,,,,,,,,,,,0,1,0,,1,,3980,3980,,0,,,,,,,,,,,,,,,"2,5",,"1714,1722,1748,1761",,,0,,,
,,,,,トープ（ベージュ）,1,,"ベージュ,クッション性,防音性,カーペット,ラグ,ホットカバー",,,,,長い毛足でウレタンに厚みがあり、ふっくらとした防音・クッション性ラグです。,,長い毛足でウレタンに厚みがあり、ふっくらとした防音・クッション性ラグです。,toopBE/topeBE_1.jpg,toopBE/topeBE_1.jpg,,,toopBE/topeBE_1.jpg,toopBE/topeBE_1.jpg,,,,,,,,,,,,,,,,,,,,,,,,,,,,,,0,1,0,,1,,8800,8800,,0,,,,,,,,,,,,,,,"2,5",,"1714,1722,1748,1761",,,0,,,
,,,,,トープ（ブラウン）,1,,"ブラウン,クッション性,防音性,カーペット,ラグ,ホットカバー",,,,,長い毛足でウレタンに厚みがあり、ふっくらとした防音・クッション性ラグです。,,長い毛足でウレタンに厚みがあり、ふっくらとした防音・クッション性ラグです。,toopBR/topeBR_1.jpg,toopBR/topeBR_1.jpg,,,toopBR/topeBR_1.jpg,toopBR/topeBR_1.jpg,,,,,,,,,,,,,,,,,,,,,,,,,,,,,,0,1,0,,1,,8800,8800,,0,,,,,,,,,,,,,,,"2,5",,"1714,1722,1748,1761",,,0,,,
,,,,,エルフィ（アイボリー）,1,,"アイボリー,カーペット,ラグ,ホットカバー",,,,,ラビットファーのような、柔らかい肌触り。いつまでも触っていたくなるホットカバーです。,,ラビットファーのような、柔らかい肌触り。いつまでも触っていたくなるホットカバーです。,erfiIV/erfiIV_1.jpg,erfiIV/erfiIV_1.jpg,,,erfiIV/erfiIV_1.jpg,erfiIV/erfiIV_1.jpg,,,,,,,,,,,,,,,,,,,,,,,,,,,,,,0,1,0,,1,,7980,7980,,0,,,,,,,,,,,,,,,"2,5",,"1714,1748,1761",,,0,,,
,,,,,エルフィ（ベージュ）,1,,"ベージュ,カーペット,ラグ,ホットカバー",,,,,ラビットファーのような、柔らかい肌触り。いつまでも触っていたくなるホットカバーです。,,ラビットファーのような、柔らかい肌触り。いつまでも触っていたくなるホットカバーです。,erfiBE/erfiBE_1.jpg,erfiBE/erfiBE_1.jpg,,,erfiBE/erfiBE_1.jpg,erfiBE/erfiBE_1.jpg,,,,,,,,,,,,,,,,,,,,,,,,,,,,,,0,1,0,,1,,7980,7980,,0,,,,,,,,,,,,,,,"2,5",,"1714,1748,1761",,,0,,,
,,,,,エルフィ（ブラウン）,1,,"ブラウン,カーペット,ラグ,ホットカバー",,,,,ラビットファーのような、柔らかい肌触り。いつまでも触っていたくなるホットカバーです。,,ラビットファーのような、柔らかい肌触り。いつまでも触っていたくなるホットカバーです。,erfiBR/erfiBR_1.jpg,erfiBR/erfiBR_1.jpg,,,erfiBR/erfiBR_1.jpg,erfiBR/erfiBR_1.jpg,,,,,,,,,,,,,,,,,,,,,,,,,,,,,,0,1,0,,1,,7980,7980,,0,,,,,,,,,,,,,,,"2,5",,"1714,1748,1761",,,0,,,
,,,,,イクス（ベージュ）,1,,"ベージュ,クッション性,防音性,カーペット,ラグ,ホットカバー",,,,,15の低反発ウレタンを使用して防音性があり、毛足の手触りにもこだわった最高級のホットカバーです。,,15の低反発ウレタンを使用して防音性があり、毛足の手触りにもこだわった最高級のホットカバーです。,ikusBE/ikusBE_1.jpg,ikusBE/ikusBE_1.jpg,,,ikusBE/ikusBE_1.jpg,ikusBE/ikusBE_1.jpg,,,ikusBE/ikusBE_2.jpg,ikusBE/ikusBE_2.jpg,,,ikusBE/ikusBE_3.jpg,ikusBE/ikusBE_3.jpg,,,ikusBE/ikusBE_4.jpg,ikusBE/ikusBE_4.jpg,,,,,,,,,,,,,,,,,,0,1,0,,1,,12800,12800,,0,,,,,,,,,,,,,,,"2,5",,"1714,1722,1748,1761",,,0,,,
,,,,,イクス（ブラウン）,1,,"ブラウン,クッション性,防音性,カーペット,ラグ,ホットカバー",,,,,15の低反発ウレタンを使用して防音性があり、毛足の手触りにもこだわった最高級のホットカバーです。,,15の低反発ウレタンを使用して防音性があり、毛足の手触りにもこだわった最高級のホットカバーです。,ikusBR/ikusBR_1.jpg,ikusBR/ikusBR_1.jpg,,,ikusBR/ikusBR_1.jpg,ikusBR/ikusBR_1.jpg,,,ikusBR/ikusBR_2.jpg,ikusBR/ikusBR_2.jpg,,,ikusBR/ikusBR_3.jpg,ikusBR/ikusBR_3.jpg,,,ikusBR/ikusBR_4.jpg,ikusBR/ikusBR_4.jpg,,,,,,,,,,,,,,,,,,0,1,0,,1,,12800,12800,,0,,,,,,,,,,,,,,,"2,5",,"1714,1722,1748,1761",,,0,,,
,,,,,イクス（グリーン）,1,,"グリーン,クッション性,防音性,カーペット,ラグ,ホットカバー",,,,,15の低反発ウレタンを使用して防音性があり、毛足の手触りにもこだわった最高級のホットカバーです。,,15の低反発ウレタンを使用して防音性があり、毛足の手触りにもこだわった最高級のホットカバーです。,ikusG/ikusG_1.jpg,ikusG/ikusG_1.jpg,,,ikusG/ikusG_1.jpg,ikusG/ikusG_1.jpg,,,ikusG/ikusG_2.jpg,ikusG/ikusG_2.jpg,,,ikusG/ikusG_3.jpg,ikusG/ikusG_3.jpg,,,ikusG/ikusG_4.jpg,ikusG/ikusG_4.jpg,,,,,,,,,,,,,,,,,,0,1,0,,1,,12800,12800,,0,,,,,,,,,,,,,,,"2,5",,"1714,1722,1748,1761",,,0,,,
,,,,,ラグーナ（アイボリー）,1,,"アイボリー,クッション性,防音性,カーペット,ラグ,ホットカバー",,,,,毛足の流れで光沢の変化が楽しめる、空きのこない無地のクッション・防音性定番ホットカバーです。,,毛足の流れで光沢の変化が楽しめる、空きのこない無地のクッション・防音性定番ホットカバーです。,ragunaIV/ragunaIV_1.jpg,ragunaIV/ragunaIV_1.jpg,,,ragunaIV/ragunaIV_1.jpg,ragunaIV/ragunaIV_1.jpg,,,,,,,,,,,,,,,,,,,,,,,,,,,,,,0,1,0,,1,,8800,8800,,0,,,,,,,,,,,,,,,"2,5",,"1714,1722,1748,1761",,,0,,,
,,,,,ラグーナ（ベージュ）,1,,"ベージュ,クッション性,防音性,カーペット,ラグ,ホットカバー",,,,,毛足の流れで光沢の変化が楽しめる、空きのこない無地のクッション・防音性定番ホットカバーです。,,毛足の流れで光沢の変化が楽しめる、空きのこない無地のクッション・防音性定番ホットカバーです。,ragunaBE/ragunaBE_1.jpg,ragunaBE/ragunaBE_1.jpg,,,ragunaBE/ragunaBE_1.jpg,ragunaBE/ragunaBE_1.jpg,,,,,,,,,,,,,,,,,,,,,,,,,,,,,,0,1,0,,1,,8800,8800,,0,,,,,,,,,,,,,,,"2,5",,"1714,1722,1748,1761",,,0,,,
,,,,,ラグーナ（ネイビー）,1,,"ネイビー,クッション性,防音性,カーペット,ラグ,ホットカバー",,,,,毛足の流れで光沢の変化が楽しめる、空きのこない無地のクッション・防音性定番ホットカバーです。,,毛足の流れで光沢の変化が楽しめる、空きのこない無地のクッション・防音性定番ホットカバーです。,ragunaNV/ragunaNV_1.jpg,ragunaNV/ragunaNV_1.jpg,,,ragunaNV/ragunaNV_1.jpg,ragunaNV/ragunaNV_1.jpg,,,,,,,,,,,,,,,,,,,,,,,,,,,,,,0,1,0,,1,,8800,8800,,0,,,,,,,,,,,,,,,"2,5",,"1714,1722,1748,1761",,,0,,,
,,,,,エレナ（ローズ）,1,,"ローズ,カーペット,ラグ,ホットカバー",,,,,中央の大きな花柄が、暖かい印象をＵＰさせるホットカバーです。,,中央の大きな花柄が、暖かい印象をＵＰさせるホットカバーです。,erenaRO/erenaRO_1.jpg,erenaRO/erenaRO_1.jpg,,,erenaRO/erenaRO_1.jpg,erenaRO/erenaRO_1.jpg,,,,,,,,,,,,,,,,,,,,,,,,,,,,,,0,1,0,,1,,9800,9800,,0,,,,,,,,,,,,,,,"2,5",,"1714,1748,1761",,,0,,,
,,,,,エレナ（ベージュ）,1,,"ベージュ,カーペット,ラグ,ホットカバー",,,,,中央の大きな花柄が、暖かい印象をＵＰさせるホットカバーです。,,中央の大きな花柄が、暖かい印象をＵＰさせるホットカバーです。,erenaBE/erenaBE_1.jpg,erenaBE/erenaBE_1.jpg,,,erenaBE/erenaBE_1.jpg,erenaBE/erenaBE_1.jpg,,,,,,,,,,,,,,,,,,,,,,,,,,,,,,0,1,0,,1,,9800,9800,,0,,,,,,,,,,,,,,,"2,5",,"1714,1748,1761",,,0,,,
,,,,,エレナ（グリーン）,1,,"グリーン,カーペット,ラグ,ホットカバー",,,,,中央の大きな花柄が、暖かい印象をＵＰさせるホットカバーです。,,中央の大きな花柄が、暖かい印象をＵＰさせるホットカバーです。,erenaG/erenaG_1.jpg,erenaG/erenaG_1.jpg,,,erenaG/erenaG_1.jpg,erenaG/erenaG_1.jpg,,,,,,,,,,,,,,,,,,,,,,,,,,,,,,0,1,0,,1,,9800,9800,,0,,,,,,,,,,,,,,,"2,5",,"1714,1748,1761",,,0,,,
,,,,,ラグーナ（シルバー）,1,,"シルバー,クッション性,防音性,カーペット,ラグ,ホットカバー",,,,,毛足の流れで光沢の変化が楽しめる、空きのこない無地のクッション・防音性定番ホットカバーです。,,毛足の流れで光沢の変化が楽しめる、空きのこない無地のクッション・防音性定番ホットカバーです。,ragunaSI/ragunaSI_1.jpg,ragunaSI/ragunaSI_1.jpg,,,ragunaSI/ragunaSI_1.jpg,ragunaSI/ragunaSI_1.jpg,,,,,,,,,,,,,,,,,,,,,,,,,,,,,,0,1,0,,1,,8800,8800,,0,,,,,,,,,,,,,,,"2,5",,"1714,1722,1748,1761",,,0,,,
,,,,,グラシア（ベージュ）,1,,"ベージュ,クッション性,防音性,カーペット,ラグ,ホットカバー",,,,,色、柄、厚み、どれをとっても万人受けするクッション性、防音性もある定番ホットカバーです。,,色、柄、厚み、どれをとっても万人受けするクッション性、防音性もある定番ホットカバーです。,grasiaBE/grasiaBE_1.jpg,grasiaBE/grasiaBE_1.jpg,,,grasiaBE/grasiaBE_1.jpg,grasiaBE/grasiaBE_1.jpg,,,,,,,,,,,,,,,,,,,,,,,,,,,,,,0,1,0,,1,,17800,17800,,0,,,,,,,,,,,,,,,"2,5",,"1714,1722,1748,1761",,,0,,,
,,,,,グラシア（グリーン）,1,,"グリーン,クッション性,防音性,カーペット,ラグ,ホットカバー",,,,,色、柄、厚み、どれをとっても万人受けするクッション性、防音性もある定番ホットカバーです。,,色、柄、厚み、どれをとっても万人受けするクッション性、防音性もある定番ホットカバーです。,grasiaG/grasiaG_1.jpg,grasiaG/grasiaG_1.jpg,,,grasiaG/grasiaG_1.jpg,grasiaG/grasiaG_1.jpg,,,,,,,,,,,,,,,,,,,,,,,,,,,,,,0,1,0,,1,,17800,17800,,0,,,,,,,,,,,,,,,"2,5",,"1714,1722,1748,1761",,,0,,,
