カテゴリID,カテゴリ名,親カテゴリID,階層,表示ランク,削除フラグ
1771,テイストで選ぶ,0,1,1,0
1772,色で選ぶ,0,1,2,0
1773,機能で選ぶ,0,1,3,0
1774,種類から選ぶ,0,1,4,0
1775,ブランドで選ぶ,0,1,5,0
1776,価格で選ぶ,0,1,6,0
1777,無地,1771,2,7,0
1778,ナチュラル,1771,2,8,0
1779,モダン,1771,2,9,0
1780,エレガンス,1771,2,10,0
1781,クラシック,1771,2,11,0
1782,カジュアル,1771,2,12,0
1783,モノトーン系,1772,2,13,0
1784,ベージュ系,1772,2,14,0
1785,アイボリー系,1772,2,15,0
1786,ブラウン系,1772,2,16,0
1787,イエロー系,1772,2,17,0
1788,グリーン系,1772,2,18,0
1789,ブルー系,1772,2,19,0
1790,レッド系,1772,2,20,0
1791,グレイ系,1772,2,21,0
1792,ドレープカーテン,1773,2,22,0
1793,レース カーテン,1773,2,23,0
1794,既製カーテン,1774,2,24,0
1795,オーダーカーテン,1774,2,25,0
1796,イージーオーダーカーテン,1774,2,26,0
1797,横型ブラインド,1774,2,27,0
1798,縦型ブラインド,1774,2,28,0
1799,ロールスクリーン,1774,2,29,0
1800,プリーツスクリーン,1774,2,30,0
1801,アコーディオン間仕切り,1774,2,31,0
1802,カーテンレール、タッセル,1774,2,32,0
1803,プルーン,1775,2,33,0
1804,シビラ,1775,2,34,0
1805,リリカラ,1775,2,35,0
1806,ディズニー,1775,2,36,0
1807,スミノエ,1775,2,37,0
1808,サンゲツ,1775,2,38,0
1809,シンコール,1775,2,39,0
1810,アスワン,1775,2,40,0
1811,TOSO,1775,2,41,0
1812,タチカワブラインド,1775,2,42,0
1813,ニチベイ,1775,2,43,0
1814,"〜10,000円",1776,2,44,0
1815,"〜20,000円",1776,2,45,0
1816,"〜30,000円",1776,2,46,0
1817,"〜40,000円",1776,2,47,0
1818,"〜50,000円",1776,2,48,0
1819,"〜60,000円",1776,2,49,0
1820,"〜70,000円",1776,2,50,0
1821,遮光,1792,3,51,0
1822,防炎,1792,3,52,0
1823,省エネ,1792,3,53,0
1824,裏地,1792,3,54,0
1825,形状記憶,1792,3,55,0
1826,防音,1792,3,56,0
1827,洗える,1792,3,57,0
1828,プライバシー対策,1793,3,58,0
1829,UVカット,1793,3,59,0
1830,省エネ,1793,3,60,0
1831,防虫,1793,3,61,0
1832,花粉キャッチ,1793,3,62,0
1833,防炎,1793,3,63,0
1834,形状記憶,1793,3,64,0
1835,洗える,1793,3,65,0
