カテゴリID,カテゴリ名,親カテゴリID,階層,表示ランク
1,新着商品,0,1,50
2,再入荷商品,0,1,49
3,ぬいぐるみ・マスコット,0,2,45
4,携帯・モバイル関連グッズ,0,2,44
5,ファッション小物・アクセサリー,0,3,41
6,アパレル,0,1,34
7,キッチン・バス・トイレタリー,0,1,28
8,インテリア,0,1,22
9,ステーショナリー,0,1,18
10,フード,0,1,13
11,おもちゃ・ホビー,0,1,10
12,ベビー,0,1,7
13,本・DVD,0,1,4
14,ギフト,0,1,1
15,おすすめ商品,0,1,48
16,売れ筋商品,0,1,47
17,特集,0,1,46
400,ケース・カバー,4,3,43
401,アクセサリー,4,3,42
500,バッグ,5,4,40
501,巾着,5,4,39
502,ポーチ・ミラー,5,4,38
503,アクセサリー,5,4,37
504,ハンカチ,5,4,36
505,その他ファッション小物,5,4,35
600,Tシャツ,6,2,33
601,ボトムス,6,2,32
602,インナーウェア,6,2,31
603,ソックス,6,2,30
604,その他アパレル,6,2,29
700,ランチグッズ,7,2,27
701,食器,7,2,26
702,タオル,7,2,25
703,バス・トイレタリー,7,2,24
704,その他キッチングッズ,7,2,23
800,収納小物,8,2,21
801,スリッパ・ブランケット,8,2,20
802,その他インテリア小物,8,2,19
900,ノート・メモ,9,2,17
901,シール・ステッカー,9,2,16
902,筆記具,9,2,15
903,その他ステーショナリー,9,2,14
1000,お菓子,10,2,12
1001,その他食品,10,2,11
1100,おもちゃ,11,2,9
1101,ホビー,11,2,8
1200,ビブ,12,2,6
1201,ソックス,12,2,5
1300,本,13,2,3
1301,DVD・CD,13,2,2
