カテゴリID,カテゴリ名,親カテゴリID,階層,表示ランク,削除フラグ
1,新着商品,0,1,1,0
201,テイストから選ぶ,2,2,57,0
20101,無地,201,3,56,0
20102,ナチュラル,201,3,55,0
20103,モダン,201,3,54,0
20104,エレガント,201,3,53,0
20105,クラッシック,201,3,52,0
20106,カジュアル,201,3,51,0
3,カーペット,0,1,20,0
202,機能から選ぶ,2,2,50,0
203,レースカーテン,2,2,39,0
204,メーカー別,2,2,37,0
205,カーテンレール,2,2,24,0
206,オーダーメイド,2,2,21,0
20201,エコカーテン,202,3,40,0
20202,遮音・防音カーテン,202,3,41,0
20203,UVカーテン,202,3,42,0
20204,裏地付きカーテン,202,3,43,0
20205,柄出しカーテン,202,3,44,0
20206,丸洗いOKカーテン,202,3,45,0
20207,防火カーテン,202,3,46,0
20208,形状記憶カーテン,202,3,47,0
20209,遮熱・断熱・蓄熱カーテン,202,3,48,0
20210,遮光カーテン,202,3,49,0
20301,透けにくいカーテン,203,3,38,0
20401,オリジナル,204,3,25,0
20402,FEDE POLYMARBLE,204,3,26,0
20403,TOSO,204,3,27,0
20404,タチカワブラインド,204,3,28,0
20405,Nichibei,204,3,29,0
20406,ディズニー,204,3,301,0
20407,KAWASHIMA SELKON,204,3,302,0
20408,スミノエ,204,3,303,0
20409,TOLI,204,3,304,0
20410,SANGETSU,204,3,304,0
20411,SINCOL,204,3,35,0
20412,リリカラ,204,3,36,0
20501,ダブルレール,205,3,22,0
20502,シングルレール,205,3,23,0
304,オーダーメイド,3,2,2,0
303,素材から選ぶ,3,2,7,0
302,用途から選ぶ,3,2,12,0
301,テイストから選ぶ,3,2,19,0
30101,カジュアル,301,3,13,0
30102,クラシック,301,3,14,0
30103,エレガント,301,3,15,0
30104,モダン,301,3,16,0
30105,ナチュラル,301,3,17,0
30106,無地カラー,301,3,18,0
30201,1年中使えるラグ・カーペット,302,3,8,0
30202,玄関マット,302,3,9,0
30203,ダイニングラグ,302,3,10,0
30204,敷き詰めラグ・カーペット,302,3,11,0
30301,い草・竹ラグ,303,3,3,0
30302,綿・綿混ラグ,303,3,4,0
30303,モケット&ゴブラン織ラグ,303,3,5,0
30304,ウィルトンカーペット,303,3,6,0
