商品ID,商品規格ID,親規格分類ID,規格分類ID,メーカーID,商品名,表示ステータス(公開・非公開),コメント2,検索ワード(コメント3),コメント4,コメント5,コメント6,備考欄(SHOP専用),一覧-メインコメント,一覧-メイン画像,詳細-メインコメント,詳細-メイン画像,詳細-メイン拡大画像,詳細-サブタイトル(1),詳細-サブコメント(1),詳細-サブ画像(1),詳細-サブ拡大画像(1),詳細-サブタイトル(2),詳細-サブコメント(2),詳細-サブ画像(2),詳細-サブ拡大画像(2),詳細-サブタイトル(3),詳細-サブコメント(3),詳細-サブ画像(3),詳細-サブ拡大画像(3),詳細-サブタイトル(4),詳細-サブコメント(4),詳細-サブ画像(4),詳細-サブ拡大画像(4),詳細-サブタイトル(5),詳細-サブコメント(5),詳細-サブ画像(5),詳細-サブ拡大画像(5),詳細-サブタイトル(6),詳細-サブコメント(6),詳細-サブ画像(6),詳細-サブ拡大画像(6),詳細-サブタイトル(7),詳細-サブコメント(7),詳細-サブ画像(7),詳細-サブ拡大画像(7),詳細-サブタイトル(8),詳細-サブコメント(8),詳細-サブ画像(8),詳細-サブ拡大画像(8),発送日目安ID,削除フラグ,商品種別ID,商品コード,在庫数,在庫無制限フラグ,販売制限数,通常価格,販売価格,送料,ポイント付与率,ダウンロードファイル名,ダウンロード実ファイル,関連商品ID(1),関連商品コメント(1),関連商品ID(2),関連商品コメント(2),関連商品ID(3),関連商品コメント(3),関連商品ID(4),関連商品コメント(4),関連商品ID(5),関連商品コメント(5),関連商品ID(6),関連商品コメント(6),商品ステータス,商品ステータス名,カテゴリID,カテゴリ名,オプション設定,オーダー商品ID,オーダー商品フラグ,会員ランク別購入不可設定,通常価格_1
,,,,1,BU31223（ピンク）,2,,"厚地カーテン,エレガンス,遮光,形状記憶付,2倍ヒダ,オーダー,洗える,裏地付,ピンク,クラシック,",,,,,裏地、形状記憶付2倍ヒダオーダーメイドカーテンです。,BU31223/BU31223_1.jpg,裏地、形状記憶付2倍ヒダオーダーメイドカーテン,BU31223/BU31223_1.jpg,BU31223/BU31223_1.jpg,,,BU31223/BU31223_1.jpg,BU31223/BU31223_1.jpg,300:600,,BU31223/BU31223_2.jpg,BU31223/BU31223_2.jpg,,,BU31223/BU31223_3.jpg,BU31223/BU31223_3.jpg,,,,,,,,,,,,,,,,,,,,,,0,1,BU31223,,1,,99999,19800,,0,,,,,,,,,,,,,,,"3,4,7,9",,"1706,1707,1715,1719,1724,1726,1728,1730,1711",,"6,5,4,3,2,1",2,,,
,,,,1,BU31224（アイボリー）,2,,"厚地カーテン,アイボリー,エレガンス,遮光,形状記憶付,2倍ヒダ,オーダー,洗える,裏地付,クラシック,",,,,,裏地、形状記憶付2倍ヒダオーダーメイドカーテンです。,BU31224/BU31224_1.jpg,裏地、形状記憶付2倍ヒダオーダーメイドカーテン,BU31224/BU31224_1.jpg,BU31224/BU31224_1.jpg,,,BU31224/BU31224_1.jpg,BU31224/BU31224_1.jpg,300:600,,BU31224/BU31224_2.jpg,BU31224/BU31224_2.jpg,,,BU31224/BU31224_3.jpg,BU31224/BU31224_3.jpg,,,,,,,,,,,,,,,,,,,,,,0,1,BU31224,,1,,99999,19800,,0,,,,,,,,,,,,,,,"3,4,7,9",,"1706,1707,1715,1719,1724,1726,1728,1730,1711",,"6,5,4,3,2,1",2,,,
,,,,1,BU31251（オレンジ）,2,,"厚地カーテン,エレガンス,遮光,形状記憶付,2倍ヒダ,オーダー,洗える,裏地付,オレンジ,フラワー,花柄,",,,,,裏地、形状記憶付2倍ヒダオーダーメイドカーテンです。,BU31251/BU31251_1.jpg,裏地、形状記憶付2倍ヒダオーダーメイドカーテン,BU31251/BU31251_1.jpg,BU31251/BU31251_1.jpg,,,BU31251/BU31251_1.jpg,BU31251/BU31251_1.jpg,300:600,,BU31251/BU31251_2.jpg,BU31251/BU31251_2.jpg,,,,,,,,,,,,,,,,,,,,,,,,,,0,1,BU31251,,1,,99999,19800,,0,,,,,,,,,,,,,,,"3,4,7,9",,"1706,1707,1715,1719,1724,1726,1728,1730,1711,1727",,"6,5,4,3,2,1",2,,,
,,,,1,BU31252（グリーン）,2,,"厚地カーテン,エレガンス,遮光,形状記憶付,2倍ヒダ,オーダー,洗える,裏地付,グリーン,フラワー,花柄,",,,,,裏地、形状記憶付2倍ヒダオーダーメイドカーテンです。,BU31252/BU31252_1.jpg,裏地、形状記憶付2倍ヒダオーダーメイドカーテン,BU31252/BU31252_1.jpg,BU31252/BU31252_1.jpg,,,BU31252/BU31252_1.jpg,BU31252/BU31252_1.jpg,300:600,,BU31252/BU31252_2.jpg,BU31252/BU31252_2.jpg,,,,,,,,,,,,,,,,,,,,,,,,,,0,1,BU31252,,1,,99999,19800,,0,,,,,,,,,,,,,,,"3,4,7,9",,"1706,1707,1715,1719,1724,1726,1728,1730,1711,1727",,"6,5,4,3,2,1",2,,,
,,,,1,BU31253（アイボリー）,2,,"厚地カーテン,アイボリー,モダン,遮光,形状記憶付,2倍ヒダ,オーダー,洗える,裏地付,クラシック,",,,,,裏地、形状記憶付2倍ヒダオーダーメイドカーテンです。,BU31253/BU31253_1.jpg,裏地、形状記憶付2倍ヒダオーダーメイドカーテン,BU31253/BU31253_1.jpg,BU31253/BU31253_1.jpg,,,BU31253/BU31253_1.jpg,BU31253/BU31253_1.jpg,300:600,,BU31253/BU31253_2.jpg,BU31253/BU31253_2.jpg,,,,,,,,,,,BU31253/BU31253_5.jpg,BU31253/BU31253_5.jpg,,,,,,,,,,,,,,0,1,BU31253,,1,,99999,19800,,0,,,,,,,,,,,,,,,"3,4,7,9",,"1706,1707,1715,1719,1724,1726,1728,1730,1711",,"6,5,4,3,2,1",2,,,
,,,,1,BU31254（ブラウン）,2,,"厚地カーテン,モダン,遮光,形状記憶付,2倍ヒダ,オーダー,洗える,裏地付,ブラウン,クラシック,",,,,,裏地、形状記憶付2倍ヒダオーダーメイドカーテンです。,BU31254/BU31254_1.jpg,裏地、形状記憶付2倍ヒダオーダーメイドカーテン,BU31254/BU31254_1.jpg,BU31254/BU31254_1.jpg,,,BU31254/BU31254_1.jpg,BU31254/BU31254_1.jpg,300:600,,BU31254/BU31254_2.jpg,BU31254/BU31254_2.jpg,,,,,,,,,,,BU31254/BU31254_5.jpg,BU31254/BU31254_5.jpg,,,,,,,,,,,,,,0,1,BU31254,,1,,99999,19800,,0,,,,,,,,,,,,,,,"3,4,7,9",,"1706,1707,1715,1719,1724,1726,1728,1730,1711",,"6,5,4,3,2,1",2,,,
,,,,1,BU31255（アイボリー）,2,,"厚地カーテン,アイボリー,モダン,遮光,形状記憶付,2倍ヒダ,オーダー,洗える,裏地付,幾何,",,,,,裏地、形状記憶付2倍ヒダオーダーメイドカーテンです。,BU31255/BU31255_1.jpg,裏地、形状記憶付2倍ヒダオーダーメイドカーテン,BU31255/BU31255_1.jpg,BU31255/BU31255_1.jpg,,,BU31255/BU31255_1.jpg,BU31255/BU31255_1.jpg,300:600,,BU31255/BU31255_2.jpg,BU31255/BU31255_2.jpg,,,BU31255/BU31255_3.jpg,BU31255/BU31255_3.jpg,,,BU31255/BU31255_4.jpg,BU31255/BU31255_4.jpg,,,BU31255/BU31255_5.jpg,BU31255/BU31255_5.jpg,,,,,,,,,,,,,,0,1,BU31255,,1,,99999,19800,,0,,,,,,,,,,,,,,,"3,4,7,9",,"1706,1707,1715,1719,1724,1726,1728,1730,1710",,"6,5,4,3,2,1",2,,,
,,,,1,BU31256（ブルーグリーン）,2,,"厚地カーテン,エレガンス,遮光,形状記憶付,2倍ヒダ,オーダー,洗える,裏地付,ブルー,グリーン,幾何,",,,,,裏地、形状記憶付2倍ヒダオーダーメイドカーテンです。,BU31256/BU31256_1.jpg,裏地、形状記憶付2倍ヒダオーダーメイドカーテン,BU31256/BU31256_1.jpg,BU31256/BU31256_1.jpg,,,BU31256/BU31256_1.jpg,BU31256/BU31256_1.jpg,300:600,,BU31256/BU31256_2.jpg,BU31256/BU31256_2.jpg,,,BU31256/BU31256_3.jpg,BU31256/BU31256_3.jpg,,,BU31256/BU31256_4.jpg,BU31256/BU31256_4.jpg,,,BU31256/BU31256_5.jpg,BU31256/BU31256_5.jpg,,,,,,,,,,,,,,0,1,BU31256,,1,,99999,19800,,0,,,,,,,,,,,,,,,"3,4,7,9",,"1706,1707,1715,1719,1724,1726,1728,1730,1710",,"6,5,4,3,2,1",2,,,
,,,,1,BU31257（ダークグレー）,2,,"厚地カーテン,モダン,遮光,形状記憶付,2倍ヒダ,オーダー,洗える,裏地付,グレー,幾何,",,,,,裏地、形状記憶付2倍ヒダオーダーメイドカーテンです。,BU31257/BU31257_1.jpg,裏地、形状記憶付2倍ヒダオーダーメイドカーテン,BU31257/BU31257_1.jpg,BU31257/BU31257_1.jpg,,,BU31257/BU31257_1.jpg,BU31257/BU31257_1.jpg,300:600,,BU31257/BU31257_2.jpg,BU31257/BU31257_2.jpg,,,BU31257/BU31257_3.jpg,BU31257/BU31257_3.jpg,,,BU31257/BU31257_4.jpg,BU31257/BU31257_4.jpg,,,BU31257/BU31257_5.jpg,BU31257/BU31257_5.jpg,,,,,,,,,,,,,,0,1,BU31257,,1,,99999,19800,,0,,,,,,,,,,,,,,,"3,4,7,9",,"1706,1707,1715,1719,1724,1726,1728,1730,1710",,"6,5,4,3,2,1",2,,,
,,,,1,BU31327（アイボリー）,2,,"厚地カーテン,アイボリー,エレガンス,遮光,形状記憶付,2倍ヒダ,オーダー,洗える,裏地付,フラワー,花柄,",,,,,裏地、形状記憶付2倍ヒダオーダーメイドカーテンです。,BU31327/BU31327_1.jpg,裏地、形状記憶付2倍ヒダオーダーメイドカーテン,BU31327/BU31327_1.jpg,BU31327/BU31327_1.jpg,,,BU31327/BU31327_1.jpg,BU31327/BU31327_1.jpg,300:600,,BU31327/BU31327_2.jpg,BU31327/BU31327_2.jpg,,,BU31327/BU31327_3.jpg,BU31327/BU31327_3.jpg,,,BU31327/BU31327_4.jpg,BU31327/BU31327_4.jpg,,,BU31327/BU31327_5.jpg,BU31327/BU31327_5.jpg,,,,,,,,,,,,,,0,1,BU31327,,1,,99999,25800,,0,,,,,,,,,,,,,,,"3,4,7,9",,"1706,1707,1715,1719,1724,1726,1728,1730,1711,1727",,"6,5,4,3,2,1",2,,,
,,,,1,BU31328（オレンジ）,2,,"厚地カーテン,エレガンス,遮光,形状記憶付,2倍ヒダ,オーダー,洗える,裏地付,オレンジ,,フラワー,花柄,",,,,,裏地、形状記憶付2倍ヒダオーダーメイドカーテンです。,BU31328/BU31328_1.jpg,裏地、形状記憶付2倍ヒダオーダーメイドカーテン,BU31328/BU31328_1.jpg,BU31328/BU31328_1.jpg,,,BU31328/BU31328_1.jpg,BU31328/BU31328_1.jpg,300:600,,BU31328/BU31328_2.jpg,BU31328/BU31328_2.jpg,,,BU31328/BU31328_3.jpg,BU31328/BU31328_3.jpg,,,BU31328/BU31328_4.jpg,BU31328/BU31328_4.jpg,,,BU31328/BU31328_5.jpg,BU31328/BU31328_5.jpg,,,,,,,,,,,,,,0,1,BU31328,,1,,99999,25800,,0,,,,,,,,,,,,,,,"3,4,7,9",,"1706,1707,1715,1719,1724,1726,1728,1730,1711,1727",,"6,5,4,3,2,1",2,,,
,,,,1,BU31329（オレンジ）,2,,"厚地カーテン,エレガンス,遮光,形状記憶付,2倍ヒダ,オーダー,洗える,裏地付,オレンジ,クラシック,",,,,,裏地、形状記憶付2倍ヒダオーダーメイドカーテンです。,BU31329/BU31329_1.jpg,裏地、形状記憶付2倍ヒダオーダーメイドカーテン,BU31329/BU31329_1.jpg,BU31329/BU31329_1.jpg,,,BU31329/BU31329_1.jpg,BU31329/BU31329_1.jpg,300:600,,BU31329/BU31329_2.jpg,BU31329/BU31329_2.jpg,,,BU31329/BU31329_3.jpg,BU31329/BU31329_3.jpg,,,BU31329/BU31329_4.jpg,BU31329/BU31329_4.jpg,,,BU31329/BU31329_5.jpg,BU31329/BU31329_5.jpg,,,,,,,,,,,,,,0,1,BU31329,,1,,99999,25800,,0,,,,,,,,,,,,,,,"3,4,7,9",,"1706,1707,1715,1719,1724,1726,1728,1730,1711",,"6,5,4,3,2,1",2,,,
,,,,1,BU31330（アイボリー）,2,,"厚地カーテン,アイボリー,エレガンス,遮光,形状記憶付,2倍ヒダ,オーダー,洗える,裏地付,クラシック,",,,,,裏地、形状記憶付2倍ヒダオーダーメイドカーテンです。,BU31330/BU31330_1.jpg,裏地、形状記憶付2倍ヒダオーダーメイドカーテン,BU31330/BU31330_1.jpg,BU31330/BU31330_1.jpg,,,BU31330/BU31330_1.jpg,BU31330/BU31330_1.jpg,300:600,,BU31330/BU31330_2.jpg,BU31330/BU31330_2.jpg,,,BU31330/BU31330_3.jpg,BU31330/BU31330_3.jpg,,,BU31330/BU31330_4.jpg,BU31330/BU31330_4.jpg,,,BU31330/BU31330_5.jpg,BU31330/BU31330_5.jpg,,,,,,,,,,,,,,0,1,BU31330,,1,,99999,25800,,0,,,,,,,,,,,,,,,"3,4,7,9",,"1706,1707,1715,1719,1724,1726,1728,1730,1711",,"6,5,4,3,2,1",2,,,
,,,,1,BU31352（ピンク）,2,,"厚地カーテン,エレガンス,遮光,形状記憶付,2倍ヒダ,オーダー,洗える,裏地付,ピンク,クラシック,",,,,,裏地、形状記憶付2倍ヒダオーダーメイドカーテンです。,BU31352/BU31352_1.jpg,裏地、形状記憶付2倍ヒダオーダーメイドカーテン,BU31352/BU31352_1.jpg,BU31352/BU31352_1.jpg,,,BU31352/BU31352_1.jpg,BU31352/BU31352_1.jpg,300:600,,BU31352/BU31352_2.jpg,BU31352/BU31352_2.jpg,,,BU31352/BU31352_3.jpg,BU31352/BU31352_3.jpg,,,BU31352/BU31352_4.jpg,BU31352/BU31352_4.jpg,,,BU31352/BU31352_5.jpg,BU31352/BU31352_5.jpg,,,,,,,,,,,,,,0,1,BU31352,,1,,99999,25800,,0,,,,,,,,,,,,,,,"3,4,7,9",,"1706,1707,1715,1719,1724,1726,1728,1730,1711",,"6,5,4,3,2,1",2,,,
,,,,1,BU31353（アイボリー）,2,,"厚地カーテン,アイボリー,エレガンス,遮光,形状記憶付,2倍ヒダ,オーダー,洗える,裏地付,クラシック,",,,,,裏地、形状記憶付2倍ヒダオーダーメイドカーテンです。,BU31353/BU31353_1.jpg,裏地、形状記憶付2倍ヒダオーダーメイドカーテン,BU31353/BU31353_1.jpg,BU31353/BU31353_1.jpg,,,BU31353/BU31353_1.jpg,BU31353/BU31353_1.jpg,300:600,,BU31353/BU31353_2.jpg,BU31353/BU31353_2.jpg,,,BU31353/BU31353_3.jpg,BU31353/BU31353_3.jpg,,,BU31353/BU31353_4.jpg,BU31353/BU31353_4.jpg,,,BU31353/BU31353_5.jpg,BU31353/BU31353_5.jpg,,,,,,,,,,,,,,0,1,BU31353,,1,,99999,25800,,0,,,,,,,,,,,,,,,"3,4,7,9",,"1706,1707,1715,1719,1724,1726,1728,1730,1711",,"6,5,4,3,2,1",2,,,
,,,,1,BU31362（ベージュ）,2,,"厚地カーテン,エレガンス,遮光,形状記憶付,2倍ヒダ,オーダー,洗える,裏地付,ベージュ,クラシック,",,,,,裏地、形状記憶付2倍ヒダオーダーメイドカーテンです。,BU31362/BU31362_1.jpg,裏地、形状記憶付2倍ヒダオーダーメイドカーテン,BU31362/BU31362_1.jpg,BU31362/BU31362_1.jpg,,,BU31362/BU31362_1.jpg,BU31362/BU31362_1.jpg,300:600,,BU31362/BU31362_2.jpg,BU31362/BU31362_2.jpg,,,BU31362/BU31362_3.jpg,BU31362/BU31362_3.jpg,,,BU31362/BU31362_4.jpg,BU31362/BU31362_4.jpg,,,BU31362/BU31362_5.jpg,BU31362/BU31362_5.jpg,,,,,,,,,,,,,,0,1,BU31362,,1,,99999,25800,,0,,,,,,,,,,,,,,,"3,4,7,9",,"1706,1707,1715,1719,1724,1726,1728,1730,1711",,"6,5,4,3,2,1",2,,,
,,,,1,BU31369（ベージュ）,2,,"厚地カーテン,エレガンス,遮光,形状記憶付,2倍ヒダ,オーダー,洗える,裏地付,ベージュ,クラシック,",,,,,裏地、形状記憶付2倍ヒダオーダーメイドカーテンです。,BU31369/BU31369_1.jpg,裏地、形状記憶付2倍ヒダオーダーメイドカーテン,BU31369/BU31369_1.jpg,BU31369/BU31369_1.jpg,,,BU31369/BU31369_1.jpg,BU31369/BU31369_1.jpg,300:600,,BU31369/BU31369_2.jpg,BU31369/BU31369_2.jpg,,,BU31369/BU31369_3.jpg,BU31369/BU31369_3.jpg,,,BU31369/BU31369_4.jpg,BU31369/BU31369_4.jpg,,,BU31369/BU31369_5.jpg,BU31369/BU31369_5.jpg,,,,,,,,,,,,,,0,1,BU31369,,1,,99999,25800,,0,,,,,,,,,,,,,,,"3,4,7,9",,"1706,1707,1715,1719,1724,1726,1728,1730,1711",,"6,5,4,3,2,1",2,,,
,,,,1,BU31370（ブルー）,2,,"厚地カーテン,エレガンス,遮光,形状記憶付,2倍ヒダ,オーダー,洗える,裏地付,ブルー,クラシック,",,,,,裏地、形状記憶付2倍ヒダオーダーメイドカーテンです。,BU31370/BU31370_1.jpg,裏地、形状記憶付2倍ヒダオーダーメイドカーテン,BU31370/BU31370_1.jpg,BU31370/BU31370_1.jpg,,,BU31370/BU31370_1.jpg,BU31370/BU31370_1.jpg,300:600,,BU31370/BU31370_2.jpg,BU31370/BU31370_2.jpg,,,BU31370/BU31370_3.jpg,BU31370/BU31370_3.jpg,,,BU31370/BU31370_4.jpg,BU31370/BU31370_4.jpg,,,BU31370/BU31370_5.jpg,BU31370/BU31370_5.jpg,,,,,,,,,,,,,,0,1,BU31370,,1,,99999,25800,,0,,,,,,,,,,,,,,,"3,4,7,9",,"1706,1707,1715,1719,1724,1726,1728,1730,1711",,"6,5,4,3,2,1",2,,,
,,,,1,BU31373（ピンク）,2,,"厚地カーテン,エレガンス,遮光,形状記憶付,2倍ヒダ,オーダー,洗える,裏地付,ピンク,クラシック,",,,,,裏地、形状記憶付2倍ヒダオーダーメイドカーテンです。,BU31373/BU31373_1.jpg,裏地、形状記憶付2倍ヒダオーダーメイドカーテン,BU31373/BU31373_1.jpg,BU31373/BU31373_1.jpg,,,BU31373/BU31373_1.jpg,BU31373/BU31373_1.jpg,300:600,,BU31373/BU31373_2.jpg,BU31373/BU31373_2.jpg,,,BU31373/BU31373_3.jpg,BU31373/BU31373_3.jpg,,,BU31373/BU31373_4.jpg,BU31373/BU31373_4.jpg,,,BU31373/BU31373_5.jpg,BU31373/BU31373_5.jpg,,,,,,,,,,,,,,0,1,BU31373,,1,,99999,25800,,0,,,,,,,,,,,,,,,"3,4,7,9",,"1706,1707,1715,1719,1724,1726,1728,1730,1711",,"6,5,4,3,2,1",2,,,
,,,,1,BU31374（ブラウン）,2,,"厚地カーテン,エレガンス,遮光,形状記憶付,2倍ヒダ,オーダー,洗える,裏地付,ブラウン,クラシック,",,,,,裏地、形状記憶付2倍ヒダオーダーメイドカーテンです。,BU31374/BU31374_1.jpg,裏地、形状記憶付2倍ヒダオーダーメイドカーテン,BU31374/BU31374_1.jpg,BU31374/BU31374_1.jpg,,,BU31374/BU31374_1.jpg,BU31374/BU31374_1.jpg,300:600,,BU31374/BU31374_2.jpg,BU31374/BU31374_2.jpg,,,BU31374/BU31374_3.jpg,BU31374/BU31374_3.jpg,,,BU31374/BU31374_4.jpg,BU31374/BU31374_4.jpg,,,BU31374/BU31374_5.jpg,BU31374/BU31374_5.jpg,,,,,,,,,,,,,,0,1,BU31374,,1,,99999,25800,,0,,,,,,,,,,,,,,,"3,4,7,9",,"1706,1707,1715,1719,1724,1726,1728,1730,1711",,"6,5,4,3,2,1",2,,,
,,,,1,BU31385（ベージュ）,2,,"厚地カーテン,モダン,遮光,形状記憶付,2倍ヒダ,オーダー,洗える,裏地付,ベージュ,クラシック,",,,,,裏地、形状記憶付2倍ヒダオーダーメイドカーテンです。,BU31385/BU31385_1.jpg,裏地、形状記憶付2倍ヒダオーダーメイドカーテン,BU31385/BU31385_1.jpg,BU31385/BU31385_1.jpg,,,BU31385/BU31385_1.jpg,BU31385/BU31385_1.jpg,300:600,,BU31385/BU31385_2.jpg,BU31385/BU31385_2.jpg,,,BU31385/BU31385_3.jpg,BU31385/BU31385_3.jpg,,,BU31385/BU31385_4.jpg,BU31385/BU31385_4.jpg,,,BU31385/BU31385_5.jpg,BU31385/BU31385_5.jpg,,,,,,,,,,,,,,0,1,BU31385,,1,,99999,25800,,0,,,,,,,,,,,,,,,"3,4,7,9",,"1706,1707,1715,1719,1724,1726,1728,1730,1711",,"6,5,4,3,2,1",2,,,
,,,,1,BU31392（アイボリー）,2,,"厚地カーテン,アイボリー,モダン,遮光,形状記憶付,2倍ヒダ,オーダー,洗える,裏地付,幾何,",,,,,裏地、形状記憶付2倍ヒダオーダーメイドカーテンです。,BU31392/BU31392_1.jpg,裏地、形状記憶付2倍ヒダオーダーメイドカーテン,BU31392/BU31392_1.jpg,BU31392/BU31392_1.jpg,,,BU31392/BU31392_1.jpg,BU31392/BU31392_1.jpg,300:600,,BU31392/BU31392_2.jpg,BU31392/BU31392_2.jpg,,,BU31392/BU31392_3.jpg,BU31392/BU31392_3.jpg,,,BU31392/BU31392_4.jpg,BU31392/BU31392_4.jpg,,,BU31392/BU31392_5.jpg,BU31392/BU31392_5.jpg,,,,,,,,,,,,,,0,1,BU31392,,1,,99999,25800,,0,,,,,,,,,,,,,,,"3,4,7,9",,"1706,1707,1715,1719,1724,1726,1728,1730,1710",,"6,5,4,3,2,1",2,,,
,,,,1,BU31393（ベージュ）,2,,"厚地カーテン,モダン,遮光,形状記憶付,2倍ヒダ,オーダー,洗える,裏地付,ベージュ,幾何,",,,,,裏地、形状記憶付2倍ヒダオーダーメイドカーテンです。,BU31393/BU31393_1.jpg,裏地、形状記憶付2倍ヒダオーダーメイドカーテン,BU31393/BU31393_1.jpg,BU31393/BU31393_1.jpg,,,BU31393/BU31393_1.jpg,BU31393/BU31393_1.jpg,300:600,,BU31393/BU31393_2.jpg,BU31393/BU31393_2.jpg,,,BU31393/BU31393_3.jpg,BU31393/BU31393_3.jpg,,,BU31393/BU31393_4.jpg,BU31393/BU31393_4.jpg,,,BU31393/BU31393_5.jpg,BU31393/BU31393_5.jpg,,,,,,,,,,,,,,0,1,BU31393,,1,,99999,25800,,0,,,,,,,,,,,,,,,"3,4,7,9",,"1706,1707,1715,1719,1724,1726,1728,1730,1710",,"6,5,4,3,2,1",2,,,
,,,,1,BU31394（ワイン）,2,,"厚地カーテン,モダン,遮光,形状記憶付,2倍ヒダ,オーダー,洗える,裏地付,ワイン,幾何,",,,,,裏地、形状記憶付2倍ヒダオーダーメイドカーテンです。,BU31394/BU31394_1.jpg,裏地、形状記憶付2倍ヒダオーダーメイドカーテン,BU31394/BU31394_1.jpg,BU31394/BU31394_1.jpg,,,BU31394/BU31394_1.jpg,BU31394/BU31394_1.jpg,300:600,,BU31394/BU31394_2.jpg,BU31394/BU31394_2.jpg,,,BU31394/BU31394_3.jpg,BU31394/BU31394_3.jpg,,,BU31394/BU31394_4.jpg,BU31394/BU31394_4.jpg,,,BU31394/BU31394_5.jpg,BU31394/BU31394_5.jpg,,,,,,,,,,,,,,0,1,BU31394,,1,,99999,25800,,0,,,,,,,,,,,,,,,"3,4,7,9",,"1706,1707,1715,1719,1724,1726,1728,1730,1710",,"6,5,4,3,2,1",2,,,
,,,,1,BW31304（ベージュ）,2,,"厚地カーテン,エレガンス,遮光,形状記憶付,2倍ヒダ,オーダー,洗える,裏地付,ベージュ,リーフ,",,,,,裏地、形状記憶付2倍ヒダオーダーメイドカーテンです。,BW31304/BW31304_1.jpg,裏地、形状記憶付2倍ヒダオーダーメイドカーテン,BW31304/BW31304_1.jpg,BW31304/BW31304_1.jpg,,,BW31304/BW31304_1.jpg,BW31304/BW31304_1.jpg,300:600,,BW31304/BW31304_2.jpg,BW31304/BW31304_2.jpg,,,BW31304/BW31304_3.jpg,BW31304/BW31304_3.jpg,,,BW31304/BW31304_4.jpg,BW31304/BW31304_4.jpg,,,BW31304/BW31304_5.jpg,BW31304/BW31304_5.jpg,,,,,,,,,,,,,,0,1,BW31304,,1,,99999,25800,,0,,,,,,,,,,,,,,,"3,4,7,9",,"1706,1707,1715,1719,1724,1726,1728,1730,1711",,"6,5,4,3,2,1",2,,,
,,,,1,BW31305（グリーン）,2,,"厚地カーテン,エレガンス,遮光,形状記憶付,2倍ヒダ,オーダー,洗える,裏地付,グリーン,リーフ,",,,,,裏地、形状記憶付2倍ヒダオーダーメイドカーテンです。,BW31305/BW31305_1.jpg,裏地、形状記憶付2倍ヒダオーダーメイドカーテン,BW31305/BW31305_1.jpg,BW31305/BW31305_1.jpg,,,BW31305/BW31305_1.jpg,BW31305/BW31305_1.jpg,300:600,,BW31305/BW31305_2.jpg,BW31305/BW31305_2.jpg,,,BW31305/BW31305_3.jpg,BW31305/BW31305_3.jpg,,,BW31305/BW31305_4.jpg,BW31305/BW31305_4.jpg,,,BW31305/BW31305_5.jpg,BW31305/BW31305_5.jpg,,,,,,,,,,,,,,0,1,BW31305,,1,,99999,25800,,0,,,,,,,,,,,,,,,"3,4,7,9",,"1706,1707,1715,1719,1724,1726,1728,1730,1711",,"6,5,4,3,2,1",2,,,
,,,,1,BW31306（ベージュ）,2,,"厚地カーテン,モダン,遮光,形状記憶付,2倍ヒダ,オーダー,洗える,裏地付,ベージュ,クラシック,",,,,,裏地、形状記憶付2倍ヒダオーダーメイドカーテンです。,BW31306/BW31306_1.jpg,裏地、形状記憶付2倍ヒダオーダーメイドカーテン,BW31306/BW31306_1.jpg,BW31306/BW31306_1.jpg,,,BW31306/BW31306_1.jpg,BW31306/BW31306_1.jpg,300:600,,BW31306/BW31306_2.jpg,BW31306/BW31306_2.jpg,,,BW31306/BW31306_3.jpg,BW31306/BW31306_3.jpg,,,BW31306/BW31306_4.jpg,BW31306/BW31306_4.jpg,,,BW31306/BW31306_5.jpg,BW31306/BW31306_5.jpg,,,,,,,,,,,,,,0,1,BW31306,,1,,99999,25800,,0,,,,,,,,,,,,,,,"3,4,7,9",,"1706,1707,1715,1719,1724,1726,1728,1730,1711",,"6,5,4,3,2,1",2,,,
,,,,1,BW31307（ブルーグリーン）,2,,"厚地カーテン,エレガンス,遮光,形状記憶付,2倍ヒダ,オーダー,洗える,裏地付,ブルー,グリーン,クラシック,",,,,,裏地、形状記憶付2倍ヒダオーダーメイドカーテンです。,BW31307/BW31307_1.jpg,裏地、形状記憶付2倍ヒダオーダーメイドカーテン,BW31307/BW31307_1.jpg,BW31307/BW31307_1.jpg,,,BW31307/BW31307_1.jpg,BW31307/BW31307_1.jpg,300:600,,BW31307/BW31307_2.jpg,BW31307/BW31307_2.jpg,,,BW31307/BW31307_3.jpg,BW31307/BW31307_3.jpg,,,BW31307/BW31307_4.jpg,BW31307/BW31307_4.jpg,,,BW31307/BW31307_5.jpg,BW31307/BW31307_5.jpg,,,,,,,,,,,,,,0,1,BW31307,,1,,99999,25800,,0,,,,,,,,,,,,,,,"3,4,7,9",,"1706,1707,1715,1719,1724,1726,1728,1730,1711",,"6,5,4,3,2,1",2,,,
,,,,1,IH33307（アイボリー）,2,,"厚地カーテン,アイボリー,モダン,遮光,形状記憶付,2倍ヒダ,オーダー,洗える,裏地付,幾何,",,,,,裏地、形状記憶付2倍ヒダオーダーメイドカーテンです。,IH33307/IH33307_1.jpg,裏地、形状記憶付2倍ヒダオーダーメイドカーテン,IH33307/IH33307_1.jpg,IH33307/IH33307_1.jpg,,,IH33307/IH33307_1.jpg,IH33307/IH33307_1.jpg,300:600,,IH33307/IH33307_2.jpg,IH33307/IH33307_2.jpg,,,IH33307/IH33307_3.jpg,IH33307/IH33307_3.jpg,,,IH33307/IH33307_4.jpg,IH33307/IH33307_4.jpg,,,IH33307/IH33307_5.jpg,IH33307/IH33307_5.jpg,,,,,,,,,,,,,,0,1,IH33307,,1,,99999,25800,,0,,,,,,,,,,,,,,,"3,4,7,9",,"1706,1707,1715,1719,1724,1726,1728,1730,1710",,"6,5,4,3,2,1",2,,,
,,,,1,IH33308（ダークグレー）,2,,"厚地カーテン,モダン,遮光,形状記憶付,2倍ヒダ,オーダー,洗える,裏地付,グレー,幾何,",,,,,裏地、形状記憶付2倍ヒダオーダーメイドカーテンです。,IH33308/IH33308_1.jpg,裏地、形状記憶付2倍ヒダオーダーメイドカーテン,IH33308/IH33308_1.jpg,IH33308/IH33308_1.jpg,,,IH33308/IH33308_1.jpg,IH33308/IH33308_1.jpg,300:600,,IH33308/IH33308_2.jpg,IH33308/IH33308_2.jpg,,,IH33308/IH33308_3.jpg,IH33308/IH33308_3.jpg,,,IH33308/IH33308_4.jpg,IH33308/IH33308_4.jpg,,,IH33308/IH33308_5.jpg,IH33308/IH33308_5.jpg,,,,,,,,,,,,,,0,1,IH33308,,1,,99999,25800,,0,,,,,,,,,,,,,,,"3,4,7,9",,"1706,1707,1715,1719,1724,1726,1728,1730,1710",,"6,5,4,3,2,1",2,,,
,,,,1,IH33309（アイボリー）,2,,"厚地カーテン,アイボリー,モダン,遮光,形状記憶付,2倍ヒダ,オーダー,洗える,裏地付,幾何,",,,,,裏地、形状記憶付2倍ヒダオーダーメイドカーテンです。,IH33309/IH33309_1.jpg,裏地、形状記憶付2倍ヒダオーダーメイドカーテン,IH33309/IH33309_1.jpg,IH33309/IH33309_1.jpg,,,IH33309/IH33309_1.jpg,IH33309/IH33309_1.jpg,300:600,,IH33309/IH33309_2.jpg,IH33309/IH33309_2.jpg,,,IH33309/IH33309_3.jpg,IH33309/IH33309_3.jpg,,,IH33309/IH33309_4.jpg,IH33309/IH33309_4.jpg,,,IH33309/IH33309_5.jpg,IH33309/IH33309_5.jpg,,,,,,,,,,,,,,0,1,IH33309,,1,,99999,25800,,0,,,,,,,,,,,,,,,"3,4,7,9",,"1706,1707,1715,1719,1724,1726,1728,1730,1710",,"6,5,4,3,2,1",2,,,
,,,,1,IH33310（グリーン）,2,,"厚地カーテン,モダン,遮光,形状記憶付,2倍ヒダ,オーダー,洗える,裏地付,グリーン,幾何,",,,,,裏地、形状記憶付2倍ヒダオーダーメイドカーテンです。,IH33310/IH33310_1.jpg,裏地、形状記憶付2倍ヒダオーダーメイドカーテン,IH33310/IH33310_1.jpg,IH33310/IH33310_1.jpg,,,IH33310/IH33310_1.jpg,IH33310/IH33310_1.jpg,300:600,,IH33310/IH33310_2.jpg,IH33310/IH33310_2.jpg,,,IH33310/IH33310_3.jpg,IH33310/IH33310_3.jpg,,,IH33310/IH33310_4.jpg,IH33310/IH33310_4.jpg,,,IH33310/IH33310_5.jpg,IH33310/IH33310_5.jpg,,,,,,,,,,,,,,0,1,IH33310,,1,,99999,25800,,0,,,,,,,,,,,,,,,"3,4,7,9",,"1706,1707,1715,1719,1724,1726,1728,1730,1710",,"6,5,4,3,2,1",2,,,
,,,,1,SC37301（イエロー）,2,,"厚地カーテン,モダン,遮光,形状記憶付,2倍ヒダ,オーダー,洗える,裏地付,イエロー,幾何,",,,,,裏地、形状記憶付2倍ヒダオーダーメイドカーテンです。,SC37301/SC37301_1.jpg,裏地、形状記憶付2倍ヒダオーダーメイドカーテン,SC37301/SC37301_1.jpg,SC37301/SC37301_1.jpg,,,SC37301/SC37301_1.jpg,SC37301/SC37301_1.jpg,300:600,,SC37301/SC37301_2.jpg,SC37301/SC37301_2.jpg,,,SC37301/SC37301_3.jpg,SC37301/SC37301_3.jpg,,,SC37301/SC37301_4.jpg,SC37301/SC37301_4.jpg,,,SC37301/SC37301_5.jpg,SC37301/SC37301_5.jpg,,,,,,,,,,,,,,0,1,SC37301,,1,,99999,25800,,0,,,,,,,,,,,,,,,"3,4,7,9",,"1706,1707,1715,1719,1724,1726,1728,1730,1710",,"6,5,4,3,2,1",2,,,
,,,,1,SC37302（グレー）,2,,"厚地カーテン,モダン,遮光,形状記憶付,2倍ヒダ,オーダー,洗える,裏地付,グレー,幾何,",,,,,裏地、形状記憶付2倍ヒダオーダーメイドカーテンです。,SC37302/SC37302_1.jpg,裏地、形状記憶付2倍ヒダオーダーメイドカーテン,SC37302/SC37302_1.jpg,SC37302/SC37302_1.jpg,,,SC37302/SC37302_1.jpg,SC37302/SC37302_1.jpg,300:600,,SC37302/SC37302_2.jpg,SC37302/SC37302_2.jpg,,,SC37302/SC37302_3.jpg,SC37302/SC37302_3.jpg,,,SC37302/SC37302_4.jpg,SC37302/SC37302_4.jpg,,,SC37302/SC37302_5.jpg,SC37302/SC37302_5.jpg,,,,,,,,,,,,,,0,1,SC37302,,1,,99999,25800,,0,,,,,,,,,,,,,,,"3,4,7,9",,"1706,1707,1715,1719,1724,1726,1728,1730,1710",,"6,5,4,3,2,1",2,,,
,,,,1,SC37303（パープル）,2,,"厚地カーテン,モダン,遮光,形状記憶付,2倍ヒダ,オーダー,洗える,裏地付,パープル,幾何,",,,,,裏地、形状記憶付2倍ヒダオーダーメイドカーテンです。,SC37303/SC37303_1.jpg,裏地、形状記憶付2倍ヒダオーダーメイドカーテン,SC37303/SC37303_1.jpg,SC37303/SC37303_1.jpg,,,SC37303/SC37303_1.jpg,SC37303/SC37303_1.jpg,300:600,,SC37303/SC37303_2.jpg,SC37303/SC37303_2.jpg,,,SC37303/SC37303_3.jpg,SC37303/SC37303_3.jpg,,,SC37303/SC37303_4.jpg,SC37303/SC37303_4.jpg,,,SC37303/SC37303_5.jpg,SC37303/SC37303_5.jpg,,,,,,,,,,,,,,0,1,SC37303,,1,,99999,25800,,0,,,,,,,,,,,,,,,"3,4,7,9",,"1706,1707,1715,1719,1724,1726,1728,1730,1710",,"6,5,4,3,2,1",2,,,
,,,,1,SC37304（ピンク）,2,,"厚地カーテン,エレガンス,遮光,形状記憶付,2倍ヒダ,オーダー,洗える,裏地付,ピンク,無地,",,,,,裏地、形状記憶付2倍ヒダオーダーメイドカーテンです。,SC37304/SC37304_1.jpg,裏地、形状記憶付2倍ヒダオーダーメイドカーテン,SC37304/SC37304_1.jpg,SC37304/SC37304_1.jpg,,,SC37304/SC37304_1.jpg,SC37304/SC37304_1.jpg,300:600,,SC37304/SC37304_2.jpg,SC37304/SC37304_2.jpg,,,SC37304/SC37304_3.jpg,SC37304/SC37304_3.jpg,,,SC37304/SC37304_4.jpg,SC37304/SC37304_4.jpg,,,SC37304/SC37304_5.jpg,SC37304/SC37304_5.jpg,,,,,,,,,,,,,,0,1,SC37304,,1,,99999,25800,,0,,,,,,,,,,,,,,,"3,4,7,9",,"1706,1707,1715,1719,1724,1726,1728,1730,1711",,"6,5,4,3,2,1",2,,,
,,,,1,SC37305（アイボリー）,2,,"厚地カーテン,アイボリー,エレガンス,遮光,形状記憶付,2倍ヒダ,オーダー,洗える,裏地付,無地,",,,,,裏地、形状記憶付2倍ヒダオーダーメイドカーテンです。,SC37305/SC37305_1.jpg,裏地、形状記憶付2倍ヒダオーダーメイドカーテン,SC37305/SC37305_1.jpg,SC37305/SC37305_1.jpg,,,SC37305/SC37305_1.jpg,SC37305/SC37305_1.jpg,300:600,,SC37305/SC37305_2.jpg,SC37305/SC37305_2.jpg,,,SC37305/SC37305_3.jpg,SC37305/SC37305_3.jpg,,,SC37305/SC37305_4.jpg,SC37305/SC37305_4.jpg,,,SC37305/SC37305_5.jpg,SC37305/SC37305_5.jpg,,,,,,,,,,,,,,0,1,SC37305,,1,,99999,25800,,0,,,,,,,,,,,,,,,"3,4,7,9",,"1706,1707,1715,1719,1724,1726,1728,1730,1711",,"6,5,4,3,2,1",2,,,
,,,,1,SC37306（パープル）,2,,"厚地カーテン,エレガンス,遮光,形状記憶付,2倍ヒダ,オーダー,洗える,裏地付,パープル,無地,",,,,,裏地、形状記憶付2倍ヒダオーダーメイドカーテンです。,SC37306/SC37306_1.jpg,裏地、形状記憶付2倍ヒダオーダーメイドカーテン,SC37306/SC37306_1.jpg,SC37306/SC37306_1.jpg,,,SC37306/SC37306_1.jpg,SC37306/SC37306_1.jpg,300:600,,SC37306/SC37306_2.jpg,SC37306/SC37306_2.jpg,,,SC37306/SC37306_3.jpg,SC37306/SC37306_3.jpg,,,SC37306/SC37306_4.jpg,SC37306/SC37306_4.jpg,,,SC37306/SC37306_5.jpg,SC37306/SC37306_5.jpg,,,,,,,,,,,,,,0,1,SC37306,,1,,99999,25800,,0,,,,,,,,,,,,,,,"3,4,7,9",,"1706,1707,1715,1719,1724,1726,1728,1730,1711",,"6,5,4,3,2,1",2,,,
,,,,1,SC37307（ブルー）,2,,"厚地カーテン,エレガンス,遮光,形状記憶付,2倍ヒダ,オーダー,洗える,裏地付,ブルー,無地,",,,,,裏地、形状記憶付2倍ヒダオーダーメイドカーテンです。,SC37307/SC37307_1.jpg,裏地、形状記憶付2倍ヒダオーダーメイドカーテン,SC37307/SC37307_1.jpg,SC37307/SC37307_1.jpg,,,SC37307/SC37307_1.jpg,SC37307/SC37307_1.jpg,300:600,,SC37307/SC37307_2.jpg,SC37307/SC37307_2.jpg,,,SC37307/SC37307_3.jpg,SC37307/SC37307_3.jpg,,,SC37307/SC37307_4.jpg,SC37307/SC37307_4.jpg,,,SC37307/SC37307_5.jpg,SC37307/SC37307_5.jpg,,,,,,,,,,,,,,0,1,SC37307,,1,,99999,25800,,0,,,,,,,,,,,,,,,"3,4,7,9",,"1706,1707,1715,1719,1724,1726,1728,1730,1711",,"6,5,4,3,2,1",2,,,
,,,,1,CO51403（アイボリー）,2,,"厚地カーテン,アイボリー,エレガンス,遮光,形状記憶付,2倍ヒダ,オーダー,洗える,裏地付,刺繍,",,,,,裏地、形状記憶付2倍ヒダオーダーメイドカーテンです。,CO51403/CO51403_1.jpg,裏地、形状記憶付2倍ヒダオーダーメイドカーテン,CO51403/CO51403_1.jpg,CO51403/CO51403_1.jpg,,,CO51403/CO51403_1.jpg,CO51403/CO51403_1.jpg,300:600,,CO51403/CO51403_2.jpg,CO51403/CO51403_2.jpg,,,CO51403/CO51403_3.jpg,CO51403/CO51403_3.jpg,,,CO51403/CO51403_4.jpg,CO51403/CO51403_4.jpg,,,CO51403/CO51403_5.jpg,CO51403/CO51403_5.jpg,,,,,,,,,,,,,,0,1,CO51403,,1,,99999,29800,,0,,,,,,,,,,,,,,,"3,4,7,9",,"1706,1707,1715,1719,1724,1726,1728,1730,1711,1727",,"6,5,4,3,2,1",2,,,
,,,,1,CO51405（アイボリー）,2,,"厚地カーテン,アイボリー,エレガンス,遮光,形状記憶付,2倍ヒダ,オーダー,洗える,裏地付,刺繍,",,,,,裏地、形状記憶付2倍ヒダオーダーメイドカーテンです。,CO51405/CO51405_1.jpg,裏地、形状記憶付2倍ヒダオーダーメイドカーテン,CO51405/CO51405_1.jpg,CO51405/CO51405_1.jpg,,,CO51405/CO51405_1.jpg,CO51405/CO51405_1.jpg,300:600,,CO51405/CO51405_2.jpg,CO51405/CO51405_2.jpg,,,CO51405/CO51405_3.jpg,CO51405/CO51405_3.jpg,,,CO51405/CO51405_4.jpg,CO51405/CO51405_4.jpg,,,CO51405/CO51405_5.jpg,CO51405/CO51405_5.jpg,,,,,,,,,,,,,,0,1,CO51405,,1,,99999,29800,,0,,,,,,,,,,,,,,,"3,4,7,9",,"1706,1707,1715,1719,1724,1726,1728,1730,1711,1727",,"6,5,4,3,2,1",2,,,
,,,,1,CO51406（グレー）,2,,"厚地カーテン,エレガンス,遮光,形状記憶付,2倍ヒダ,オーダー,洗える,裏地付,グレー,刺繍,",,,,,裏地、形状記憶付2倍ヒダオーダーメイドカーテンです。,CO51406/CO51406_1.jpg,裏地、形状記憶付2倍ヒダオーダーメイドカーテン,CO51406/CO51406_1.jpg,CO51406/CO51406_1.jpg,,,CO51406/CO51406_1.jpg,CO51406/CO51406_1.jpg,300:600,,CO51406/CO51406_2.jpg,CO51406/CO51406_2.jpg,,,CO51406/CO51406_3.jpg,CO51406/CO51406_3.jpg,,,CO51406/CO51406_4.jpg,CO51406/CO51406_4.jpg,,,CO51406/CO51406_5.jpg,CO51406/CO51406_5.jpg,,,,,,,,,,,,,,0,1,CO51406,,1,,99999,29800,,0,,,,,,,,,,,,,,,"3,4,7,9",,"1706,1707,1715,1719,1724,1726,1728,1730,1711,1727",,"6,5,4,3,2,1",2,,,
,,,,1,CO51410（アイボリー）,2,,"厚地カーテン,アイボリー,モダン,遮光,形状記憶付,2倍ヒダ,オーダー,洗える,裏地付,刺繍,",,,,,裏地、形状記憶付2倍ヒダオーダーメイドカーテンです。,CO51410/CO51410_1.jpg,裏地、形状記憶付2倍ヒダオーダーメイドカーテン,CO51410/CO51410_1.jpg,CO51410/CO51410_1.jpg,,,CO51410/CO51410_1.jpg,CO51410/CO51410_1.jpg,300:600,,CO51410/CO51410_2.jpg,CO51410/CO51410_2.jpg,,,CO51410/CO51410_3.jpg,CO51410/CO51410_3.jpg,,,CO51410/CO51410_4.jpg,CO51410/CO51410_4.jpg,,,CO51410/CO51410_5.jpg,CO51410/CO51410_5.jpg,,,,,,,,,,,,,,0,1,CO51410,,1,,99999,29800,,0,,,,,,,,,,,,,,,"3,4,7,9",,"1706,1707,1715,1719,1724,1726,1728,1730,1711,1727",,"6,5,4,3,2,1",2,,,
,,,,1,CO51411（ブラウン）,2,,"厚地カーテン,モダン,遮光,形状記憶付,2倍ヒダ,オーダー,洗える,裏地付,ブラウン,刺繍,",,,,,裏地、形状記憶付2倍ヒダオーダーメイドカーテンです。,CO51411/CO51411_1.jpg,裏地、形状記憶付2倍ヒダオーダーメイドカーテン,CO51411/CO51411_1.jpg,CO51411/CO51411_1.jpg,,,CO51411/CO51411_1.jpg,CO51411/CO51411_1.jpg,300:600,,CO51411/CO51411_2.jpg,CO51411/CO51411_2.jpg,,,CO51411/CO51411_3.jpg,CO51411/CO51411_3.jpg,,,CO51411/CO51411_4.jpg,CO51411/CO51411_4.jpg,,,CO51411/CO51411_5.jpg,CO51411/CO51411_5.jpg,,,,,,,,,,,,,,0,1,CO51411,,1,,99999,29800,,0,,,,,,,,,,,,,,,"3,4,7,9",,"1706,1707,1715,1719,1724,1726,1728,1730,1711,1727",,"6,5,4,3,2,1",2,,,
,,,,1,CO51412（オレンジ）,2,,"厚地カーテン,エレガンス,遮光,形状記憶付,2倍ヒダ,オーダー,洗える,裏地付,オレンジ,刺繍,",,,,,裏地、形状記憶付2倍ヒダオーダーメイドカーテンです。,CO51412/CO51412_1.jpg,裏地、形状記憶付2倍ヒダオーダーメイドカーテン,CO51412/CO51412_1.jpg,CO51412/CO51412_1.jpg,,,CO51412/CO51412_1.jpg,CO51412/CO51412_1.jpg,300:600,,CO51412/CO51412_2.jpg,CO51412/CO51412_2.jpg,,,CO51412/CO51412_3.jpg,CO51412/CO51412_3.jpg,,,CO51412/CO51412_4.jpg,CO51412/CO51412_4.jpg,,,CO51412/CO51412_5.jpg,CO51412/CO51412_5.jpg,,,,,,,,,,,,,,0,1,CO51412,,1,,99999,29800,,0,,,,,,,,,,,,,,,"3,4,7,9",,"1706,1707,1715,1719,1724,1726,1728,1730,1711,1727",,"6,5,4,3,2,1",2,,,
,,,,1,CO56401（アイボリー）,2,,"厚地カーテン,アイボリー,エレガンス,遮光,形状記憶付,2倍ヒダ,オーダー,洗える,裏地付,クラシック,",,,,,裏地、形状記憶付2倍ヒダオーダーメイドカーテンです。,CO56401/CO56401_1.jpg,裏地、形状記憶付2倍ヒダオーダーメイドカーテン,CO56401/CO56401_1.jpg,CO56401/CO56401_1.jpg,,,CO56401/CO56401_1.jpg,CO56401/CO56401_1.jpg,300:600,,CO56401/CO56401_2.jpg,CO56401/CO56401_2.jpg,,,CO56401/CO56401_3.jpg,CO56401/CO56401_3.jpg,,,CO56401/CO56401_4.jpg,CO56401/CO56401_4.jpg,,,CO56401/CO56401_5.jpg,CO56401/CO56401_5.jpg,,,,,,,,,,,,,,0,1,CO56401,,1,,99999,29800,,0,,,,,,,,,,,,,,,"3,4,7,9",,"1706,1707,1715,1719,1724,1726,1728,1730,1711",,"6,5,4,3,2,1",2,,,
,,,,1,CO56402（オレンジ）,2,,"厚地カーテン,エレガンス,遮光,形状記憶付,2倍ヒダ,オーダー,洗える,裏地付,オレンジ,クラシック,",,,,,裏地、形状記憶付2倍ヒダオーダーメイドカーテンです。,CO56402/CO56402_1.jpg,裏地、形状記憶付2倍ヒダオーダーメイドカーテン,CO56402/CO56402_1.jpg,CO56402/CO56402_1.jpg,,,CO56402/CO56402_1.jpg,CO56402/CO56402_1.jpg,300:600,,CO56402/CO56402_2.jpg,CO56402/CO56402_2.jpg,,,CO56402/CO56402_3.jpg,CO56402/CO56402_3.jpg,,,CO56402/CO56402_4.jpg,CO56402/CO56402_4.jpg,,,CO56402/CO56402_5.jpg,CO56402/CO56402_5.jpg,,,,,,,,,,,,,,0,1,CO56402,,1,,99999,29800,,0,,,,,,,,,,,,,,,"3,4,7,9",,"1706,1707,1715,1719,1724,1726,1728,1730,1711",,"6,5,4,3,2,1",2,,,
,,,,1,CO58403（ピンク）,2,,"厚地カーテン,エレガンス,遮光,形状記憶付,2倍ヒダ,オーダー,洗える,裏地付,ピンク,フラワー,花柄,",,,,,裏地、形状記憶付2倍ヒダオーダーメイドカーテンです。,CO58403/CO58403_1.jpg,裏地、形状記憶付2倍ヒダオーダーメイドカーテン,CO58403/CO58403_1.jpg,CO58403/CO58403_1.jpg,,,CO58403/CO58403_1.jpg,CO58403/CO58403_1.jpg,300:600,,CO58403/CO58403_2.jpg,CO58403/CO58403_2.jpg,,,CO58403/CO58403_3.jpg,CO58403/CO58403_3.jpg,,,CO58403/CO58403_4.jpg,CO58403/CO58403_4.jpg,,,CO58403/CO58403_5.jpg,CO58403/CO58403_5.jpg,,,,,,,,,,,,,,0,1,CO58403,,1,,99999,29800,,0,,,,,,,,,,,,,,,"3,4,7,9",,"1706,1707,1715,1719,1724,1726,1728,1730,1711,1727",,"6,5,4,3,2,1",2,,,
,,,,1,CO58404（アイボリー）,2,,"厚地カーテン,アイボリー,エレガンス,遮光,形状記憶付,2倍ヒダ,オーダー,洗える,裏地付,フラワー,花柄,",,,,,裏地、形状記憶付2倍ヒダオーダーメイドカーテンです。,CO58404/CO58404_1.jpg,裏地、形状記憶付2倍ヒダオーダーメイドカーテン,CO58404/CO58404_1.jpg,CO58404/CO58404_1.jpg,,,CO58404/CO58404_1.jpg,CO58404/CO58404_1.jpg,300:600,,CO58404/CO58404_2.jpg,CO58404/CO58404_2.jpg,,,CO58404/CO58404_3.jpg,CO58404/CO58404_3.jpg,,,CO58404/CO58404_4.jpg,CO58404/CO58404_4.jpg,,,CO58404/CO58404_5.jpg,CO58404/CO58404_5.jpg,,,,,,,,,,,,,,0,1,CO58404,,1,,99999,29800,,0,,,,,,,,,,,,,,,"3,4,7,9",,"1706,1707,1715,1719,1724,1726,1728,1730,1711,1727",,"6,5,4,3,2,1",2,,,
,,,,1,CO58407（グリーン）,2,,"厚地カーテン,エレガンス,遮光,形状記憶付,2倍ヒダ,オーダー,洗える,裏地付,グリーン,フラワー,花柄,",,,,,裏地、形状記憶付2倍ヒダオーダーメイドカーテンです。,CO58407/CO58407_1.jpg,裏地、形状記憶付2倍ヒダオーダーメイドカーテン,CO58407/CO58407_1.jpg,CO58407/CO58407_1.jpg,,,CO58407/CO58407_1.jpg,CO58407/CO58407_1.jpg,300:600,,CO58407/CO58407_2.jpg,CO58407/CO58407_2.jpg,,,CO58407/CO58407_3.jpg,CO58407/CO58407_3.jpg,,,CO58407/CO58407_4.jpg,CO58407/CO58407_4.jpg,,,CO58407/CO58407_5.jpg,CO58407/CO58407_5.jpg,,,,,,,,,,,,,,0,1,CO58407,,1,,99999,29800,,0,,,,,,,,,,,,,,,"3,4,7,9",,"1706,1707,1715,1719,1724,1726,1728,1730,1711,1727",,"6,5,4,3,2,1",2,,,
,,,,1,CO58408（アイボリー）,2,,"厚地カーテン,アイボリー,エレガンス,遮光,形状記憶付,2倍ヒダ,オーダー,洗える,裏地付,リーフ,",,,,,裏地、形状記憶付2倍ヒダオーダーメイドカーテンです。,CO58408/CO58408_1.jpg,裏地、形状記憶付2倍ヒダオーダーメイドカーテン,CO58408/CO58408_1.jpg,CO58408/CO58408_1.jpg,,,CO58408/CO58408_1.jpg,CO58408/CO58408_1.jpg,300:600,,CO58408/CO58408_2.jpg,CO58408/CO58408_2.jpg,,,CO58408/CO58408_3.jpg,CO58408/CO58408_3.jpg,,,CO58408/CO58408_4.jpg,CO58408/CO58408_4.jpg,,,CO58408/CO58408_5.jpg,CO58408/CO58408_5.jpg,,,,,,,,,,,,,,0,1,CO58408,,1,,99999,29800,,0,,,,,,,,,,,,,,,"3,4,7,9",,"1706,1707,1715,1719,1724,1726,1728,1730,1711",,"6,5,4,3,2,1",2,,,
,,,,1,CO58409（グリーン）,2,,"厚地カーテン,エレガンス,遮光,形状記憶付,2倍ヒダ,オーダー,洗える,裏地付,グリーン,リーフ,",,,,,裏地、形状記憶付2倍ヒダオーダーメイドカーテンです。,CO58409/CO58409_1.jpg,裏地、形状記憶付2倍ヒダオーダーメイドカーテン,CO58409/CO58409_1.jpg,CO58409/CO58409_1.jpg,,,CO58409/CO58409_1.jpg,CO58409/CO58409_1.jpg,300:600,,CO58409/CO58409_2.jpg,CO58409/CO58409_2.jpg,,,CO58409/CO58409_3.jpg,CO58409/CO58409_3.jpg,,,CO58409/CO58409_4.jpg,CO58409/CO58409_4.jpg,,,CO58409/CO58409_5.jpg,CO58409/CO58409_5.jpg,,,,,,,,,,,,,,0,1,CO58409,,1,,99999,29800,,0,,,,,,,,,,,,,,,"3,4,7,9",,"1706,1707,1715,1719,1724,1726,1728,1730,1711",,"6,5,4,3,2,1",2,,,
,,,,1,CO58410（アイボリー）,2,,"厚地カーテン,アイボリー,エレガンス,遮光,形状記憶付,2倍ヒダ,オーダー,洗える,裏地付,フラワー,花柄,",,,,,裏地、形状記憶付2倍ヒダオーダーメイドカーテンです。,CO58410/CO58410_1.jpg,裏地、形状記憶付2倍ヒダオーダーメイドカーテン,CO58410/CO58410_1.jpg,CO58410/CO58410_1.jpg,,,CO58410/CO58410_1.jpg,CO58410/CO58410_1.jpg,300:600,,CO58410/CO58410_2.jpg,CO58410/CO58410_2.jpg,,,CO58410/CO58410_3.jpg,CO58410/CO58410_3.jpg,,,CO58410/CO58410_4.jpg,CO58410/CO58410_4.jpg,,,CO58410/CO58410_5.jpg,CO58410/CO58410_5.jpg,,,,,,,,,,,,,,0,1,CO58410,,1,,99999,29800,,0,,,,,,,,,,,,,,,"3,4,7,9",,"1706,1707,1715,1719,1724,1726,1728,1730,1711,1727",,"6,5,4,3,2,1",2,,,
,,,,1,CO58411（グリーン）,2,,"厚地カーテン,エレガンス,遮光,形状記憶付,2倍ヒダ,オーダー,洗える,裏地付,グリーン,フラワー,花柄,",,,,,裏地、形状記憶付2倍ヒダオーダーメイドカーテンです。,CO58411/CO58411_1.jpg,裏地、形状記憶付2倍ヒダオーダーメイドカーテン,CO58411/CO58411_1.jpg,CO58411/CO58411_1.jpg,,,CO58411/CO58411_1.jpg,CO58411/CO58411_1.jpg,300:600,,CO58411/CO58411_2.jpg,CO58411/CO58411_2.jpg,,,CO58411/CO58411_3.jpg,CO58411/CO58411_3.jpg,,,CO58411/CO58411_4.jpg,CO58411/CO58411_4.jpg,,,CO58411/CO58411_5.jpg,CO58411/CO58411_5.jpg,,,,,,,,,,,,,,0,1,CO58411,,1,,99999,29800,,0,,,,,,,,,,,,,,,"3,4,7,9",,"1706,1707,1715,1719,1724,1726,1728,1730,1711,1727",,"6,5,4,3,2,1",2,,,
,,,,1,CO59401（ベージュ）,2,,"厚地カーテン,クラシック,遮光,形状記憶付,2倍ヒダ,オーダー,洗える,裏地付,ベージュ,クラシック,",,,,,裏地、形状記憶付2倍ヒダオーダーメイドカーテンです。,CO59401/CO59401_1.jpg,裏地、形状記憶付2倍ヒダオーダーメイドカーテン,CO59401/CO59401_1.jpg,CO59401/CO59401_1.jpg,,,CO59401/CO59401_1.jpg,CO59401/CO59401_1.jpg,300:600,,CO59401/CO59401_2.jpg,CO59401/CO59401_2.jpg,,,CO59401/CO59401_3.jpg,CO59401/CO59401_3.jpg,,,CO59401/CO59401_4.jpg,CO59401/CO59401_4.jpg,,,CO59401/CO59401_5.jpg,CO59401/CO59401_5.jpg,,,,,,,,,,,,,,0,1,CO59401,,1,,99999,29800,,0,,,,,,,,,,,,,,,"3,4,7,9",,"1706,1707,1715,1719,1724,1726,1728,1730,1711",,"6,5,4,3,2,1",2,,,
,,,,1,CO59403（ライトブルー）,2,,"厚地カーテン,クラシック,遮光,形状記憶付,2倍ヒダ,オーダー,洗える,裏地付,ブルー,クラシック,",,,,,裏地、形状記憶付2倍ヒダオーダーメイドカーテンです。,CO59403/CO59403_1.jpg,裏地、形状記憶付2倍ヒダオーダーメイドカーテン,CO59403/CO59403_1.jpg,CO59403/CO59403_1.jpg,,,CO59403/CO59403_1.jpg,CO59403/CO59403_1.jpg,300:600,,CO59403/CO59403_2.jpg,CO59403/CO59403_2.jpg,,,CO59403/CO59403_3.jpg,CO59403/CO59403_3.jpg,,,CO59403/CO59403_4.jpg,CO59403/CO59403_4.jpg,,,CO59403/CO59403_5.jpg,CO59403/CO59403_5.jpg,,,,,,,,,,,,,,0,1,CO59403,,1,,99999,29800,,0,,,,,,,,,,,,,,,"3,4,7,9",,"1706,1707,1715,1719,1724,1726,1728,1730,1711",,"6,5,4,3,2,1",2,,,
,,,,1,CO59404（ベージュ）,2,,"厚地カーテン,クラシック,遮光,形状記憶付,2倍ヒダ,オーダー,洗える,裏地付,ベージュ,クラシック,防炎,",,,,,裏地、形状記憶付2倍ヒダオーダーメイドカーテンです。,CO59404/CO59404_1.jpg,裏地、形状記憶付2倍ヒダオーダーメイドカーテン、防炎,CO59404/CO59404_1.jpg,CO59404/CO59404_1.jpg,,,CO59404/CO59404_1.jpg,CO59404/CO59404_1.jpg,300:600,,CO59404/CO59404_2.jpg,CO59404/CO59404_2.jpg,,,CO59404/CO59404_3.jpg,CO59404/CO59404_3.jpg,,,CO59404/CO59404_4.jpg,CO59404/CO59404_4.jpg,,,CO59404/CO59404_5.jpg,CO59404/CO59404_5.jpg,,,,,,,,,,,,,,0,1,CO59404,,1,,99999,29800,,0,,,,,,,,,,,,,,,"3,4,7,9",,"1706,1707,1715,1719,1724,1726,1728,1730,1711,1727",,"6,5,4,3,2,1",2,,,
,,,,1,CO59405（ブラウン）,2,,"厚地カーテン,クラシック,遮光,形状記憶付,2倍ヒダ,オーダー,洗える,裏地付,ブラウン,クラシック,防炎,",,,,,裏地、形状記憶付2倍ヒダオーダーメイドカーテンです。,CO59405/CO59405_1.jpg,裏地、形状記憶付2倍ヒダオーダーメイドカーテン、防炎,CO59405/CO59405_1.jpg,CO59405/CO59405_1.jpg,,,CO59405/CO59405_1.jpg,CO59405/CO59405_1.jpg,300:600,,CO59405/CO59405_2.jpg,CO59405/CO59405_2.jpg,,,CO59405/CO59405_3.jpg,CO59405/CO59405_3.jpg,,,CO59405/CO59405_4.jpg,CO59405/CO59405_4.jpg,,,CO59405/CO59405_5.jpg,CO59405/CO59405_5.jpg,,,,,,,,,,,,,,0,1,CO59405,,1,,99999,29800,,0,,,,,,,,,,,,,,,"3,4,7,9",,"1706,1707,1715,1719,1724,1726,1728,1730,1711,1727",,"6,5,4,3,2,1",2,,,
,,,,1,IH33401（レッド）,2,,"厚地カーテン,クラシック,遮光,形状記憶付,2倍ヒダ,オーダー,洗える,裏地付,レッド,クラシック,",,,,,裏地、形状記憶付2倍ヒダオーダーメイドカーテンです。,IH33401/IH33401_1.jpg,裏地、形状記憶付2倍ヒダオーダーメイドカーテン,IH33401/IH33401_1.jpg,IH33401/IH33401_1.jpg,,,IH33401/IH33401_1.jpg,IH33401/IH33401_1.jpg,300:600,,IH33401/IH33401_2.jpg,IH33401/IH33401_2.jpg,,,IH33401/IH33401_3.jpg,IH33401/IH33401_3.jpg,,,IH33401/IH33401_4.jpg,IH33401/IH33401_4.jpg,,,IH33401/IH33401_5.jpg,IH33401/IH33401_5.jpg,,,,,,,,,,,,,,0,1,IH33401,,1,,99999,29800,,0,,,,,,,,,,,,,,,"3,4,7,9",,"1706,1707,1715,1719,1724,1726,1728,1730,1711,1727",,"6,5,4,3,2,1",2,,,
,,,,1,IH33407（ベージュ）,2,,"厚地カーテン,エレガンス,遮光,形状記憶付,2倍ヒダ,オーダー,洗える,裏地付,ベージュ,クラシック,",,,,,裏地、形状記憶付2倍ヒダオーダーメイドカーテンです。,IH33407/IH33407_1.jpg,裏地、形状記憶付2倍ヒダオーダーメイドカーテン,IH33407/IH33407_1.jpg,IH33407/IH33407_1.jpg,,,IH33407/IH33407_1.jpg,IH33407/IH33407_1.jpg,300:600,,IH33407/IH33407_2.jpg,IH33407/IH33407_2.jpg,,,IH33407/IH33407_3.jpg,IH33407/IH33407_3.jpg,,,IH33407/IH33407_4.jpg,IH33407/IH33407_4.jpg,,,IH33407/IH33407_5.jpg,IH33407/IH33407_5.jpg,,,,,,,,,,,,,,0,1,IH33407,,1,,99999,29800,,0,,,,,,,,,,,,,,,"3,4,7,9",,"1706,1707,1715,1719,1724,1726,1728,1730,1711,1727",,"6,5,4,3,2,1",2,,,
,,,,1,IH33408（グリーン）,2,,"厚地カーテン,エレガンス,遮光,形状記憶付,2倍ヒダ,オーダー,洗える,裏地付,グリーン,クラシック,",,,,,裏地、形状記憶付2倍ヒダオーダーメイドカーテンです。,IH33408/IH33408_1.jpg,裏地、形状記憶付2倍ヒダオーダーメイドカーテン,IH33408/IH33408_1.jpg,IH33408/IH33408_1.jpg,,,IH33408/IH33408_1.jpg,IH33408/IH33408_1.jpg,300:600,,IH33408/IH33408_2.jpg,IH33408/IH33408_2.jpg,,,IH33408/IH33408_3.jpg,IH33408/IH33408_3.jpg,,,IH33408/IH33408_4.jpg,IH33408/IH33408_4.jpg,,,IH33408/IH33408_5.jpg,IH33408/IH33408_5.jpg,,,,,,,,,,,,,,0,1,IH33408,,1,,99999,29800,,0,,,,,,,,,,,,,,,"3,4,7,9",,"1706,1707,1715,1719,1724,1726,1728,1730,1711,1727",,"6,5,4,3,2,1",2,,,
,,,,1,IH33414（ブラウン）,2,,"厚地カーテン,モダン,遮光,形状記憶付,2倍ヒダ,オーダー,洗える,裏地付,ブラウン,ボーダー,",,,,,裏地、形状記憶付2倍ヒダオーダーメイドカーテンです。,IH33414/IH33414_1.jpg,裏地、形状記憶付2倍ヒダオーダーメイドカーテン,IH33414/IH33414_1.jpg,IH33414/IH33414_1.jpg,,,IH33414/IH33414_1.jpg,IH33414/IH33414_1.jpg,300:600,,IH33414/IH33414_2.jpg,IH33414/IH33414_2.jpg,,,IH33414/IH33414_3.jpg,IH33414/IH33414_3.jpg,,,IH33414/IH33414_4.jpg,IH33414/IH33414_4.jpg,,,IH33414/IH33414_5.jpg,IH33414/IH33414_5.jpg,,,,,,,,,,,,,,0,1,IH33414,,1,,99999,29800,,0,,,,,,,,,,,,,,,"3,4,7,9",,"1706,1707,1715,1719,1724,1726,1728,1730,1711",,"6,5,4,3,2,1",2,,,
,,,,1,IH33415（グレー）,2,,"厚地カーテン,モダン,遮光,形状記憶付,2倍ヒダ,オーダー,洗える,裏地付,グレー,ボーダー,",,,,,裏地、形状記憶付2倍ヒダオーダーメイドカーテンです。,IH33415/IH33415_1.jpg,裏地、形状記憶付2倍ヒダオーダーメイドカーテン,IH33415/IH33415_1.jpg,IH33415/IH33415_1.jpg,,,IH33415/IH33415_1.jpg,IH33415/IH33415_1.jpg,300:600,,IH33415/IH33415_2.jpg,IH33415/IH33415_2.jpg,,,IH33415/IH33415_3.jpg,IH33415/IH33415_3.jpg,,,IH33415/IH33415_4.jpg,IH33415/IH33415_4.jpg,,,IH33415/IH33415_5.jpg,IH33415/IH33415_5.jpg,,,,,,,,,,,,,,0,1,IH33415,,1,,99999,29800,,0,,,,,,,,,,,,,,,"3,4,7,9",,"1706,1707,1715,1719,1724,1726,1728,1730,1711",,"6,5,4,3,2,1",2,,,
,,,,1,IH33419（グリーン）,2,,"厚地カーテン,クラシック,遮光,形状記憶付,2倍ヒダ,オーダー,洗える,裏地付,グリーン,クラシック,",,,,,裏地、形状記憶付2倍ヒダオーダーメイドカーテンです。,IH33419/IH33419_1.jpg,裏地、形状記憶付2倍ヒダオーダーメイドカーテン,IH33419/IH33419_1.jpg,IH33419/IH33419_1.jpg,,,IH33419/IH33419_1.jpg,IH33419/IH33419_1.jpg,300:600,,IH33419/IH33419_2.jpg,IH33419/IH33419_2.jpg,,,IH33419/IH33419_3.jpg,IH33419/IH33419_3.jpg,,,IH33419/IH33419_4.jpg,IH33419/IH33419_4.jpg,,,IH33419/IH33419_5.jpg,IH33419/IH33419_5.jpg,,,,,,,,,,,,,,0,1,IH33419,,1,,99999,29800,,0,,,,,,,,,,,,,,,"3,4,7,9",,"1706,1707,1715,1719,1724,1726,1728,1730,1711,1727",,"6,5,4,3,2,1",2,,,
,,,,1,IH33423（ローズ）,2,,"厚地カーテン,エレガンス,遮光,形状記憶付,2倍ヒダ,オーダー,洗える,裏地付,レッド,クラシック,",,,,,裏地、形状記憶付2倍ヒダオーダーメイドカーテンです。,IH33423/IH33423_1.jpg,裏地、形状記憶付2倍ヒダオーダーメイドカーテン,IH33423/IH33423_1.jpg,IH33423/IH33423_1.jpg,,,IH33423/IH33423_1.jpg,IH33423/IH33423_1.jpg,300:600,,IH33423/IH33423_2.jpg,IH33423/IH33423_2.jpg,,,IH33423/IH33423_3.jpg,IH33423/IH33423_3.jpg,,,IH33423/IH33423_4.jpg,IH33423/IH33423_4.jpg,,,IH33423/IH33423_5.jpg,IH33423/IH33423_5.jpg,,,,,,,,,,,,,,0,1,IH33423,,1,,99999,29800,,0,,,,,,,,,,,,,,,"3,4,7,9",,"1706,1707,1715,1719,1724,1726,1728,1730,1711,1727",,"6,5,4,3,2,1",2,,,
,,,,1,IH33432（グリーン）,2,,"厚地カーテン,クラシック,遮光,形状記憶付,2倍ヒダ,オーダー,洗える,裏地付,グリーン,クラシック,",,,,,裏地、形状記憶付2倍ヒダオーダーメイドカーテンです。,IH33432/IH33432_1.jpg,裏地、形状記憶付2倍ヒダオーダーメイドカーテン,IH33432/IH33432_1.jpg,IH33432/IH33432_1.jpg,,,IH33432/IH33432_1.jpg,IH33432/IH33432_1.jpg,300:600,,IH33432/IH33432_2.jpg,IH33432/IH33432_2.jpg,,,IH33432/IH33432_3.jpg,IH33432/IH33432_3.jpg,,,IH33432/IH33432_4.jpg,IH33432/IH33432_4.jpg,,,IH33432/IH33432_5.jpg,IH33432/IH33432_5.jpg,,,,,,,,,,,,,,0,1,IH33432,,1,,99999,29800,,0,,,,,,,,,,,,,,,"3,4,7,9",,"1706,1707,1715,1719,1724,1726,1728,1730,1711,1727",,"6,5,4,3,2,1",2,,,
,,,,1,IH33433（アイボリー）,2,,"厚地カーテン,アイボリー,クラシック,遮光,形状記憶付,2倍ヒダ,オーダー,洗える,裏地付,クラシック,",,,,,裏地、形状記憶付2倍ヒダオーダーメイドカーテンです。,IH33433/IH33433_1.jpg,裏地、形状記憶付2倍ヒダオーダーメイドカーテン,IH33433/IH33433_1.jpg,IH33433/IH33433_1.jpg,,,IH33433/IH33433_1.jpg,IH33433/IH33433_1.jpg,300:600,,IH33433/IH33433_2.jpg,IH33433/IH33433_2.jpg,,,IH33433/IH33433_3.jpg,IH33433/IH33433_3.jpg,,,IH33433/IH33433_4.jpg,IH33433/IH33433_4.jpg,,,IH33433/IH33433_5.jpg,IH33433/IH33433_5.jpg,,,,,,,,,,,,,,0,1,IH33433,,1,,99999,29800,,0,,,,,,,,,,,,,,,"3,4,7,9",,"1706,1707,1715,1719,1724,1726,1728,1730,1711,1727",,"6,5,4,3,2,1",2,,,
,,,,1,IH33437（ワイン）,2,,"厚地カーテン,クラシック,遮光,形状記憶付,2倍ヒダ,オーダー,洗える,裏地付,ワイン,クラシック,",,,,,裏地、形状記憶付2倍ヒダオーダーメイドカーテンです。,IH33437/IH33437_1.jpg,裏地、形状記憶付2倍ヒダオーダーメイドカーテン,IH33437/IH33437_1.jpg,IH33437/IH33437_1.jpg,,,IH33437/IH33437_1.jpg,IH33437/IH33437_1.jpg,300:600,,IH33437/IH33437_2.jpg,IH33437/IH33437_2.jpg,,,IH33437/IH33437_3.jpg,IH33437/IH33437_3.jpg,,,IH33437/IH33437_4.jpg,IH33437/IH33437_4.jpg,,,IH33437/IH33437_5.jpg,IH33437/IH33437_5.jpg,,,,,,,,,,,,,,0,1,IH33437,,1,,99999,29800,,0,,,,,,,,,,,,,,,"3,4,7,9",,"1706,1707,1715,1719,1724,1726,1728,1730,1711,1727",,"6,5,4,3,2,1",2,,,
,,,,1,IH33438（ベージュ）,2,,"厚地カーテン,クラシック,遮光,形状記憶付,2倍ヒダ,オーダー,洗える,裏地付,ベージュ,クラシック,",,,,,裏地、形状記憶付2倍ヒダオーダーメイドカーテンです。,IH33438/IH33438_1.jpg,裏地、形状記憶付2倍ヒダオーダーメイドカーテン,IH33438/IH33438_1.jpg,IH33438/IH33438_1.jpg,,,IH33438/IH33438_1.jpg,IH33438/IH33438_1.jpg,300:600,,IH33438/IH33438_2.jpg,IH33438/IH33438_2.jpg,,,IH33438/IH33438_3.jpg,IH33438/IH33438_3.jpg,,,IH33438/IH33438_4.jpg,IH33438/IH33438_4.jpg,,,IH33438/IH33438_5.jpg,IH33438/IH33438_5.jpg,,,,,,,,,,,,,,0,1,IH33438,,1,,99999,29800,,0,,,,,,,,,,,,,,,"3,4,7,9",,"1706,1707,1715,1719,1724,1726,1728,1730,1711,1727",,"6,5,4,3,2,1",2,,,
,,,,1,IH33447（ブラウン）,2,,"厚地カーテン,クラシック,遮光,形状記憶付,2倍ヒダ,オーダー,洗える,裏地付,ブラウン,クラシック,",,,,,裏地、形状記憶付2倍ヒダオーダーメイドカーテンです。,IH33447/IH33447_1.jpg,裏地、形状記憶付2倍ヒダオーダーメイドカーテン,IH33447/IH33447_1.jpg,IH33447/IH33447_1.jpg,,,IH33447/IH33447_1.jpg,IH33447/IH33447_1.jpg,300:600,,IH33447/IH33447_2.jpg,IH33447/IH33447_2.jpg,,,IH33447/IH33447_3.jpg,IH33447/IH33447_3.jpg,,,IH33447/IH33447_4.jpg,IH33447/IH33447_4.jpg,,,IH33447/IH33447_5.jpg,IH33447/IH33447_5.jpg,,,,,,,,,,,,,,0,1,IH33447,,1,,99999,29800,,0,,,,,,,,,,,,,,,"3,4,7,9",,"1706,1707,1715,1719,1724,1726,1728,1730,1711,1727",,"6,5,4,3,2,1",2,,,
,,,,1,IH33457（ピンク）,2,,"厚地カーテン,エレガンス,遮光,形状記憶付,2倍ヒダ,オーダー,洗える,裏地付,ピンク,クラシック,",,,,,裏地、形状記憶付2倍ヒダオーダーメイドカーテンです。,IH33457/IH33457_1.jpg,裏地、形状記憶付2倍ヒダオーダーメイドカーテン,IH33457/IH33457_1.jpg,IH33457/IH33457_1.jpg,,,IH33457/IH33457_1.jpg,IH33457/IH33457_1.jpg,300:600,,IH33457/IH33457_2.jpg,IH33457/IH33457_2.jpg,,,IH33457/IH33457_3.jpg,IH33457/IH33457_3.jpg,,,IH33457/IH33457_4.jpg,IH33457/IH33457_4.jpg,,,IH33457/IH33457_5.jpg,IH33457/IH33457_5.jpg,,,,,,,,,,,,,,0,1,IH33457,,1,,99999,29800,,0,,,,,,,,,,,,,,,"3,4,7,9",,"1706,1707,1715,1719,1724,1726,1728,1730,1711,1727",,"6,5,4,3,2,1",2,,,
,,,,1,IH33458（グリーン）,2,,"厚地カーテン,クラシック,遮光,形状記憶付,2倍ヒダ,オーダー,洗える,裏地付,グリーン,クラシック,",,,,,裏地、形状記憶付2倍ヒダオーダーメイドカーテンです。,IH33458/IH33458_1.jpg,裏地、形状記憶付2倍ヒダオーダーメイドカーテン,IH33458/IH33458_1.jpg,IH33458/IH33458_1.jpg,,,IH33458/IH33458_1.jpg,IH33458/IH33458_1.jpg,300:600,,IH33458/IH33458_2.jpg,IH33458/IH33458_2.jpg,,,IH33458/IH33458_3.jpg,IH33458/IH33458_3.jpg,,,IH33458/IH33458_4.jpg,IH33458/IH33458_4.jpg,,,IH33458/IH33458_5.jpg,IH33458/IH33458_5.jpg,,,,,,,,,,,,,,0,1,IH33458,,1,,99999,29800,,0,,,,,,,,,,,,,,,"3,4,7,9",,"1706,1707,1715,1719,1724,1726,1728,1730,1711,1727",,"6,5,4,3,2,1",2,,,
,,,,1,IH33460（アイボリー）,2,,"厚地カーテン,アイボリー,モダン,遮光,形状記憶付,2倍ヒダ,オーダー,洗える,裏地付,ボーダー,",,,,,裏地、形状記憶付2倍ヒダオーダーメイドカーテンです。,IH33460/IH33460_1.jpg,裏地、形状記憶付2倍ヒダオーダーメイドカーテン,IH33460/IH33460_1.jpg,IH33460/IH33460_1.jpg,,,IH33460/IH33460_1.jpg,IH33460/IH33460_1.jpg,300:600,,IH33460/IH33460_2.jpg,IH33460/IH33460_2.jpg,,,IH33460/IH33460_3.jpg,IH33460/IH33460_3.jpg,,,IH33460/IH33460_4.jpg,IH33460/IH33460_4.jpg,,,IH33460/IH33460_5.jpg,IH33460/IH33460_5.jpg,,,,,,,,,,,,,,0,1,IH33460,,1,,99999,29800,,0,,,,,,,,,,,,,,,"3,4,7,9",,"1706,1707,1715,1719,1724,1726,1728,1730,1711",,"6,5,4,3,2,1",2,,,
,,,,1,IH33473（ブラウン）,2,,"厚地カーテン,モダン,遮光,形状記憶付,2倍ヒダ,オーダー,洗える,裏地付,ブラウン,幾何,",,,,,裏地、形状記憶付2倍ヒダオーダーメイドカーテンです。,IH33473/IH33473_1.jpg,裏地、形状記憶付2倍ヒダオーダーメイドカーテン,IH33473/IH33473_1.jpg,IH33473/IH33473_1.jpg,,,IH33473/IH33473_1.jpg,IH33473/IH33473_1.jpg,300:600,,IH33473/IH33473_2.jpg,IH33473/IH33473_2.jpg,,,IH33473/IH33473_3.jpg,IH33473/IH33473_3.jpg,,,IH33473/IH33473_4.jpg,IH33473/IH33473_4.jpg,,,IH33473/IH33473_5.jpg,IH33473/IH33473_5.jpg,,,,,,,,,,,,,,0,1,IH33473,,1,,99999,29800,,0,,,,,,,,,,,,,,,"3,4,7,9",,"1706,1707,1715,1719,1724,1726,1728,1730,1710",,"6,5,4,3,2,1",2,,,
,,,,1,IH33474（グレー）,2,,"厚地カーテン,モダン,遮光,形状記憶付,2倍ヒダ,オーダー,洗える,裏地付,グレー,幾何,",,,,,裏地、形状記憶付2倍ヒダオーダーメイドカーテンです。,IH33474/IH33474_1.jpg,裏地、形状記憶付2倍ヒダオーダーメイドカーテン,IH33474/IH33474_1.jpg,IH33474/IH33474_1.jpg,,,IH33474/IH33474_1.jpg,IH33474/IH33474_1.jpg,300:600,,IH33474/IH33474_2.jpg,IH33474/IH33474_2.jpg,,,IH33474/IH33474_3.jpg,IH33474/IH33474_3.jpg,,,IH33474/IH33474_4.jpg,IH33474/IH33474_4.jpg,,,IH33474/IH33474_5.jpg,IH33474/IH33474_5.jpg,,,,,,,,,,,,,,0,1,IH33474,,1,,99999,29800,,0,,,,,,,,,,,,,,,"3,4,7,9",,"1706,1707,1715,1719,1724,1726,1728,1730,1710",,"6,5,4,3,2,1",2,,,
,,,,1,IH33475（ベージュ）,2,,"厚地カーテン,モダン,遮光,形状記憶付,2倍ヒダ,オーダー,洗える,裏地付,ベージュ,幾何,",,,,,裏地、形状記憶付2倍ヒダオーダーメイドカーテンです。,IH33475/IH33475_1.jpg,裏地、形状記憶付2倍ヒダオーダーメイドカーテン,IH33475/IH33475_1.jpg,IH33475/IH33475_1.jpg,,,IH33475/IH33475_1.jpg,IH33475/IH33475_1.jpg,300:600,,IH33475/IH33475_2.jpg,IH33475/IH33475_2.jpg,,,IH33475/IH33475_3.jpg,IH33475/IH33475_3.jpg,,,IH33475/IH33475_4.jpg,IH33475/IH33475_4.jpg,,,IH33475/IH33475_5.jpg,IH33475/IH33475_5.jpg,,,,,,,,,,,,,,0,1,IH33475,,1,,99999,29800,,0,,,,,,,,,,,,,,,"3,4,7,9",,"1706,1707,1715,1719,1724,1726,1728,1730,1710",,"6,5,4,3,2,1",2,,,
,,,,1,IH33476（ブラウン）,2,,"厚地カーテン,モダン,遮光,形状記憶付,2倍ヒダ,オーダー,洗える,裏地付,ブラウン,幾何,",,,,,裏地、形状記憶付2倍ヒダオーダーメイドカーテンです。,IH33476/IH33476_1.jpg,裏地、形状記憶付2倍ヒダオーダーメイドカーテン,IH33476/IH33476_1.jpg,IH33476/IH33476_1.jpg,,,IH33476/IH33476_1.jpg,IH33476/IH33476_1.jpg,300:600,,IH33476/IH33476_2.jpg,IH33476/IH33476_2.jpg,,,IH33476/IH33476_3.jpg,IH33476/IH33476_3.jpg,,,IH33476/IH33476_4.jpg,IH33476/IH33476_4.jpg,,,IH33476/IH33476_5.jpg,IH33476/IH33476_5.jpg,,,,,,,,,,,,,,0,1,IH33476,,1,,99999,29800,,0,,,,,,,,,,,,,,,"3,4,7,9",,"1706,1707,1715,1719,1724,1726,1728,1730,1710",,"6,5,4,3,2,1",2,,,
,,,,1,IH33481（グリーン）,2,,"厚地カーテン,クラシック,遮光,形状記憶付,2倍ヒダ,オーダー,洗える,裏地付,グリーン,クラシック,",,,,,裏地、形状記憶付2倍ヒダオーダーメイドカーテンです。,IH33481/IH33481_1.jpg,裏地、形状記憶付2倍ヒダオーダーメイドカーテン,IH33481/IH33481_1.jpg,IH33481/IH33481_1.jpg,,,IH33481/IH33481_1.jpg,IH33481/IH33481_1.jpg,300:600,,IH33481/IH33481_2.jpg,IH33481/IH33481_2.jpg,,,IH33481/IH33481_3.jpg,IH33481/IH33481_3.jpg,,,IH33481/IH33481_4.jpg,IH33481/IH33481_4.jpg,,,IH33481/IH33481_5.jpg,IH33481/IH33481_5.jpg,,,,,,,,,,,,,,0,1,IH33481,,1,,99999,29800,,0,,,,,,,,,,,,,,,"3,4,7,9",,"1706,1707,1715,1719,1724,1726,1728,1730,1711,1727",,"6,5,4,3,2,1",2,,,
,,,,1,IH33482（ブラウン）,2,,"厚地カーテン,クラシック,遮光,形状記憶付,2倍ヒダ,オーダー,洗える,裏地付,ブラウン,クラシック,",,,,,裏地、形状記憶付2倍ヒダオーダーメイドカーテンです。,IH33482/IH33482_1.jpg,裏地、形状記憶付2倍ヒダオーダーメイドカーテン,IH33482/IH33482_1.jpg,IH33482/IH33482_1.jpg,,,IH33482/IH33482_1.jpg,IH33482/IH33482_1.jpg,300:600,,IH33482/IH33482_2.jpg,IH33482/IH33482_2.jpg,,,IH33482/IH33482_3.jpg,IH33482/IH33482_3.jpg,,,IH33482/IH33482_4.jpg,IH33482/IH33482_4.jpg,,,IH33482/IH33482_5.jpg,IH33482/IH33482_5.jpg,,,,,,,,,,,,,,0,1,IH33482,,1,,99999,29800,,0,,,,,,,,,,,,,,,"3,4,7,9",,"1706,1707,1715,1719,1724,1726,1728,1730,1711,1727",,"6,5,4,3,2,1",2,,,
,,,,1,IH33483（ピンク）,2,,"厚地カーテン,エレガンス,遮光,形状記憶付,2倍ヒダ,オーダー,洗える,裏地付,ピンク,クラシック,",,,,,裏地、形状記憶付2倍ヒダオーダーメイドカーテンです。,IH33483/IH33483_1.jpg,裏地、形状記憶付2倍ヒダオーダーメイドカーテン,IH33483/IH33483_1.jpg,IH33483/IH33483_1.jpg,,,IH33483/IH33483_1.jpg,IH33483/IH33483_1.jpg,300:600,,IH33483/IH33483_2.jpg,IH33483/IH33483_2.jpg,,,IH33483/IH33483_3.jpg,IH33483/IH33483_3.jpg,,,IH33483/IH33483_4.jpg,IH33483/IH33483_4.jpg,,,IH33483/IH33483_5.jpg,IH33483/IH33483_5.jpg,,,,,,,,,,,,,,0,1,IH33483,,1,,99999,29800,,0,,,,,,,,,,,,,,,"3,4,7,9",,"1706,1707,1715,1719,1724,1726,1728,1730,1711,1727",,"6,5,4,3,2,1",2,,,
,,,,1,IH33484（アイボリー）,2,,"厚地カーテン,アイボリー,クラシック,遮光,形状記憶付,2倍ヒダ,オーダー,洗える,裏地付,クラシック,",,,,,裏地、形状記憶付2倍ヒダオーダーメイドカーテンです。,IH33484/IH33484_1.jpg,裏地、形状記憶付2倍ヒダオーダーメイドカーテン,IH33484/IH33484_1.jpg,IH33484/IH33484_1.jpg,,,IH33484/IH33484_1.jpg,IH33484/IH33484_1.jpg,300:600,,IH33484/IH33484_2.jpg,IH33484/IH33484_2.jpg,,,IH33484/IH33484_3.jpg,IH33484/IH33484_3.jpg,,,IH33484/IH33484_4.jpg,IH33484/IH33484_4.jpg,,,IH33484/IH33484_5.jpg,IH33484/IH33484_5.jpg,,,,,,,,,,,,,,0,1,IH33484,,1,,99999,29800,,0,,,,,,,,,,,,,,,"3,4,7,9",,"1706,1707,1715,1719,1724,1726,1728,1730,1711,1727",,"6,5,4,3,2,1",2,,,
,,,,1,IH33485（アイボリー）,2,,"厚地カーテン,アイボリー,クラシック,遮光,形状記憶付,2倍ヒダ,オーダー,洗える,裏地付,フラワー,花柄,",,,,,裏地、形状記憶付2倍ヒダオーダーメイドカーテンです。,IH33485/IH33485_1.jpg,裏地、形状記憶付2倍ヒダオーダーメイドカーテン,IH33485/IH33485_1.jpg,IH33485/IH33485_1.jpg,,,IH33485/IH33485_1.jpg,IH33485/IH33485_1.jpg,300:600,,IH33485/IH33485_2.jpg,IH33485/IH33485_2.jpg,,,IH33485/IH33485_3.jpg,IH33485/IH33485_3.jpg,,,IH33485/IH33485_4.jpg,IH33485/IH33485_4.jpg,,,IH33485/IH33485_5.jpg,IH33485/IH33485_5.jpg,,,,,,,,,,,,,,0,1,IH33485,,1,,99999,29800,,0,,,,,,,,,,,,,,,"3,4,7,9",,"1706,1707,1715,1719,1724,1726,1728,1730,1711,1727",,"6,5,4,3,2,1",2,,,
,,,,1,IH33486（ダークグレー）,2,,"厚地カーテン,クラシック,遮光,形状記憶付,2倍ヒダ,オーダー,洗える,裏地付,グレー,フラワー,花柄,",,,,,裏地、形状記憶付2倍ヒダオーダーメイドカーテンです。,IH33486/IH33486_1.jpg,裏地、形状記憶付2倍ヒダオーダーメイドカーテン,IH33486/IH33486_1.jpg,IH33486/IH33486_1.jpg,,,IH33486/IH33486_1.jpg,IH33486/IH33486_1.jpg,300:600,,IH33486/IH33486_2.jpg,IH33486/IH33486_2.jpg,,,IH33486/IH33486_3.jpg,IH33486/IH33486_3.jpg,,,IH33486/IH33486_4.jpg,IH33486/IH33486_4.jpg,,,IH33486/IH33486_5.jpg,IH33486/IH33486_5.jpg,,,,,,,,,,,,,,0,1,IH33486,,1,,99999,29800,,0,,,,,,,,,,,,,,,"3,4,7,9",,"1706,1707,1715,1719,1724,1726,1728,1730,1711,1727",,"6,5,4,3,2,1",2,,,
,,,,1,IH33493（オレンジ）,2,,"厚地カーテン,エレガンス,遮光,形状記憶付,2倍ヒダ,オーダー,洗える,裏地付,オレンジ,クラシック,",,,,,裏地、形状記憶付2倍ヒダオーダーメイドカーテンです。,IH33493/IH33493_1.jpg,裏地、形状記憶付2倍ヒダオーダーメイドカーテン,IH33493/IH33493_1.jpg,IH33493/IH33493_1.jpg,,,IH33493/IH33493_1.jpg,IH33493/IH33493_1.jpg,300:600,,IH33493/IH33493_2.jpg,IH33493/IH33493_2.jpg,,,IH33493/IH33493_3.jpg,IH33493/IH33493_3.jpg,,,IH33493/IH33493_4.jpg,IH33493/IH33493_4.jpg,,,IH33493/IH33493_5.jpg,IH33493/IH33493_5.jpg,,,,,,,,,,,,,,0,1,IH33493,,1,,99999,29800,,0,,,,,,,,,,,,,,,"3,4,7,9",,"1706,1707,1715,1719,1724,1726,1728,1730,1711,1727",,"6,5,4,3,2,1",2,,,
,,,,1,IH33494（ベージュ）,2,,"厚地カーテン,エレガンス,遮光,形状記憶付,2倍ヒダ,オーダー,洗える,裏地付,ベージュ,クラシック,",,,,,裏地、形状記憶付2倍ヒダオーダーメイドカーテンです。,IH33494/IH33494_1.jpg,裏地、形状記憶付2倍ヒダオーダーメイドカーテン,IH33494/IH33494_1.jpg,IH33494/IH33494_1.jpg,,,IH33494/IH33494_1.jpg,IH33494/IH33494_1.jpg,300:600,,IH33494/IH33494_2.jpg,IH33494/IH33494_2.jpg,,,IH33494/IH33494_3.jpg,IH33494/IH33494_3.jpg,,,IH33494/IH33494_4.jpg,IH33494/IH33494_4.jpg,,,IH33494/IH33494_5.jpg,IH33494/IH33494_5.jpg,,,,,,,,,,,,,,0,1,IH33494,,1,,99999,29800,,0,,,,,,,,,,,,,,,"3,4,7,9",,"1706,1707,1715,1719,1724,1726,1728,1730,1711,1727",,"6,5,4,3,2,1",2,,,
,,,,1,IH33495（ベージュ）,2,,"厚地カーテン,エレガンス,遮光,形状記憶付,2倍ヒダ,オーダー,洗える,裏地付,ベージュ,ボーダー,",,,,,裏地、形状記憶付2倍ヒダオーダーメイドカーテンです。,IH33495/IH33495_1.jpg,裏地、形状記憶付2倍ヒダオーダーメイドカーテン,IH33495/IH33495_1.jpg,IH33495/IH33495_1.jpg,,,IH33495/IH33495_1.jpg,IH33495/IH33495_1.jpg,300:600,,IH33495/IH33495_2.jpg,IH33495/IH33495_2.jpg,,,IH33495/IH33495_3.jpg,IH33495/IH33495_3.jpg,,,IH33495/IH33495_4.jpg,IH33495/IH33495_4.jpg,,,IH33495/IH33495_5.jpg,IH33495/IH33495_5.jpg,,,,,,,,,,,,,,0,1,IH33495,,1,,99999,29800,,0,,,,,,,,,,,,,,,"3,4,7,9",,"1706,1707,1715,1719,1724,1726,1728,1730,1711",,"6,5,4,3,2,1",2,,,
,,,,1,IH33496（ブルー）,2,,"厚地カーテン,エレガンス,遮光,形状記憶付,2倍ヒダ,オーダー,洗える,裏地付,ブルー,ボーダー,",,,,,裏地、形状記憶付2倍ヒダオーダーメイドカーテンです。,IH33496/IH33496_1.jpg,裏地、形状記憶付2倍ヒダオーダーメイドカーテン,IH33496/IH33496_1.jpg,IH33496/IH33496_1.jpg,,,IH33496/IH33496_1.jpg,IH33496/IH33496_1.jpg,300:600,,IH33496/IH33496_2.jpg,IH33496/IH33496_2.jpg,,,IH33496/IH33496_3.jpg,IH33496/IH33496_3.jpg,,,IH33496/IH33496_4.jpg,IH33496/IH33496_4.jpg,,,IH33496/IH33496_5.jpg,IH33496/IH33496_5.jpg,,,,,,,,,,,,,,0,1,IH33496,,1,,99999,29800,,0,,,,,,,,,,,,,,,"3,4,7,9",,"1706,1707,1715,1719,1724,1726,1728,1730,1711",,"6,5,4,3,2,1",2,,,
,,,,1,IH33497（アイボリー）,2,,"厚地カーテン,アイボリー,モダン,遮光,形状記憶付,2倍ヒダ,オーダー,洗える,裏地付,フラワー,花柄,",,,,,裏地、形状記憶付2倍ヒダオーダーメイドカーテンです。,IH33497/IH33497_1.jpg,裏地、形状記憶付2倍ヒダオーダーメイドカーテン,IH33497/IH33497_1.jpg,IH33497/IH33497_1.jpg,,,IH33497/IH33497_1.jpg,IH33497/IH33497_1.jpg,300:600,,IH33497/IH33497_2.jpg,IH33497/IH33497_2.jpg,,,IH33497/IH33497_3.jpg,IH33497/IH33497_3.jpg,,,IH33497/IH33497_4.jpg,IH33497/IH33497_4.jpg,,,IH33497/IH33497_5.jpg,IH33497/IH33497_5.jpg,,,,,,,,,,,,,,0,1,IH33497,,1,,99999,29800,,0,,,,,,,,,,,,,,,"3,4,7,9",,"1706,1707,1715,1719,1724,1726,1728,1730,1711,1727",,"6,5,4,3,2,1",2,,,
,,,,1,IH33498（ブラウン）,2,,"厚地カーテン,モダン,遮光,形状記憶付,2倍ヒダ,オーダー,洗える,裏地付,ブラウン,フラワー,花柄,",,,,,裏地、形状記憶付2倍ヒダオーダーメイドカーテンです。,IH33498/IH33498_1.jpg,裏地、形状記憶付2倍ヒダオーダーメイドカーテン,IH33498/IH33498_1.jpg,IH33498/IH33498_1.jpg,,,IH33498/IH33498_1.jpg,IH33498/IH33498_1.jpg,300:600,,IH33498/IH33498_2.jpg,IH33498/IH33498_2.jpg,,,IH33498/IH33498_3.jpg,IH33498/IH33498_3.jpg,,,IH33498/IH33498_4.jpg,IH33498/IH33498_4.jpg,,,IH33498/IH33498_5.jpg,IH33498/IH33498_5.jpg,,,,,,,,,,,,,,0,1,IH33498,,1,,99999,29800,,0,,,,,,,,,,,,,,,"3,4,7,9",,"1706,1707,1715,1719,1724,1726,1728,1730,1711,1727",,"6,5,4,3,2,1",2,,,
,,,,1,IH33499（ベージュ）,2,,"厚地カーテン,エレガンス,遮光,形状記憶付,2倍ヒダ,オーダー,洗える,裏地付,ベージュ,リーフ,",,,,,裏地、形状記憶付2倍ヒダオーダーメイドカーテンです。,IH33499/IH33499_1.jpg,裏地、形状記憶付2倍ヒダオーダーメイドカーテン,IH33499/IH33499_1.jpg,IH33499/IH33499_1.jpg,,,IH33499/IH33499_1.jpg,IH33499/IH33499_1.jpg,300:600,,IH33499/IH33499_2.jpg,IH33499/IH33499_2.jpg,,,IH33499/IH33499_3.jpg,IH33499/IH33499_3.jpg,,,IH33499/IH33499_4.jpg,IH33499/IH33499_4.jpg,,,IH33499/IH33499_5.jpg,IH33499/IH33499_5.jpg,,,,,,,,,,,,,,0,1,IH33499,,1,,99999,29800,,0,,,,,,,,,,,,,,,"3,4,7,9",,"1706,1707,1715,1719,1724,1726,1728,1730,1711",,"6,5,4,3,2,1",2,,,
,,,,1,IH34401（グリーン）,2,,"厚地カーテン,エレガンス,遮光,形状記憶付,2倍ヒダ,オーダー,洗える,裏地付,グリーン,リーフ,",,,,,裏地、形状記憶付2倍ヒダオーダーメイドカーテンです。,IH34401/IH34401_1.jpg,裏地、形状記憶付2倍ヒダオーダーメイドカーテン,IH34401/IH34401_1.jpg,IH34401/IH34401_1.jpg,,,IH34401/IH34401_1.jpg,IH34401/IH34401_1.jpg,300:600,,IH34401/IH34401_2.jpg,IH34401/IH34401_2.jpg,,,IH34401/IH34401_3.jpg,IH34401/IH34401_3.jpg,,,IH34401/IH34401_4.jpg,IH34401/IH34401_4.jpg,,,IH34401/IH34401_5.jpg,IH34401/IH34401_5.jpg,,,,,,,,,,,,,,0,1,IH34401,,1,,99999,29800,,0,,,,,,,,,,,,,,,"3,4,7,9",,"1706,1707,1715,1719,1724,1726,1728,1730,1711",,"6,5,4,3,2,1",2,,,
,,,,1,IH34402（アイボリー）,2,,"厚地カーテン,アイボリー,モダン,遮光,形状記憶付,2倍ヒダ,オーダー,洗える,裏地付,幾何,",,,,,裏地、形状記憶付2倍ヒダオーダーメイドカーテンです。,IH34402/IH34402_1.jpg,裏地、形状記憶付2倍ヒダオーダーメイドカーテン,IH34402/IH34402_1.jpg,IH34402/IH34402_1.jpg,,,IH34402/IH34402_1.jpg,IH34402/IH34402_1.jpg,300:600,,IH34402/IH34402_2.jpg,IH34402/IH34402_2.jpg,,,IH34402/IH34402_3.jpg,IH34402/IH34402_3.jpg,,,IH34402/IH34402_4.jpg,IH34402/IH34402_4.jpg,,,IH34402/IH34402_5.jpg,IH34402/IH34402_5.jpg,,,,,,,,,,,,,,0,1,IH34402,,1,,99999,29800,,0,,,,,,,,,,,,,,,"3,4,7,9",,"1706,1707,1715,1719,1724,1726,1728,1730,1710",,"6,5,4,3,2,1",2,,,
,,,,1,IH34403（グレー）,2,,"厚地カーテン,モダン,遮光,形状記憶付,2倍ヒダ,オーダー,洗える,裏地付,グレー,幾何,",,,,,裏地、形状記憶付2倍ヒダオーダーメイドカーテンです。,IH34403/IH34403_1.jpg,裏地、形状記憶付2倍ヒダオーダーメイドカーテン,IH34403/IH34403_1.jpg,IH34403/IH34403_1.jpg,,,IH34403/IH34403_1.jpg,IH34403/IH34403_1.jpg,300:600,,IH34403/IH34403_2.jpg,IH34403/IH34403_2.jpg,,,IH34403/IH34403_3.jpg,IH34403/IH34403_3.jpg,,,IH34403/IH34403_4.jpg,IH34403/IH34403_4.jpg,,,IH34403/IH34403_5.jpg,IH34403/IH34403_5.jpg,,,,,,,,,,,,,,0,1,IH34403,,1,,99999,29800,,0,,,,,,,,,,,,,,,"3,4,7,9",,"1706,1707,1715,1719,1724,1726,1728,1730,1710",,"6,5,4,3,2,1",2,,,
,,,,1,IH34404（アイボリー）,2,,"厚地カーテン,アイボリー,クラシック,遮光,形状記憶付,2倍ヒダ,オーダー,洗える,裏地付,クラシック,",,,,,裏地、形状記憶付2倍ヒダオーダーメイドカーテンです。,IH34404/IH34404_1.jpg,裏地、形状記憶付2倍ヒダオーダーメイドカーテン,IH34404/IH34404_1.jpg,IH34404/IH34404_1.jpg,,,IH34404/IH34404_1.jpg,IH34404/IH34404_1.jpg,300:600,,IH34404/IH34404_2.jpg,IH34404/IH34404_2.jpg,,,IH34404/IH34404_3.jpg,IH34404/IH34404_3.jpg,,,IH34404/IH34404_4.jpg,IH34404/IH34404_4.jpg,,,IH34404/IH34404_5.jpg,IH34404/IH34404_5.jpg,,,,,,,,,,,,,,0,1,IH34404,,1,,99999,29800,,0,,,,,,,,,,,,,,,"3,4,7,9",,"1706,1707,1715,1719,1724,1726,1728,1730,1711,1727",,"6,5,4,3,2,1",2,,,
,,,,1,IH34405（グレー）,2,,"厚地カーテン,クラシック,遮光,形状記憶付,2倍ヒダ,オーダー,洗える,裏地付,グレー,クラシック,",,,,,裏地、形状記憶付2倍ヒダオーダーメイドカーテンです。,IH34405/IH34405_1.jpg,裏地、形状記憶付2倍ヒダオーダーメイドカーテン,IH34405/IH34405_1.jpg,IH34405/IH34405_1.jpg,,,IH34405/IH34405_1.jpg,IH34405/IH34405_1.jpg,300:600,,IH34405/IH34405_2.jpg,IH34405/IH34405_2.jpg,,,IH34405/IH34405_3.jpg,IH34405/IH34405_3.jpg,,,IH34405/IH34405_4.jpg,IH34405/IH34405_4.jpg,,,IH34405/IH34405_5.jpg,IH34405/IH34405_5.jpg,,,,,,,,,,,,,,0,1,IH34405,,1,,99999,29800,,0,,,,,,,,,,,,,,,"3,4,7,9",,"1706,1707,1715,1719,1724,1726,1728,1730,1711,1727",,"6,5,4,3,2,1",2,,,
,,,,1,IH34406（ベージュ）,2,,"厚地カーテン,クラシック,遮光,形状記憶付,2倍ヒダ,オーダー,洗える,裏地付,ベージュ,クラシック,",,,,,裏地、形状記憶付2倍ヒダオーダーメイドカーテンです。,IH34406/IH34406_1.jpg,裏地、形状記憶付2倍ヒダオーダーメイドカーテン,IH34406/IH34406_1.jpg,IH34406/IH34406_1.jpg,,,IH34406/IH34406_1.jpg,IH34406/IH34406_1.jpg,300:600,,IH34406/IH34406_2.jpg,IH34406/IH34406_2.jpg,,,IH34406/IH34406_3.jpg,IH34406/IH34406_3.jpg,,,IH34406/IH34406_4.jpg,IH34406/IH34406_4.jpg,,,IH34406/IH34406_5.jpg,IH34406/IH34406_5.jpg,,,,,,,,,,,,,,0,1,IH34406,,1,,99999,29800,,0,,,,,,,,,,,,,,,"3,4,7,9",,"1706,1707,1715,1719,1724,1726,1728,1730,1711,1727",,"6,5,4,3,2,1",2,,,
,,,,1,IH34407（グリーン）,2,,"厚地カーテン,クラシック,遮光,形状記憶付,2倍ヒダ,オーダー,洗える,裏地付,グリーン,クラシック,",,,,,裏地、形状記憶付2倍ヒダオーダーメイドカーテンです。,IH34407/IH34407_1.jpg,裏地、形状記憶付2倍ヒダオーダーメイドカーテン,IH34407/IH34407_1.jpg,IH34407/IH34407_1.jpg,,,IH34407/IH34407_1.jpg,IH34407/IH34407_1.jpg,300:600,,IH34407/IH34407_2.jpg,IH34407/IH34407_2.jpg,,,IH34407/IH34407_3.jpg,IH34407/IH34407_3.jpg,,,IH34407/IH34407_4.jpg,IH34407/IH34407_4.jpg,,,IH34407/IH34407_5.jpg,IH34407/IH34407_5.jpg,,,,,,,,,,,,,,0,1,IH34407,,1,,99999,29800,,0,,,,,,,,,,,,,,,"3,4,7,9",,"1706,1707,1715,1719,1724,1726,1728,1730,1711,1727",,"6,5,4,3,2,1",2,,,
,,,,1,IH34408（グリーン）,2,,"厚地カーテン,エレガンス,遮光,形状記憶付,2倍ヒダ,オーダー,洗える,裏地付,グリーン,リーフ,",,,,,裏地、形状記憶付2倍ヒダオーダーメイドカーテンです。,IH34408/IH34408_1.jpg,裏地、形状記憶付2倍ヒダオーダーメイドカーテン,IH34408/IH34408_1.jpg,IH34408/IH34408_1.jpg,,,IH34408/IH34408_1.jpg,IH34408/IH34408_1.jpg,300:600,,IH34408/IH34408_2.jpg,IH34408/IH34408_2.jpg,,,IH34408/IH34408_3.jpg,IH34408/IH34408_3.jpg,,,IH34408/IH34408_4.jpg,IH34408/IH34408_4.jpg,,,IH34408/IH34408_5.jpg,IH34408/IH34408_5.jpg,,,,,,,,,,,,,,0,1,IH34408,,1,,99999,29800,,0,,,,,,,,,,,,,,,"3,4,7,9",,"1706,1707,1715,1719,1724,1726,1728,1730,1711",,"6,5,4,3,2,1",2,,,
,,,,1,IH34409（グレー）,2,,"厚地カーテン,エレガンス,遮光,形状記憶付,2倍ヒダ,オーダー,洗える,裏地付,グレー,リーフ,",,,,,裏地、形状記憶付2倍ヒダオーダーメイドカーテンです。,IH34409/IH34409_1.jpg,裏地、形状記憶付2倍ヒダオーダーメイドカーテン,IH34409/IH34409_1.jpg,IH34409/IH34409_1.jpg,,,IH34409/IH34409_1.jpg,IH34409/IH34409_1.jpg,300:600,,IH34409/IH34409_2.jpg,IH34409/IH34409_2.jpg,,,IH34409/IH34409_3.jpg,IH34409/IH34409_3.jpg,,,IH34409/IH34409_4.jpg,IH34409/IH34409_4.jpg,,,IH34409/IH34409_5.jpg,IH34409/IH34409_5.jpg,,,,,,,,,,,,,,0,1,IH34409,,1,,99999,29800,,0,,,,,,,,,,,,,,,"3,4,7,9",,"1706,1707,1715,1719,1724,1726,1728,1730,1711",,"6,5,4,3,2,1",2,,,
,,,,1,IH34410（アイボリー）,2,,"厚地カーテン,アイボリー,エレガンス,遮光,形状記憶付,2倍ヒダ,オーダー,洗える,裏地付,リーフ,",,,,,裏地、形状記憶付2倍ヒダオーダーメイドカーテンです。,IH34410/IH34410_1.jpg,裏地、形状記憶付2倍ヒダオーダーメイドカーテン,IH34410/IH34410_1.jpg,IH34410/IH34410_1.jpg,,,IH34410/IH34410_1.jpg,IH34410/IH34410_1.jpg,300:600,,IH34410/IH34410_2.jpg,IH34410/IH34410_2.jpg,,,IH34410/IH34410_3.jpg,IH34410/IH34410_3.jpg,,,IH34410/IH34410_4.jpg,IH34410/IH34410_4.jpg,,,IH34410/IH34410_5.jpg,IH34410/IH34410_5.jpg,,,,,,,,,,,,,,0,1,IH34410,,1,,99999,29800,,0,,,,,,,,,,,,,,,"3,4,7,9",,"1706,1707,1715,1719,1724,1726,1728,1730,1711",,"6,5,4,3,2,1",2,,,
,,,,1,IH34411（グリーン）,2,,"厚地カーテン,エレガンス,遮光,形状記憶付,2倍ヒダ,オーダー,洗える,裏地付,グリーン,リーフ,",,,,,裏地、形状記憶付2倍ヒダオーダーメイドカーテンです。,IH34411/IH34411_1.jpg,裏地、形状記憶付2倍ヒダオーダーメイドカーテン,IH34411/IH34411_1.jpg,IH34411/IH34411_1.jpg,,,IH34411/IH34411_1.jpg,IH34411/IH34411_1.jpg,300:600,,IH34411/IH34411_2.jpg,IH34411/IH34411_2.jpg,,,IH34411/IH34411_3.jpg,IH34411/IH34411_3.jpg,,,IH34411/IH34411_4.jpg,IH34411/IH34411_4.jpg,,,IH34411/IH34411_5.jpg,IH34411/IH34411_5.jpg,,,,,,,,,,,,,,0,1,IH34411,,1,,99999,29800,,0,,,,,,,,,,,,,,,"3,4,7,9",,"1706,1707,1715,1719,1724,1726,1728,1730,1711",,"6,5,4,3,2,1",2,,,
,,,,1,IH34412（ベージュ）,2,,"厚地カーテン,エレガンス,遮光,形状記憶付,2倍ヒダ,オーダー,洗える,裏地付,ベージュ,無地,",,,,,裏地、形状記憶付2倍ヒダオーダーメイドカーテンです。,IH34412/IH34412_1.jpg,裏地、形状記憶付2倍ヒダオーダーメイドカーテン,IH34412/IH34412_1.jpg,IH34412/IH34412_1.jpg,,,IH34412/IH34412_1.jpg,IH34412/IH34412_1.jpg,300:600,,IH34412/IH34412_2.jpg,IH34412/IH34412_2.jpg,,,IH34412/IH34412_3.jpg,IH34412/IH34412_3.jpg,,,IH34412/IH34412_4.jpg,IH34412/IH34412_4.jpg,,,IH34412/IH34412_5.jpg,IH34412/IH34412_5.jpg,,,,,,,,,,,,,,0,1,IH34412,,1,,99999,29800,,0,,,,,,,,,,,,,,,"3,4,7,9",,"1706,1707,1715,1719,1724,1726,1728,1730,1711",,"6,5,4,3,2,1",2,,,
,,,,1,IH34413（グリーン）,2,,"厚地カーテン,エレガンス,遮光,形状記憶付,2倍ヒダ,オーダー,洗える,裏地付,グリーン,無地,",,,,,裏地、形状記憶付2倍ヒダオーダーメイドカーテンです。,IH34413/IH34413_1.jpg,裏地、形状記憶付2倍ヒダオーダーメイドカーテン,IH34413/IH34413_1.jpg,IH34413/IH34413_1.jpg,,,IH34413/IH34413_1.jpg,IH34413/IH34413_1.jpg,300:600,,IH34413/IH34413_2.jpg,IH34413/IH34413_2.jpg,,,IH34413/IH34413_3.jpg,IH34413/IH34413_3.jpg,,,IH34413/IH34413_4.jpg,IH34413/IH34413_4.jpg,,,IH34413/IH34413_5.jpg,IH34413/IH34413_5.jpg,,,,,,,,,,,,,,0,1,IH34413,,1,,99999,29800,,0,,,,,,,,,,,,,,,"3,4,7,9",,"1706,1707,1715,1719,1724,1726,1728,1730,1711",,"6,5,4,3,2,1",2,,,
,,,,1,IH34414（ブルーグリーン）,2,,"厚地カーテン,エレガンス,遮光,形状記憶付,2倍ヒダ,オーダー,洗える,裏地付,ブルー,グリーン,無地,",,,,,裏地、形状記憶付2倍ヒダオーダーメイドカーテンです。,IH34414/IH34414_1.jpg,裏地、形状記憶付2倍ヒダオーダーメイドカーテン,IH34414/IH34414_1.jpg,IH34414/IH34414_1.jpg,,,IH34414/IH34414_1.jpg,IH34414/IH34414_1.jpg,300:600,,IH34414/IH34414_2.jpg,IH34414/IH34414_2.jpg,,,IH34414/IH34414_3.jpg,IH34414/IH34414_3.jpg,,,IH34414/IH34414_4.jpg,IH34414/IH34414_4.jpg,,,IH34414/IH34414_5.jpg,IH34414/IH34414_5.jpg,,,,,,,,,,,,,,0,1,IH34414,,1,,99999,29800,,0,,,,,,,,,,,,,,,"3,4,7,9",,"1706,1707,1715,1719,1724,1726,1728,1730,1711",,"6,5,4,3,2,1",2,,,
,,,,1,IH34415（パープル）,2,,"厚地カーテン,エレガンス,遮光,形状記憶付,2倍ヒダ,オーダー,洗える,裏地付,パープル,無地,",,,,,裏地、形状記憶付2倍ヒダオーダーメイドカーテンです。,IH34415/IH34415_1.jpg,裏地、形状記憶付2倍ヒダオーダーメイドカーテン,IH34415/IH34415_1.jpg,IH34415/IH34415_1.jpg,,,IH34415/IH34415_1.jpg,IH34415/IH34415_1.jpg,300:600,,IH34415/IH34415_2.jpg,IH34415/IH34415_2.jpg,,,IH34415/IH34415_3.jpg,IH34415/IH34415_3.jpg,,,IH34415/IH34415_4.jpg,IH34415/IH34415_4.jpg,,,IH34415/IH34415_5.jpg,IH34415/IH34415_5.jpg,,,,,,,,,,,,,,0,1,IH34415,,1,,99999,29800,,0,,,,,,,,,,,,,,,"3,4,7,9",,"1706,1707,1715,1719,1724,1726,1728,1730,1711",,"6,5,4,3,2,1",2,,,
,,,,1,IH34416（ブラウン）,2,,"厚地カーテン,エレガンス,遮光,形状記憶付,2倍ヒダ,オーダー,洗える,裏地付,ブラウン,無地,",,,,,裏地、形状記憶付2倍ヒダオーダーメイドカーテンです。,IH34416/IH34416_1.jpg,裏地、形状記憶付2倍ヒダオーダーメイドカーテン,IH34416/IH34416_1.jpg,IH34416/IH34416_1.jpg,,,IH34416/IH34416_1.jpg,IH34416/IH34416_1.jpg,300:600,,IH34416/IH34416_2.jpg,IH34416/IH34416_2.jpg,,,IH34416/IH34416_3.jpg,IH34416/IH34416_3.jpg,,,IH34416/IH34416_4.jpg,IH34416/IH34416_4.jpg,,,IH34416/IH34416_5.jpg,IH34416/IH34416_5.jpg,,,,,,,,,,,,,,0,1,IH34416,,1,,99999,29800,,0,,,,,,,,,,,,,,,"3,4,7,9",,"1706,1707,1715,1719,1724,1726,1728,1730,1711",,"6,5,4,3,2,1",2,,,
,,,,1,IH34417（ブルー）,2,,"厚地カーテン,モダン,遮光,形状記憶付,2倍ヒダ,オーダー,洗える,裏地付,ブルー,幾何,",,,,,裏地、形状記憶付2倍ヒダオーダーメイドカーテンです。,IH34417/IH34417_1.jpg,裏地、形状記憶付2倍ヒダオーダーメイドカーテン,IH34417/IH34417_1.jpg,IH34417/IH34417_1.jpg,,,IH34417/IH34417_1.jpg,IH34417/IH34417_1.jpg,300:600,,IH34417/IH34417_2.jpg,IH34417/IH34417_2.jpg,,,IH34417/IH34417_3.jpg,IH34417/IH34417_3.jpg,,,IH34417/IH34417_4.jpg,IH34417/IH34417_4.jpg,,,IH34417/IH34417_5.jpg,IH34417/IH34417_5.jpg,,,,,,,,,,,,,,0,1,IH34417,,1,,99999,29800,,0,,,,,,,,,,,,,,,"3,4,7,9",,"1706,1707,1715,1719,1724,1726,1728,1730,1710",,"6,5,4,3,2,1",2,,,
,,,,1,IH34418（グレー）,2,,"厚地カーテン,モダン,遮光,形状記憶付,2倍ヒダ,オーダー,洗える,裏地付,グレー,幾何,",,,,,裏地、形状記憶付2倍ヒダオーダーメイドカーテンです。,IH34418/IH34418_1.jpg,裏地、形状記憶付2倍ヒダオーダーメイドカーテン,IH34418/IH34418_1.jpg,IH34418/IH34418_1.jpg,,,IH34418/IH34418_1.jpg,IH34418/IH34418_1.jpg,300:600,,IH34418/IH34418_2.jpg,IH34418/IH34418_2.jpg,,,IH34418/IH34418_3.jpg,IH34418/IH34418_3.jpg,,,IH34418/IH34418_4.jpg,IH34418/IH34418_4.jpg,,,IH34418/IH34418_5.jpg,IH34418/IH34418_5.jpg,,,,,,,,,,,,,,0,1,IH34418,,1,,99999,29800,,0,,,,,,,,,,,,,,,"3,4,7,9",,"1706,1707,1715,1719,1724,1726,1728,1730,1710",,"6,5,4,3,2,1",2,,,
,,,,1,IH34419（ブルー）,2,,"厚地カーテン,モダン,遮光,形状記憶付,2倍ヒダ,オーダー,洗える,裏地付,ブルー,幾何,",,,,,裏地、形状記憶付2倍ヒダオーダーメイドカーテンです。,IH34419/IH34419_1.jpg,裏地、形状記憶付2倍ヒダオーダーメイドカーテン,IH34419/IH34419_1.jpg,IH34419/IH34419_1.jpg,,,IH34419/IH34419_1.jpg,IH34419/IH34419_1.jpg,300:600,,IH34419/IH34419_2.jpg,IH34419/IH34419_2.jpg,,,IH34419/IH34419_3.jpg,IH34419/IH34419_3.jpg,,,IH34419/IH34419_4.jpg,IH34419/IH34419_4.jpg,,,IH34419/IH34419_5.jpg,IH34419/IH34419_5.jpg,,,,,,,,,,,,,,0,1,IH34419,,1,,99999,29800,,0,,,,,,,,,,,,,,,"3,4,7,9",,"1706,1707,1715,1719,1724,1726,1728,1730,1710",,"6,5,4,3,2,1",2,,,
,,,,1,IH34420（アイボリー）,2,,"厚地カーテン,アイボリー,モダン,遮光,形状記憶付,2倍ヒダ,オーダー,洗える,裏地付,幾何,",,,,,裏地、形状記憶付2倍ヒダオーダーメイドカーテンです。,IH34420/IH34420_1.jpg,裏地、形状記憶付2倍ヒダオーダーメイドカーテン,IH34420/IH34420_1.jpg,IH34420/IH34420_1.jpg,,,IH34420/IH34420_1.jpg,IH34420/IH34420_1.jpg,300:600,,IH34420/IH34420_2.jpg,IH34420/IH34420_2.jpg,,,IH34420/IH34420_3.jpg,IH34420/IH34420_3.jpg,,,IH34420/IH34420_4.jpg,IH34420/IH34420_4.jpg,,,IH34420/IH34420_5.jpg,IH34420/IH34420_5.jpg,,,,,,,,,,,,,,0,1,IH34420,,1,,99999,29800,,0,,,,,,,,,,,,,,,"3,4,7,9",,"1706,1707,1715,1719,1724,1726,1728,1730,1710",,"6,5,4,3,2,1",2,,,
,,,,1,IH34421（グレー）,2,,"厚地カーテン,モダン,遮光,形状記憶付,2倍ヒダ,オーダー,洗える,裏地付,グレー,幾何,",,,,,裏地、形状記憶付2倍ヒダオーダーメイドカーテンです。,IH34421/IH34421_1.jpg,裏地、形状記憶付2倍ヒダオーダーメイドカーテン,IH34421/IH34421_1.jpg,IH34421/IH34421_1.jpg,,,IH34421/IH34421_1.jpg,IH34421/IH34421_1.jpg,300:600,,IH34421/IH34421_2.jpg,IH34421/IH34421_2.jpg,,,IH34421/IH34421_3.jpg,IH34421/IH34421_3.jpg,,,IH34421/IH34421_4.jpg,IH34421/IH34421_4.jpg,,,IH34421/IH34421_5.jpg,IH34421/IH34421_5.jpg,,,,,,,,,,,,,,0,1,IH34421,,1,,99999,29800,,0,,,,,,,,,,,,,,,"3,4,7,9",,"1706,1707,1715,1719,1724,1726,1728,1730,1710",,"6,5,4,3,2,1",2,,,
,,,,1,IH34422（ダークグレー）,2,,"厚地カーテン,モダン,遮光,形状記憶付,2倍ヒダ,オーダー,洗える,裏地付,グレー,ボーダー,",,,,,裏地、形状記憶付2倍ヒダオーダーメイドカーテンです。,IH34422/IH34422_1.jpg,裏地、形状記憶付2倍ヒダオーダーメイドカーテン,IH34422/IH34422_1.jpg,IH34422/IH34422_1.jpg,,,IH34422/IH34422_1.jpg,IH34422/IH34422_1.jpg,300:600,,IH34422/IH34422_2.jpg,IH34422/IH34422_2.jpg,,,IH34422/IH34422_3.jpg,IH34422/IH34422_3.jpg,,,IH34422/IH34422_4.jpg,IH34422/IH34422_4.jpg,,,IH34422/IH34422_5.jpg,IH34422/IH34422_5.jpg,,,,,,,,,,,,,,0,1,IH34422,,1,,99999,29800,,0,,,,,,,,,,,,,,,"3,4,7,9",,"1706,1707,1715,1719,1724,1726,1728,1730,1711",,"6,5,4,3,2,1",2,,,
,,,,1,IH34423（ベージュ）,2,,"厚地カーテン,エレガンス,遮光,形状記憶付,2倍ヒダ,オーダー,洗える,裏地付,ベージュ,フラワー,花柄,",,,,,裏地、形状記憶付2倍ヒダオーダーメイドカーテンです。,IH34423/IH34423_1.jpg,裏地、形状記憶付2倍ヒダオーダーメイドカーテン,IH34423/IH34423_1.jpg,IH34423/IH34423_1.jpg,,,IH34423/IH34423_1.jpg,IH34423/IH34423_1.jpg,300:600,,IH34423/IH34423_2.jpg,IH34423/IH34423_2.jpg,,,IH34423/IH34423_3.jpg,IH34423/IH34423_3.jpg,,,IH34423/IH34423_4.jpg,IH34423/IH34423_4.jpg,,,IH34423/IH34423_5.jpg,IH34423/IH34423_5.jpg,,,,,,,,,,,,,,0,1,IH34423,,1,,99999,29800,,0,,,,,,,,,,,,,,,"3,4,7,9",,"1706,1707,1715,1719,1724,1726,1728,1730,1711,1727",,"6,5,4,3,2,1",2,,,
,,,,1,IH34424（ローズ）,2,,"厚地カーテン,エレガンス,遮光,形状記憶付,2倍ヒダ,オーダー,洗える,裏地付,レッド,フラワー,花柄,",,,,,裏地、形状記憶付2倍ヒダオーダーメイドカーテンです。,IH34424/IH34424_1.jpg,裏地、形状記憶付2倍ヒダオーダーメイドカーテン,IH34424/IH34424_1.jpg,IH34424/IH34424_1.jpg,,,IH34424/IH34424_1.jpg,IH34424/IH34424_1.jpg,300:600,,IH34424/IH34424_2.jpg,IH34424/IH34424_2.jpg,,,IH34424/IH34424_3.jpg,IH34424/IH34424_3.jpg,,,IH34424/IH34424_4.jpg,IH34424/IH34424_4.jpg,,,IH34424/IH34424_5.jpg,IH34424/IH34424_5.jpg,,,,,,,,,,,,,,0,1,IH34424,,1,,99999,29800,,0,,,,,,,,,,,,,,,"3,4,7,9",,"1706,1707,1715,1719,1724,1726,1728,1730,1711,1727",,"6,5,4,3,2,1",2,,,
,,,,1,IH34425（ベージュ）,2,,"厚地カーテン,エレガンス,遮光,形状記憶付,2倍ヒダ,オーダー,洗える,裏地付,ベージュ,リーフ,",,,,,裏地、形状記憶付2倍ヒダオーダーメイドカーテンです。,IH34425/IH34425_1.jpg,裏地、形状記憶付2倍ヒダオーダーメイドカーテン,IH34425/IH34425_1.jpg,IH34425/IH34425_1.jpg,,,IH34425/IH34425_1.jpg,IH34425/IH34425_1.jpg,300:600,,IH34425/IH34425_2.jpg,IH34425/IH34425_2.jpg,,,IH34425/IH34425_3.jpg,IH34425/IH34425_3.jpg,,,IH34425/IH34425_4.jpg,IH34425/IH34425_4.jpg,,,IH34425/IH34425_5.jpg,IH34425/IH34425_5.jpg,,,,,,,,,,,,,,0,1,IH34425,,1,,99999,29800,,0,,,,,,,,,,,,,,,"3,4,7,9",,"1706,1707,1715,1719,1724,1726,1728,1730,1711",,"6,5,4,3,2,1",2,,,
,,,,1,IH34426（グリーン）,2,,"厚地カーテン,エレガンス,遮光,形状記憶付,2倍ヒダ,オーダー,洗える,裏地付,グリーン,リーフ,",,,,,裏地、形状記憶付2倍ヒダオーダーメイドカーテンです。,IH34426/IH34426_1.jpg,裏地、形状記憶付2倍ヒダオーダーメイドカーテン,IH34426/IH34426_1.jpg,IH34426/IH34426_1.jpg,,,IH34426/IH34426_1.jpg,IH34426/IH34426_1.jpg,300:600,,IH34426/IH34426_2.jpg,IH34426/IH34426_2.jpg,,,IH34426/IH34426_3.jpg,IH34426/IH34426_3.jpg,,,IH34426/IH34426_4.jpg,IH34426/IH34426_4.jpg,,,IH34426/IH34426_5.jpg,IH34426/IH34426_5.jpg,,,,,,,,,,,,,,0,1,IH34426,,1,,99999,29800,,0,,,,,,,,,,,,,,,"3,4,7,9",,"1706,1707,1715,1719,1724,1726,1728,1730,1711",,"6,5,4,3,2,1",2,,,
,,,,1,IH34427（アイボリー）,2,,"厚地カーテン,アイボリー,ナチュラル,遮光,形状記憶付,2倍ヒダ,オーダー,洗える,裏地付,リーフ,",,,,,裏地、形状記憶付2倍ヒダオーダーメイドカーテンです。,IH34427/IH34427_1.jpg,裏地、形状記憶付2倍ヒダオーダーメイドカーテン,IH34427/IH34427_1.jpg,IH34427/IH34427_1.jpg,,,IH34427/IH34427_1.jpg,IH34427/IH34427_1.jpg,300:600,,IH34427/IH34427_2.jpg,IH34427/IH34427_2.jpg,,,IH34427/IH34427_3.jpg,IH34427/IH34427_3.jpg,,,IH34427/IH34427_4.jpg,IH34427/IH34427_4.jpg,,,IH34427/IH34427_5.jpg,IH34427/IH34427_5.jpg,,,IH34427/IH34427_6.jpg,IH34427/IH34427_6.jpg,,,,,,,,,,0,1,IH34427,,1,,99999,29800,,0,,,,,,,,,,,,,,,"3,4,7,9",,"1706,1707,1715,1719,1724,1726,1728,1730,1711",,"6,5,4,3,2,1",2,,,
,,,,1,IH34428（グレー）,2,,"厚地カーテン,ナチュラル,遮光,形状記憶付,2倍ヒダ,オーダー,洗える,裏地付,グレー,リーフ,",,,,,裏地、形状記憶付2倍ヒダオーダーメイドカーテンです。,IH34428/IH34428_1.jpg,裏地、形状記憶付2倍ヒダオーダーメイドカーテン,IH34428/IH34428_1.jpg,IH34428/IH34428_1.jpg,,,IH34428/IH34428_1.jpg,IH34428/IH34428_1.jpg,300:600,,IH34428/IH34428_2.jpg,IH34428/IH34428_2.jpg,,,IH34428/IH34428_3.jpg,IH34428/IH34428_3.jpg,,,IH34428/IH34428_4.jpg,IH34428/IH34428_4.jpg,,,IH34428/IH34428_5.jpg,IH34428/IH34428_5.jpg,,,IH34428/IH34428_6.jpg,IH34428/IH34428_6.jpg,,,,,,,,,,0,1,IH34428,,1,,99999,29800,,0,,,,,,,,,,,,,,,"3,4,7,9",,"1706,1707,1715,1719,1724,1726,1728,1730,1711",,"6,5,4,3,2,1",2,,,
,,,,1,IH34429（アイボリー）,2,,"厚地カーテン,アイボリー,モダン,遮光,形状記憶付,2倍ヒダ,オーダー,洗える,裏地付,幾何,",,,,,裏地、形状記憶付2倍ヒダオーダーメイドカーテンです。,IH34429/IH34429_1.jpg,裏地、形状記憶付2倍ヒダオーダーメイドカーテン,IH34429/IH34429_1.jpg,IH34429/IH34429_1.jpg,,,IH34429/IH34429_1.jpg,IH34429/IH34429_1.jpg,300:600,,IH34429/IH34429_2.jpg,IH34429/IH34429_2.jpg,,,IH34429/IH34429_3.jpg,IH34429/IH34429_3.jpg,,,IH34429/IH34429_4.jpg,IH34429/IH34429_4.jpg,,,IH34429/IH34429_5.jpg,IH34429/IH34429_5.jpg,,,,,,,,,,,,,,0,1,IH34429,,1,,99999,29800,,0,,,,,,,,,,,,,,,"3,4,7,9",,"1706,1707,1715,1719,1724,1726,1728,1730,1710",,"6,5,4,3,2,1",2,,,
,,,,1,IH34430（グリーン）,2,,"厚地カーテン,モダン,遮光,形状記憶付,2倍ヒダ,オーダー,洗える,裏地付,グリーン,幾何,",,,,,裏地、形状記憶付2倍ヒダオーダーメイドカーテンです。,IH34430/IH34430_1.jpg,裏地、形状記憶付2倍ヒダオーダーメイドカーテン,IH34430/IH34430_1.jpg,IH34430/IH34430_1.jpg,,,IH34430/IH34430_1.jpg,IH34430/IH34430_1.jpg,300:600,,IH34430/IH34430_2.jpg,IH34430/IH34430_2.jpg,,,IH34430/IH34430_3.jpg,IH34430/IH34430_3.jpg,,,IH34430/IH34430_4.jpg,IH34430/IH34430_4.jpg,,,IH34430/IH34430_5.jpg,IH34430/IH34430_5.jpg,,,,,,,,,,,,,,0,1,IH34430,,1,,99999,29800,,0,,,,,,,,,,,,,,,"3,4,7,9",,"1706,1707,1715,1719,1724,1726,1728,1730,1710",,"6,5,4,3,2,1",2,,,
,,,,1,IH34431（グリーン）,2,,"厚地カーテン,モダン,遮光,形状記憶付,2倍ヒダ,オーダー,洗える,裏地付,グリーン,幾何,",,,,,裏地、形状記憶付2倍ヒダオーダーメイドカーテンです。,IH34431/IH34431_1.jpg,裏地、形状記憶付2倍ヒダオーダーメイドカーテン,IH34431/IH34431_1.jpg,IH34431/IH34431_1.jpg,,,IH34431/IH34431_1.jpg,IH34431/IH34431_1.jpg,300:600,,IH34431/IH34431_2.jpg,IH34431/IH34431_2.jpg,,,IH34431/IH34431_3.jpg,IH34431/IH34431_3.jpg,,,IH34431/IH34431_4.jpg,IH34431/IH34431_4.jpg,,,IH34431/IH34431_5.jpg,IH34431/IH34431_5.jpg,,,,,,,,,,,,,,0,1,IH34431,,1,,99999,29800,,0,,,,,,,,,,,,,,,"3,4,7,9",,"1706,1707,1715,1719,1724,1726,1728,1730,1710",,"6,5,4,3,2,1",2,,,
,,,,1,IH34432（グレー）,2,,"厚地カーテン,モダン,遮光,形状記憶付,2倍ヒダ,オーダー,洗える,裏地付,グレー,幾何,",,,,,裏地、形状記憶付2倍ヒダオーダーメイドカーテンです。,IH34432/IH34432_1.jpg,裏地、形状記憶付2倍ヒダオーダーメイドカーテン,IH34432/IH34432_1.jpg,IH34432/IH34432_1.jpg,,,IH34432/IH34432_1.jpg,IH34432/IH34432_1.jpg,300:600,,IH34432/IH34432_2.jpg,IH34432/IH34432_2.jpg,,,IH34432/IH34432_3.jpg,IH34432/IH34432_3.jpg,,,IH34432/IH34432_4.jpg,IH34432/IH34432_4.jpg,,,IH34432/IH34432_5.jpg,IH34432/IH34432_5.jpg,,,,,,,,,,,,,,0,1,IH34432,,1,,99999,29800,,0,,,,,,,,,,,,,,,"3,4,7,9",,"1706,1707,1715,1719,1724,1726,1728,1730,1710",,"6,5,4,3,2,1",2,,,
,,,,1,BU31479（アイボリー）,2,,"厚地カーテン,アイボリー,ナチュラル,遮光,形状記憶付,2倍ヒダ,オーダー,洗える,裏地付,無地,",,,,,裏地、形状記憶付2倍ヒダオーダーメイドカーテンです。,BU31479/BU31479_1.jpg,裏地、形状記憶付2倍ヒダオーダーメイドカーテン,BU31479/BU31479_1.jpg,BU31479/BU31479_1.jpg,,,BU31479/BU31479_1.jpg,BU31479/BU31479_1.jpg,300:600,,BU31479/BU31479_2.jpg,BU31479/BU31479_2.jpg,,,BU31479/BU31479_3.jpg,BU31479/BU31479_3.jpg,,,BU31479/BU31479_4.jpg,BU31479/BU31479_4.jpg,,,BU31479/BU31479_5.jpg,BU31479/BU31479_5.jpg,,,BU31479/BU31479_6.jpg,BU31479/BU31479_6.jpg,,,,,,,,,,0,1,BU31479,,1,,99999,29800,,0,,,,,,,,,,,,,,,"3,4,7,9",,"1706,1707,1715,1719,1724,1726,1728,1730,1711",,"6,5,4,3,2,1",2,,,
,,,,1,BU31480（ベージュ）,2,,"厚地カーテン,ナチュラル,遮光,形状記憶付,2倍ヒダ,オーダー,洗える,裏地付,ベージュ,無地,",,,,,裏地、形状記憶付2倍ヒダオーダーメイドカーテンです。,BU31480/BU31480_1.jpg,裏地、形状記憶付2倍ヒダオーダーメイドカーテン,BU31480/BU31480_1.jpg,BU31480/BU31480_1.jpg,,,BU31480/BU31480_1.jpg,BU31480/BU31480_1.jpg,300:600,,BU31480/BU31480_2.jpg,BU31480/BU31480_2.jpg,,,BU31480/BU31480_3.jpg,BU31480/BU31480_3.jpg,,,BU31480/BU31480_4.jpg,BU31480/BU31480_4.jpg,,,BU31480/BU31480_5.jpg,BU31480/BU31480_5.jpg,,,BU31480/BU31480_6.jpg,BU31480/BU31480_6.jpg,,,,,,,,,,0,1,BU31480,,1,,99999,29800,,0,,,,,,,,,,,,,,,"3,4,7,9",,"1706,1707,1715,1719,1724,1726,1728,1730,1711",,"6,5,4,3,2,1",2,,,
,,,,1,BU31481（グリーン）,2,,"厚地カーテン,ナチュラル,遮光,形状記憶付,2倍ヒダ,オーダー,洗える,裏地付,グリーン,無地,",,,,,裏地、形状記憶付2倍ヒダオーダーメイドカーテンです。,BU31481/BU31481_1.jpg,裏地、形状記憶付2倍ヒダオーダーメイドカーテン,BU31481/BU31481_1.jpg,BU31481/BU31481_1.jpg,,,BU31481/BU31481_1.jpg,BU31481/BU31481_1.jpg,300:600,,BU31481/BU31481_2.jpg,BU31481/BU31481_2.jpg,,,BU31481/BU31481_3.jpg,BU31481/BU31481_3.jpg,,,BU31481/BU31481_4.jpg,BU31481/BU31481_4.jpg,,,BU31481/BU31481_5.jpg,BU31481/BU31481_5.jpg,,,BU31481/BU31481_6.jpg,BU31481/BU31481_6.jpg,,,,,,,,,,0,1,BU31481,,1,,99999,29800,,0,,,,,,,,,,,,,,,"3,4,7,9",,"1706,1707,1715,1719,1724,1726,1728,1730,1711",,"6,5,4,3,2,1",2,,,
,,,,1,BU31482（ブラック）,2,,"厚地カーテン,ナチュラル,遮光,形状記憶付,2倍ヒダ,オーダー,洗える,裏地付,ブラック,無地,",,,,,裏地、形状記憶付2倍ヒダオーダーメイドカーテンです。,BU31482/BU31482_1.jpg,裏地、形状記憶付2倍ヒダオーダーメイドカーテン,BU31482/BU31482_1.jpg,BU31482/BU31482_1.jpg,,,BU31482/BU31482_1.jpg,BU31482/BU31482_1.jpg,300:600,,BU31482/BU31482_2.jpg,BU31482/BU31482_2.jpg,,,BU31482/BU31482_3.jpg,BU31482/BU31482_3.jpg,,,BU31482/BU31482_4.jpg,BU31482/BU31482_4.jpg,,,BU31482/BU31482_5.jpg,BU31482/BU31482_5.jpg,,,BU31482/BU31482_6.jpg,BU31482/BU31482_6.jpg,,,,,,,,,,0,1,BU31482,,1,,99999,29800,,0,,,,,,,,,,,,,,,"3,4,7,9",,"1706,1707,1715,1719,1724,1726,1728,1730,1711",,"6,5,4,3,2,1",2,,,
,,,,1,BU31483（アイボリー）,2,,"厚地カーテン,アイボリー,ナチュラル,遮光,形状記憶付,2倍ヒダ,オーダー,洗える,裏地付,リーフ,",,,,,裏地、形状記憶付2倍ヒダオーダーメイドカーテンです。,BU31483/BU31483_1.jpg,裏地、形状記憶付2倍ヒダオーダーメイドカーテン,BU31483/BU31483_1.jpg,BU31483/BU31483_1.jpg,,,BU31483/BU31483_1.jpg,BU31483/BU31483_1.jpg,300:600,,BU31483/BU31483_2.jpg,BU31483/BU31483_2.jpg,,,BU31483/BU31483_3.jpg,BU31483/BU31483_3.jpg,,,BU31483/BU31483_4.jpg,BU31483/BU31483_4.jpg,,,BU31483/BU31483_5.jpg,BU31483/BU31483_5.jpg,,,BU31483/BU31483_6.jpg,BU31483/BU31483_6.jpg,,,,,,,,,,0,1,BU31483,,1,,99999,29800,,0,,,,,,,,,,,,,,,"3,4,7,9",,"1706,1707,1715,1719,1724,1726,1728,1730,1711",,"6,5,4,3,2,1",2,,,
,,,,1,BU31484（グリーン）,2,,"厚地カーテン,ナチュラル,遮光,形状記憶付,2倍ヒダ,オーダー,洗える,裏地付,グリーン,リーフ,",,,,,裏地、形状記憶付2倍ヒダオーダーメイドカーテンです。,BU31484/BU31484_1.jpg,裏地、形状記憶付2倍ヒダオーダーメイドカーテン,BU31484/BU31484_1.jpg,BU31484/BU31484_1.jpg,,,BU31484/BU31484_1.jpg,BU31484/BU31484_1.jpg,300:600,,BU31484/BU31484_2.jpg,BU31484/BU31484_2.jpg,,,BU31484/BU31484_3.jpg,BU31484/BU31484_3.jpg,,,BU31484/BU31484_4.jpg,BU31484/BU31484_4.jpg,,,BU31484/BU31484_5.jpg,BU31484/BU31484_5.jpg,,,BU31484/BU31484_6.jpg,BU31484/BU31484_6.jpg,,,,,,,,,,0,1,BU31484,,1,,99999,29800,,0,,,,,,,,,,,,,,,"3,4,7,9",,"1706,1707,1715,1719,1724,1726,1728,1730,1711",,"6,5,4,3,2,1",2,,,
,,,,1,CO52503（ベージュ）,2,,"厚地カーテン,クラシック,遮光,形状記憶付,2倍ヒダ,オーダー,洗える,裏地付,ベージュ,,ラシック,防炎,",,,,,裏地、形状記憶付2倍ヒダオーダーメイドカーテンです。,CO52503/CO52503_1.jpg,裏地、形状記憶付2倍ヒダオーダーメイドカーテン、防炎,CO52503/CO52503_1.jpg,CO52503/CO52503_1.jpg,,,CO52503/CO52503_1.jpg,CO52503/CO52503_1.jpg,300:600,,CO52503/CO52503_2.jpg,CO52503/CO52503_2.jpg,,,CO52503/CO52503_3.jpg,CO52503/CO52503_3.jpg,,,CO52503/CO52503_4.jpg,CO52503/CO52503_4.jpg,,,CO52503/CO52503_5.jpg,CO52503/CO52503_5.jpg,,,,,,,,,,,,,,0,1,CO52503,,1,,99999,39800,,0,,,,,,,,,,,,,,,"3,4,7,9",,"1706,1707,1715,1719,1724,1726,1728,1730,1711,1727",,"6,5,4,3,2,1",2,,,
,,,,1,CO52504（ブラウン）,2,,"厚地カーテン,クラシック,遮光,形状記憶付,2倍ヒダ,オーダー,洗える,裏地付,ブラウン,クラシック,防炎,",,,,,裏地、形状記憶付2倍ヒダオーダーメイドカーテンです。,CO52504/CO52504_1.jpg,裏地、形状記憶付2倍ヒダオーダーメイドカーテン、防炎,CO52504/CO52504_1.jpg,CO52504/CO52504_1.jpg,,,CO52504/CO52504_1.jpg,CO52504/CO52504_1.jpg,300:600,,CO52504/CO52504_2.jpg,CO52504/CO52504_2.jpg,,,CO52504/CO52504_3.jpg,CO52504/CO52504_3.jpg,,,CO52504/CO52504_4.jpg,CO52504/CO52504_4.jpg,,,CO52504/CO52504_5.jpg,CO52504/CO52504_5.jpg,,,,,,,,,,,,,,0,1,CO52504,,1,,99999,39800,,0,,,,,,,,,,,,,,,"3,4,7,9",,"1706,1707,1715,1719,1724,1726,1728,1730,1711,1727",,"6,5,4,3,2,1",2,,,
,,,,1,CO53501（ローズ）,2,,"厚地カーテン,エレガンス,遮光,形状記憶付,2倍ヒダ,オーダー,洗える,裏地付,レッド,クラシック,防炎,",,,,,裏地、形状記憶付2倍ヒダオーダーメイドカーテンです。,CO53501/CO53501_1.jpg,裏地、形状記憶付2倍ヒダオーダーメイドカーテン、防炎,CO53501/CO53501_1.jpg,CO53501/CO53501_1.jpg,,,CO53501/CO53501_1.jpg,CO53501/CO53501_1.jpg,300:600,,CO53501/CO53501_2.jpg,CO53501/CO53501_2.jpg,,,CO53501/CO53501_3.jpg,CO53501/CO53501_3.jpg,,,CO53501/CO53501_4.jpg,CO53501/CO53501_4.jpg,,,CO53501/CO53501_5.jpg,CO53501/CO53501_5.jpg,,,,,,,,,,,,,,0,1,CO53501,,1,,99999,39800,,0,,,,,,,,,,,,,,,"3,4,7,9",,"1706,1707,1715,1719,1724,1726,1728,1730,1711,1727,1712",,"6,5,4,3,2,1",2,,,
,,,,1,CO53502（ベージュ）,2,,"厚地カーテン,エレガンス,遮光,形状記憶付,2倍ヒダ,オーダー,洗える,裏地付,ベージュ,クラシック,防炎,",,,,,裏地、形状記憶付2倍ヒダオーダーメイドカーテンです。,CO53502/CO53502_1.jpg,裏地、形状記憶付2倍ヒダオーダーメイドカーテン、防炎,CO53502/CO53502_1.jpg,CO53502/CO53502_1.jpg,,,CO53502/CO53502_1.jpg,CO53502/CO53502_1.jpg,300:600,,CO53502/CO53502_2.jpg,CO53502/CO53502_2.jpg,,,CO53502/CO53502_3.jpg,CO53502/CO53502_3.jpg,,,CO53502/CO53502_4.jpg,CO53502/CO53502_4.jpg,,,CO53502/CO53502_5.jpg,CO53502/CO53502_5.jpg,,,,,,,,,,,,,,0,1,CO53502,,1,,99999,39800,,0,,,,,,,,,,,,,,,"3,4,7,9",,"1706,1707,1715,1719,1724,1726,1728,1730,1711,1727,1712",,"6,5,4,3,2,1",2,,,
,,,,1,CO58501（ブラウン）,2,,"厚地カーテン,クラシック,遮光,形状記憶付,2倍ヒダ,オーダー,洗える,裏地付,ブラウン,クラシック,",,,,,裏地、形状記憶付2倍ヒダオーダーメイドカーテンです。,CO58501/CO58501_1.jpg,裏地、形状記憶付2倍ヒダオーダーメイドカーテン,CO58501/CO58501_1.jpg,CO58501/CO58501_1.jpg,,,CO58501/CO58501_1.jpg,CO58501/CO58501_1.jpg,300:600,,CO58501/CO58501_2.jpg,CO58501/CO58501_2.jpg,,,CO58501/CO58501_3.jpg,CO58501/CO58501_3.jpg,,,CO58501/CO58501_4.jpg,CO58501/CO58501_4.jpg,,,CO58501/CO58501_5.jpg,CO58501/CO58501_5.jpg,,,,,,,,,,,,,,0,1,CO58501,,1,,99999,39800,,0,,,,,,,,,,,,,,,"3,4,7,9",,"1706,1707,1715,1719,1724,1726,1728,1730,1711,1727",,"6,5,4,3,2,1",2,,,
,,,,1,CO58502（ネイビー）,2,,"厚地カーテン,クラシック,遮光,形状記憶付,2倍ヒダ,オーダー,洗える,裏地付,ネイビー,クラシック,",,,,,裏地、形状記憶付2倍ヒダオーダーメイドカーテンです。,CO58502/CO58502_1.jpg,裏地、形状記憶付2倍ヒダオーダーメイドカーテン,CO58502/CO58502_1.jpg,CO58502/CO58502_1.jpg,,,CO58502/CO58502_1.jpg,CO58502/CO58502_1.jpg,300:600,,CO58502/CO58502_2.jpg,CO58502/CO58502_2.jpg,,,CO58502/CO58502_3.jpg,CO58502/CO58502_3.jpg,,,CO58502/CO58502_4.jpg,CO58502/CO58502_4.jpg,,,CO58502/CO58502_5.jpg,CO58502/CO58502_5.jpg,,,,,,,,,,,,,,0,1,CO58502,,1,,99999,39800,,0,,,,,,,,,,,,,,,"3,4,7,9",,"1706,1707,1715,1719,1724,1726,1728,1730,1711,1727",,"6,5,4,3,2,1",2,,,
,,,,1,CO58507（ピンク）,2,,"厚地カーテン,エレガンス,遮光,形状記憶付,2倍ヒダ,オーダー,洗える,裏地付,ピンク,クラシック,",,,,,裏地、形状記憶付2倍ヒダオーダーメイドカーテンです。,CO58507/CO58507_1.jpg,裏地、形状記憶付2倍ヒダオーダーメイドカーテン,CO58507/CO58507_1.jpg,CO58507/CO58507_1.jpg,,,CO58507/CO58507_1.jpg,CO58507/CO58507_1.jpg,300:600,,CO58507/CO58507_2.jpg,CO58507/CO58507_2.jpg,,,CO58507/CO58507_3.jpg,CO58507/CO58507_3.jpg,,,CO58507/CO58507_4.jpg,CO58507/CO58507_4.jpg,,,CO58507/CO58507_5.jpg,CO58507/CO58507_5.jpg,,,,,,,,,,,,,,0,1,CO58507,,1,,99999,39800,,0,,,,,,,,,,,,,,,"3,4,7,9",,"1706,1707,1715,1719,1724,1726,1728,1730,1711,1727",,"6,5,4,3,2,1",2,,,
,,,,1,CO58508（グリーン）,2,,"厚地カーテン,エレガンス,遮光,形状記憶付,2倍ヒダ,オーダー,洗える,裏地付,グリーン,クラシック,",,,,,裏地、形状記憶付2倍ヒダオーダーメイドカーテンです。,CO58508/CO58508_1.jpg,裏地、形状記憶付2倍ヒダオーダーメイドカーテン,CO58508/CO58508_1.jpg,CO58508/CO58508_1.jpg,,,CO58508/CO58508_1.jpg,CO58508/CO58508_1.jpg,300:600,,CO58508/CO58508_2.jpg,CO58508/CO58508_2.jpg,,,CO58508/CO58508_3.jpg,CO58508/CO58508_3.jpg,,,CO58508/CO58508_4.jpg,CO58508/CO58508_4.jpg,,,CO58508/CO58508_5.jpg,CO58508/CO58508_5.jpg,,,,,,,,,,,,,,0,1,CO58508,,1,,99999,39800,,0,,,,,,,,,,,,,,,"3,4,7,9",,"1706,1707,1715,1719,1724,1726,1728,1730,1711,1727",,"6,5,4,3,2,1",2,,,
,,,,1,CO58513（ベージュ）,2,,"厚地カーテン,エレガンス,遮光,形状記憶付,2倍ヒダ,オーダー,洗える,裏地付,ベージュ,クラシック,防炎,",,,,,裏地、形状記憶付2倍ヒダオーダーメイドカーテンです。,CO58513/CO58513_1.jpg,裏地、形状記憶付2倍ヒダオーダーメイドカーテン、防炎,CO58513/CO58513_1.jpg,CO58513/CO58513_1.jpg,,,CO58513/CO58513_1.jpg,CO58513/CO58513_1.jpg,300:600,,CO58513/CO58513_2.jpg,CO58513/CO58513_2.jpg,,,CO58513/CO58513_3.jpg,CO58513/CO58513_3.jpg,,,CO58513/CO58513_4.jpg,CO58513/CO58513_4.jpg,,,CO58513/CO58513_5.jpg,CO58513/CO58513_5.jpg,,,,,,,,,,,,,,0,1,CO58513,,1,,99999,39800,,0,,,,,,,,,,,,,,,"3,4,7,9",,"1706,1707,1715,1719,1724,1726,1728,1730,1711,1727,1712",,"6,5,4,3,2,1",2,,,
,,,,1,CO58514（ブラウン）,2,,"厚地カーテン,エレガンス,遮光,形状記憶付,2倍ヒダ,オーダー,洗える,裏地付,ブラウン,クラシック,防炎,",,,,,裏地、形状記憶付2倍ヒダオーダーメイドカーテンです。,CO58514/CO58514_1.jpg,裏地、形状記憶付2倍ヒダオーダーメイドカーテン、防炎,CO58514/CO58514_1.jpg,CO58514/CO58514_1.jpg,,,CO58514/CO58514_1.jpg,CO58514/CO58514_1.jpg,300:600,,CO58514/CO58514_2.jpg,CO58514/CO58514_2.jpg,,,CO58514/CO58514_3.jpg,CO58514/CO58514_3.jpg,,,CO58514/CO58514_4.jpg,CO58514/CO58514_4.jpg,,,CO58514/CO58514_5.jpg,CO58514/CO58514_5.jpg,,,,,,,,,,,,,,0,1,CO58514,,1,,99999,39800,,0,,,,,,,,,,,,,,,"3,4,7,9",,"1706,1707,1715,1719,1724,1726,1728,1730,1711,1727,1712",,"6,5,4,3,2,1",2,,,
,,,,1,CO59505（アイボリー）,2,,"厚地カーテン,アイボリー,モダン,遮光,形状記憶付,2倍ヒダ,オーダー,洗える,裏地付,幾何,",,,,,裏地、形状記憶付2倍ヒダオーダーメイドカーテンです。,CO59505/CO59505_1.jpg,裏地、形状記憶付2倍ヒダオーダーメイドカーテン,CO59505/CO59505_1.jpg,CO59505/CO59505_1.jpg,,,CO59505/CO59505_1.jpg,CO59505/CO59505_1.jpg,300:600,,CO59505/CO59505_2.jpg,CO59505/CO59505_2.jpg,,,CO59505/CO59505_3.jpg,CO59505/CO59505_3.jpg,,,CO59505/CO59505_4.jpg,CO59505/CO59505_4.jpg,,,CO59505/CO59505_5.jpg,CO59505/CO59505_5.jpg,,,,,,,,,,,,,,0,1,CO59505,,1,,99999,39800,,0,,,,,,,,,,,,,,,"3,4,7,9",,"1706,1707,1715,1719,1724,1726,1728,1730,1710",,"6,5,4,3,2,1",2,,,
,,,,1,CO59506（グレー）,2,,"厚地カーテン,モダン,遮光,形状記憶付,2倍ヒダ,オーダー,洗える,裏地付,グレー,幾何,",,,,,裏地、形状記憶付2倍ヒダオーダーメイドカーテンです。,CO59506/CO59506_1.jpg,裏地、形状記憶付2倍ヒダオーダーメイドカーテン,CO59506/CO59506_1.jpg,CO59506/CO59506_1.jpg,,,CO59506/CO59506_1.jpg,CO59506/CO59506_1.jpg,300:600,,CO59506/CO59506_2.jpg,CO59506/CO59506_2.jpg,,,CO59506/CO59506_3.jpg,CO59506/CO59506_3.jpg,,,CO59506/CO59506_4.jpg,CO59506/CO59506_4.jpg,,,CO59506/CO59506_5.jpg,CO59506/CO59506_5.jpg,,,,,,,,,,,,,,0,1,CO59506,,1,,99999,39800,,0,,,,,,,,,,,,,,,"3,4,7,9",,"1706,1707,1715,1719,1724,1726,1728,1730,1710",,"6,5,4,3,2,1",2,,,
,,,,1,IH33525（アイボリー）,2,,"厚地カーテン,アイボリー,モダン,遮光,形状記憶付,2倍ヒダ,オーダー,洗える,裏地付,幾何,",,,,,裏地、形状記憶付2倍ヒダオーダーメイドカーテンです。,IH33525/IH33525_1.jpg,裏地、形状記憶付2倍ヒダオーダーメイドカーテン,IH33525/IH33525_1.jpg,IH33525/IH33525_1.jpg,,,IH33525/IH33525_1.jpg,IH33525/IH33525_1.jpg,300:600,,IH33525/IH33525_2.jpg,IH33525/IH33525_2.jpg,,,IH33525/IH33525_3.jpg,IH33525/IH33525_3.jpg,,,IH33525/IH33525_4.jpg,IH33525/IH33525_4.jpg,,,IH33525/IH33525_5.jpg,IH33525/IH33525_5.jpg,,,,,,,,,,,,,,0,1,IH33525,,1,,99999,39800,,0,,,,,,,,,,,,,,,"3,4,7,9",,"1706,1707,1715,1719,1724,1726,1728,1730,1710",,"6,5,4,3,2,1",2,,,
,,,,1,IH33526（ブルー）,2,,"厚地カーテン,モダン,遮光,形状記憶付,2倍ヒダ,オーダー,洗える,裏地付,ブルー,幾何,",,,,,裏地、形状記憶付2倍ヒダオーダーメイドカーテンです。,IH33526/IH33526_1.jpg,裏地、形状記憶付2倍ヒダオーダーメイドカーテン,IH33526/IH33526_1.jpg,IH33526/IH33526_1.jpg,,,IH33526/IH33526_1.jpg,IH33526/IH33526_1.jpg,300:600,,IH33526/IH33526_2.jpg,IH33526/IH33526_2.jpg,,,IH33526/IH33526_3.jpg,IH33526/IH33526_3.jpg,,,IH33526/IH33526_4.jpg,IH33526/IH33526_4.jpg,,,IH33526/IH33526_5.jpg,IH33526/IH33526_5.jpg,,,,,,,,,,,,,,0,1,IH33526,,1,,99999,39800,,0,,,,,,,,,,,,,,,"3,4,7,9",,"1706,1707,1715,1719,1724,1726,1728,1730,1710",,"6,5,4,3,2,1",2,,,
,,,,1,IH33533（イエローグリーン）,2,,"厚地カーテン,モダン,遮光,形状記憶付,2倍ヒダ,オーダー,洗える,裏地付,イエロー,グリーン,リーフ,",,,,,裏地、形状記憶付2倍ヒダオーダーメイドカーテンです。,IH33533/IH33533_1.jpg,裏地、形状記憶付2倍ヒダオーダーメイドカーテン,IH33533/IH33533_1.jpg,IH33533/IH33533_1.jpg,,,IH33533/IH33533_1.jpg,IH33533/IH33533_1.jpg,300:600,,IH33533/IH33533_2.jpg,IH33533/IH33533_2.jpg,,,IH33533/IH33533_3.jpg,IH33533/IH33533_3.jpg,,,IH33533/IH33533_4.jpg,IH33533/IH33533_4.jpg,,,IH33533/IH33533_5.jpg,IH33533/IH33533_5.jpg,,,,,,,,,,,,,,0,1,IH33533,,1,,99999,39800,,0,,,,,,,,,,,,,,,"3,4,7,9",,"1706,1707,1715,1719,1724,1726,1728,1730,1710",,"6,5,4,3,2,1",2,,,
,,,,1,IH33534（ブルーグリーン）,2,,"厚地カーテン,エレガンス,遮光,形状記憶付,2倍ヒダ,オーダー,洗える,裏地付,ブルー,グリーン,リーフ,",,,,,裏地、形状記憶付2倍ヒダオーダーメイドカーテンです。,IH33534/IH33534_1.jpg,裏地、形状記憶付2倍ヒダオーダーメイドカーテン,IH33534/IH33534_1.jpg,IH33534/IH33534_1.jpg,,,IH33534/IH33534_1.jpg,IH33534/IH33534_1.jpg,300:600,,IH33534/IH33534_2.jpg,IH33534/IH33534_2.jpg,,,IH33534/IH33534_3.jpg,IH33534/IH33534_3.jpg,,,IH33534/IH33534_4.jpg,IH33534/IH33534_4.jpg,,,IH33534/IH33534_5.jpg,IH33534/IH33534_5.jpg,,,,,,,,,,,,,,0,1,IH33534,,1,,99999,39800,,0,,,,,,,,,,,,,,,"3,4,7,9",,"1706,1707,1715,1719,1724,1726,1728,1730,1710",,"6,5,4,3,2,1",2,,,
,,,,1,CO58601（ベージュ）,2,,"厚地カーテン,クラシック,遮光,形状記憶付,2倍ヒダ,オーダー,洗える,裏地付,ベージュ,クラシック,防炎,",,,,,裏地、形状記憶付2倍ヒダオーダーメイドカーテンです。,CO58601/CO58601_1.jpg,裏地、形状記憶付2倍ヒダオーダーメイドカーテン、防炎,CO58601/CO58601_1.jpg,CO58601/CO58601_1.jpg,,,CO58601/CO58601_1.jpg,CO58601/CO58601_1.jpg,300:600,,CO58601/CO58601_2.jpg,CO58601/CO58601_2.jpg,,,CO58601/CO58601_3.jpg,CO58601/CO58601_3.jpg,,,CO58601/CO58601_4.jpg,CO58601/CO58601_4.jpg,,,CO58601/CO58601_5.jpg,CO58601/CO58601_5.jpg,,,,,,,,,,,,,,0,1,CO58601,,1,,99999,49800,,0,,,,,,,,,,,,,,,"3,4,7,9",,"1706,1707,1715,1719,1724,1726,1728,1730,1711,1727",,"6,5,4,3,2,1",2,,,
,,,,1,CO58602（グリーン）,2,,"厚地カーテン,クラシック,遮光,形状記憶付,2倍ヒダ,オーダー,洗える,裏地付,グリーン,クラシック,防炎,",,,,,裏地、形状記憶付2倍ヒダオーダーメイドカーテンです。,CO58602/CO58602_1.jpg,裏地、形状記憶付2倍ヒダオーダーメイドカーテン、防炎,CO58602/CO58602_1.jpg,CO58602/CO58602_1.jpg,,,CO58602/CO58602_1.jpg,CO58602/CO58602_1.jpg,300:600,,CO58602/CO58602_2.jpg,CO58602/CO58602_2.jpg,,,CO58602/CO58602_3.jpg,CO58602/CO58602_3.jpg,,,CO58602/CO58602_4.jpg,CO58602/CO58602_4.jpg,,,CO58602/CO58602_5.jpg,CO58602/CO58602_5.jpg,,,,,,,,,,,,,,0,1,CO58602,,1,,99999,49800,,0,,,,,,,,,,,,,,,"3,4,7,9",,"1706,1707,1715,1719,1724,1726,1728,1730,1711,1727",,"6,5,4,3,2,1",2,,,
,,,,1,CO59603（アイボリー）,2,,"厚地カーテン,アイボリー,クラシック,遮光,形状記憶付,2倍ヒダ,オーダー,洗える,裏地付,クラシック,防炎,",,,,,裏地、形状記憶付2倍ヒダオーダーメイドカーテンです。,CO59603/CO59603_1.jpg,裏地、形状記憶付2倍ヒダオーダーメイドカーテン、防炎,CO59603/CO59603_1.jpg,CO59603/CO59603_1.jpg,,,CO59603/CO59603_1.jpg,CO59603/CO59603_1.jpg,300:600,,CO59603/CO59603_2.jpg,CO59603/CO59603_2.jpg,,,CO59603/CO59603_3.jpg,CO59603/CO59603_3.jpg,,,CO59603/CO59603_4.jpg,CO59603/CO59603_4.jpg,,,CO59603/CO59603_5.jpg,CO59603/CO59603_5.jpg,,,,,,,,,,,,,,0,1,CO59603,,1,,99999,49800,,0,,,,,,,,,,,,,,,"3,4,7,9",,"1706,1707,1715,1719,1724,1726,1728,1730,1711,1727",,"6,5,4,3,2,1",2,,,
,,,,1,CO59604（ブラウン）,2,,"厚地カーテン,クラシック,遮光,形状記憶付,2倍ヒダ,オーダー,洗える,裏地付,ブラウン,クラシック,防炎,",,,,,裏地、形状記憶付2倍ヒダオーダーメイドカーテンです。,CO59604/CO59604_1.jpg,裏地、形状記憶付2倍ヒダオーダーメイドカーテン、防炎,CO59604/CO59604_1.jpg,CO59604/CO59604_1.jpg,,,CO59604/CO59604_1.jpg,CO59604/CO59604_1.jpg,300:600,,CO59604/CO59604_2.jpg,CO59604/CO59604_2.jpg,,,CO59604/CO59604_3.jpg,CO59604/CO59604_3.jpg,,,CO59604/CO59604_4.jpg,CO59604/CO59604_4.jpg,,,CO59604/CO59604_5.jpg,CO59604/CO59604_5.jpg,,,,,,,,,,,,,,0,1,CO59604,,1,,99999,49800,,0,,,,,,,,,,,,,,,"3,4,7,9",,"1706,1707,1715,1719,1724,1726,1728,1730,1711,1727",,"6,5,4,3,2,1",2,,,
,,,,1,CO59701（ピンク）,2,,"厚地カーテン,エレガンス,遮光,形状記憶付,2倍ヒダ,オーダー,洗える,裏地付,ピンク,クラシック,防炎,",,,,,裏地、形状記憶付2倍ヒダオーダーメイドカーテンです。,CO59701/CO59701_1.jpg,裏地、形状記憶付2倍ヒダオーダーメイドカーテン、防炎,CO59701/CO59701_1.jpg,CO59701/CO59701_1.jpg,,,CO59701/CO59701_1.jpg,CO59701/CO59701_1.jpg,300:600,,CO59701/CO59701_2.jpg,CO59701/CO59701_2.jpg,,,CO59701/CO59701_3.jpg,CO59701/CO59701_3.jpg,,,CO59701/CO59701_4.jpg,CO59701/CO59701_4.jpg,,,CO59701/CO59701_5.jpg,CO59701/CO59701_5.jpg,,,,,,,,,,,,,,0,1,CO59701,,1,,99999,59800,,0,,,,,,,,,,,,,,,"3,4,7,9",,"1706,1707,1715,1719,1724,1726,1728,1730,1711,1727,1712",,"6,5,4,3,2,1",2,,,
,,,,1,CO59705（グリーン）,2,,"厚地カーテン,エレガンス,遮光,形状記憶付,2倍ヒダ,オーダー,洗える,裏地付,グリーン,,フラワー,防炎,花柄,",,,,,裏地、形状記憶付2倍ヒダオーダーメイドカーテンです。,CO59705/CO59705_1.jpg,裏地、形状記憶付2倍ヒダオーダーメイドカーテン、防炎,CO59705/CO59705_1.jpg,CO59705/CO59705_1.jpg,,,CO59705/CO59705_1.jpg,CO59705/CO59705_1.jpg,300:600,,CO59705/CO59705_2.jpg,CO59705/CO59705_2.jpg,,,CO59705/CO59705_3.jpg,CO59705/CO59705_3.jpg,,,CO59705/CO59705_4.jpg,CO59705/CO59705_4.jpg,,,CO59705/CO59705_5.jpg,CO59705/CO59705_5.jpg,,,,,,,,,,,,,,0,1,CO59705,,1,,99999,59800,,0,,,,,,,,,,,,,,,"3,4,7,9",,"1706,1707,1715,1719,1724,1726,1728,1730,1711,1727,1712",,"6,5,4,3,2,1",2,,,
,,,,1,CO59706（ブラック）,2,,"厚地カーテン,エレガンス,遮光,形状記憶付,2倍ヒダ,オーダー,洗える,裏地付,ブラック,,フラワー,防炎,花柄,",,,,,裏地、形状記憶付2倍ヒダオーダーメイドカーテンです。,CO59706/CO59706_1.jpg,裏地、形状記憶付2倍ヒダオーダーメイドカーテン、防炎,CO59706/CO59706_1.jpg,CO59706/CO59706_1.jpg,,,CO59706/CO59706_1.jpg,CO59706/CO59706_1.jpg,300:600,,CO59706/CO59706_2.jpg,CO59706/CO59706_2.jpg,,,CO59706/CO59706_3.jpg,CO59706/CO59706_3.jpg,,,CO59706/CO59706_4.jpg,CO59706/CO59706_4.jpg,,,CO59706/CO59706_5.jpg,CO59706/CO59706_5.jpg,,,,,,,,,,,,,,0,1,CO59706,,1,,99999,59800,,0,,,,,,,,,,,,,,,"3,4,7,9",,"1706,1707,1715,1719,1724,1726,1728,1730,1711,1727,1712",,"6,5,4,3,2,1",2,,,
