商品ID,商品規格ID,親規格分類ID,規格分類ID,メーカーID,商品名,表示ステータス(公開・非公開),コメント2,検索ワード(コメント3),コメント4,コメント5,コメント6,備考欄(SHOP専用),一覧-メインコメント,一覧-メイン画像,詳細-メインコメント,詳細-メイン画像,詳細-メイン拡大画像,詳細-サブタイトル(1),詳細-サブコメント(1),詳細-サブ画像(1),詳細-サブ拡大画像(1),詳細-サブタイトル(2),詳細-サブコメント(2),詳細-サブ画像(2),詳細-サブ拡大画像(2),詳細-サブタイトル(3),詳細-サブコメント(3),詳細-サブ画像(3),詳細-サブ拡大画像(3),詳細-サブタイトル(4),詳細-サブコメント(4),詳細-サブ画像(4),詳細-サブ拡大画像(4),詳細-サブタイトル(5),詳細-サブコメント(5),詳細-サブ画像(5),詳細-サブ拡大画像(5),詳細-サブタイトル(6),詳細-サブコメント(6),詳細-サブ画像(6),詳細-サブ拡大画像(6),詳細-サブタイトル(7),詳細-サブコメント(7),詳細-サブ画像(7),詳細-サブ拡大画像(7),詳細-サブタイトル(8),詳細-サブコメント(8),詳細-サブ画像(8),詳細-サブ拡大画像(8),発送日目安ID,削除フラグ,商品種別ID,商品コード,在庫数,在庫無制限フラグ,販売制限数,通常価格,販売価格,送料,ポイント付与率,ダウンロードファイル名,ダウンロード実ファイル,関連商品ID(1),関連商品コメント(1),関連商品ID(2),関連商品コメント(2),関連商品ID(3),関連商品コメント(3),関連商品ID(4),関連商品コメント(4),関連商品ID(5),関連商品コメント(5),関連商品ID(6),関連商品コメント(6),商品ステータス,商品ステータス名,カテゴリID,カテゴリ名,オプション設定,オーダー商品ID,オーダー商品フラグ,会員ランク別購入不可設定,通常価格_1
,,,,1,CO84203（アイボリー）,0,,"レースカーテン,防炎,形状記憶付,ストライプ,アイボリー,洗える,2倍ヒダ,オーダー,",,,,,防炎、形状記憶付2倍ヒダオーダーメイドカーテンです。,,防炎、形状記憶付2倍ヒダオーダーメイドカーテンです。,,,,,,,,,,,,,,,,,,,,,,,,,,,,,,,,,,,,0,1,CO84203,,1,,99999,9800,,0,,,,,,,,,,,,,,,,,"1706,1716,1719,1726,1729,1721,1727,1728,1715",,"4,3,2,1",2,,,
,,,,1,KZ13254（アイボリー）,0,,"レースカーテン,シームレス,形状記憶付,フラワー,花柄,アイボリー,洗える,2倍ヒダ,オーダー,",,,,,形状記憶付2倍ヒダオーダーメイドカーテンです。,,形状記憶付2倍ヒダオーダーメイドカーテンです。,,,,,,,,,,,,,,,,,,,,,,,,,,,,,,,,,,,,0,1,KZ13254,,1,,99999,9800,,0,,,,,,,,,,,,,,,,,"1706,1716,1719,1726,1729,1721,1727,1728,1715",,"4,3,2,1",2,,,
,,,,1,TA15230（アイボリー）,0,,"レースカーテン,シームレス,形状記憶付,刺繍,アイボリー,洗える,2倍ヒダ,オーダー,",,,,,形状記憶付2倍ヒダオーダーメイドカーテンです。,,形状記憶付2倍ヒダオーダーメイドカーテンです。,,,,,,,,,,,,,,,,,,,,,,,,,,,,,,,,,,,,0,1,TA15230,,1,,99999,9800,,0,,,,,,,,,,,,,,,,,"1706,1716,1719,1726,1729,1721,1727,1728,1715",,"4,3,2,1",2,,,
,,,,1,TA15244（アイボリー）,0,,"レースカーテン,シームレス,形状記憶付,刺繍,アイボリー,洗える,2倍ヒダ,オーダー,",,,,,形状記憶付2倍ヒダオーダーメイドカーテンです。,,形状記憶付2倍ヒダオーダーメイドカーテンです。,,,,,,,,,,,,,,,,,,,,,,,,,,,,,,,,,,,,0,1,TA15244,,1,,99999,9800,,0,,,,,,,,,,,,,,,,,"1706,1716,1719,1726,1729,1721,1727,1728,1715",,"4,3,2,1",2,,,
,,,,1,TA15251（ベージュ）,0,,"レースカーテン,シームレス,形状記憶付,刺繍,ベージュ,洗える,2倍ヒダ,オーダー,",,,,,形状記憶付2倍ヒダオーダーメイドカーテンです。,,形状記憶付2倍ヒダオーダーメイドカーテンです。,,,,,,,,,,,,,,,,,,,,,,,,,,,,,,,,,,,,0,1,TA15251,,1,,99999,9800,,0,,,,,,,,,,,,,,,,,"1706,1716,1719,1726,1729,1721,1727,1728,1715",,"4,3,2,1",2,,,
,,,,1,TA15253（アイボリー）,0,,"レースカーテン,ミラー,遮熱･断熱,形状記憶付,クラシック,アイボリー,洗える,2倍ヒダ,オーダー,",,,,,遮熱・断熱、防炎、形状記憶付2倍ヒダオーダーメイドカーテンです。,,遮熱・断熱、防炎、形状記憶付2倍ヒダオーダーメイドカーテンです。,,,,,,,,,,,,,,,,,,,,,,,,,,,,,,,,,,,,0,1,TA15253,,1,,99999,9800,,0,,,,,,,,,,,,,,,,,"1706,1716,1719,1726,1729,1721,1727,1728,1715",,"4,3,2,1",2,,,
,,,,1,TA15258（アイボリー）,0,,"レースカーテン,防炎,形状記憶付,幾何,アイボリー,洗える,2倍ヒダ,オーダー,",,,,,防炎、形状記憶付2倍ヒダオーダーメイドカーテンです。,,防炎、形状記憶付2倍ヒダオーダーメイドカーテンです。,,,,,,,,,,,,,,,,,,,,,,,,,,,,,,,,,,,,0,1,TA15258,,1,,99999,9800,,0,,,,,,,,,,,,,,,,,"1706,1716,1719,1726,1729,1721,1727,1728,1715",,"4,3,2,1",2,,,
,,,,1,CO81301（アイボリー）,0,,"レースカーテン,シームレス,遮熱･断熱,形状記憶付,クラシック,アイボリー,洗える,2倍ヒダ,オーダー,",,,,,遮熱・断熱、ミラー、防炎、形状記憶付2倍ヒダオーダーメイドカーテンです。,,遮熱・断熱、ミラー、防炎、形状記憶付2倍ヒダオーダーメイドカーテンです。,,,,,,,,,,,,,,,,,,,,,,,,,,,,,,,,,,,,0,1,CO81301,,1,,99999,14800,,0,,,,,,,,,,,,,,,,,"1706,1716,1719,1726,1729,1721,1727,1728,1715",,"4,3,2,1",2,,,
,,,,1,CO85303（アイボリー）,0,,"レースカーテン,防炎,形状記憶付,ボーダー,リーフ,アイボリー,洗える,2倍ヒダ,オーダー,",,,,,防炎、形状記憶付2倍ヒダオーダーメイドカーテンです。,,防炎、形状記憶付2倍ヒダオーダーメイドカーテンです。,,,,,,,,,,,,,,,,,,,,,,,,,,,,,,,,,,,,0,1,CO85303,,1,,99999,14800,,0,,,,,,,,,,,,,,,,,"1706,1716,1719,1726,1729,1721,1727,1728,1715",,"4,3,2,1",2,,,
,,,,1,CO85304（ブルー）,0,,"レースカーテン,防炎,形状記憶付,ボーダー,リーフ,ブルー,洗える,2倍ヒダ,オーダー,",,,,,防炎、形状記憶付2倍ヒダオーダーメイドカーテンです。,,防炎、形状記憶付2倍ヒダオーダーメイドカーテンです。,,,,,,,,,,,,,,,,,,,,,,,,,,,,,,,,,,,,0,1,CO85304,,1,,99999,14800,,0,,,,,,,,,,,,,,,,,"1706,1716,1719,1726,1729,1721,1727,1728,1715",,"4,3,2,1",2,,,
,,,,1,CO89301（アイボリー）,0,,"レースカーテン,防炎,シームレス,遮熱･断熱,形状記憶付,クラシック,アイボリー,洗える,2倍ヒダ,オーダー,",,,,,遮熱・断熱、防炎、形状記憶付2倍ヒダオーダーメイドカーテンです。,,遮熱・断熱、防炎、形状記憶付2倍ヒダオーダーメイドカーテンです。,,,,,,,,,,,,,,,,,,,,,,,,,,,,,,,,,,,,0,1,CO89301,,1,,99999,14800,,0,,,,,,,,,,,,,,,,,"1706,1716,1719,1726,1729,1721,1727,1728,1715",,"4,3,2,1",2,,,
,,,,1,IH18304（ベージュ）,0,,"レースカーテン,シームレス,形状記憶付,刺繍,ベージュ,洗える,2倍ヒダ,オーダー,",,,,,形状記憶付2倍ヒダオーダーメイドカーテンです。,,形状記憶付2倍ヒダオーダーメイドカーテンです。,,,,,,,,,,,,,,,,,,,,,,,,,,,,,,,,,,,,0,1,IH18304,,1,,99999,14800,,0,,,,,,,,,,,,,,,,,"1706,1716,1719,1726,1729,1721,1727,1728,1715",,"4,3,2,1",2,,,
,,,,1,IH18314（アイボリー）,0,,"レースカーテン,シームレス,形状記憶付,刺繍,アイボリー,洗える,2倍ヒダ,オーダー,",,,,,形状記憶付2倍ヒダオーダーメイドカーテンです。,,形状記憶付2倍ヒダオーダーメイドカーテンです。,,,,,,,,,,,,,,,,,,,,,,,,,,,,,,,,,,,,0,1,IH18314,,1,,99999,14800,,0,,,,,,,,,,,,,,,,,"1706,1716,1719,1726,1729,1721,1727,1728,1715",,"4,3,2,1",2,,,
,,,,1,IH18317（アイボリー）,0,,"レースカーテン,シームレス,形状記憶付,裾ウェイト,ボーダー,リーフ,アイボリー,洗える,2倍ヒダ,オーダー,",,,,,裾ウェイト、形状記憶付2倍ヒダオーダーメイドカーテンです。,,裾ウェイト、形状記憶付2倍ヒダオーダーメイドカーテンです。,,,,,,,,,,,,,,,,,,,,,,,,,,,,,,,,,,,,0,1,IH18317,,1,,99999,14800,,0,,,,,,,,,,,,,,,,,"1706,1716,1719,1726,1729,1721,1727,1728,1715",,"4,3,2,1",2,,,
,,,,1,IH18318（アイボリー）,0,,"レースカーテン,シームレス,形状記憶付,裾ウェイト,ストライプ,アイボリー,洗える,2倍ヒダ,オーダー,",,,,,裾ウェイト、形状記憶付2倍ヒダオーダーメイドカーテンです。,,裾ウェイト、形状記憶付2倍ヒダオーダーメイドカーテンです。,,,,,,,,,,,,,,,,,,,,,,,,,,,,,,,,,,,,0,1,IH18318,,1,,99999,14800,,0,,,,,,,,,,,,,,,,,"1706,1716,1719,1726,1729,1721,1727,1728,1715",,"4,3,2,1",2,,,
,,,,1,IH18321（アイボリー）,0,,"レースカーテン,シームレス,形状記憶付,ストライプ,アイボリー,洗える,2倍ヒダ,オーダー,",,,,,形状記憶付2倍ヒダオーダーメイドカーテンです。,,形状記憶付2倍ヒダオーダーメイドカーテンです。,,,,,,,,,,,,,,,,,,,,,,,,,,,,,,,,,,,,0,1,IH18321,,1,,99999,14800,,0,,,,,,,,,,,,,,,,,"1706,1716,1719,1726,1729,1721,1727,1728,1715",,"4,3,2,1",2,,,
,,,,1,KZ13308（アイボリー）,0,,"レースカーテン,シームレス,刺繍,アイボリー,洗える,2倍ヒダ,オーダー,",,,,,2倍ヒダオーダーメイドカーテンです。,,2倍ヒダオーダーメイドカーテンです。,,,,,,,,,,,,,,,,,,,,,,,,,,,,,,,,,,,,0,1,KZ13308,,1,,99999,14800,,0,,,,,,,,,,,,,,,,,"1706,1716,1719,1726,1715",,"4,3,2,1",2,,,
,,,,1,KZ13309（アイボリー）,0,,"レースカーテン,シームレス,刺繍,アイボリー,洗える,2倍ヒダ,オーダー,",,,,,2倍ヒダオーダーメイドカーテンです。,,2倍ヒダオーダーメイドカーテンです。,,,,,,,,,,,,,,,,,,,,,,,,,,,,,,,,,,,,0,1,KZ13309,,1,,99999,14800,,0,,,,,,,,,,,,,,,,,"1706,1716,1719,1726,1715",,"4,3,2,1",2,,,
,,,,1,KZ13310（ベージュ）,0,,"レースカーテン,シームレス,刺繍,ベージュ,洗える,2倍ヒダ,オーダー,",,,,,2倍ヒダオーダーメイドカーテンです。,,2倍ヒダオーダーメイドカーテンです。,,,,,,,,,,,,,,,,,,,,,,,,,,,,,,,,,,,,0,1,KZ13310,,1,,99999,14800,,0,,,,,,,,,,,,,,,,,"1706,1716,1719,1726,1715",,"4,3,2,1",2,,,
,,,,1,KZ13318（アイボリー）,0,,"レースカーテン,シームレス,形状記憶付,裾ウェイト,クラシック,アイボリー,洗える,2倍ヒダ,オーダー,",,,,,裾ウェイト、形状記憶付2倍ヒダオーダーメイドカーテンです。,,裾ウェイト、形状記憶付2倍ヒダオーダーメイドカーテンです。,,,,,,,,,,,,,,,,,,,,,,,,,,,,,,,,,,,,0,1,KZ13318,,1,,99999,14800,,0,,,,,,,,,,,,,,,,,"1706,1716,1719,1726,1729,1721,1727,1728,1715",,"4,3,2,1",2,,,
,,,,1,SC17334（ベージュ）,0,,"レースカーテン,シームレス,形状記憶付,裾ウェイト,ストライプ,ベージュ,洗える,2倍ヒダ,オーダー,",,,,,裾ウェイト、形状記憶付2倍ヒダオーダーメイドカーテンです。,,裾ウェイト、形状記憶付2倍ヒダオーダーメイドカーテンです。,,,,,,,,,,,,,,,,,,,,,,,,,,,,,,,,,,,,0,1,SC17334,,1,,99999,14800,,0,,,,,,,,,,,,,,,,,"1706,1716,1719,1726,1729,1721,1727,1728,1715",,"4,3,2,1",2,,,
,,,,1,SC17335（グレー）,0,,"レースカーテン,シームレス,形状記憶付,裾ウェイト,ストライプ,グレー,洗える,2倍ヒダ,オーダー,",,,,,裾ウェイト、形状記憶付2倍ヒダオーダーメイドカーテンです。,,裾ウェイト、形状記憶付2倍ヒダオーダーメイドカーテンです。,,,,,,,,,,,,,,,,,,,,,,,,,,,,,,,,,,,,0,1,SC17335,,1,,99999,14800,,0,,,,,,,,,,,,,,,,,"1706,1716,1719,1726,1729,1721,1727,1728,1715",,"4,3,2,1",2,,,
,,,,1,TA15309（アイボリー）,0,,"レースカーテン,シームレス,形状記憶付,クラシック,アイボリー,洗える,2倍ヒダ,オーダー,",,,,,形状記憶付2倍ヒダオーダーメイドカーテンです。,,形状記憶付2倍ヒダオーダーメイドカーテンです。,,,,,,,,,,,,,,,,,,,,,,,,,,,,,,,,,,,,0,1,TA15309,,1,,99999,14800,,0,,,,,,,,,,,,,,,,,"1706,1716,1719,1726,1729,1721,1727,1728,1715",,"4,3,2,1",2,,,
,,,,1,TA15310（アイボリー）,0,,"レースカーテン,シームレス,形状記憶付,刺繍,アイボリー,洗える,2倍ヒダ,オーダー,",,,,,形状記憶付2倍ヒダオーダーメイドカーテンです。,,形状記憶付2倍ヒダオーダーメイドカーテンです。,,,,,,,,,,,,,,,,,,,,,,,,,,,,,,,,,,,,0,1,TA15310,,1,,99999,14800,,0,,,,,,,,,,,,,,,,,"1706,1716,1719,1726,1729,1721,1727,1728,1715",,"4,3,2,1",2,,,
,,,,1,YB19301（アイボリー）,0,,"レースカーテン,防炎,形状記憶付,クラシック,アイボリー,洗える,2倍ヒダ,オーダー,",,,,,防炎、形状記憶付2倍ヒダオーダーメイドカーテンです。,,防炎、形状記憶付2倍ヒダオーダーメイドカーテンです。,,,,,,,,,,,,,,,,,,,,,,,,,,,,,,,,,,,,0,1,YB19301,,1,,99999,14800,,0,,,,,,,,,,,,,,,,,"1706,1716,1719,1726,1729,1721,1727,1728,1715",,"4,3,2,1",2,,,
,,,,1,CO85503（アイボリー）,0,,"レースカーテン,防炎,形状記憶付,幾何,アイボリー,洗える,2倍ヒダ,オーダー,",,,,,防炎、形状記憶付2倍ヒダオーダーメイドカーテンです。,,防炎、形状記憶付2倍ヒダオーダーメイドカーテンです。,,,,,,,,,,,,,,,,,,,,,,,,,,,,,,,,,,,,0,1,CO85503,,1,,99999,19800,,0,,,,,,,,,,,,,,,,,"1706,1716,1719,1726,1729,1721,1727,1728,1715",,"4,3,2,1",2,,,
,,,,1,CO85507（アイボリー）,0,,"レースカーテン,防炎,形状記憶付,幾何,アイボリー,洗える,2倍ヒダ,オーダー,",,,,,防炎、形状記憶付2倍ヒダオーダーメイドカーテンです。,,防炎、形状記憶付2倍ヒダオーダーメイドカーテンです。,,,,,,,,,,,,,,,,,,,,,,,,,,,,,,,,,,,,0,1,CO85507,,1,,99999,19800,,0,,,,,,,,,,,,,,,,,"1706,1716,1719,1726,1729,1721,1727,1728,1715",,"4,3,2,1",2,,,
,,,,1,CO85508（グリーン）,0,,"レースカーテン,防炎,形状記憶付,幾何,グリーン,洗える,2倍ヒダ,オーダー,",,,,,防炎、形状記憶付2倍ヒダオーダーメイドカーテンです。,,防炎、形状記憶付2倍ヒダオーダーメイドカーテンです。,,,,,,,,,,,,,,,,,,,,,,,,,,,,,,,,,,,,0,1,CO85508,,1,,99999,19800,,0,,,,,,,,,,,,,,,,,"1706,1716,1719,1726,1729,1721,1727,1728,1715",,"4,3,2,1",2,,,
,,,,1,IH18502（アイボリー）,0,,"レースカーテン,シームレス,刺繍,アイボリー,洗える,2倍ヒダ,オーダー,",,,,,2倍ヒダオーダーメイドカーテンです。,,2倍ヒダオーダーメイドカーテンです。,,,,,,,,,,,,,,,,,,,,,,,,,,,,,,,,,,,,0,1,IH18502,,1,,99999,19800,,0,,,,,,,,,,,,,,,,,"1706,1716,1719,1726,1715",,"4,3,2,1",2,,,
,,,,1,IH18503（アイボリー）,0,,"レースカーテン,シームレス,刺繍,アイボリー,洗える,2倍ヒダ,オーダー,",,,,,2倍ヒダオーダーメイドカーテンです。,,2倍ヒダオーダーメイドカーテンです。,,,,,,,,,,,,,,,,,,,,,,,,,,,,,,,,,,,,0,1,IH18503,,1,,99999,19800,,0,,,,,,,,,,,,,,,,,"1706,1716,1719,1726,1715",,"4,3,2,1",2,,,
,,,,1,IH18505（アイボリー）,0,,"レースカーテン,シームレス,形状記憶付,裾ウェイト,刺繍,アイボリー,洗える,2倍ヒダ,オーダー,",,,,,裾ウェイト、形状記憶付2倍ヒダオーダーメイドカーテンです。,,裾ウェイト、形状記憶付2倍ヒダオーダーメイドカーテンです。,,,,,,,,,,,,,,,,,,,,,,,,,,,,,,,,,,,,0,1,IH18505,,1,,99999,19800,,0,,,,,,,,,,,,,,,,,"1706,1716,1719,1726,1729,1721,1727,1728,1715",,"4,3,2,1",2,,,
,,,,1,IH18507（オレンジ）,0,,"レースカーテン,形状記憶付,フラワー,花柄,オレンジ,洗える,2倍ヒダ,オーダー,",,,,,形状記憶付2倍ヒダオーダーメイドカーテンです。,,形状記憶付2倍ヒダオーダーメイドカーテンです。,,,,,,,,,,,,,,,,,,,,,,,,,,,,,,,,,,,,0,1,IH18507,,1,,99999,19800,,0,,,,,,,,,,,,,,,,,"1706,1716,1719,1726,1729,1721,1727,1728,1715",,"4,3,2,1",2,,,
,,,,1,IH18508（パープル）,0,,"レースカーテン,形状記憶付,フラワー,花柄,パープル,洗える,2倍ヒダ,オーダー,",,,,,形状記憶付2倍ヒダオーダーメイドカーテンです。,,形状記憶付2倍ヒダオーダーメイドカーテンです。,,,,,,,,,,,,,,,,,,,,,,,,,,,,,,,,,,,,0,1,IH18508,,1,,99999,19800,,0,,,,,,,,,,,,,,,,,"1706,1716,1719,1726,1729,1721,1727,1728,1715",,"4,3,2,1",2,,,
,,,,1,IH18516（ベージュ）,0,,"レースカーテン,防炎,シームレス,形状記憶付,クラシック,ベージュ,洗える,2倍ヒダ,オーダー,",,,,,防炎、形状記憶付2倍ヒダオーダーメイドカーテンです。,,防炎、形状記憶付2倍ヒダオーダーメイドカーテンです。,,,,,,,,,,,,,,,,,,,,,,,,,,,,,,,,,,,,0,1,IH18516,,1,,99999,19800,,0,,,,,,,,,,,,,,,,,"1706,1716,1719,1726,1729,1721,1727,1728,1715",,"4,3,2,1",2,,,
,,,,1,IH18517（アイボリー）,0,,"レースカーテン,シームレス,遮熱･断熱,形状記憶付,裾ウェイト,リーフ,アイボリー,洗える,2倍ヒダ,オーダー,",,,,,裾ウェイト、遮熱・断熱、ミラー、防炎、形状記憶付2倍ヒダオーダーメイドカーテンです。,,裾ウェイト、遮熱・断熱、ミラー、防炎、形状記憶付2倍ヒダオーダーメイドカーテンです。,,,,,,,,,,,,,,,,,,,,,,,,,,,,,,,,,,,,0,1,IH18517,,1,,99999,19800,,0,,,,,,,,,,,,,,,,,"1706,1716,1719,1726,1729,1721,1727,1728,1715",,"4,3,2,1",2,,,
,,,,1,IH18518（グリーン）,0,,"レースカーテン,シームレス,形状記憶付,裾ウェイト,リーフ,グリーン,洗える,2倍ヒダ,オーダー,",,,,,裾ウェイト、形状記憶付2倍ヒダオーダーメイドカーテンです。,,裾ウェイト、形状記憶付2倍ヒダオーダーメイドカーテンです。,,,,,,,,,,,,,,,,,,,,,,,,,,,,,,,,,,,,0,1,IH18518,,1,,99999,19800,,0,,,,,,,,,,,,,,,,,"1706,1716,1719,1726,1729,1721,1727,1728,1715",,"4,3,2,1",2,,,
,,,,1,IH18519（グリーン）,0,,"レースカーテン,シームレス,形状記憶付,裾ウェイト,リーフ,グリーン,洗える,2倍ヒダ,オーダー,",,,,,裾ウェイト、形状記憶付2倍ヒダオーダーメイドカーテンです。,,裾ウェイト、形状記憶付2倍ヒダオーダーメイドカーテンです。,,,,,,,,,,,,,,,,,,,,,,,,,,,,,,,,,,,,0,1,IH18519,,1,,99999,19800,,0,,,,,,,,,,,,,,,,,"1706,1716,1719,1726,1729,1721,1727,1728,1715",,"4,3,2,1",2,,,
,,,,1,IH18520（ブルー）,0,,"レースカーテン,シームレス,形状記憶付,裾ウェイト,リーフ,ブルー,洗える,2倍ヒダ,オーダー,",,,,,裾ウェイト、形状記憶付2倍ヒダオーダーメイドカーテンです。,,裾ウェイト、形状記憶付2倍ヒダオーダーメイドカーテンです。,,,,,,,,,,,,,,,,,,,,,,,,,,,,,,,,,,,,0,1,IH18520,,1,,99999,19800,,0,,,,,,,,,,,,,,,,,"1706,1716,1719,1726,1729,1721,1727,1728,1715",,"4,3,2,1",2,,,
,,,,1,IH18521（ブルー）,0,,"レースカーテン,シームレス,形状記憶付,裾ウェイト,リーフ,ブルー,洗える,2倍ヒダ,オーダー,",,,,,裾ウェイト、形状記憶付2倍ヒダオーダーメイドカーテンです。,,裾ウェイト、形状記憶付2倍ヒダオーダーメイドカーテンです。,,,,,,,,,,,,,,,,,,,,,,,,,,,,,,,,,,,,0,1,IH18521,,1,,99999,19800,,0,,,,,,,,,,,,,,,,,"1706,1716,1719,1726,1729,1721,1727,1728,1715",,"4,3,2,1",2,,,
,,,,1,IH18522（ブラウン）,0,,"レースカーテン,シームレス,形状記憶付,裾ウェイト,フラワー,花柄,ブラウン,洗える,2倍ヒダ,オーダー,",,,,,裾ウェイト、形状記憶付2倍ヒダオーダーメイドカーテンです。,,裾ウェイト、形状記憶付2倍ヒダオーダーメイドカーテンです。,,,,,,,,,,,,,,,,,,,,,,,,,,,,,,,,,,,,0,1,IH18522,,1,,99999,19800,,0,,,,,,,,,,,,,,,,,"1706,1716,1719,1726,1729,1721,1727,1728,1715",,"4,3,2,1",2,,,
,,,,1,IH18523（ブラウン）,0,,"レースカーテン,シームレス,形状記憶付,裾ウェイト,フラワー,花柄,ブラウン,洗える,2倍ヒダ,オーダー,",,,,,裾ウェイト、形状記憶付2倍ヒダオーダーメイドカーテンです。,,裾ウェイト、形状記憶付2倍ヒダオーダーメイドカーテンです。,,,,,,,,,,,,,,,,,,,,,,,,,,,,,,,,,,,,0,1,IH18523,,1,,99999,19800,,0,,,,,,,,,,,,,,,,,"1706,1716,1719,1726,1729,1721,1727,1728,1715",,"4,3,2,1",2,,,
,,,,1,TA15505（アイボリー）,0,,"レースカーテン,シームレス,形状記憶付,刺繍,アイボリー,洗える,2倍ヒダ,オーダー,",,,,,形状記憶付2倍ヒダオーダーメイドカーテンです。,,形状記憶付2倍ヒダオーダーメイドカーテンです。,,,,,,,,,,,,,,,,,,,,,,,,,,,,,,,,,,,,0,1,TA15505,,1,,99999,19800,,0,,,,,,,,,,,,,,,,,"1706,1716,1719,1726,1729,1721,1727,1728,1715",,"4,3,2,1",2,,,
,,,,1,TA15511（ベージュ）,0,,"レースカーテン,シームレス,形状記憶付,刺繍,ベージュ,洗える,2倍ヒダ,オーダー,",,,,,形状記憶付2倍ヒダオーダーメイドカーテンです。,,形状記憶付2倍ヒダオーダーメイドカーテンです。,,,,,,,,,,,,,,,,,,,,,,,,,,,,,,,,,,,,0,1,TA15511,,1,,99999,19800,,0,,,,,,,,,,,,,,,,,"1706,1716,1719,1726,1729,1721,1727,1728,1715",,"4,3,2,1",2,,,
,,,,1,TA15512（ベージュ）,0,,"レースカーテン,シームレス,形状記憶付,刺繍,ベージュ,洗える,2倍ヒダ,オーダー,",,,,,形状記憶付2倍ヒダオーダーメイドカーテンです。,,形状記憶付2倍ヒダオーダーメイドカーテンです。,,,,,,,,,,,,,,,,,,,,,,,,,,,,,,,,,,,,0,1,TA15512,,1,,99999,19800,,0,,,,,,,,,,,,,,,,,"1706,1716,1719,1726,1729,1721,1727,1728,1715",,"4,3,2,1",2,,,
,,,,1,TA15513（ブルー）,0,,"レースカーテン,シームレス,形状記憶付,裾ウェイト,幾何,ブルー,洗える,2倍ヒダ,オーダー,",,,,,裾ウェイト、形状記憶付2倍ヒダオーダーメイドカーテンです。,,裾ウェイト、形状記憶付2倍ヒダオーダーメイドカーテンです。,,,,,,,,,,,,,,,,,,,,,,,,,,,,,,,,,,,,0,1,TA15513,,1,,99999,19800,,0,,,,,,,,,,,,,,,,,"1706,1716,1719,1726,1729,1721,1727,1728,1715",,"4,3,2,1",2,,,
,,,,1,TA15514（グレー）,0,,"レースカーテン,形状記憶付,裾ウェイト,幾何,グレー,洗える,2倍ヒダ,オーダー,",,,,,裾ウェイト、形状記憶付2倍ヒダオーダーメイドカーテンです。,,裾ウェイト、形状記憶付2倍ヒダオーダーメイドカーテンです。,,,,,,,,,,,,,,,,,,,,,,,,,,,,,,,,,,,,0,1,TA15514,,1,,99999,19800,,0,,,,,,,,,,,,,,,,,"1706,1716,1719,1726,1729,1721,1727,1728,1715",,"4,3,2,1",2,,,
,,,,1,TA15515（アイボリー）,0,,"レースカーテン,シームレス,刺繍,アイボリー,洗える,2倍ヒダ,オーダー,",,,,,2倍ヒダオーダーメイドカーテンです。,,2倍ヒダオーダーメイドカーテンです。,,,,,,,,,,,,,,,,,,,,,,,,,,,,,,,,,,,,0,1,TA15515,,1,,99999,19800,,0,,,,,,,,,,,,,,,,,"1706,1716,1719,1726,1715",,"4,3,2,1",2,,,
,,,,1,IH18601（ベージュ）,0,,"レースカーテン,シームレス,形状記憶付,刺繍,ベージュ,洗える,2倍ヒダ,オーダー,",,,,,形状記憶付2倍ヒダオーダーメイドカーテンです。,,形状記憶付2倍ヒダオーダーメイドカーテンです。,,,,,,,,,,,,,,,,,,,,,,,,,,,,,,,,,,,,0,1,IH18601,,1,,99999,25800,,0,,,,,,,,,,,,,,,,,"1706,1716,1719,1726,1729,1721,1727,1728,1715",,"4,3,2,1",2,,,
,,,,1,IH18602（グレー）,0,,"レースカーテン,シームレス,形状記憶付,刺繍,グレー,洗える,2倍ヒダ,オーダー,",,,,,形状記憶付2倍ヒダオーダーメイドカーテンです。,,形状記憶付2倍ヒダオーダーメイドカーテンです。,,,,,,,,,,,,,,,,,,,,,,,,,,,,,,,,,,,,0,1,IH18602,,1,,99999,25800,,0,,,,,,,,,,,,,,,,,"1706,1716,1719,1726,1729,1721,1727,1728,1715",,"4,3,2,1",2,,,
,,,,1,KZ13601（アイボリー）,0,,"レースカーテン,シームレス,形状記憶付,刺繍,アイボリー,洗える,2倍ヒダ,オーダー,",,,,,形状記憶付2倍ヒダオーダーメイドカーテンです。,,形状記憶付2倍ヒダオーダーメイドカーテンです。,,,,,,,,,,,,,,,,,,,,,,,,,,,,,,,,,,,,0,1,KZ13601,,1,,99999,25800,,0,,,,,,,,,,,,,,,,,"1706,1716,1719,1726,1729,1721,1727,1728,1715",,"4,3,2,1",2,,,
,,,,1,KZ13602（ベージュ）,0,,"レースカーテン,シームレス,形状記憶付,刺繍,ベージュ,洗える,2倍ヒダ,オーダー,",,,,,形状記憶付2倍ヒダオーダーメイドカーテンです。,,形状記憶付2倍ヒダオーダーメイドカーテンです。,,,,,,,,,,,,,,,,,,,,,,,,,,,,,,,,,,,,0,1,KZ13602,,1,,99999,25800,,0,,,,,,,,,,,,,,,,,"1706,1716,1719,1726,1729,1721,1727,1728,1715",,"4,3,2,1",2,,,
,,,,1,TA15702（アイボリー）,0,,"レースカーテン,シームレス,形状記憶付,裾ウェイト,刺繍,アイボリー,洗える,2倍ヒダ,オーダー,",,,,,裾ウェイト、形状記憶付2倍ヒダオーダーメイドカーテンです。,,裾ウェイト、形状記憶付2倍ヒダオーダーメイドカーテンです。,,,,,,,,,,,,,,,,,,,,,,,,,,,,,,,,,,,,0,1,TA15702,,1,,99999,29800,,0,,,,,,,,,,,,,,,,,"1706,1716,1719,1726,1729,1721,1727,1728,1715",,"4,3,2,1",2,,,
,,,,1,TA15704（アイボリー）,0,,"レースカーテン,シームレス,形状記憶付,刺繍,アイボリー,洗える,2倍ヒダ,オーダー,",,,,,形状記憶付2倍ヒダオーダーメイドカーテンです。,,形状記憶付2倍ヒダオーダーメイドカーテンです。,,,,,,,,,,,,,,,,,,,,,,,,,,,,,,,,,,,,0,1,TA15704,,1,,99999,29800,,0,,,,,,,,,,,,,,,,,"1706,1716,1719,1726,1729,1721,1727,1728,1715",,"4,3,2,1",2,,,
,,,,1,TA15705（グレー）,0,,"レースカーテン,防炎,シームレス,形状記憶付,刺繍,グレー,洗える,2倍ヒダ,オーダー,",,,,,形状記憶付2倍ヒダオーダーメイドカーテンです。,,形状記憶付2倍ヒダオーダーメイドカーテンです。,,,,,,,,,,,,,,,,,,,,,,,,,,,,,,,,,,,,0,1,TA15705,,1,,99999,29800,,0,,,,,,,,,,,,,,,,,"1706,1716,1719,1726,1729,1721,1727,1728,1715",,"4,3,2,1",2,,,
